HumanPosition	AnonymizedPosition	AnonymizedToken	OriginalToken	ExperimentToken	Participant	Condition	TextNo	JointPosition	tt	fp	rp	ff
1	0	A	A	A	8	preview	17	1	0	0	0	0
2	1	boxing	boxing	boxing	8	preview	17	2	179	0	0	0
3	2	fight	fight	fight	8	preview	17	3	360	131	310	131
4	3	had	had	had	8	preview	17	4	0	0	310	0
5	4	to	to	to	8	preview	17	5	0	0	0	0
6	5	be	be	be	8	preview	17	6	126	0	0	0
7	6	halted	halted	halted	8	preview	17	7	190	0	0	0
8	7	after	after	after	8	preview	17	8	339	0	0	0
9	8	a	a	a	8	preview	17	9	0	0	0	0
10	9	fighter	fighter	fighter-s	8	preview	17	10	248	248	248	248
	10	-s	-s		8	preview	17	11				
11	11	cell	cell	cell	8	preview	17	12	210	210	210	210
12	12	phone	phone	phone	8	preview	17	13	0	0	0	0
13	13	fell	fell	fell	8	preview	17	14	420	119	119	119
14	14	out	out	out	8	preview	17	15	99	0	0	0
15	15	of	of	of	8	preview	17	16	130	0	0	0
16	16	his	his	his	8	preview	17	17	252	252	869	252
17	17	trunks	trunks	trunks.	8	preview	17	18	178	178	578	178
	18	.	.		8	preview	17	19				
18	19	@entity4	Marvin	Marvin	8	preview	17	20	581	0	0	0
19			-	-Papi	8	preview	17	21	529	0	0	0
			Papi		8	preview	17	22				
20			Gallo	Gallo-	8	preview	17	23	1168	109	734	109
			-		8	preview	17	24				
21			Jones	Jones	8	preview	17	25	1001	0	0	0
22	20	and	and	and	8	preview	17	26	294	0	0	0
23	21	@entity5	Ramon	Ramon	8	preview	17	27	474	114	593	114
24			Luis	Luis	8	preview	17	28	191	191	191	191
25			Nicolas	Nicolas	8	preview	17	29	0	0	0	0
26	22	were	were	were	8	preview	17	30	137	137	137	137
27	23	in	in	in	8	preview	17	31	0	0	0	0
28	24	the	the	the	8	preview	17	32	159	0	0	0
29	25	middle	middle	middle	8	preview	17	33	115	115	115	115
30	26	of	of	of	8	preview	17	34	166	166	683	166
31	27	a	a	a	8	preview	17	35	0	0	0	0
32	28	bout	bout	bout	8	preview	17	36	0	0	0	0
33	29	when	when	when	8	preview	17	37	0	0	0	0
34	30	the	the	the	8	preview	17	38	0	0	0	0
35	31	black	black	black	8	preview	17	39	0	0	0	0
36	32	phone	phone	phone	8	preview	17	40	575	0	0	0
37	33	slipped	slipped	slipped	8	preview	17	41	530	0	0	0
38	34	out	out	out	8	preview	17	42	193	0	0	0
39	35	from	from	from	8	preview	17	43	688	135	328	135
40	36	@entity4	Jones	Jones-	8	preview	17	44	629	0	0	0
	37	-	-		8	preview	17	45				
41	38	black	black	black	8	preview	17	46	399	215	1476	215
42	39	and	and	and	8	preview	17	47	0	0	0	0
43	40	red	red	red	8	preview	17	48	109	0	0	0
44	41	shorts	shorts	shorts	8	preview	17	49	166	166	275	166
45	42	at	at	at	8	preview	17	50	0	0	0	0
46	43	the	the	the	8	preview	17	51	0	0	0	0
47	44	ring	ring	ring	8	preview	17	52	165	165	165	165
48	45	in	in	in	8	preview	17	53	0	0	0	0
49	46	@entity11	Arcadia	Arcadia,	8	preview	17	54	101	101	516	101
	47	,	,		8	preview	17	55				
50	48	@entity12	Florida	Florida.	8	preview	17	56	174	0	0	0
	49	.	.		8	preview	17	57				
51	50	Referee	Referee	Referee	8	preview	17	58	436	205	379	205
52	51	@entity13	Frankie	Frankie	8	preview	17	59	379	379	517	379
53			Santore	Santore	8	preview	17	60	0	0	0	0
54			Jr.	Jr.	8	preview	17	61	0	0	0	0
55	52	went	went	went	8	preview	17	62	0	0	0	0
56	53	over	over	over	8	preview	17	63	335	335	335	335
57	54	to	to	to	8	preview	17	64	0	0	0	0
58	55	pick	pick	pick	8	preview	17	65	0	0	0	0
59	56	up	up	up	8	preview	17	66	96	96	96	96
60	57	the	the	the	8	preview	17	67	0	0	0	0
61	58	@entity14	Samsung	Samsung	8	preview	17	68	185	185	185	82
62			Galaxy	Galaxy	8	preview	17	69	0	0	0	0
63	59	and	and	and	8	preview	17	70	0	0	0	0
64	60	looked	looked	looked	8	preview	17	71	0	0	0	0
65	61	like	like	like	8	preview	17	72	0	0	0	0
66	62	he	he	he	8	preview	17	73	0	0	0	0
67	63	was	was	was	8	preview	17	74	0	0	0	0
68	64	chastising	chastising	chastising	8	preview	17	75	187	0	0	0
69	65	@entity4	Jones	Jones,	8	preview	17	76	256	0	0	0
	66	,	,		8	preview	17	77				
70	67	who	who	who	8	preview	17	78	126	126	569	126
71	68	seemed	seemed	seemed	8	preview	17	79	0	0	0	0
72	69	confused	confused	confused.	8	preview	17	80	483	483	483	249
	70	.	.		8	preview	17	81				
73	71	Scroll	Scroll	Jones,	8	preview	17	82	225	225	225	225
	72	down	down		8	preview	17	83				
	73	for	for		8	preview	17	84				
	74	video	video		8	preview	17	85				
	75	@entity4	Marvin		8	preview	17	86				
			-		8	preview	17	87				
			Papi		8	preview	17	88				
			Gallo		8	preview	17	89				
			-		8	preview	17	90				
			Jones		8	preview	17	91				
	76	(	(		8	preview	17	92				
74	77	right	right	32,	8	preview	17	93	143	143	143	143
	78	)	)		8	preview	17	94				
	79	and	and		8	preview	17	95				
75	80	@entity5	Ramon	held	8	preview	17	96	145	145	145	145
			Luis		8	preview	17	97				
			Nicolas		8	preview	17	98				
	81	(	(		8	preview	17	99				
	82	left	left		8	preview	17	100				
76	83	)	)	his	8	preview	17	101	0	0	0	0
77	84	were	were	hands	8	preview	17	102	0	0	0	0
	85	in	in		8	preview	17	103				
	86	the	the		8	preview	17	104				
	87	middle	middle		8	preview	17	105				
	88	of	of		8	preview	17	106				
	89	a	a		8	preview	17	107				
	90	bout	bout		8	preview	17	108				
	91	when	when		8	preview	17	109				
	92	the	the		8	preview	17	110				
	93	black	black		8	preview	17	111				
	94	phone	phone		8	preview	17	112				
	95	slipped	slipped		8	preview	17	113				
	96	out	out		8	preview	17	114				
	97	from	from		8	preview	17	115				
	98	@entity4	Jones		8	preview	17	116				
78	99	-	-	up	8	preview	17	117	0	0	0	0
79	100	black	black	as	8	preview	17	118	0	0	0	0
	101	and	and		8	preview	17	119				
80	102	red	red	the	8	preview	17	120	0	0	0	0
81	103	shorts	shorts	referee	8	preview	17	121	118	0	0	0
	104	at	at		8	preview	17	122				
	105	the	the		8	preview	17	123				
	106	ring	ring		8	preview	17	124				
	107	in	in		8	preview	17	125				
	108	@entity11	Arcadia		8	preview	17	126				
	109	,	,		8	preview	17	127				
	110	@entity12	Florida		8	preview	17	128				
	111	@entity4	Jones		8	preview	17	129				
	112	,	,		8	preview	17	130				
	113	32	32		8	preview	17	131				
	114	,	,		8	preview	17	132				
	115	held	held		8	preview	17	133				
	116	his	his		8	preview	17	134				
	117	hands	hands		8	preview	17	135				
	118	up	up		8	preview	17	136				
	119	as	as		8	preview	17	137				
	120	the	the		8	preview	17	138				
	121	referee	referee		8	preview	17	139				
82	122	took	took	took	8	preview	17	140	113	0	0	0
83	123	the	the	the	8	preview	17	141	0	0	0	0
84	124	phone	phone	phone	8	preview	17	142	321	0	0	0
85	125	over	over	over	8	preview	17	143	0	0	0	0
86	126	to	to	to	8	preview	17	144	111	111	461	111
87	127	the	the	the	8	preview	17	145	107	0	0	0
88	128	side	side	side	8	preview	17	146	166	166	166	166
89	129	of	of	of	8	preview	17	147	0	0	0	0
90	130	the	the	the	8	preview	17	148	0	0	0	0
91	131	ring	ring	ring.	8	preview	17	149	97	97	97	97
	132	.	.		8	preview	17	150				
92	133	The	The	The	8	preview	17	151	0	0	0	0
93	134	audience	audience	audience	8	preview	17	152	233	233	542	233
94	135	and	and	and	8	preview	17	153	0	0	0	0
95	136	viewers	viewers	viewers	8	preview	17	154	0	0	0	0
96	137	were	were	were	8	preview	17	155	0	0	0	0
97	138	baffled	baffled	baffled	8	preview	17	156	289	289	289	135
98	139	as	as	as	8	preview	17	157	0	0	0	0
99	140	to	to	to	8	preview	17	158	0	0	0	0
100	141	why	why	why	8	preview	17	159	0	0	0	0
101	142	@entity4	Jones	Jones	8	preview	17	160	0	0	0	0
102	143	had	had	had	8	preview	17	161	159	159	159	159
103	144	his	his	his	8	preview	17	162	0	0	0	0
104	145	phone	phone	phone	8	preview	17	163	132	132	132	132
105	146	in	in	in	8	preview	17	164	0	0	0	0
106	147	his	his	his	8	preview	17	165	0	0	0	0
107	148	shorts	shorts	shorts.	8	preview	17	166	194	194	194	194
	149	.	.		8	preview	17	167				
108	150	But	But	But	8	preview	17	168	0	0	0	0
109	151	@entity4	Jones	Jones	8	preview	17	169	214	214	214	214
110	152	later	later	later	8	preview	17	170	0	0	0	0
111	153	told	told	told	8	preview	17	171	0	0	0	0
112	154	@entity26	TMZ	TMZ	8	preview	17	172	199	0	0	0
113			Sports	Sports	8	preview	17	173	170	170	369	170
114	155	that	that	that	8	preview	17	174	0	0	0	0
115	156	he	he	he	8	preview	17	175	0	0	0	0
116	157	was	was	was	8	preview	17	176	0	0	0	0
117	158	listening	listening	listening	8	preview	17	177	0	0	0	0
118	159	to	to	to	8	preview	17	178	0	0	0	0
119	160	music	music	music	8	preview	17	179	255	0	0	0
120	161	before	before	before	8	preview	17	180	0	0	0	0
121	162	the	the	the	8	preview	17	181	0	0	0	0
122	163	fight	fight	fight	8	preview	17	182	0	0	0	0
123	164	on	on	on	8	preview	17	183	0	0	0	0
124	165	Friday	Friday	Friday	8	preview	17	184	0	0	0	0
125	166	and	and	and	8	preview	17	185	0	0	0	0
126	167	put	put	put	8	preview	17	186	0	0	0	0
127	168	his	his	his	8	preview	17	187	0	0	0	0
128	169	phone	phone	phone	8	preview	17	188	0	0	0	0
129	170	in	in	in	8	preview	17	189	0	0	0	0
130	171	his	his	his	8	preview	17	190	0	0	0	0
131	172	shorts	shorts	shorts.	8	preview	17	191	0	0	0	0
	173	.	.		8	preview	17	192				
132	174	When	When	When	8	preview	17	193	153	153	153	153
133	175	he	he	he	8	preview	17	194	0	0	0	0
134	176	got	got	got	8	preview	17	195	0	0	0	0
135	177	to	to	to	8	preview	17	196	0	0	0	0
136	178	the	the	the	8	preview	17	197	233	233	233	233
137	179	ring	ring	ring,	8	preview	17	198	0	0	0	0
	180	,	,		8	preview	17	199				
138	181	he	he	he	8	preview	17	200	0	0	0	0
139	182	pulled	pulled	pulled	8	preview	17	201	0	0	0	0
140	183	out	out	out	8	preview	17	202	112	112	112	112
141	184	his	his	his	8	preview	17	203	0	0	0	0
142	185	headphones	headphones	headphones,	8	preview	17	204	163	163	163	163
	186	,	,		8	preview	17	205				
143	187	but	but	but	8	preview	17	206	118	118	118	118
144	188	missed	missed	missed	8	preview	17	207	0	0	0	0
145	189	his	his	his	8	preview	17	208	0	0	0	0
146	190	phone	phone	phone.	8	preview	17	209	151	0	0	0
	191	.	.		8	preview	17	210				
147	192	@entity4	Jones	Jones	8	preview	17	211	119	119	270	119
148	193	believes	believes	believes	8	preview	17	212	0	0	0	0
149	194	the	the	the	8	preview	17	213	188	188	188	188
150	195	mishap	mishap	mishap	8	preview	17	214	197	197	197	197
151	196	cost	cost	cost	8	preview	17	215	0	0	0	0
152	197	him	him	him	8	preview	17	216	0	0	0	0
153	198	the	the	the	8	preview	17	217	0	0	0	0
154	199	fight	fight	fight	8	preview	17	218	0	0	0	0
155	200	as	as	as	8	preview	17	219	0	0	0	0
156	201	he	he	he	8	preview	17	220	0	0	0	0
157	202	kept	kept	kept	8	preview	17	221	0	0	0	0
158	203	thinking	thinking	thinking,	8	preview	17	222	0	0	0	0
	204	,	,		8	preview	17	223				
159	205	-	-	-Man,	8	preview	17	224	0	0	0	0
	206	Man	Man		8	preview	17	225				
	207	,	,		8	preview	17	226				
160	208	my	my	my	8	preview	17	227	123	0	0	0
161	209	cell	cell	cell	8	preview	17	228	0	0	0	0
162	210	phone	phone	phone	8	preview	17	229	132	0	0	0
163	211	just	just	just	8	preview	17	230	129	0	0	0
164	212	fell	fell	fell	8	preview	17	231	292	117	372	117
165	213	out	out	out	8	preview	17	232	439	0	0	0
166	214	in	in	in	8	preview	17	233	0	0	0	0
167	215	the	the	the	8	preview	17	234	0	0	0	0
168	216	ring	ring	ring	8	preview	17	235	0	0	0	0
169	217	–	–	-	8	preview	17	236	0	0	0	0
170	218	and	and	and	8	preview	17	237	156	156	156	156
171	219	on	on	on	8	preview	17	238	227	0	0	0
172	220	TV	TV	TV!-	8	preview	17	239	139	139	139	139
	221	!	!		8	preview	17	240				
	222	-	-		8	preview	17	241				
173	223	He	He	He	8	preview	17	242	0	0	0	0
174	224	has	has	has	8	preview	17	243	212	0	0	0
175	225	decided	decided	decided	8	preview	17	244	644	157	1826	157
176	226	that	that	that	8	preview	17	245	97	97	3999	97
177	227	for	for	for	8	preview	17	246	0	0	0	0
178	228	his	his	his	8	preview	17	247	0	0	0	0
179	229	next	next	next	8	preview	17	248	0	0	0	0
180	230	fight	fight	fight	8	preview	17	249	0	0	0	0
181	231	he	he	he	8	preview	17	250	0	0	0	0
182	232	will	will	will	8	preview	17	251	0	0	0	0
183	233	make	make	make	8	preview	17	252	0	0	0	0
184	234	sure	sure	sure	8	preview	17	253	0	0	0	0
185	235	someone	someone	someone	8	preview	17	254	0	0	0	0
186	236	pats	pats	pats	8	preview	17	255	0	0	0	0
187	237	him	him	him	8	preview	17	256	0	0	0	0
188	238	down	down	down.	8	preview	17	257	0	0	0	0
	239	.	.		8	preview	17	258				
