HumanPosition	AnonymizedPosition	AnonymizedToken	OriginalToken	ExperimentToken	Participant	Condition	TextNo	JointPosition	tt	fp	rp	ff
1	0	(	(	Blues	6	preview	5	1	218	0	0	0
	1	@entity2	CNN		6	preview	5	2				
	2	)	)		6	preview	5	3				
	3	@entity1	Blues		6	preview	5	4				
2	4	legend	legend	legend	6	preview	5	5	727	0	0	0
3	5	@entity0	B.B.	B.B.	6	preview	5	6	231	231	449	231
4			King	King	6	preview	5	7	187	0	0	0
5	6	was	was	was	6	preview	5	8	0	0	0	0
6	7	hospitalized	hospitalized	hospitalized	6	preview	5	9	0	0	0	0
7	8	for	for	for	6	preview	5	10	0	0	0	0
8	9	dehydration	dehydration	dehydration,	6	preview	5	11	230	230	230	230
	10	,	,		6	preview	5	12				
9	11	though	though	though	6	preview	5	13	223	0	0	0
10	12	the	the	the	6	preview	5	14	134	0	0	0
11	13	ailment	ailment	ailment	6	preview	5	15	420	258	392	258
12	14	did	did	didn-t	6	preview	5	16	0	0	0	0
	15	n-t	n-t		6	preview	5	17				
13	16	keep	keep	keep	6	preview	5	18	0	0	0	0
14	17	him	him	him	6	preview	5	19	141	0	0	0
15	18	out	out	out	6	preview	5	20	0	0	0	0
16	19	for	for	for	6	preview	5	21	252	0	0	0
17	20	long	long	long.	6	preview	5	22	237	237	378	237
	21	.	.		6	preview	5	23				
18	22	@entity0	King	King-s	6	preview	5	24	516	0	0	0
	23	-s	-s		6	preview	5	25				
19	24	dehydration	dehydration	dehydration	6	preview	5	26	936	179	438	179
20	25	was	was	was	6	preview	5	27	493	0	0	0
21	26	caused	caused	caused	6	preview	5	28	591	0	0	0
22	27	by	by	by	6	preview	5	29	0	0	0	0
23	28	his	his	his	6	preview	5	30	392	245	1929	245
24	29	Type	Type	Type	6	preview	5	31	0	0	0	0
25	30	II	II	II	6	preview	5	32	0	0	1684	0
26	31	diabetes	diabetes	diabetes,	6	preview	5	33	264	264	589	264
	32	,	,		6	preview	5	34				
27	33	but	but	but	6	preview	5	35	182	182	182	182
28	34	he	he	he	6	preview	5	36	0	0	0	0
29	35	-	-	-is	6	preview	5	37	499	0	0	0
	36	is	is		6	preview	5	38				
30	37	much	much	much	6	preview	5	39	825	0	0	0
31	38	better	better	better,-	6	preview	5	40	580	0	0	0
	39	,	,		6	preview	5	41				
	40	-	-		6	preview	5	42				
32	41	his	his	his	6	preview	5	43	175	175	1474	175
33	42	daughter	daughter	daughter,	6	preview	5	44	543	385	1567	385
	43	,	,		6	preview	5	45				
34	44	@entity6	Claudette	Claudette	6	preview	5	46	332	198	198	198
35			King	King,	6	preview	5	47	0	0	0	0
	45	,	,		6	preview	5	48				
36	46	told	told	told	6	preview	5	49	0	0	0	0
37	47	the	the	the	6	preview	5	50	0	0	0	0
38	48	@entity9	Los	Los	6	preview	5	51	249	249	249	249
39			Angeles	Angeles	6	preview	5	52	0	0	0	0
40			Times	Times.	6	preview	5	53	148	148	148	148
	49	.	.		6	preview	5	54				
41	50	The	The	The	6	preview	5	55	0	0	0	0
42	51	legendary	legendary	legendary	6	preview	5	56	532	0	0	0
43	52	guitarist	guitarist	guitarist	6	preview	5	57	148	0	0	0
44	53	and	and	and	6	preview	5	58	0	0	0	0
45	54	vocalist	vocalist	vocalist	6	preview	5	59	669	126	1800	126
46	55	released	released	released	6	preview	5	60	0	0	0	0
47	56	a	a	a	6	preview	5	61	255	255	846	255
48	57	statement	statement	statement	6	preview	5	62	0	0	0	0
49	58	thanking	thanking	thanking	6	preview	5	63	0	0	0	0
50	59	those	those	those	6	preview	5	64	0	0	0	0
51	60	who	who	who	6	preview	5	65	0	0	0	0
52	61	have	have	have	6	preview	5	66	0	0	0	0
53	62	expressed	expressed	expressed	6	preview	5	67	0	0	0	0
54	63	their	their	their	6	preview	5	68	0	0	0	0
55	64	concerns	concerns	concerns.	6	preview	5	69	0	0	0	0
	65	.	.		6	preview	5	70				
56	66	-	-	-I-m	6	preview	5	71	0	0	0	0
	67	I	I		6	preview	5	72				
	68	-m	-m		6	preview	5	73				
57	69	feeling	feeling	feeling	6	preview	5	74	212	0	0	0
58	70	much	much	much	6	preview	5	75	107	107	319	107
59	71	better	better	better	6	preview	5	76	0	0	0	0
60	72	and	and	and	6	preview	5	77	198	0	0	0
61	73	am	am	am	6	preview	5	78	0	0	0	0
62	74	leaving	leaving	leaving	6	preview	5	79	408	249	249	249
63	75	the	the	the	6	preview	5	80	0	0	0	0
64	76	hospital	hospital	hospital	6	preview	5	81	135	135	492	135
65	77	today	today	today,-	6	preview	5	82	0	0	0	0
	78	,	,		6	preview	5	83				
	79	-	-		6	preview	5	84				
66	80	@entity0	King	King	6	preview	5	85	119	119	119	119
67	81	said	said	said	6	preview	5	86	272	0	0	0
68	82	in	in	in	6	preview	5	87	0	0	0	0
69	83	a	a	a	6	preview	5	88	0	0	0	0
70	84	message	message	message	6	preview	5	89	158	0	0	0
71	85	Tuesday	Tuesday	Tuesday.	6	preview	5	90	0	0	0	0
	86	.	.		6	preview	5	91				
72	87	@entity17	Angela	Angela	6	preview	5	92	420	154	154	154
73			Moore	Moore,	6	preview	5	93	171	171	867	171
	88	,	,		6	preview	5	94				
74	89	a	a	a	6	preview	5	95	0	0	0	0
75	90	publicist	publicist	publicist	6	preview	5	96	312	312	312	312
76	91	for	for	for	6	preview	5	97	0	0	0	0
77	92	@entity6	Claudette	Claudette	6	preview	5	98	149	149	149	149
78			King	King,	6	preview	5	99	0	0	0	0
	93	,	,		6	preview	5	100				
79	94	said	said	said	6	preview	5	101	608	331	331	331
80	95	later	later	later	6	preview	5	102	0	0	0	0
81	96	in	in	in	6	preview	5	103	217	217	494	217
82	97	the	the	the	6	preview	5	104	0	0	0	0
83	98	day	day	day	6	preview	5	105	0	0	0	0
84	99	that	that	that	6	preview	5	106	209	209	209	209
85	100	he	he	he	6	preview	5	107	0	0	0	0
86	101	was	was	was	6	preview	5	108	0	0	0	0
87	102	back	back	back	6	preview	5	109	0	0	0	0
88	103	home	home	home	6	preview	5	110	0	0	0	0
89	104	resting	resting	resting	6	preview	5	111	303	303	303	303
90	105	and	and	and	6	preview	5	112	0	0	0	0
91	106	enjoying	enjoying	enjoying	6	preview	5	113	0	0	0	0
92	107	time	time	time	6	preview	5	114	0	0	0	0
93	108	with	with	with	6	preview	5	115	0	0	0	0
94	109	his	his	his	6	preview	5	116	0	0	0	0
95	110	grandchildren	grandchildren	grandchildren.	6	preview	5	117	0	0	0	0
	111	.	.		6	preview	5	118				
96	112	-	-	-He	6	preview	5	119	0	0	0	0
	113	He	He		6	preview	5	120				
97	114	was	was	was	6	preview	5	121	0	0	0	0
98	115	struggling	struggling	struggling	6	preview	5	122	213	0	0	0
99	116	before	before	before,	6	preview	5	123	132	0	0	0
	117	,	,		6	preview	5	124				
100	118	and	and	and	6	preview	5	125	0	0	0	0
101	119	he	he	he	6	preview	5	126	253	0	0	0
102	120	is	is	is	6	preview	5	127	0	0	0	0
103	121	a	a	a	6	preview	5	128	0	0	0	0
104	122	trouper	trouper	trouper,-	6	preview	5	129	155	155	500	155
	123	,	,		6	preview	5	130				
	124	-	-		6	preview	5	131				
105	125	@entity17	Moore	Moore	6	preview	5	132	0	0	0	0
106	126	said	said	said.	6	preview	5	133	158	0	0	0
	127	.	.		6	preview	5	134				
107	128	-	-	-He	6	preview	5	135	300	0	0	0
	129	He	He		6	preview	5	136				
108	130	was	was	wasn-t	6	preview	5	137	240	0	0	0
	131	n-t	n-t		6	preview	5	138				
109	132	going	going	going	6	preview	5	139	193	0	0	0
110	133	to	to	to	6	preview	5	140	87	0	0	0
111	134	let	let	let	6	preview	5	141	172	0	0	0
112	135	his	his	his	6	preview	5	142	464	222	309	222
113	136	fans	fans	fans	6	preview	5	143	0	0	0	0
114	137	down	down	down.-	6	preview	5	144	0	0	0	0
	138	.	.		6	preview	5	145				
115	139	-	-	No	6	preview	5	146	0	0	0	0
116	140	No	No	more	6	preview	5	147	795	0	0	0
117	141	more	more	information	6	preview	5	148	637	0	0	0
	142	information	information		6	preview	5	149				
118	143	on	on	on	6	preview	5	150	137	0	0	0
119	144	@entity0	King	King-s	6	preview	5	151	220	0	0	0
	145	-s	-s		6	preview	5	152				
120	146	condition	condition	condition	6	preview	5	153	547	0	0	0
121	147	or	or	or	6	preview	5	154	568	0	0	0
122	148	where	where	where	6	preview	5	155	0	0	0	0
123	149	he	he	he	6	preview	5	156	0	0	0	0
124	150	was	was	was	6	preview	5	157	0	0	0	0
125	151	hospitalized	hospitalized	hospitalized	6	preview	5	158	203	0	0	0
126	152	was	was	was	6	preview	5	159	144	0	0	0
127	153	immediately	immediately	immediately	6	preview	5	160	0	0	0	0
128	154	available	available	available.	6	preview	5	161	500	0	0	0
	155	.	.		6	preview	5	162				
129	156	@entity0	B.B.	B.B.	6	preview	5	163	292	0	0	0
130	157	is	is	is	6	preview	5	164	0	0	0	0
131	158	short	short	short	6	preview	5	165	376	0	0	0
132	159	for	for	for	6	preview	5	166	0	0	0	0
133	160	@entity24	Blues	Blues	6	preview	5	167	591	0	0	0
134			Boy	Boy,	6	preview	5	168	200	0	0	0
	161	,	,		6	preview	5	169				
135	162	part	part	part	6	preview	5	170	101	0	0	0
136	163	of	of	of	6	preview	5	171	0	0	0	0
137	164	the	the	the	6	preview	5	172	0	0	0	0
138	165	name	name	name	6	preview	5	173	244	0	0	0
139	166	he	he	he	6	preview	5	174	0	0	0	0
140	167	used	used	used	6	preview	5	175	0	0	0	0
141	168	as	as	as	6	preview	5	176	134	0	0	0
142	169	a	a	a	6	preview	5	177	0	0	0	0
143	170	@entity27	Memphis	Memphis	6	preview	5	178	0	0	0	0
144	171	disc	disc	disc	6	preview	5	179	410	0	0	0
145	172	jockey	jockey	jockey,	6	preview	5	180	0	0	0	0
	173	,	,		6	preview	5	181				
146	174	the	the	the	6	preview	5	182	0	0	0	0
147	175	@entity0	Beale	Beale	6	preview	5	183	170	0	0	0
148			Street	Street	6	preview	5	184	412	0	0	0
149			Blues	Blues	6	preview	5	185	139	139	139	139
150			Boy	Boy.	6	preview	5	186	242	0	0	0
	176	.	.		6	preview	5	187				
151	177	He	He	He	6	preview	5	188	219	219	9160	219
152	178	was	was	was	6	preview	5	189	0	0	0	0
153	179	inducted	inducted	inducted	6	preview	5	190	422	211	211	211
154	180	into	into	into	6	preview	5	191	207	207	207	207
155	181	the	the	the	6	preview	5	192	112	0	0	0
156	182	@entity28	Rock	Rock	6	preview	5	193	0	0	0	0
157			and	and	6	preview	5	194	244	0	0	0
158			Roll	Roll	6	preview	5	195	0	0	0	0
159			Hall	Hall	6	preview	5	196	0	0	0	0
160			of	of	6	preview	5	197	156	156	723	156
161			Fame	Fame	6	preview	5	198	0	0	0	0
162	183	in	in	in	6	preview	5	199	220	220	220	220
163	184	1987	1987	1987,	6	preview	5	200	0	0	0	0
	185	,	,		6	preview	5	201				
164	186	and	and	and	6	preview	5	202	0	0	0	0
165	187	has	has	has	6	preview	5	203	104	0	0	0
166	188	30	30	30	6	preview	5	204	0	0	0	0
167	189	@entity30	Grammy	Grammy	6	preview	5	205	326	326	430	326
168	190	nominations	nominations	nominations.	6	preview	5	206	0	0	0	0
	191	.	.		6	preview	5	207				
169	192	@entity0	King	King,	6	preview	5	208	0	0	0	0
	193	,	,		6	preview	5	209				
170	194	89	89	89,	6	preview	5	210	438	0	0	0
	195	,	,		6	preview	5	211				
171	196	has	has	has	6	preview	5	212	154	154	592	154
172	197	used	used	used	6	preview	5	213	123	0	0	0
173	198	various	various	various	6	preview	5	214	218	0	0	0
174	199	models	models	models	6	preview	5	215	0	0	0	0
175	200	of	of	of	6	preview	5	216	124	0	0	0
176	201	@entity33	Gibson	Gibson	6	preview	5	217	0	0	0	0
177	202	guitars	guitars	guitars	6	preview	5	218	186	0	0	0
178	203	over	over	over	6	preview	5	219	0	0	0	0
179	204	the	the	the	6	preview	5	220	195	0	0	0
180	205	years	years	years,	6	preview	5	221	0	0	0	0
	206	,	,		6	preview	5	222				
181	207	and	and	and	6	preview	5	223	175	0	0	0
182	208	named	named	named	6	preview	5	224	114	0	0	0
183	209	each	each	each	6	preview	5	225	0	0	0	0
184	210	one	one	one	6	preview	5	226	0	0	0	0
185	211	of	of	of	6	preview	5	227	293	0	0	0
186	212	them	them	them	6	preview	5	228	0	0	0	0
187	213	@entity35	Lucille	Lucille.	6	preview	5	229	404	0	0	0
	214	.	.		6	preview	5	230				
188	215	In	In	In	6	preview	5	231	148	148	1779	148
189	216	the	the	the	6	preview	5	232	0	0	0	0
190	217	1980s	1980s	1980s,	6	preview	5	233	884	536	536	318
	218	,	,		6	preview	5	234				
191	219	@entity33	Gibson	Gibson	6	preview	5	235	213	0	0	0
192	220	officially	officially	officially	6	preview	5	236	1140	235	235	235
193	221	dropped	dropped	dropped	6	preview	5	237	834	255	255	255
194	222	the	the	the	6	preview	5	238	148	0	0	0
195	223	model	model	model	6	preview	5	239	863	301	301	301
196	224	number	number	number	6	preview	5	240	135	135	135	135
197	225	on	on	on	6	preview	5	241	281	0	0	0
198	226	the	the	the	6	preview	5	242	0	0	0	0
199	227	guitar	guitar	guitar	6	preview	5	243	466	0	0	0
200	228	he	he	he	6	preview	5	244	0	0	0	0
201	229	used	used	used	6	preview	5	245	271	141	356	141
202	230	last	last	last	6	preview	5	246	721	0	0	0
203	231	and	and	and	6	preview	5	247	195	195	4333	195
204	232	most	most	most.	6	preview	5	248	0	0	0	0
	233	.	.		6	preview	5	249				
205	234	It	It	It	6	preview	5	250	0	0	0	0
206	235	became	became	became	6	preview	5	251	269	269	269	269
207	236	a	a	a	6	preview	5	252	0	0	0	0
208	237	custom	custom	custom-made	6	preview	5	253	1263	547	1464	192
	238	-	-		6	preview	5	254				
	239	made	made		6	preview	5	255				
209	240	signature	signature	signature	6	preview	5	256	0	0	0	0
210	241	model	model	model	6	preview	5	257	210	210	210	210
211	242	named	named	named	6	preview	5	258	0	0	0	0
212	243	@entity35	Lucille	Lucille,	6	preview	5	259	306	306	306	306
	244	,	,		6	preview	5	260				
213	245	manufactured	manufactured	manufactured	6	preview	5	261	251	0	0	0
214	246	exclusively	exclusively	exclusively	6	preview	5	262	119	119	370	119
215	247	for	for	for	6	preview	5	263	0	0	0	0
216	248	the	the	the	6	preview	5	264	149	149	149	149
217	249	-	-	-King	6	preview	5	265	0	0	0	0
	250	@entity40	King		6	preview	5	266				
218			of	of	6	preview	5	267	0	0	0	0
219			the	the	6	preview	5	268	170	170	170	170
220			Blues	Blues.-	6	preview	5	269	197	197	197	197
	251	.	.		6	preview	5	270				
221	252	-	-	Some	6	preview	5	271	0	0	0	0
	253	Some	Some		6	preview	5	272				
222	254	of	of	of	6	preview	5	273	0	0	0	0
223	255	his	his	his	6	preview	5	274	0	0	0	0
224	256	hits	hits	hits	6	preview	5	275	311	311	311	311
225	257	include	include	include	6	preview	5	276	0	0	0	0
226	258	-	-	-The	6	preview	5	277	0	0	0	0
	259	The	The		6	preview	5	278				
227	260	Thrill	Thrill	Thrill	6	preview	5	279	0	0	0	0
228	261	Is	Is	Is	6	preview	5	280	0	0	0	0
229	262	Gone	Gone	Gone,-	6	preview	5	281	0	0	0	0
	263	,	,		6	preview	5	282				
	264	-	-		6	preview	5	283				
230	265	which	which	which	6	preview	5	284	0	0	0	0
231	266	won	won	won	6	preview	5	285	0	0	0	0
232	267	him	him	him	6	preview	5	286	0	0	0	0
233	268	his	his	his	6	preview	5	287	0	0	0	0
234	269	first	first	first	6	preview	5	288	0	0	0	0
235	270	Grammy	Grammy	Grammy	6	preview	5	289	0	0	0	0
236	271	in	in	in	6	preview	5	290	0	0	0	0
237	272	1970	1970	1970,	6	preview	5	291	0	0	0	0
	273	,	,		6	preview	5	292				
238	274	-	-	-There	6	preview	5	293	0	0	0	0
	275	@entity44	There		6	preview	5	294				
239			Must	Must	6	preview	5	295	0	0	0	0
240			be	be	6	preview	5	296	0	0	0	0
241			a	a	6	preview	5	297	0	0	0	0
242			Better	Better	6	preview	5	298	0	0	0	0
243			World	World	6	preview	5	299	0	0	0	0
244			Somewhere	Somewhere-	6	preview	5	300	0	0	0	0
	276	-	-		6	preview	5	301				
245	277	and	and	and	6	preview	5	302	0	0	0	0
246	278	-	-	-When	6	preview	5	303	0	0	0	0
	279	@entity45	When		6	preview	5	304				
247			Love	Love	6	preview	5	305	0	0	0	0
248			Comes	Comes	6	preview	5	306	170	0	0	0
249			to	to	6	preview	5	307	0	0	0	0
250			Town	Town,-	6	preview	5	308	0	0	0	0
	280	,	,		6	preview	5	309				
	281	-	-		6	preview	5	310				
251	282	a	a	a	6	preview	5	311	0	0	0	0
252	283	collaboration	collaboration	collaboration	6	preview	5	312	0	0	0	0
253	284	with	with	with	6	preview	5	313	193	193	193	193
254	285	@entity47	U2	U2.	6	preview	5	314	120	120	120	120
	286	.	.		6	preview	5	315				
255	287	Last	Last	Last	6	preview	5	316	0	0	0	0
256	288	year	year	year,	6	preview	5	317	184	184	184	184
	289	,	,		6	preview	5	318				
257	290	the	the	the	6	preview	5	319	0	0	0	0
258	291	bluesman	bluesman	bluesman	6	preview	5	320	835	0	0	0
259	292	suffered	suffered	suffered	6	preview	5	321	142	0	0	0
260	293	from	from	from	6	preview	5	322	283	180	459	180
261	294	dehydration	dehydration	dehydration	6	preview	5	323	728	296	296	296
262	295	and	and	and	6	preview	5	324	0	0	0	0
263	296	exhaustion	exhaustion	exhaustion	6	preview	5	325	577	0	0	0
264	297	after	after	after	6	preview	5	326	377	176	176	176
265	298	a	a	a	6	preview	5	327	0	0	0	0
266	299	show	show	show	6	preview	5	328	0	0	0	0
267	300	in	in	in	6	preview	5	329	178	178	379	178
268	301	@entity52	Chicago	Chicago,	6	preview	5	330	233	0	0	0
	302	,	,		6	preview	5	331				
269	303	forcing	forcing	forcing	6	preview	5	332	199	0	0	0
270	304	him	him	him	6	preview	5	333	182	0	0	0
271	305	to	to	to	6	preview	5	334	0	0	0	0
272	306	cancel	cancel	cancel	6	preview	5	335	0	0	0	0
273	307	the	the	the	6	preview	5	336	0	0	0	0
274	308	remainder	remainder	remainder	6	preview	5	337	571	189	847	189
275	309	of	of	of	6	preview	5	338	0	0	0	0
276	310	his	his	his	6	preview	5	339	159	159	2477	159
277	311	tour	tour	tour.	6	preview	5	340	0	0	0	0
	312	.	.		6	preview	5	341				
