HumanPosition	AnonymizedPosition	AnonymizedToken	OriginalToken	ExperimentToken	Participant	Condition	TextNo	JointPosition	tt	fp	rp	ff	rb	sp
	0	@entity2	Seoul		7	preview	4	1						
	1	(	(		7	preview	4	2						
	2	@entity3	CNN		7	preview	4	3						
	3	)	)		7	preview	4	4						
0	4	@entity1	South	South	7	preview	4	5	192	0	0	0	0	192
2			Korea	Korea	7	preview	4	6	295	0	0	0	0	295
	5	-s	-s		7	preview	4	7						
3	6	Prime	Prime	Prime	7	preview	4	8	234	0	0	0	0	234
4	7	Minister	Minister	Minister	7	preview	4	9	0	0	0	0	0	0
5	8	@entity0	Lee	Lee	7	preview	4	10	0	0	0	0	0	0
6			Wan	Wan-koo	7	preview	4	11	343	0	0	0	0	343
			-		7	preview	4	12						
			koo		7	preview	4	13						
7	9	offered	offered	offered	7	preview	4	14	0	0	0	0	0	0
8	10	to	to	to	7	preview	4	15	307	0	0	0	0	307
9	11	resign	resign	resign	7	preview	4	16	238	0	0	0	0	238
10	12	on	on	on	7	preview	4	17	0	0	0	0	0	0
11	13	Monday	Monday	Monday	7	preview	4	18	182	0	0	0	0	182
12	14	amid	amid	amid	7	preview	4	19	0	0	0	0	0	0
13	15	a	a	a	7	preview	4	20	126	0	0	0	0	126
14	16	growing	growing	growing	7	preview	4	21	274	0	0	0	0	274
15	17	political	political	political	7	preview	4	22	139	0	0	0	0	139
16	18	scandal	scandal	scandal.	7	preview	4	23	247	0	0	0	0	247
	19	.	.		7	preview	4	24						
17	20	@entity0	Lee	Lee	7	preview	4	25	181	0	0	0	0	181
18	21	will	will	will	7	preview	4	26	0	0	0	0	0	0
19	22	stay	stay	stay	7	preview	4	27	359	0	0	0	0	359
20	23	in	in	in	7	preview	4	28	0	0	0	0	0	0
21	24	his	his	his	7	preview	4	29	173	0	0	0	0	173
22	25	official	official	official	7	preview	4	30	175	0	0	0	0	175
23	26	role	role	role	7	preview	4	31	571	0	0	0	0	571
24	27	until	until	until	7	preview	4	32	0	0	0	0	0	0
25	28	@entity1	South	South	7	preview	4	33	335	0	0	0	0	335
26			Korean	Korean	7	preview	4	34	219	0	0	0	0	219
27	29	President	President	President	7	preview	4	35	271	0	0	0	0	271
28	30	@entity6	Park	Park	7	preview	4	36	216	0	0	0	0	216
29			Geun	Geun-hye	7	preview	4	37	406	0	0	0	0	406
			-		7	preview	4	38						
			hye		7	preview	4	39						
30	31	accepts	accepts	accepts	7	preview	4	40	337	106	5820	106	337	231
31	32	his	his	his	7	preview	4	41	0	0	0	0	0	0
32	33	resignation	resignation	resignation.	7	preview	4	42	425	425	425	425	425	0
	34	.	.		7	preview	4	43						
33	35	He	He	He	7	preview	4	44	0	0	0	0	0	0
34	36	has	has	has	7	preview	4	45	157	157	157	157	157	0
35	37	transferred	transferred	transferred	7	preview	4	46	255	255	255	255	255	0
36	38	his	his	his	7	preview	4	47	0	0	0	0	0	0
37	39	role	role	role	7	preview	4	48	378	230	230	230	230	148
38	40	of	of	of	7	preview	4	49	238	238	386	238	238	0
39	41	chairing	chairing	chairing	7	preview	4	50	217	217	217	217	217	0
40	42	Cabinet	Cabinet	Cabinet	7	preview	4	51	388	388	388	388	388	0
41	43	meetings	meetings	meetings	7	preview	4	52	147	147	147	147	147	0
42	44	to	to	to	7	preview	4	53	0	0	0	0	0	0
43	45	the	the	the	7	preview	4	54	0	0	0	0	0	0
44	46	deputy	deputy	deputy	7	preview	4	55	315	315	315	315	315	0
45	47	prime	prime	prime	7	preview	4	56	218	218	218	218	218	0
46	48	minister	minister	minister	7	preview	4	57	0	0	0	0	0	0
47	49	for	for	for	7	preview	4	58	140	140	140	140	140	0
48	50	the	the	the	7	preview	4	59	0	0	0	0	0	0
49	51	time	time	time	7	preview	4	60	0	0	0	0	0	0
50	52	being	being	being,	7	preview	4	61	358	358	358	252	358	0
	53	,	,		7	preview	4	62						
51	54	according	according	according	7	preview	4	63	171	171	171	171	171	0
52	55	to	to	to	7	preview	4	64	0	0	0	0	0	0
53	56	his	his	his	7	preview	4	65	121	121	121	121	121	0
54	57	office	office	office.	7	preview	4	66	0	0	0	0	0	0
	58	.	.		7	preview	4	67						
55	59	@entity13	Park	Park	7	preview	4	68	212	212	212	212	212	0
56	60	heard	heard	heard	7	preview	4	69	220	220	220	220	220	0
57	61	about	about	about	7	preview	4	70	270	270	270	270	270	0
58	62	the	the	the	7	preview	4	71	0	0	0	0	0	0
59	63	resignation	resignation	resignation	7	preview	4	72	576	576	576	165	576	0
60	64	and	and	and	7	preview	4	73	0	0	0	0	0	0
61	65	called	called	called	7	preview	4	74	215	215	215	215	215	0
62	66	it	it	it	7	preview	4	75	0	0	0	0	0	0
63	67	-	-	-regrettable,-	7	preview	4	76	250	250	250	250	250	0
	68	regrettable	regrettable		7	preview	4	77						
	69	,	,		7	preview	4	78						
	70	-	-		7	preview	4	79						
64	71	according	according	according	7	preview	4	80	219	219	219	219	219	0
65	72	to	to	to	7	preview	4	81	0	0	0	0	0	0
66	73	the	the	the	7	preview	4	82	0	0	0	0	0	0
67	74	@entity1	South	South	7	preview	4	83	733	733	733	733	733	0
68			Korean	Korean	7	preview	4	84	142	142	142	142	142	0
69	75	presidential	presidential	presidential	7	preview	4	85	261	261	261	261	261	0
70	76	office	office	office.	7	preview	4	86	135	135	135	135	135	0
	77	.	.		7	preview	4	87						
71	78	Calls	Calls	Calls	7	preview	4	88	0	0	0	0	0	0
72	79	for	for	for	7	preview	4	89	160	160	160	160	160	0
73	80	@entity0	Lee	Lee	7	preview	4	90	0	0	0	0	0	0
74	81	to	to	to	7	preview	4	91	264	264	264	264	264	0
75	82	resign	resign	resign	7	preview	4	92	0	0	0	0	0	0
76	83	began	began	began	7	preview	4	93	283	283	283	283	283	0
77	84	after	after	after	7	preview	4	94	208	208	208	208	208	0
78	85	@entity1	South	South	7	preview	4	95	127	127	127	127	127	0
79			Korean	Korean	7	preview	4	96	257	257	257	257	257	0
80	86	tycoon	tycoon	tycoon	7	preview	4	97	564	0	0	0	0	564
81	87	@entity18	Sung	Sung	7	preview	4	98	1448	357	1218	357	812	1091
82			Woan	Woan-jong	7	preview	4	99	1875	1647	1876	470	1647	228
			-		7	preview	4	100						
			jong		7	preview	4	101						
83	88	was	was	was	7	preview	4	102	0	0	0	0	0	0
84	89	found	found	found	7	preview	4	103	230	230	230	230	230	0
85	90	hanging	hanging	hanging	7	preview	4	104	148	148	148	148	148	0
86	91	from	from	from	7	preview	4	105	0	0	0	0	0	0
87	92	a	a	a	7	preview	4	106	0	0	0	0	0	0
88	93	tree	tree	tree	7	preview	4	107	214	214	214	214	214	0
89	94	in	in	in	7	preview	4	108	0	0	0	0	0	0
90	95	@entity2	Seoul	Seoul	7	preview	4	109	0	0	0	0	0	0
91	96	in	in	in	7	preview	4	110	133	133	133	133	133	0
92	97	an	an	an	7	preview	4	111	0	0	0	0	0	0
93	98	apparent	apparent	apparent	7	preview	4	112	256	256	256	256	256	0
94	99	suicide	suicide	suicide	7	preview	4	113	148	0	0	0	0	148
95	100	on	on	on	7	preview	4	114	132	132	280	132	132	0
96	101	April	April	April	7	preview	4	115	358	211	211	211	211	147
97	102	9	9	9.	7	preview	4	116	0	0	0	0	0	0
	103	.	.		7	preview	4	117						
98	104	@entity18	Sung	Sung,	7	preview	4	118	460	259	259	259	259	201
	105	,	,		7	preview	4	119						
99	106	who	who	who	7	preview	4	120	0	0	0	0	0	0
100	107	was	was	was	7	preview	4	121	462	462	462	462	462	0
101	108	under	under	under	7	preview	4	122	875	875	875	567	875	0
102	109	investigation	investigation	investigation	7	preview	4	123	176	176	176	176	176	0
103	110	for	for	for	7	preview	4	124	171	171	171	171	171	0
104	111	fraud	fraud	fraud	7	preview	4	125	0	0	0	0	0	0
105	112	and	and	and	7	preview	4	126	140	140	140	140	140	0
106	113	bribery	bribery	bribery,	7	preview	4	127	129	129	129	129	129	0
	114	,	,		7	preview	4	128						
107	115	left	left	left	7	preview	4	129	0	0	0	0	0	0
108	116	a	a	a	7	preview	4	130	107	107	107	107	107	0
109	117	note	note	note	7	preview	4	131	133	0	0	0	0	133
110	118	listing	listing	listing	7	preview	4	132	346	161	479	161	346	185
111	119	names	names	names	7	preview	4	133	0	0	0	0	0	0
112	120	and	and	and	7	preview	4	134	148	148	148	148	148	0
113	121	amounts	amounts	amounts	7	preview	4	135	168	168	168	168	168	0
114	122	of	of	of	7	preview	4	136	0	0	0	0	0	0
115	123	cash	cash	cash	7	preview	4	137	214	214	214	214	214	0
116	124	given	given	given	7	preview	4	138	0	0	0	0	0	0
117	125	to	to	to	7	preview	4	139	168	0	0	0	0	168
118	126	top	top	top	7	preview	4	140	0	0	0	0	0	0
119	127	officials	officials	officials,	7	preview	4	141	317	154	485	154	317	163
	128	,	,		7	preview	4	142						
120	129	including	including	including	7	preview	4	143	200	200	200	200	200	0
121	130	those	those	those	7	preview	4	144	115	115	115	115	115	0
122	131	who	who	who	7	preview	4	145	0	0	0	0	0	0
123	132	work	work	work	7	preview	4	146	339	339	339	339	339	0
124	133	for	for	for	7	preview	4	147	0	0	0	0	0	0
125	134	the	the	the	7	preview	4	148	0	0	0	0	0	0
126	135	President	President	President.	7	preview	4	149	405	405	405	141	405	0
	136	.	.		7	preview	4	150						
127	137	@entity0	Lee	Lee	7	preview	4	151	228	228	228	228	228	0
128	138	and	and	and	7	preview	4	152	0	0	0	0	0	0
129	139	seven	seven	seven	7	preview	4	153	381	381	381	237	381	0
130	140	other	other	other	7	preview	4	154	229	0	0	0	0	229
131	141	politicians	politicians	politicians	7	preview	4	155	423	170	652	170	423	253
132	142	with	with	with	7	preview	4	156	0	0	0	0	0	0
133	143	links	links	links	7	preview	4	157	255	255	255	255	255	0
134	144	to	to	to	7	preview	4	158	0	0	0	0	0	0
135	145	the	the	the	7	preview	4	159	119	119	119	119	119	0
136	146	@entity1	South	South	7	preview	4	160	112	112	112	112	112	0
137			Korean	Korean	7	preview	4	161	0	0	0	0	0	0
138	147	President	President	President	7	preview	4	162	412	412	412	260	412	0
139	148	are	are	are	7	preview	4	163	0	0	0	0	0	0
140	149	under	under	under	7	preview	4	164	0	0	0	0	0	0
141	150	investigation	investigation	investigation.	7	preview	4	165	852	852	852	258	852	0
	151	.	.		7	preview	4	166						
142	152	A	A	A	7	preview	4	167	0	0	0	0	0	0
143	153	special	special	special	7	preview	4	168	671	671	671	671	671	0
144	154	prosecutor	prosecutor	prosecutor-s	7	preview	4	169	844	214	214	214	214	630
	155	-s	-s		7	preview	4	170						
145	156	team	team	team	7	preview	4	171	197	0	0	0	0	197
146	157	has	has	has	7	preview	4	172	184	184	184	184	184	0
147	158	been	been	been	7	preview	4	173	423	281	2391	281	423	142
148	159	established	established	established	7	preview	4	174	375	375	375	174	375	0
149	160	to	to	to	7	preview	4	175	0	0	0	0	0	0
150	161	investigate	investigate	investigate	7	preview	4	176	548	356	356	220	356	192
151	162	the	the	the	7	preview	4	177	0	0	0	0	0	0
152	163	case	case	case.	7	preview	4	178	296	296	488	296	296	0
	164	.	.		7	preview	4	179						
153	165	@entity0	Lee	Lee	7	preview	4	180	0	0	0	0	0	0
154	166	had	had	had	7	preview	4	181	154	0	0	0	0	154
155	167	adamantly	adamantly	adamantly	7	preview	4	182	701	181	855	181	701	520
156	168	denied	denied	denied	7	preview	4	183	226	226	226	226	226	0
157	169	the	the	the	7	preview	4	184	0	0	0	0	0	0
158	170	allegations	allegations	allegations	7	preview	4	185	626	626	626	183	626	0
159	171	as	as	as	7	preview	4	186	0	0	0	0	0	0
160	172	the	the	the	7	preview	4	187	157	157	157	157	157	0
161	173	scandal	scandal	scandal	7	preview	4	188	704	0	0	0	0	704
162	174	escalated	escalated	escalated:	7	preview	4	189	571	219	1275	219	571	352
163	175	:	:	-If	7	preview	4	190	0	0	0	0	0	0
	176	-	-		7	preview	4	191						
164	177	If	If	there	7	preview	4	192	172	172	172	172	172	0
	178	there	there		7	preview	4	193						
165	179	are	are	are	7	preview	4	194	0	0	0	0	0	0
166	180	any	any	any	7	preview	4	195	234	234	234	234	234	0
167	181	evidence	evidence	evidence,	7	preview	4	196	0	0	0	0	0	0
	182	,	,		7	preview	4	197						
168	183	I	I	I	7	preview	4	198	0	0	0	0	0	0
169	184	will	will	will	7	preview	4	199	228	228	228	228	228	0
170	185	give	give	give	7	preview	4	200	0	0	0	0	0	0
171	186	out	out	out	7	preview	4	201	0	0	0	0	0	0
172	187	my	my	my	7	preview	4	202	426	220	220	220	220	206
173	188	life	life	life.	7	preview	4	203	139	139	345	139	139	0
	189	.	.		7	preview	4	204						
174	190	As	As	As	7	preview	4	205	0	0	0	0	0	0
175	191	a	a	a	7	preview	4	206	0	0	0	0	0	0
176	192	Prime	Prime	Prime	7	preview	4	207	220	220	220	220	220	0
177	193	Minister	Minister	Minister,	7	preview	4	208	222	222	222	222	222	0
	194	,	,		7	preview	4	209						
178	195	I	I	I	7	preview	4	210	0	0	0	0	0	0
179	196	will	will	will	7	preview	4	211	147	147	147	147	147	0
180	197	accept	accept	accept	7	preview	4	212	0	0	0	0	0	0
181	198	Prosecutor	Prosecutor	Prosecutor	7	preview	4	213	326	326	326	326	326	0
182	199	@entity44	Office	Office-s	7	preview	4	214	209	0	0	0	0	209
	200	-s	-s		7	preview	4	215						
183	201	investigation	investigation	investigation	7	preview	4	216	460	239	669	239	460	221
184	202	first	first	first.-	7	preview	4	217	221	221	221	221	221	0
	203	.	.		7	preview	4	218						
185	204	-	-	Park	7	preview	4	219	0	0	0	0	0	0
	205	@entity46	Park		7	preview	4	220						
186	206	has	has	has	7	preview	4	221	382	171	171	171	171	211
187	207	said	said	said	7	preview	4	222	526	337	737	337	526	189
188	208	that	that	that	7	preview	4	223	83	83	83	83	83	0
189	209	she	she	she	7	preview	4	224	0	0	0	0	0	0
190	210	is	is	is	7	preview	4	225	177	0	0	0	0	177
191	211	taking	taking	taking	7	preview	4	226	148	148	325	148	148	0
192	212	the	the	the	7	preview	4	227	182	182	182	182	182	0
193	213	accusations	accusations	accusations	7	preview	4	228	683	683	683	277	683	0
194	214	very	very	very	7	preview	4	229	0	0	0	0	0	0
195	215	seriously	seriously	seriously.	7	preview	4	230	218	218	218	218	218	0
	216	.	.		7	preview	4	231						
196	217	Before	Before	Before	7	preview	4	232	235	235	235	235	235	0
197	218	departing	departing	departing	7	preview	4	233	199	199	199	199	199	0
198	219	on	on	on	7	preview	4	234	0	0	0	0	0	0
199	220	her	her	her	7	preview	4	235	0	0	0	0	0	0
200	221	trip	trip	trip	7	preview	4	236	263	263	263	263	263	0
201	222	to	to	to	7	preview	4	237	0	0	0	0	0	0
202	223	@entity50	Central	Central	7	preview	4	238	136	136	136	136	136	0
203			and	and	7	preview	4	239	0	0	0	0	0	0
204			South	South	7	preview	4	240	158	0	0	0	0	158
205			America	America,	7	preview	4	241	116	116	274	116	116	0
	224	,	,		7	preview	4	242						
206	225	she	she	she	7	preview	4	243	0	0	0	0	0	0
207	226	condemned	condemned	condemned	7	preview	4	244	333	333	333	333	333	0
208	227	political	political	political	7	preview	4	245	1012	1012	1012	867	1012	0
209	228	corruption	corruption	corruption	7	preview	4	246	166	166	166	166	166	0
210	229	in	in	in	7	preview	4	247	0	0	0	0	0	0
211	230	her	her	her	7	preview	4	248	121	0	0	0	0	121
212	231	country	country	country.	7	preview	4	249	177	177	298	177	177	0
	232	.	.		7	preview	4	250						
213	233	-	-	-Corruption	7	preview	4	251	198	198	198	198	198	0
	234	Corruption	Corruption		7	preview	4	252						
214	235	and	and	and	7	preview	4	253	0	0	0	0	0	0
215	236	deep	deep	deep-rooted	7	preview	4	254	301	301	301	301	301	0
	237	-	-		7	preview	4	255						
	238	rooted	rooted		7	preview	4	256						
216	239	evil	evil	evil	7	preview	4	257	163	163	163	163	163	0
217	240	are	are	are	7	preview	4	258	0	0	0	0	0	0
218	241	issues	issues	issues	7	preview	4	259	238	238	238	238	238	0
219	242	that	that	that	7	preview	4	260	0	0	0	0	0	0
220	243	can	can	can	7	preview	4	261	232	232	232	232	232	0
221	244	lead	lead	lead	7	preview	4	262	0	0	0	0	0	0
222	245	to	to	to	7	preview	4	263	0	0	0	0	0	0
223	246	taking	taking	taking	7	preview	4	264	195	195	195	195	195	0
224	247	away	away	away	7	preview	4	265	175	175	175	175	175	0
225	248	people	people	people-s	7	preview	4	266	357	357	357	230	357	0
	249	-s	-s		7	preview	4	267						
226	250	lives	lives	lives.	7	preview	4	268	0	0	0	0	0	0
	251	.	.		7	preview	4	269						
227	252	We	We	We	7	preview	4	270	0	0	0	0	0	0
228	253	take	take	take	7	preview	4	271	241	241	241	241	241	0
229	254	this	this	this	7	preview	4	272	132	132	132	132	132	0
230	255	very	very	very	7	preview	4	273	0	0	0	0	0	0
231	256	seriously	seriously	seriously.-	7	preview	4	274	272	272	272	272	272	0
	257	.	.		7	preview	4	275						
232	258	-	-	-We	7	preview	4	276	142	142	142	142	142	0
	259	-	-		7	preview	4	277						
233	260	We	We	must	7	preview	4	278	0	0	0	0	0	0
	261	must	must		7	preview	4	279						
234	262	make	make	make	7	preview	4	280	185	185	185	185	185	0
235	263	sure	sure	sure	7	preview	4	281	606	199	199	199	199	407
236	264	to	to	to	7	preview	4	282	150	0	0	0	0	150
237	265	set	set	set	7	preview	4	283	0	0	0	0	0	0
238	266	straight	straight	straight	7	preview	4	284	673	181	1230	181	673	492
239	267	this	this	this	7	preview	4	285	0	0	0	0	0	0
240	268	issue	issue	issue	7	preview	4	286	242	242	242	242	242	0
241	269	as	as	as	7	preview	4	287	0	0	0	0	0	0
242	270	a	a	a	7	preview	4	288	0	0	0	0	0	0
243	271	matter	matter	matter	7	preview	4	289	296	296	296	296	296	0
244	272	of	of	of	7	preview	4	290	90	90	90	90	90	0
245	273	political	political	political	7	preview	4	291	287	287	287	287	287	0
246	274	reform	reform	reform.	7	preview	4	292	0	0	0	0	0	0
	275	.	.		7	preview	4	293						
247	276	I	I	I	7	preview	4	294	0	0	0	0	0	0
248	277	will	will	will	7	preview	4	295	188	188	188	188	188	0
249	278	not	not	not	7	preview	4	296	0	0	0	0	0	0
250	279	forgive	forgive	forgive	7	preview	4	297	243	243	243	243	243	0
251	280	anyone	anyone	anyone	7	preview	4	298	286	286	286	286	286	0
252	281	who	who	who	7	preview	4	299	0	0	0	0	0	0
253	282	is	is	is	7	preview	4	300	0	0	0	0	0	0
254	283	responsible	responsible	responsible	7	preview	4	301	398	398	398	260	398	0
255	284	for	for	for	7	preview	4	302	0	0	0	0	0	0
256	285	corruption	corruption	corruption	7	preview	4	303	452	452	452	270	452	0
257	286	or	or	or	7	preview	4	304	177	177	177	177	177	0
258	287	wrongdoing	wrongdoing	wrongdoing.-	7	preview	4	305	641	641	641	243	641	0
	288	.	.		7	preview	4	306						
259	289	-	-	Park	7	preview	4	307	472	253	253	253	253	219
	290	@entity13	Park		7	preview	4	308						
260	291	is	is	is	7	preview	4	309	0	0	0	0	0	0
261	292	in	in	in	7	preview	4	310	331	147	550	147	331	184
262	293	@entity66	Peru	Peru	7	preview	4	311	173	173	173	173	173	0
263	294	and	and	and	7	preview	4	312	0	0	0	0	0	0
264	295	is	is	is	7	preview	4	313	0	0	0	0	0	0
265	296	expected	expected	expected	7	preview	4	314	282	282	282	282	282	0
266	297	to	to	to	7	preview	4	315	0	0	0	0	0	0
267	298	arrive	arrive	arrive	7	preview	4	316	248	248	248	248	248	0
268	299	back	back	back	7	preview	4	317	0	0	0	0	0	0
269	300	to	to	to	7	preview	4	318	0	0	0	0	0	0
270	301	@entity1	South	South	7	preview	4	319	238	238	238	238	238	0
271			Korea	Korea	7	preview	4	320	0	0	0	0	0	0
272	302	on	on	on	7	preview	4	321	0	0	0	0	0	0
273	303	April	April	April	7	preview	4	322	183	183	183	183	183	0
274	304	27	27	27.	7	preview	4	323	0	0	0	0	0	0
	305	.	.		7	preview	4	324						
