HumanPosition	AnonymizedPosition	AnonymizedToken	OriginalToken	ExperimentToken	Participant	Condition	TextNo	JointPosition	tt	fp	rp	ff	rb	sp
1	0	A	A	A	4	preview	20	1	0	0	0	0	0	0
2	1	physician	physician	physician,	4	preview	20	2	389	269	269	110	269	120
	2	,	,		4	preview	20	3						
3	3	93	93	93,	4	preview	20	4	180	0	0	0	0	180
	4	,	,		4	preview	20	5						
4	5	who	who	who	4	preview	20	6	178	178	178	178	178	0
5				was	4	preview	20	7	0	0	0	0	0	0
6	6	team	team	team	4	preview	20	8	219	219	219	219	219	0
7	7	doctor	doctor	doctor	4	preview	20	9	0	0	0	0	0	0
8	8	for	for	for	4	preview	20	10	0	0	0	0	0	0
9	9	five	five	five	4	preview	20	11	383	179	179	179	179	204
10	10	@entity6	U.S.	U.S.	4	preview	20	12	0	0	0	0	0	0
11	11	men	men	men-s	4	preview	20	13	182	182	182	182	182	0
	12	-s	-s		4	preview	20	14						
12	13	@entity4	Olympic	Olympic	4	preview	20	15	323	111	111	111	111	212
13	14	hockey	hockey	hockey	4	preview	20	16	146	146	146	146	146	0
14	15	squads	squads	squads,	4	preview	20	17	0	0	0	0	0	0
	16	,	,		4	preview	20	18						
15	17	including	including	including	4	preview	20	19	368	188	188	188	188	180
16	18	the	the	the	4	preview	20	20	0	0	0	0	0	0
17	19	-	-	-Miracle	4	preview	20	21	424	196	196	196	196	228
	20	@entity8	Miracle		4	preview	20	22						
18			on	on	4	preview	20	23	0	0	0	0	0	0
19			Ice	Ice-	4	preview	20	24	153	0	0	0	0	153
	21	-	-		4	preview	20	25						
20	22	team	team	team	4	preview	20	26	181	181	181	181	181	0
21	23	that	that	that	4	preview	20	27	0	0	0	0	0	0
22	24	won	won	won	4	preview	20	28	0	0	0	0	0	0
23	25	in	in	in	4	preview	20	29	153	153	153	153	153	0
24	26	the	the	the	4	preview	20	30	0	0	0	0	0	0
25	27	1980	1980	1980-s,	4	preview	20	31	142	142	142	142	142	0
	28	-s	-s		4	preview	20	32						
	29	,	,		4	preview	20	33						
26	30	has	has	has	4	preview	20	34	0	0	0	0	0	0
27	31	suffered	suffered	suffered	4	preview	20	35	161	161	161	161	161	0
28	32	serious	serious	serious	4	preview	20	36	107	107	107	107	107	0
29	33	injuries	injuries	injuries	4	preview	20	37	170	0	0	0	0	170
30	34	in	in	in	4	preview	20	38	144	144	314	144	144	0
31	35	an	an	an	4	preview	20	39	0	0	0	0	0	0
32	36	attack	attack	attack	4	preview	20	40	0	0	0	0	0	0
33	37	while	while	while	4	preview	20	41	0	0	0	0	0	0
34	38	visiting	visiting	visiting	4	preview	20	42	172	172	172	172	172	0
35	39	his	his	his	4	preview	20	43	0	0	0	0	0	0
36	40	wife	wife	wife-s	4	preview	20	44	160	160	160	160	160	0
	41	-s	-s		4	preview	20	45						
37	42	grave	grave	grave	4	preview	20	46	172	172	172	172	172	0
38	43	on	on	on	4	preview	20	47	0	0	0	0	0	0
39	44	Sunday	Sunday	Sunday.	4	preview	20	48	0	0	0	0	0	0
	45	.	.		4	preview	20	49						
40	46	@entity13	George	George	4	preview	20	50	192	192	192	192	192	0
41			Nagobads	Nagobads	4	preview	20	51	91	91	91	91	91	0
42	47	was	was	was	4	preview	20	52	0	0	0	0	0	0
43	48	allegedly	allegedly	allegedly	4	preview	20	53	151	0	0	0	0	151
44	49	mugged	mugged	mugged	4	preview	20	54	141	141	292	141	141	0
45	50	by	by	by	4	preview	20	55	0	0	0	0	0	0
46	51	a	a	a	4	preview	20	56	0	0	0	0	0	0
47	52	teenager	teenager	teenager	4	preview	20	57	771	370	370	218	370	401
48	53	on	on	on	4	preview	20	58	178	0	0	0	0	178
49	54	Sunday	Sunday	Sunday	4	preview	20	59	225	225	225	225	225	0
50	55	afternoon	afternoon	afternoon	4	preview	20	60	310	0	0	0	0	310
51	56	at	at	at	4	preview	20	61	174	0	0	0	0	174
52	57	the	the	the	4	preview	20	62	0	0	0	0	0	0
53	58	@entity15	Crystal	Crystal	4	preview	20	63	316	134	134	134	134	182
54			Lake	Lake	4	preview	20	64	170	0	0	0	0	170
55			Cemetery	Cemetery	4	preview	20	65	310	136	136	136	136	174
56	59	in	in	in	4	preview	20	66	0	0	0	0	0	0
57	60	@entity16	Minneapolis	Minneapolis	4	preview	20	67	0	0	0	0	0	0
58	61	while	while	while	4	preview	20	68	264	264	264	264	264	0
59	62	laying	laying	laying	4	preview	20	69	0	0	0	0	0	0
60	63	flowers	flowers	flowers	4	preview	20	70	149	149	149	149	149	0
61	64	on	on	on	4	preview	20	71	0	0	0	0	0	0
62	65	his	his	his	4	preview	20	72	0	0	0	0	0	0
63	66	wife	wife	wife	4	preview	20	73	186	186	186	186	186	0
64	67	@entity18	Velta	Velta-s	4	preview	20	74	0	0	0	0	0	0
	68	-s	-s		4	preview	20	75						
65	69	grave	grave	grave.	4	preview	20	76	229	229	229	229	229	0
	70	.	.		4	preview	20	77						
66	71	He	He	He	4	preview	20	78	0	0	0	0	0	0
67	72	was	was	was	4	preview	20	79	153	153	153	153	153	0
68	73	released	released	released	4	preview	20	80	171	171	171	171	171	0
69	74	from	from	from	4	preview	20	81	0	0	0	0	0	0
70	75	the	the	the	4	preview	20	82	0	0	0	0	0	0
71	76	hospital	hospital	hospital	4	preview	20	83	186	0	0	0	0	186
72	77	on	on	on	4	preview	20	84	153	153	339	153	153	0
73	78	Tuesday	Tuesday	Tuesday	4	preview	20	85	0	0	0	0	0	0
74	79	with	with	with	4	preview	20	86	218	218	218	218	218	0
75	80	18	18	18	4	preview	20	87	167	0	0	0	0	167
76	81	stitches	stitches	stitches	4	preview	20	88	347	199	2484	199	347	148
77	82	in	in	in	4	preview	20	89	0	0	0	0	0	0
78	83	his	his	his	4	preview	20	90	250	250	250	250	250	0
79	84	head	head	head.	4	preview	20	91	0	0	0	0	0	0
	85	.	.		4	preview	20	92						
80	86	Scroll	Scroll	After	4	preview	20	93	0	0	0	0	0	0
	87	down	down		4	preview	20	94						
	88	for	for		4	preview	20	95						
81	89	video	video	allegedly	4	preview	20	96	246	246	246	246	246	0
	90	Injured	Injured		4	preview	20	97						
	91	:	:		4	preview	20	98						
	92	Dr.	Dr.		4	preview	20	99						
	93	@entity13	George		4	preview	20	100						
			Nagobads		4	preview	20	101						
	94	,	,		4	preview	20	102						
	95	pictured	pictured		4	preview	20	103						
	96	in	in		4	preview	20	104						
	97	2010	2010		4	preview	20	105						
	98	with	with		4	preview	20	106						
	99	his	his		4	preview	20	107						
	100	@entity25	Hall		4	preview	20	108						
			of		4	preview	20	109						
			Fame		4	preview	20	110						
	101	plaque	plaque		4	preview	20	111						
	102	,	,		4	preview	20	112						
	103	was	was		4	preview	20	113						
	104	allegedly	allegedly		4	preview	20	114						
82	105	attacked	attacked	being	4	preview	20	115	215	215	215	215	215	0
	106	on	on		4	preview	20	116						
	107	Sunday	Sunday		4	preview	20	117						
	108	by	by		4	preview	20	118						
	109	a	a		4	preview	20	119						
	110	teenager	teenager		4	preview	20	120						
	111	in	in		4	preview	20	121						
83	112	a	a	attacked	4	preview	20	122	0	0	0	0	0	0
	113	cemetary	cemetary		4	preview	20	123						
	114	Visiting	Visiting		4	preview	20	124						
	115	his	his		4	preview	20	125						
	116	wife	wife		4	preview	20	126						
	117	:	:		4	preview	20	127						
	118	@entity13	Nagobads		4	preview	20	128						
	119	was	was		4	preview	20	129						
	120	visiting	visiting		4	preview	20	130						
	121	his	his		4	preview	20	131						
	122	wife	wife		4	preview	20	132						
	123	-s	-s		4	preview	20	133						
	124	grave	grave		4	preview	20	134						
	125	at	at		4	preview	20	135						
	126	The	The		4	preview	20	136						
	127	@entity15	Crystal		4	preview	20	137						
			Lake		4	preview	20	138						
			Cemetery		4	preview	20	139						
	128	when	when		4	preview	20	140						
	129	he	he		4	preview	20	141						
	130	was	was		4	preview	20	142						
	131	allegedly	allegedly		4	preview	20	143						
	132	beaten	beaten		4	preview	20	144						
	133	with	with		4	preview	20	145						
	134	a	a		4	preview	20	146						
	135	snowbrush	snowbrush		4	preview	20	147						
	136	After	After		4	preview	20	148						
	137	allegedly	allegedly		4	preview	20	149						
	138	being	being		4	preview	20	150						
	139	attacked	attacked		4	preview	20	151						
84	140	by	by	by	4	preview	20	152	0	0	0	0	0	0
85	141	a	a	a	4	preview	20	153	0	0	0	0	0	0
86	142	snowbrush	snowbrush	snowbrush	4	preview	20	154	302	302	302	302	302	0
87	143	on	on	on	4	preview	20	155	0	0	0	0	0	0
88	144	Sunday	Sunday	Sunday,	4	preview	20	156	349	349	349	349	349	0
	145	,	,		4	preview	20	157						
89	146	a	a	a	4	preview	20	158	0	0	0	0	0	0
90	147	bloodied	bloodied	bloodied	4	preview	20	159	438	180	180	180	180	258
91	148	@entity31	Nagobads	Nagobads	4	preview	20	160	1856	1036	1036	475	1036	820
92	149	managed	managed	managed	4	preview	20	161	377	377	2171	377	377	0
93	150	to	to	to	4	preview	20	162	0	0	0	0	0	0
94	151	get	get	get	4	preview	20	163	197	197	197	197	197	0
95	152	back	back	back	4	preview	20	164	0	0	0	0	0	0
96	153	in	in	in	4	preview	20	165	0	0	0	0	0	0
97	154	his	his	his	4	preview	20	166	0	0	0	0	0	0
98	155	car	car	car	4	preview	20	167	177	177	177	177	177	0
99	156	and	and	and	4	preview	20	168	0	0	0	0	0	0
100	157	drive	drive	drive	4	preview	20	169	213	213	213	213	213	0
101	158	away	away	away.	4	preview	20	170	0	0	0	0	0	0
	159	.	.		4	preview	20	171						
102	160	@entity31	Nagobads	Nagobads,	4	preview	20	172	424	424	424	258	424	0
	161	,	,		4	preview	20	173						
103	162	who	who	who	4	preview	20	174	0	0	0	0	0	0
104	163	is	is	is	4	preview	20	175	0	0	0	0	0	0
105	164	recovering	recovering	recovering	4	preview	20	176	256	256	256	256	256	0
106	165	at	at	at	4	preview	20	177	0	0	0	0	0	0
107	166	home	home	home,	4	preview	20	178	170	170	170	170	170	0
	167	,	,		4	preview	20	179						
108	168	said	said	said	4	preview	20	180	318	318	318	318	318	0
109	169	on	on	on	4	preview	20	181	0	0	0	0	0	0
110	170	Tuesday	Tuesday	Tuesday	4	preview	20	182	125	0	0	0	0	125
111	171	that	that	that	4	preview	20	183	184	0	0	0	0	184
112	172	he	he	he	4	preview	20	184	235	235	235	235	235	0
113	173	sped	sped	sped	4	preview	20	185	98	98	98	98	98	0
114	174	to	to	to	4	preview	20	186	175	0	0	0	0	175
115	175	a	a	a	4	preview	20	187	176	176	176	176	176	0
116	176	nearby	nearby	nearby	4	preview	20	188	0	0	0	0	0	0
117	177	hospital	hospital	hospital	4	preview	20	189	231	231	231	123	231	0
118	178	following	following	following	4	preview	20	190	0	0	0	0	0	0
119	179	the	the	the	4	preview	20	191	119	119	603	119	119	0
120	180	beating	beating	beating.	4	preview	20	192	0	0	0	0	0	0
	181	.	.		4	preview	20	193						
121	182	He	He	He	4	preview	20	194	0	0	0	0	0	0
122	183	told	told	told	4	preview	20	195	0	0	0	0	0	0
123	184	@entity37	The	The	4	preview	20	196	193	0	0	0	0	193
124			Star	Star	4	preview	20	197	0	0	0	0	0	0
125			Tribune	Tribune	4	preview	20	198	0	0	0	0	0	0
126	185	that	that	that	4	preview	20	199	449	0	0	0	0	449
127	186	he	he	he	4	preview	20	200	0	0	0	0	0	0
128	187	suffered	suffered	suffered	4	preview	20	201	157	0	0	0	0	157
129	188	a	a	a	4	preview	20	202	0	0	0	0	0	0
130	189	slight	slight	slight	4	preview	20	203	153	0	0	0	0	153
131	190	concussion	concussion	concussion	4	preview	20	204	190	190	190	190	190	0
132	191	and	and	and	4	preview	20	205	0	0	0	0	0	0
133	192	was	was	was	4	preview	20	206	0	0	0	0	0	0
134	193	kept	kept	kept	4	preview	20	207	289	289	1421	289	289	0
135	194	overnight	overnight	overnight	4	preview	20	208	0	0	0	0	0	0
136	195	for	for	for	4	preview	20	209	0	0	0	0	0	0
137	196	observation	observation	observation.	4	preview	20	210	0	0	0	0	0	0
	197	.	.		4	preview	20	211						
138	198	Video	Video	-I	4	preview	20	212	0	0	0	0	0	0
	199	courtesy	courtesy		4	preview	20	213						
	200	@entity40	Fox		4	preview	20	214						
			9		4	preview	20	215						
139	201	-	-	brought	4	preview	20	216	0	0	0	0	0	0
	202	I	I		4	preview	20	217						
	203	brought	brought		4	preview	20	218						
140	204	new	new	new	4	preview	20	219	0	0	0	0	0	0
141	205	flowers	flowers	flowers	4	preview	20	220	0	0	0	0	0	0
142	206	and	and	and	4	preview	20	221	0	0	0	0	0	0
143	207	was	was	was	4	preview	20	222	0	0	0	0	0	0
144	208	just	just	just	4	preview	20	223	0	0	0	0	0	0
145	209	stooping	stooping	stooping	4	preview	20	224	0	0	0	0	0	0
146	210	down	down	down,-	4	preview	20	225	0	0	0	0	0	0
	211	,	,		4	preview	20	226						
147	212	-	-	said	4	preview	20	227	0	0	0	0	0	0
	213	said	said		4	preview	20	228						
148	214	@entity13	Nagobads	Nagobads	4	preview	20	229	0	0	0	0	0	0
149	215	of	of	of	4	preview	20	230	0	0	0	0	0	0
150	216	honoring	honoring	honoring	4	preview	20	231	0	0	0	0	0	0
151	217	his	his	his	4	preview	20	232	0	0	0	0	0	0
152	218	wife	wife	wife	4	preview	20	233	0	0	0	0	0	0
153	219	@entity31	Velta	Velta	4	preview	20	234	0	0	0	0	0	0
154			Nagobads	Nagobads	4	preview	20	235	0	0	0	0	0	0
155	220	who	who	who	4	preview	20	236	0	0	0	0	0	0
156	221	died	died	died	4	preview	20	237	0	0	0	0	0	0
157	222	in	in	in	4	preview	20	238	0	0	0	0	0	0
158	223	2005	2005	2005.	4	preview	20	239	352	0	0	0	0	352
	224	.	.		4	preview	20	240						
159	225	Nagobads	Nagobads	Nagobads	4	preview	20	241	103	0	0	0	0	103
160	226	said	said	said	4	preview	20	242	443	0	0	0	0	443
161	227	that	that	that	4	preview	20	243	0	0	0	0	0	0
162	228	by	by	by	4	preview	20	244	129	0	0	0	0	129
163	229	throwing	throwing	throwing	4	preview	20	245	182	0	0	0	0	182
164	230	his	his	his	4	preview	20	246	0	0	0	0	0	0
165	231	wallet	wallet	wallet	4	preview	20	247	356	0	0	0	0	356
166	232	in	in	in	4	preview	20	248	0	0	0	0	0	0
167	233	attempt	attempt	attempt	4	preview	20	249	159	0	0	0	0	159
168	234	to	to	to	4	preview	20	250	198	0	0	0	0	198
169	235	distract	distract	distract	4	preview	20	251	249	0	0	0	0	249
170	236	the	the	the	4	preview	20	252	138	0	0	0	0	138
171	237	teen	teen	teen	4	preview	20	253	0	0	0	0	0	0
172	238	he	he	he	4	preview	20	254	0	0	0	0	0	0
173	239	was	was	was	4	preview	20	255	0	0	0	0	0	0
174	240	able	able	able	4	preview	20	256	200	0	0	0	0	200
175	241	to	to	to	4	preview	20	257	117	0	0	0	0	117
176	242	get	get	get	4	preview	20	258	0	0	0	0	0	0
177	243	away	away	away	4	preview	20	259	155	155	2781	155	155	0
178	244	without	without	without	4	preview	20	260	128	128	128	128	128	0
179	245	further	further	further	4	preview	20	261	192	192	192	192	192	0
180	246	harm	harm	harm.	4	preview	20	262	0	0	0	0	0	0
	247	.	.		4	preview	20	263						
181	248	-	-	-I-m	4	preview	20	264	0	0	0	0	0	0
	249	I	I		4	preview	20	265						
	250	’m	’m		4	preview	20	266						
182	251	so	so	so	4	preview	20	267	218	218	218	218	218	0
183	252	lucky	lucky	lucky.	4	preview	20	268	0	0	0	0	0	0
	253	.	.		4	preview	20	269						
184	254	…	…	...	4	preview	20	270	0	0	0	0	0	0
185	255	I	I	I	4	preview	20	271	0	0	0	0	0	0
186	256	used	used	used	4	preview	20	272	278	278	278	278	278	0
187	257	that	that	that	4	preview	20	273	0	0	0	0	0	0
188	258	little	little	little	4	preview	20	274	0	0	0	0	0	0
189	259	trick	trick	trick	4	preview	20	275	232	0	0	0	0	232
190	260	and	and	and	4	preview	20	276	139	139	371	139	139	0
191	261	threw	threw	threw	4	preview	20	277	220	220	220	220	220	0
192	262	the	the	the	4	preview	20	278	0	0	0	0	0	0
193	263	wallet	wallet	wallet	4	preview	20	279	100	100	100	100	100	0
194	264	to	to	to	4	preview	20	280	0	0	0	0	0	0
195	265	get	get	get	4	preview	20	281	0	0	0	0	0	0
196	266	to	to	to	4	preview	20	282	229	229	229	229	229	0
197	267	my	my	my	4	preview	20	283	0	0	0	0	0	0
198	268	car	car	car-	4	preview	20	284	0	0	0	0	0	0
	269	-	-		4	preview	20	285						
199	270	about	about	about	4	preview	20	286	346	346	346	346	346	0
200	271	40	40	40	4	preview	20	287	0	0	0	0	0	0
201	272	yards	yards	yards	4	preview	20	288	189	189	189	189	189	0
202	273	away	away	away,	4	preview	20	289	0	0	0	0	0	0
	274	,	,		4	preview	20	290						
203	275	the	the	the	4	preview	20	291	183	183	183	183	183	0
204	276	doctor	doctor	doctor	4	preview	20	292	0	0	0	0	0	0
205	277	said	said	said.	4	preview	20	293	107	107	107	107	107	0
	278	.	.		4	preview	20	294						
206	279	As	As	As	4	preview	20	295	0	0	0	0	0	0
207	280	the	the	the	4	preview	20	296	0	0	0	0	0	0
208	281	boy	boy	boy	4	preview	20	297	257	257	257	257	257	0
209	282	picked	picked	picked	4	preview	20	298	0	0	0	0	0	0
210	283	up	up	up	4	preview	20	299	0	0	0	0	0	0
211	284	the	the	the	4	preview	20	300	0	0	0	0	0	0
212	285	wallet	wallet	wallet,	4	preview	20	301	98	98	98	98	98	0
	286	,	,		4	preview	20	302						
213	287	@entity31	Nagobads	Nagobads	4	preview	20	303	105	105	105	105	105	0
214	288	continued	continued	continued,	4	preview	20	304	188	188	188	188	188	0
	289	,	,		4	preview	20	305						
215	290	-	-	-I	4	preview	20	306	0	0	0	0	0	0
	291	I	I		4	preview	20	307						
216	292	was	was	was	4	preview	20	308	0	0	0	0	0	0
217	293	running	running	running	4	preview	20	309	382	172	172	172	172	210
218	294	…	…	...	4	preview	20	310	0	0	0	0	0	0
219	295	really	really	really	4	preview	20	311	388	388	598	388	388	0
220	296	fast	fast	fast.	4	preview	20	312	130	130	130	130	130	0
	297	.	.		4	preview	20	313						
221	298	I	I	I	4	preview	20	314	0	0	0	0	0	0
222	299	was	was	was	4	preview	20	315	0	0	0	0	0	0
223	300	surprised	surprised	surprised	4	preview	20	316	234	234	234	234	234	0
224	301	how	how	how	4	preview	20	317	0	0	0	0	0	0
225	302	I	I	I	4	preview	20	318	0	0	0	0	0	0
226	303	could	could	could	4	preview	20	319	0	0	0	0	0	0
227	304	run	run	run	4	preview	20	320	230	230	230	230	230	0
228	305	like	like	like	4	preview	20	321	0	0	0	0	0	0
229	306	this	this	this.-	4	preview	20	322	150	150	150	150	150	0
	307	.	.		4	preview	20	323						
230	308	-	-	Nagobads	4	preview	20	324	0	0	0	0	0	0
	309	Victory	Victory		4	preview	20	325						
	310	:	:		4	preview	20	326						
	311	He	He		4	preview	20	327						
	312	was	was		4	preview	20	328						
	313	the	the		4	preview	20	329						
	314	doctor	doctor		4	preview	20	330						
	315	fro	fro		4	preview	20	331						
	316	the	the		4	preview	20	332						
	317	-	-		4	preview	20	333						
	318	@entity8	Miracle		4	preview	20	334						
			on		4	preview	20	335						
			Ice		4	preview	20	336						
	319	-	-		4	preview	20	337						
	320	team	team		4	preview	20	338						
	321	that	that		4	preview	20	339						
	322	won	won		4	preview	20	340						
	323	the	the		4	preview	20	341						
	324	improbable	improbable		4	preview	20	342						
	325	gold	gold		4	preview	20	343						
	326	medal	medal		4	preview	20	344						
	327	in	in		4	preview	20	345						
	328	@entity62	Lake		4	preview	20	346						
	329	@entity8	Placid		4	preview	20	347						
			Miracle		4	preview	20	348						
			on		4	preview	20	349						
			Ice		4	preview	20	350						
	330	:	:		4	preview	20	351						
	331	Nagobads	Nagobads		4	preview	20	352						
231	332	was	was	said	4	preview	20	353	564	0	0	0	0	564
232	333	team	team	that	4	preview	20	354	302	302	666	302	302	0
233	334	doctor	doctor	he	4	preview	20	355	408	408	408	408	408	0
	335	for	for		4	preview	20	356						
234	336	the	the	bled	4	preview	20	357	103	103	303	103	103	0
235	337	famous	famous	heavily	4	preview	20	358	153	153	153	153	153	0
	338	-	-		4	preview	20	359						
	339	@entity8	Miracle		4	preview	20	360						
			on		4	preview	20	361						
			Ice		4	preview	20	362						
	340	-	-		4	preview	20	363						
	341	team	team		4	preview	20	364						
	342	that	that		4	preview	20	365						
	343	won	won		4	preview	20	366						
	344	@entity4	Olympic		4	preview	20	367						
	345	gold	gold		4	preview	20	368						
	346	in	in		4	preview	20	369						
	347	1980	1980		4	preview	20	370						
	348	and	and		4	preview	20	371						
	349	that	that		4	preview	20	372						
	350	inspired	inspired		4	preview	20	373						
	351	the	the		4	preview	20	374						
	352	2004	2004		4	preview	20	375						
	353	movie	movie		4	preview	20	376						
	354	-	-		4	preview	20	377						
	355	Miracle	Miracle		4	preview	20	378						
	356	-	-		4	preview	20	379						
	357	@entity13	Nagobads		4	preview	20	380						
	358	said	said		4	preview	20	381						
	359	that	that		4	preview	20	382						
	360	he	he		4	preview	20	383						
	361	bled	bled		4	preview	20	384						
	362	heavily	heavily		4	preview	20	385						
236	363	while	while	while	4	preview	20	386	0	0	0	0	0	0
237	364	behind	behind	behind	4	preview	20	387	0	0	0	0	0	0
238	365	the	the	the	4	preview	20	388	246	246	246	246	246	0
239	366	wheel	wheel	wheel	4	preview	20	389	0	0	0	0	0	0
240	367	of	of	of	4	preview	20	390	0	0	0	0	0	0
241	368	his	his	his	4	preview	20	391	0	0	0	0	0	0
242	369	car	car	car	4	preview	20	392	272	272	272	272	272	0
243	370	and	and	and	4	preview	20	393	0	0	0	0	0	0
244	371	risked	risked	risked	4	preview	20	394	161	161	161	161	161	0
245	372	being	being	being	4	preview	20	395	0	0	0	0	0	0
246	373	stopped	stopped	stopped	4	preview	20	396	235	235	235	235	235	0
247	374	by	by	by	4	preview	20	397	0	0	0	0	0	0
248	375	a	a	a	4	preview	20	398	0	0	0	0	0	0
249	376	cop	cop	cop.	4	preview	20	399	0	0	0	0	0	0
	377	.	.		4	preview	20	400						
250	378	-	-	-I	4	preview	20	401	0	0	0	0	0	0
	379	I	I		4	preview	20	402						
251	380	drove	drove	drove	4	preview	20	403	251	251	251	251	251	0
252	381	way	way	way	4	preview	20	404	0	0	0	0	0	0
253	382	over	over	over	4	preview	20	405	0	0	0	0	0	0
254	383	the	the	the	4	preview	20	406	0	0	0	0	0	0
255	384	speed	speed	speed	4	preview	20	407	0	0	0	0	0	0
256	385	limit	limit	limit.	4	preview	20	408	194	194	194	194	194	0
	386	.	.		4	preview	20	409						
257	387	If	If	If	4	preview	20	410	0	0	0	0	0	0
258	388	a	a	a	4	preview	20	411	0	0	0	0	0	0
259	389	cop	cop	cop	4	preview	20	412	0	0	0	0	0	0
260	390	catches	catches	catches	4	preview	20	413	298	298	298	298	298	0
261	391	me	me	me,	4	preview	20	414	0	0	0	0	0	0
	392	,	,		4	preview	20	415						
262	393	that	that	that-s	4	preview	20	416	0	0	0	0	0	0
	394	’s	’s		4	preview	20	417						
263	395	fine	fine	fine,-	4	preview	20	418	221	221	221	221	221	0
	396	,	,		4	preview	20	419						
264	397	-	-	he	4	preview	20	420	0	0	0	0	0	0
265	398	he	he	said	4	preview	20	421	95	95	95	95	95	0
	399	said	said		4	preview	20	422						
266	400	he	he	he	4	preview	20	423	0	0	0	0	0	0
267	401	thought	thought	thought	4	preview	20	424	0	0	0	0	0	0
268	402	after	after	after	4	preview	20	425	180	180	180	180	180	0
269	403	the	the	the	4	preview	20	426	0	0	0	0	0	0
270	404	attack	attack	attack	4	preview	20	427	0	0	0	0	0	0
271	405	on	on	on	4	preview	20	428	0	0	0	0	0	0
272	406	Sunday	Sunday	Sunday.	4	preview	20	429	366	366	366	228	366	0
	407	.	.		4	preview	20	430						
273	408	Witness	Witness	Witness	4	preview	20	431	0	0	0	0	0	0
274	409	@entity76	Justin	Justin	4	preview	20	432	198	198	198	198	198	0
275			McCarthy	McCarthy	4	preview	20	433	0	0	0	0	0	0
276	410	says	says	says	4	preview	20	434	0	0	0	0	0	0
277	411	he	he	he	4	preview	20	435	254	254	254	254	254	0
278	412	saw	saw	saw	4	preview	20	436	0	0	0	0	0	0
279	413	a	a	a	4	preview	20	437	0	0	0	0	0	0
280	414	young	young	young	4	preview	20	438	196	196	196	196	196	0
281	415	man	man	man	4	preview	20	439	0	0	0	0	0	0
282	416	around	around	around	4	preview	20	440	237	237	237	237	237	0
283	417	the	the	the	4	preview	20	441	0	0	0	0	0	0
284	418	age	age	age	4	preview	20	442	0	0	0	0	0	0
285	419	of	of	of	4	preview	20	443	0	0	0	0	0	0
286	420	14	14	14	4	preview	20	444	173	173	173	173	173	0
287	421	or	or	or	4	preview	20	445	0	0	0	0	0	0
288	422	15	15	15	4	preview	20	446	0	0	0	0	0	0
289	423	looking	looking	looking	4	preview	20	447	0	0	0	0	0	0
290	424	through	through	through	4	preview	20	448	215	215	215	215	215	0
291	425	a	a	a	4	preview	20	449	0	0	0	0	0	0
292	426	wallet	wallet	wallet	4	preview	20	450	243	243	243	243	243	0
293	427	near	near	near	4	preview	20	451	0	0	0	0	0	0
294	428	the	the	the	4	preview	20	452	0	0	0	0	0	0
295	429	mausoleum	mausoleum	mausoleum	4	preview	20	453	169	169	169	169	169	0
296	430	before	before	before	4	preview	20	454	0	0	0	0	0	0
297	431	fleeing	fleeing	fleeing	4	preview	20	455	253	0	0	0	0	253
298	432	by	by	by	4	preview	20	456	0	0	0	0	0	0
299	433	bicycle	bicycle	bicycle	4	preview	20	457	0	0	0	0	0	0
300	434	and	and	and	4	preview	20	458	177	0	0	0	0	177
301	435	jumping	jumping	jumping	4	preview	20	459	0	0	0	0	0	0
302	436	over	over	over	4	preview	20	460	0	0	0	0	0	0
303	437	a	a	a	4	preview	20	461	0	0	0	0	0	0
304	438	fence	fence	fence.	4	preview	20	462	268	268	268	268	268	0
	439	.	.		4	preview	20	463						
305	440	-	-	-I	4	preview	20	464	0	0	0	0	0	0
	441	I	I		4	preview	20	465						
306	442	saw	saw	saw	4	preview	20	466	0	0	0	0	0	0
307	443	the	the	the	4	preview	20	467	240	240	670	240	240	0
308	444	kid	kid	kid	4	preview	20	468	0	0	0	0	0	0
309	445	there	there	there.	4	preview	20	469	0	0	0	0	0	0
	446	.	.		4	preview	20	470						
310	447	I	I	I	4	preview	20	471	0	0	0	0	0	0
311	448	put	put	put	4	preview	20	472	0	0	0	0	0	0
312	449	two	two	two	4	preview	20	473	0	0	0	0	0	0
313	450	and	and	and	4	preview	20	474	0	0	0	0	0	0
314	451	two	two	two	4	preview	20	475	98	0	0	0	0	98
315	452	together	together	together,	4	preview	20	476	200	0	0	0	0	200
	453	,	,		4	preview	20	477						
316	454	and	and	and	4	preview	20	478	173	0	0	0	0	173
317	455	I	I	I	4	preview	20	479	0	0	0	0	0	0
318	456	just	just	just	4	preview	20	480	0	0	0	0	0	0
319	457	got	got	got	4	preview	20	481	0	0	0	0	0	0
320	458	really	really	really	4	preview	20	482	285	0	0	0	0	285
321	459	mad	mad	mad,-	4	preview	20	483	0	0	0	0	0	0
	460	,	,		4	preview	20	484						
322	461	-	-	said	4	preview	20	485	320	320	320	320	320	0
	462	said	said		4	preview	20	486						
323	463	@entity76	McCarthy	McCarthy.	4	preview	20	487	225	225	225	225	225	0
	464	.	.		4	preview	20	488						
324	465	@entity76	McCarthy	McCarthy	4	preview	20	489	169	169	169	169	169	0
325	466	said	said	said	4	preview	20	490	0	0	0	0	0	0
326	467	he	he	he	4	preview	20	491	0	0	0	0	0	0
327	468	chased	chased	chased	4	preview	20	492	190	190	946	190	190	0
328	469	the	the	the	4	preview	20	493	0	0	0	0	0	0
329	470	teen	teen	teen	4	preview	20	494	0	0	0	0	0	0
330	471	but	but	but	4	preview	20	495	0	0	0	0	0	0
331	472	not	not	not	4	preview	20	496	0	0	0	0	0	0
332	473	very	very	very	4	preview	20	497	0	0	0	0	0	0
333	474	far	far	far.	4	preview	20	498	0	0	0	0	0	0
	475	.	.		4	preview	20	499						
334	476	-	-	-I-m	4	preview	20	500	0	0	0	0	0	0
	477	I	I		4	preview	20	501						
	478	’m	’m		4	preview	20	502						
335	479	52	52	52	4	preview	20	503	0	0	0	0	0	0
336	480	and	and	and	4	preview	20	504	0	0	0	0	0	0
337	481	I	I	I-m	4	preview	20	505	0	0	0	0	0	0
	482	’m	’m		4	preview	20	506						
338	483	kind	kind	kind	4	preview	20	507	194	194	194	194	194	0
339	484	of	of	of	4	preview	20	508	0	0	0	0	0	0
340	485	fat	fat	fat.	4	preview	20	509	171	171	171	171	171	0
	486	.	.		4	preview	20	510						
341	487	It	It	It	4	preview	20	511	0	0	0	0	0	0
342	488	was	was	wasn-t	4	preview	20	512	165	165	165	165	165	0
	489	n’t	n’t		4	preview	20	513						
343	490	going	going	going	4	preview	20	514	0	0	0	0	0	0
344	491	to	to	to	4	preview	20	515	205	205	205	205	205	0
345	492	happen	happen	happen.	4	preview	20	516	0	0	0	0	0	0
	493	.	.		4	preview	20	517						
346	494	…	…	...	4	preview	20	518	0	0	0	0	0	0
347	495	I	I	I	4	preview	20	519	0	0	0	0	0	0
348	496	was	was	was	4	preview	20	520	0	0	0	0	0	0
349	497	completely	completely	completely	4	preview	20	521	179	179	179	179	179	0
350	498	exhausted	exhausted	exhausted,-	4	preview	20	522	209	209	209	209	209	0
	499	,	,		4	preview	20	523						
351	500	-	-	said	4	preview	20	524	0	0	0	0	0	0
	501	said	said		4	preview	20	525						
352	502	@entity76	McCarthy	McCarthy.	4	preview	20	526	0	0	0	0	0	0
	503	.	.		4	preview	20	527						
353	504	@entity87	Mccarthy	McCarthy	4	preview	20	528	573	0	0	0	0	573
354	505	said	said	said	4	preview	20	529	0	0	0	0	0	0
355	506	that	that	that	4	preview	20	530	209	0	0	0	0	209
356	507	@entity13	Nagobads	Nagobads	4	preview	20	531	0	0	0	0	0	0
357	508	told	told	told	4	preview	20	532	228	0	0	0	0	228
358	509	him	him	him,	4	preview	20	533	0	0	0	0	0	0
	510	,	,		4	preview	20	534						
359	511	-	-	-I	4	preview	20	535	0	0	0	0	0	0
	512	I	I		4	preview	20	536						
360	513	gave	gave	gave	4	preview	20	537	444	179	179	179	179	265
361	514	him	him	him	4	preview	20	538	0	0	0	0	0	0
362	515	my	my	my	4	preview	20	539	182	182	297	182	182	0
363	516	wallet	wallet	wallet,	4	preview	20	540	0	0	0	0	0	0
	517	,	,		4	preview	20	541						
364	518	and	and	and	4	preview	20	542	369	369	1250	369	369	0
365	519	he	he	he	4	preview	20	543	151	151	151	151	151	0
366	520	still	still	still	4	preview	20	544	0	0	0	0	0	0
367	521	tried	tried	tried	4	preview	20	545	178	0	0	0	0	178
368	522	to	to	to	4	preview	20	546	0	0	0	0	0	0
369	523	kill	kill	kill	4	preview	20	547	142	142	320	142	142	0
370	524	me	me	me.-	4	preview	20	548	0	0	0	0	0	0
	525	.	.		4	preview	20	549						
371	526	’	’	Nagobads	4	preview	20	550	117	117	117	117	117	0
	527	@entity13	Nagobads		4	preview	20	551						
372	528	was	was	was	4	preview	20	552	0	0	0	0	0	0
373	529	the	the	the	4	preview	20	553	0	0	0	0	0	0
374	530	@entity89	University	University	4	preview	20	554	209	209	209	209	209	0
375			of	of	4	preview	20	555	0	0	0	0	0	0
376			Minnesota	Minnesota	4	preview	20	556	161	161	161	161	161	0
377	531	men	men	men-s	4	preview	20	557	114	114	114	114	114	0
	532	-s	-s		4	preview	20	558						
378	533	hockey	hockey	hockey	4	preview	20	559	101	101	101	101	101	0
379	534	team	team	team	4	preview	20	560	0	0	0	0	0	0
380	535	physician	physician	physician	4	preview	20	561	221	0	0	0	0	221
381	536	for	for	for	4	preview	20	562	121	121	342	121	121	0
382	537	34	34	34	4	preview	20	563	0	0	0	0	0	0
383	538	years	years	years	4	preview	20	564	0	0	0	0	0	0
384	539	until	until	until	4	preview	20	565	0	0	0	0	0	0
385	540	his	his	his	4	preview	20	566	303	303	303	303	303	0
386	541	retirement	retirement	retirement	4	preview	20	567	0	0	0	0	0	0
387	542	in	in	in	4	preview	20	568	0	0	0	0	0	0
388	543	1992	1992	1992.	4	preview	20	569	157	157	157	157	157	0
	544	.	.		4	preview	20	570						
389	545	He	He	He	4	preview	20	571	0	0	0	0	0	0
390	546	also	also	also	4	preview	20	572	201	201	201	201	201	0
391	547	worked	worked	worked	4	preview	20	573	0	0	0	0	0	0
392	548	for	for	for	4	preview	20	574	0	0	0	0	0	0
393	549	the	the	the	4	preview	20	575	111	111	111	111	111	0
394	550	@entity93	Minnesota	Minnesota	4	preview	20	576	0	0	0	0	0	0
395			North	North	4	preview	20	577	170	170	170	170	170	0
396			Stars	Stars	4	preview	20	578	0	0	170	0	0	0
397	551	in	in	in	4	preview	20	579	0	0	0	0	0	0
398	552	the	the	the	4	preview	20	580	0	0	0	0	0	0
399	553	late	late	late	4	preview	20	581	234	234	234	234	234	0
400	554	1980s	1980s	1980s	4	preview	20	582	0	0	0	0	0	0
401	555	and	and	and	4	preview	20	583	148	148	148	148	148	0
402	556	early	early	early	4	preview	20	584	0	0	0	0	0	0
403	557	1990s	1990s	1990s.	4	preview	20	585	160	160	160	160	160	0
	558	.	.		4	preview	20	586						
404	559	And	And	And	4	preview	20	587	0	0	0	0	0	0
405	560	he	he	he	4	preview	20	588	176	176	176	176	176	0
406	561	was	was	was	4	preview	20	589	0	0	0	0	0	0
407	562	team	team	team	4	preview	20	590	240	240	240	240	240	0
408	563	doctor	doctor	doctor	4	preview	20	591	0	0	0	0	0	0
409	564	for	for	for	4	preview	20	592	0	0	0	0	0	0
410	565	the	the	the	4	preview	20	593	201	201	201	201	201	0
411	566	famous	famous	famous	4	preview	20	594	0	0	0	0	0	0
412	567	-	-	-Miracle	4	preview	20	595	235	235	235	235	235	0
	568	@entity8	Miracle		4	preview	20	596						
413			on	on	4	preview	20	597	0	0	0	0	0	0
414			Ice	Ice-	4	preview	20	598	164	164	164	164	164	0
	569	-	-		4	preview	20	599						
415	570	team	team	team	4	preview	20	600	0	0	0	0	0	0
416	571	that	that	that	4	preview	20	601	0	0	0	0	0	0
417	572	won	won	won	4	preview	20	602	0	0	0	0	0	0
418	573	@entity4	Olympic	Olympic	4	preview	20	603	0	0	0	0	0	0
419	574	gold	gold	gold	4	preview	20	604	0	0	0	0	0	0
420	575	in	in	in	4	preview	20	605	147	147	147	147	147	0
421	576	1980	1980	1980.	4	preview	20	606	0	0	0	0	0	0
	577	.	.		4	preview	20	607						
422	578	He	He	He	4	preview	20	608	180	180	180	180	180	0
423	579	was	was	was	4	preview	20	609	0	0	0	0	0	0
424	580	played	played	played	4	preview	20	610	157	157	157	157	157	0
425	581	by	by	by	4	preview	20	611	0	0	0	0	0	0
426	582	@entity96	Kenneth	Kenneth	4	preview	20	612	267	267	267	267	267	0
427			Welsh	Welsh	4	preview	20	613	0	0	0	0	0	0
428	583	in	in	in	4	preview	20	614	0	0	0	0	0	0
429	584	the	the	the	4	preview	20	615	0	0	0	0	0	0
430	585	2004	2004	2004	4	preview	20	616	295	295	295	295	295	0
431	586	movie	movie	movie	4	preview	20	617	0	0	0	0	0	0
432	587	-	-	-Miracle,-	4	preview	20	618	225	225	225	225	225	0
	588	@entity98	Miracle		4	preview	20	619						
	589	,	,		4	preview	20	620						
433	590	-	-	about	4	preview	20	621	154	0	0	0	0	154
	591	about	about		4	preview	20	622						
434	592	the	the	the	4	preview	20	623	118	118	272	118	118	0
435	593	@entity6	USA	USA-s	4	preview	20	624	0	0	0	0	0	0
	594	’s	’s		4	preview	20	625						
436	595	improbable	improbable	improbable	4	preview	20	626	0	0	154	0	0	0
437	596	gold	gold	gold	4	preview	20	627	243	243	243	243	243	0
438	597	medal	medal	medal	4	preview	20	628	0	0	0	0	0	0
439	598	run	run	run	4	preview	20	629	167	167	167	167	167	0
440	599	in	in	in	4	preview	20	630	0	0	0	0	0	0
441	600	@entity62	Lake	Lake	4	preview	20	631	0	0	0	0	0	0
442			Placid	Placid.	4	preview	20	632	0	0	0	0	0	0
	601	.	.		4	preview	20	633						
443	602	The	The	The	4	preview	20	634	245	245	245	245	245	0
444	603	cemetery	cemetery	cemetery	4	preview	20	635	216	216	216	216	216	0
445	604	is	is	is	4	preview	20	636	0	0	0	0	0	0
446	605	owned	owned	owned	4	preview	20	637	235	235	235	235	235	0
447	606	by	by	by	4	preview	20	638	0	0	0	0	0	0
448	607	@entity101	Bill	Bill	4	preview	20	639	0	0	0	0	0	0
449			McReavy	McReavy,	4	preview	20	640	202	202	202	202	202	0
	608	,	,		4	preview	20	641						
450	609	who	who	who	4	preview	20	642	0	0	0	0	0	0
451	610	said	said	said,	4	preview	20	643	161	161	161	161	161	0
	611	,	,		4	preview	20	644						
452	612	-	-	-This	4	preview	20	645	104	0	0	0	0	104
	613	This	This		4	preview	20	646						
453	614	is	is	is	4	preview	20	647	0	0	0	0	0	0
454	615	an	an	an	4	preview	20	648	239	239	239	239	239	0
455	616	isolated	isolated	isolated	4	preview	20	649	148	0	0	0	0	148
456	617	incident	incident	incident	4	preview	20	650	179	0	0	0	0	179
457	618	and	and	and	4	preview	20	651	149	149	328	149	149	0
458	619	we	we	we	4	preview	20	652	0	0	0	0	0	0
459	620	are	are	are	4	preview	20	653	0	0	0	0	0	0
460	621	looking	looking	looking	4	preview	20	654	167	167	698	167	167	0
461	622	at	at	at	4	preview	20	655	0	0	0	0	0	0
462	623	it	it	it	4	preview	20	656	0	0	0	0	0	0
463	624	very	very	very	4	preview	20	657	0	0	0	0	0	0
464	625	closely	closely	closely.-	4	preview	20	658	0	0	0	0	0	0
	626	.	.		4	preview	20	659						
465	627	-	-	Unfortunately,	4	preview	20	660	0	0	0	0	0	0
	628	Unfortunately	Unfortunately		4	preview	20	661						
	629	,	,		4	preview	20	662						
466	630	It	It	it	4	preview	20	663	0	0	0	0	0	0
467	631	was	was	wasn-t	4	preview	20	664	0	0	0	0	0	0
	632	n-t	n-t		4	preview	20	665						
468	633	captured	captured	captured	4	preview	20	666	0	0	0	0	0	0
469	634	on	on	on	4	preview	20	667	0	0	0	0	0	0
470	635	security	security	security	4	preview	20	668	0	0	0	0	0	0
471	636	video	video	video.	4	preview	20	669	0	0	0	0	0	0
	637	.	.		4	preview	20	670						
