HumanPosition	AnonymizedPosition	AnonymizedToken	OriginalToken	ExperimentToken	Participant	Condition	TextNo	JointPosition	tt	fp	rp	ff	rb	sp
1	0	(	(	Blues	5	preview	5	1	268	0	0	0	0	268
	1	@entity2	CNN		5	preview	5	2						
	2	)	)		5	preview	5	3						
	3	@entity1	Blues		5	preview	5	4						
2	4	legend	legend	legend	5	preview	5	5	1300	274	274	274	274	1026
3	5	@entity0	B.B.	B.B.	5	preview	5	6	646	0	0	0	0	646
4			King	King	5	preview	5	7	174	0	0	0	0	174
5	6	was	was	was	5	preview	5	8	0	0	0	0	0	0
6	7	hospitalized	hospitalized	hospitalized	5	preview	5	9	416	231	2308	231	416	185
7	8	for	for	for	5	preview	5	10	0	0	0	0	0	0
8	9	dehydration	dehydration	dehydration,	5	preview	5	11	144	144	144	144	144	0
	10	,	,		5	preview	5	12						
9	11	though	though	though	5	preview	5	13	222	222	222	222	222	0
10	12	the	the	the	5	preview	5	14	0	0	0	0	0	0
11	13	ailment	ailment	ailment	5	preview	5	15	293	293	515	293	293	0
12	14	did	did	didn-t	5	preview	5	16	0	0	0	0	0	0
	15	n-t	n-t		5	preview	5	17						
13	16	keep	keep	keep	5	preview	5	18	0	0	0	0	0	0
14	17	him	him	him	5	preview	5	19	0	0	0	0	0	0
15	18	out	out	out	5	preview	5	20	0	0	0	0	0	0
16	19	for	for	for	5	preview	5	21	154	0	0	0	0	154
17	20	long	long	long.	5	preview	5	22	331	331	331	163	331	0
	21	.	.		5	preview	5	23						
18	22	@entity0	King	King-s	5	preview	5	24	0	0	0	0	0	0
	23	-s	-s		5	preview	5	25						
19	24	dehydration	dehydration	dehydration	5	preview	5	26	186	186	186	186	186	0
20	25	was	was	was	5	preview	5	27	0	0	0	0	0	0
21	26	caused	caused	caused	5	preview	5	28	0	0	0	0	0	0
22	27	by	by	by	5	preview	5	29	166	166	166	166	166	0
23	28	his	his	his	5	preview	5	30	0	0	0	0	0	0
24	29	Type	Type	Type	5	preview	5	31	340	0	0	0	0	340
25	30	II	II	II	5	preview	5	32	449	219	219	219	219	230
26	31	diabetes	diabetes	diabetes,	5	preview	5	33	280	280	280	280	280	0
	32	,	,		5	preview	5	34						
27	33	but	but	but	5	preview	5	35	121	121	275	121	121	0
28	34	he	he	he	5	preview	5	36	0	0	0	0	0	0
29	35	-	-	-is	5	preview	5	37	0	0	0	0	0	0
	36	is	is		5	preview	5	38						
30	37	much	much	much	5	preview	5	39	0	0	0	0	0	0
31	38	better	better	better,-	5	preview	5	40	0	0	0	0	0	0
	39	,	,		5	preview	5	41						
	40	-	-		5	preview	5	42						
32	41	his	his	his	5	preview	5	43	0	0	0	0	0	0
33	42	daughter	daughter	daughter,	5	preview	5	44	0	0	0	0	0	0
	43	,	,		5	preview	5	45						
34	44	@entity6	Claudette	Claudette	5	preview	5	46	214	214	214	214	214	0
35			King	King,	5	preview	5	47	0	0	0	0	0	0
	45	,	,		5	preview	5	48						
36	46	told	told	told	5	preview	5	49	0	0	0	0	0	0
37	47	the	the	the	5	preview	5	50	0	0	0	0	0	0
38	48	@entity9	Los	Los	5	preview	5	51	0	0	0	0	0	0
39			Angeles	Angeles	5	preview	5	52	0	0	0	0	0	0
40			Times	Times.	5	preview	5	53	281	281	281	281	281	0
	49	.	.		5	preview	5	54						
41	50	The	The	The	5	preview	5	55	0	0	0	0	0	0
42	51	legendary	legendary	legendary	5	preview	5	56	0	0	0	0	0	0
43	52	guitarist	guitarist	guitarist	5	preview	5	57	310	310	310	171	310	0
44	53	and	and	and	5	preview	5	58	0	0	0	0	0	0
45	54	vocalist	vocalist	vocalist	5	preview	5	59	0	0	0	0	0	0
46	55	released	released	released	5	preview	5	60	0	0	0	0	0	0
47	56	a	a	a	5	preview	5	61	0	0	0	0	0	0
48	57	statement	statement	statement	5	preview	5	62	0	0	0	0	0	0
49	58	thanking	thanking	thanking	5	preview	5	63	0	0	0	0	0	0
50	59	those	those	those	5	preview	5	64	0	0	0	0	0	0
51	60	who	who	who	5	preview	5	65	0	0	0	0	0	0
52	61	have	have	have	5	preview	5	66	0	0	0	0	0	0
53	62	expressed	expressed	expressed	5	preview	5	67	0	0	0	0	0	0
54	63	their	their	their	5	preview	5	68	0	0	0	0	0	0
55	64	concerns	concerns	concerns.	5	preview	5	69	0	0	0	0	0	0
	65	.	.		5	preview	5	70						
56	66	-	-	-I-m	5	preview	5	71	0	0	0	0	0	0
	67	I	I		5	preview	5	72						
	68	-m	-m		5	preview	5	73						
57	69	feeling	feeling	feeling	5	preview	5	74	0	0	0	0	0	0
58	70	much	much	much	5	preview	5	75	0	0	0	0	0	0
59	71	better	better	better	5	preview	5	76	0	0	0	0	0	0
60	72	and	and	and	5	preview	5	77	0	0	0	0	0	0
61	73	am	am	am	5	preview	5	78	0	0	0	0	0	0
62	74	leaving	leaving	leaving	5	preview	5	79	0	0	0	0	0	0
63	75	the	the	the	5	preview	5	80	0	0	0	0	0	0
64	76	hospital	hospital	hospital	5	preview	5	81	0	0	0	0	0	0
65	77	today	today	today,-	5	preview	5	82	0	0	0	0	0	0
	78	,	,		5	preview	5	83						
	79	-	-		5	preview	5	84						
66	80	@entity0	King	King	5	preview	5	85	0	0	0	0	0	0
67	81	said	said	said	5	preview	5	86	0	0	0	0	0	0
68	82	in	in	in	5	preview	5	87	0	0	0	0	0	0
69	83	a	a	a	5	preview	5	88	0	0	0	0	0	0
70	84	message	message	message	5	preview	5	89	0	0	0	0	0	0
71	85	Tuesday	Tuesday	Tuesday.	5	preview	5	90	227	227	227	227	227	0
	86	.	.		5	preview	5	91						
72	87	@entity17	Angela	Angela	5	preview	5	92	0	0	0	0	0	0
73			Moore	Moore,	5	preview	5	93	227	227	227	227	227	0
	88	,	,		5	preview	5	94						
74	89	a	a	a	5	preview	5	95	0	0	0	0	0	0
75	90	publicist	publicist	publicist	5	preview	5	96	0	0	0	0	0	0
76	91	for	for	for	5	preview	5	97	0	0	0	0	0	0
77	92	@entity6	Claudette	Claudette	5	preview	5	98	0	0	0	0	0	0
78			King	King,	5	preview	5	99	0	0	0	0	0	0
	93	,	,		5	preview	5	100						
79	94	said	said	said	5	preview	5	101	0	0	0	0	0	0
80	95	later	later	later	5	preview	5	102	0	0	0	0	0	0
81	96	in	in	in	5	preview	5	103	0	0	0	0	0	0
82	97	the	the	the	5	preview	5	104	0	0	0	0	0	0
83	98	day	day	day	5	preview	5	105	0	0	0	0	0	0
84	99	that	that	that	5	preview	5	106	0	0	0	0	0	0
85	100	he	he	he	5	preview	5	107	0	0	0	0	0	0
86	101	was	was	was	5	preview	5	108	0	0	0	0	0	0
87	102	back	back	back	5	preview	5	109	0	0	0	0	0	0
88	103	home	home	home	5	preview	5	110	0	0	0	0	0	0
89	104	resting	resting	resting	5	preview	5	111	0	0	0	0	0	0
90	105	and	and	and	5	preview	5	112	0	0	0	0	0	0
91	106	enjoying	enjoying	enjoying	5	preview	5	113	204	204	204	204	204	0
92	107	time	time	time	5	preview	5	114	0	0	0	0	0	0
93	108	with	with	with	5	preview	5	115	0	0	0	0	0	0
94	109	his	his	his	5	preview	5	116	0	0	0	0	0	0
95	110	grandchildren	grandchildren	grandchildren.	5	preview	5	117	0	0	0	0	0	0
	111	.	.		5	preview	5	118						
96	112	-	-	-He	5	preview	5	119	0	0	0	0	0	0
	113	He	He		5	preview	5	120						
97	114	was	was	was	5	preview	5	121	0	0	0	0	0	0
98	115	struggling	struggling	struggling	5	preview	5	122	0	0	0	0	0	0
99	116	before	before	before,	5	preview	5	123	0	0	0	0	0	0
	117	,	,		5	preview	5	124						
100	118	and	and	and	5	preview	5	125	0	0	0	0	0	0
101	119	he	he	he	5	preview	5	126	0	0	0	0	0	0
102	120	is	is	is	5	preview	5	127	0	0	0	0	0	0
103	121	a	a	a	5	preview	5	128	0	0	0	0	0	0
104	122	trouper	trouper	trouper,-	5	preview	5	129	0	0	0	0	0	0
	123	,	,		5	preview	5	130						
	124	-	-		5	preview	5	131						
105	125	@entity17	Moore	Moore	5	preview	5	132	318	318	318	318	318	0
106	126	said	said	said.	5	preview	5	133	0	0	0	0	0	0
	127	.	.		5	preview	5	134						
107	128	-	-	-He	5	preview	5	135	0	0	0	0	0	0
	129	He	He		5	preview	5	136						
108	130	was	was	wasn-t	5	preview	5	137	0	0	0	0	0	0
	131	n-t	n-t		5	preview	5	138						
109	132	going	going	going	5	preview	5	139	0	0	0	0	0	0
110	133	to	to	to	5	preview	5	140	0	0	0	0	0	0
111	134	let	let	let	5	preview	5	141	0	0	0	0	0	0
112	135	his	his	his	5	preview	5	142	0	0	0	0	0	0
113	136	fans	fans	fans	5	preview	5	143	0	0	0	0	0	0
114	137	down	down	down.-	5	preview	5	144	0	0	0	0	0	0
	138	.	.		5	preview	5	145						
115	139	-	-	No	5	preview	5	146	0	0	0	0	0	0
116	140	No	No	more	5	preview	5	147	0	0	0	0	0	0
117	141	more	more	information	5	preview	5	148	0	0	0	0	0	0
	142	information	information		5	preview	5	149						
118	143	on	on	on	5	preview	5	150	0	0	0	0	0	0
119	144	@entity0	King	King-s	5	preview	5	151	0	0	0	0	0	0
	145	-s	-s		5	preview	5	152						
120	146	condition	condition	condition	5	preview	5	153	0	0	0	0	0	0
121	147	or	or	or	5	preview	5	154	0	0	0	0	0	0
122	148	where	where	where	5	preview	5	155	0	0	0	0	0	0
123	149	he	he	he	5	preview	5	156	0	0	0	0	0	0
124	150	was	was	was	5	preview	5	157	0	0	0	0	0	0
125	151	hospitalized	hospitalized	hospitalized	5	preview	5	158	234	0	0	0	0	234
126	152	was	was	was	5	preview	5	159	0	0	0	0	0	0
127	153	immediately	immediately	immediately	5	preview	5	160	199	0	0	0	0	199
128	154	available	available	available.	5	preview	5	161	0	0	0	0	0	0
	155	.	.		5	preview	5	162						
129	156	@entity0	B.B.	B.B.	5	preview	5	163	192	192	625	192	192	0
130	157	is	is	is	5	preview	5	164	0	0	0	0	0	0
131	158	short	short	short	5	preview	5	165	0	0	0	0	0	0
132	159	for	for	for	5	preview	5	166	0	0	0	0	0	0
133	160	@entity24	Blues	Blues	5	preview	5	167	0	0	0	0	0	0
134			Boy	Boy,	5	preview	5	168	0	0	0	0	0	0
	161	,	,		5	preview	5	169						
135	162	part	part	part	5	preview	5	170	0	0	0	0	0	0
136	163	of	of	of	5	preview	5	171	0	0	0	0	0	0
137	164	the	the	the	5	preview	5	172	0	0	0	0	0	0
138	165	name	name	name	5	preview	5	173	0	0	0	0	0	0
139	166	he	he	he	5	preview	5	174	0	0	0	0	0	0
140	167	used	used	used	5	preview	5	175	0	0	0	0	0	0
141	168	as	as	as	5	preview	5	176	0	0	0	0	0	0
142	169	a	a	a	5	preview	5	177	0	0	0	0	0	0
143	170	@entity27	Memphis	Memphis	5	preview	5	178	0	0	0	0	0	0
144	171	disc	disc	disc	5	preview	5	179	0	0	0	0	0	0
145	172	jockey	jockey	jockey,	5	preview	5	180	123	123	123	123	123	0
	173	,	,		5	preview	5	181						
146	174	the	the	the	5	preview	5	182	0	0	0	0	0	0
147	175	@entity0	Beale	Beale	5	preview	5	183	0	0	0	0	0	0
148			Street	Street	5	preview	5	184	141	141	141	141	141	0
149			Blues	Blues	5	preview	5	185	0	0	0	0	0	0
150			Boy	Boy.	5	preview	5	186	123	123	123	123	123	0
	176	.	.		5	preview	5	187						
151	177	He	He	He	5	preview	5	188	0	0	0	0	0	0
152	178	was	was	was	5	preview	5	189	172	172	742	172	172	0
153	179	inducted	inducted	inducted	5	preview	5	190	0	0	0	0	0	0
154	180	into	into	into	5	preview	5	191	99	0	0	0	0	99
155	181	the	the	the	5	preview	5	192	423	0	0	0	0	423
156	182	@entity28	Rock	Rock	5	preview	5	193	240	0	0	0	0	240
157			and	and	5	preview	5	194	178	0	0	0	0	178
158			Roll	Roll	5	preview	5	195	0	0	0	0	0	0
159			Hall	Hall	5	preview	5	196	140	0	0	0	0	140
160			of	of	5	preview	5	197	0	0	0	0	0	0
161			Fame	Fame	5	preview	5	198	0	0	0	0	0	0
162	183	in	in	in	5	preview	5	199	100	0	0	0	0	100
163	184	1987	1987	1987,	5	preview	5	200	118	0	0	0	0	118
	185	,	,		5	preview	5	201						
164	186	and	and	and	5	preview	5	202	0	0	0	0	0	0
165	187	has	has	has	5	preview	5	203	169	0	0	0	0	169
166	188	30	30	30	5	preview	5	204	0	0	0	0	0	0
167	189	@entity30	Grammy	Grammy	5	preview	5	205	0	0	0	0	0	0
168	190	nominations	nominations	nominations.	5	preview	5	206	204	0	0	0	0	204
	191	.	.		5	preview	5	207						
169	192	@entity0	King	King,	5	preview	5	208	0	0	0	0	0	0
	193	,	,		5	preview	5	209						
170	194	89	89	89,	5	preview	5	210	0	0	0	0	0	0
	195	,	,		5	preview	5	211						
171	196	has	has	has	5	preview	5	212	0	0	0	0	0	0
172	197	used	used	used	5	preview	5	213	0	0	0	0	0	0
173	198	various	various	various	5	preview	5	214	0	0	0	0	0	0
174	199	models	models	models	5	preview	5	215	0	0	0	0	0	0
175	200	of	of	of	5	preview	5	216	0	0	0	0	0	0
176	201	@entity33	Gibson	Gibson	5	preview	5	217	242	242	242	242	242	0
177	202	guitars	guitars	guitars	5	preview	5	218	165	165	1836	165	165	0
178	203	over	over	over	5	preview	5	219	0	0	0	0	0	0
179	204	the	the	the	5	preview	5	220	0	0	0	0	0	0
180	205	years	years	years,	5	preview	5	221	0	0	0	0	0	0
	206	,	,		5	preview	5	222						
181	207	and	and	and	5	preview	5	223	0	0	0	0	0	0
182	208	named	named	named	5	preview	5	224	0	0	0	0	0	0
183	209	each	each	each	5	preview	5	225	0	0	0	0	0	0
184	210	one	one	one	5	preview	5	226	0	0	0	0	0	0
185	211	of	of	of	5	preview	5	227	336	0	0	0	0	336
186	212	them	them	them	5	preview	5	228	245	0	0	0	0	245
187	213	@entity35	Lucille	Lucille.	5	preview	5	229	373	0	0	0	0	373
	214	.	.		5	preview	5	230						
188	215	In	In	In	5	preview	5	231	0	0	0	0	0	0
189	216	the	the	the	5	preview	5	232	295	0	0	0	0	295
190	217	1980s	1980s	1980s,	5	preview	5	233	0	0	0	0	0	0
	218	,	,		5	preview	5	234						
191	219	@entity33	Gibson	Gibson	5	preview	5	235	146	146	146	146	146	0
192	220	officially	officially	officially	5	preview	5	236	301	301	301	301	301	0
193	221	dropped	dropped	dropped	5	preview	5	237	0	0	0	0	0	0
194	222	the	the	the	5	preview	5	238	316	169	169	169	169	147
195	223	model	model	model	5	preview	5	239	129	129	1230	129	129	0
196	224	number	number	number	5	preview	5	240	366	366	661	366	366	0
197	225	on	on	on	5	preview	5	241	0	0	0	0	0	0
198	226	the	the	the	5	preview	5	242	0	0	0	0	0	0
199	227	guitar	guitar	guitar	5	preview	5	243	0	0	0	0	0	0
200	228	he	he	he	5	preview	5	244	171	0	0	0	0	171
201	229	used	used	used	5	preview	5	245	181	0	0	0	0	181
202	230	last	last	last	5	preview	5	246	0	0	0	0	0	0
203	231	and	and	and	5	preview	5	247	0	0	0	0	0	0
204	232	most	most	most.	5	preview	5	248	0	0	0	0	0	0
	233	.	.		5	preview	5	249						
205	234	It	It	It	5	preview	5	250	0	0	0	0	0	0
206	235	became	became	became	5	preview	5	251	169	169	169	169	169	0
207	236	a	a	a	5	preview	5	252	0	0	0	0	0	0
208	237	custom	custom	custom-made	5	preview	5	253	228	228	228	228	228	0
	238	-	-		5	preview	5	254						
	239	made	made		5	preview	5	255						
209	240	signature	signature	signature	5	preview	5	256	139	139	491	139	139	0
210	241	model	model	model	5	preview	5	257	0	0	0	0	0	0
211	242	named	named	named	5	preview	5	258	0	0	0	0	0	0
212	243	@entity35	Lucille	Lucille,	5	preview	5	259	0	0	0	0	0	0
	244	,	,		5	preview	5	260						
213	245	manufactured	manufactured	manufactured	5	preview	5	261	0	0	0	0	0	0
214	246	exclusively	exclusively	exclusively	5	preview	5	262	0	0	0	0	0	0
215	247	for	for	for	5	preview	5	263	0	0	0	0	0	0
216	248	the	the	the	5	preview	5	264	0	0	0	0	0	0
217	249	-	-	-King	5	preview	5	265	174	174	174	174	174	0
	250	@entity40	King		5	preview	5	266						
218			of	of	5	preview	5	267	0	0	0	0	0	0
219			the	the	5	preview	5	268	0	0	0	0	0	0
220			Blues	Blues.-	5	preview	5	269	182	182	182	182	182	0
	251	.	.		5	preview	5	270						
221	252	-	-	Some	5	preview	5	271	0	0	0	0	0	0
	253	Some	Some		5	preview	5	272						
222	254	of	of	of	5	preview	5	273	0	0	0	0	0	0
223	255	his	his	his	5	preview	5	274	174	174	174	174	174	0
224	256	hits	hits	hits	5	preview	5	275	304	304	304	304	304	0
225	257	include	include	include	5	preview	5	276	0	0	0	0	0	0
226	258	-	-	-The	5	preview	5	277	0	0	0	0	0	0
	259	The	The		5	preview	5	278						
227	260	Thrill	Thrill	Thrill	5	preview	5	279	0	0	0	0	0	0
228	261	Is	Is	Is	5	preview	5	280	0	0	0	0	0	0
229	262	Gone	Gone	Gone,-	5	preview	5	281	0	0	0	0	0	0
	263	,	,		5	preview	5	282						
	264	-	-		5	preview	5	283						
230	265	which	which	which	5	preview	5	284	0	0	0	0	0	0
231	266	won	won	won	5	preview	5	285	0	0	0	0	0	0
232	267	him	him	him	5	preview	5	286	0	0	0	0	0	0
233	268	his	his	his	5	preview	5	287	0	0	0	0	0	0
234	269	first	first	first	5	preview	5	288	0	0	0	0	0	0
235	270	Grammy	Grammy	Grammy	5	preview	5	289	0	0	0	0	0	0
236	271	in	in	in	5	preview	5	290	0	0	0	0	0	0
237	272	1970	1970	1970,	5	preview	5	291	128	0	0	0	0	128
	273	,	,		5	preview	5	292						
238	274	-	-	-There	5	preview	5	293	0	0	0	0	0	0
	275	@entity44	There		5	preview	5	294						
239			Must	Must	5	preview	5	295	0	0	0	0	0	0
240			be	be	5	preview	5	296	0	0	0	0	0	0
241			a	a	5	preview	5	297	0	0	0	0	0	0
242			Better	Better	5	preview	5	298	0	0	0	0	0	0
243			World	World	5	preview	5	299	0	0	0	0	0	0
244			Somewhere	Somewhere-	5	preview	5	300	0	0	0	0	0	0
	276	-	-		5	preview	5	301						
245	277	and	and	and	5	preview	5	302	0	0	0	0	0	0
246	278	-	-	-When	5	preview	5	303	0	0	0	0	0	0
	279	@entity45	When		5	preview	5	304						
247			Love	Love	5	preview	5	305	0	0	0	0	0	0
248			Comes	Comes	5	preview	5	306	0	0	0	0	0	0
249			to	to	5	preview	5	307	0	0	0	0	0	0
250			Town	Town,-	5	preview	5	308	0	0	0	0	0	0
	280	,	,		5	preview	5	309						
	281	-	-		5	preview	5	310						
251	282	a	a	a	5	preview	5	311	195	195	195	195	195	0
252	283	collaboration	collaboration	collaboration	5	preview	5	312	249	249	377	249	249	0
253	284	with	with	with	5	preview	5	313	0	0	0	0	0	0
254	285	@entity47	U2	U2.	5	preview	5	314	0	0	0	0	0	0
	286	.	.		5	preview	5	315						
255	287	Last	Last	Last	5	preview	5	316	0	0	0	0	0	0
256	288	year	year	year,	5	preview	5	317	0	0	0	0	0	0
	289	,	,		5	preview	5	318						
257	290	the	the	the	5	preview	5	319	0	0	0	0	0	0
258	291	bluesman	bluesman	bluesman	5	preview	5	320	0	0	0	0	0	0
259	292	suffered	suffered	suffered	5	preview	5	321	0	0	0	0	0	0
260	293	from	from	from	5	preview	5	322	0	0	0	0	0	0
261	294	dehydration	dehydration	dehydration	5	preview	5	323	0	0	0	0	0	0
262	295	and	and	and	5	preview	5	324	0	0	0	0	0	0
263	296	exhaustion	exhaustion	exhaustion	5	preview	5	325	0	0	0	0	0	0
264	297	after	after	after	5	preview	5	326	0	0	0	0	0	0
265	298	a	a	a	5	preview	5	327	0	0	0	0	0	0
266	299	show	show	show	5	preview	5	328	0	0	0	0	0	0
267	300	in	in	in	5	preview	5	329	0	0	0	0	0	0
268	301	@entity52	Chicago	Chicago,	5	preview	5	330	0	0	0	0	0	0
	302	,	,		5	preview	5	331						
269	303	forcing	forcing	forcing	5	preview	5	332	0	0	0	0	0	0
270	304	him	him	him	5	preview	5	333	0	0	0	0	0	0
271	305	to	to	to	5	preview	5	334	0	0	0	0	0	0
272	306	cancel	cancel	cancel	5	preview	5	335	0	0	0	0	0	0
273	307	the	the	the	5	preview	5	336	0	0	0	0	0	0
274	308	remainder	remainder	remainder	5	preview	5	337	0	0	0	0	0	0
275	309	of	of	of	5	preview	5	338	368	368	368	368	368	0
276	310	his	his	his	5	preview	5	339	0	0	0	0	0	0
277	311	tour	tour	tour.	5	preview	5	340	0	0	0	0	0	0
	312	.	.		5	preview	5	341						
