HumanPosition	AnonymizedPosition	AnonymizedToken	OriginalToken	ExperimentToken	Participant	Condition	TextNo	JointPosition	tt	fp	rp	ff
1	0	(	(	Good	8	nopreview	3	1	130	0	0	0
	1	The	The		8	nopreview	3	2				
	2	@entity0	Hollywood		8	nopreview	3	3				
			Reporter		8	nopreview	3	4				
	3	)	)		8	nopreview	3	5				
	4	Good	Good		8	nopreview	3	6				
2	5	news	news	news	8	nopreview	3	7	169	169	299	169
3	6	arrived	arrived	arrived	8	nopreview	3	8	0	0	0	0
4	7	Thursday	Thursday	Thursday	8	nopreview	3	9	201	201	201	201
5	8	for	for	for	8	nopreview	3	10	0	0	0	0
6	9	-	-	-Fifty	8	nopreview	3	11	290	290	290	290
	10	@entity3	Fifty		8	nopreview	3	12				
7			Shades	Shades	8	nopreview	3	13	170	170	170	170
8			of	of	8	nopreview	3	14	0	0	0	0
9			Grey	Grey-	8	nopreview	3	15	357	357	357	357
	11	-	-		8	nopreview	3	16				
10	12	fans	fans	fans.	8	nopreview	3	17	0	0	0	0
	13	.	.		8	nopreview	3	18				
11	14	@entity4	Universal	Universal	8	nopreview	3	19	286	286	286	286
12	15	announced	announced	announced	8	nopreview	3	20	214	214	214	214
13	16	Thursday	Thursday	Thursday	8	nopreview	3	21	296	296	296	296
14	17	that	that	that	8	nopreview	3	22	0	0	0	0
15	18	the	the	the	8	nopreview	3	23	147	0	0	0
16	19	sequel	sequel	sequel	8	nopreview	3	24	103	103	250	103
17	20	to	to	to	8	nopreview	3	25	0	0	0	0
18	21	the	the	the	8	nopreview	3	26	179	179	179	179
19	22	box	box	box	8	nopreview	3	27	0	0	0	0
20	23	office	office	office	8	nopreview	3	28	279	279	279	279
21	24	blockbuster	blockbuster	blockbuster	8	nopreview	3	29	185	185	185	185
22	25	will	will	will	8	nopreview	3	30	0	0	0	0
23	26	hit	hit	hit	8	nopreview	3	31	231	231	231	231
24	27	theaters	theaters	theaters	8	nopreview	3	32	204	204	204	204
25	28	on	on	on	8	nopreview	3	33	0	0	0	0
26	29	Feb.	Feb.	Feb.	8	nopreview	3	34	388	143	143	143
27	30	10	10	10,	8	nopreview	3	35	0	0	0	0
	31	,	,		8	nopreview	3	36				
28	32	2017	2017	2017.	8	nopreview	3	37	912	537	537	128
	33	.	.		8	nopreview	3	38				
29	34	The	The	The	8	nopreview	3	39	266	154	154	154
30	35	third	third	third	8	nopreview	3	40	0	0	0	0
31	36	film	film	film	8	nopreview	3	41	322	322	322	167
32	37	in	in	in	8	nopreview	3	42	0	0	0	0
33	38	the	the	the	8	nopreview	3	43	0	0	0	0
34	39	series	series	series	8	nopreview	3	44	304	304	304	304
35	40	will	will	will	8	nopreview	3	45	0	0	0	0
36	41	debut	debut	debut	8	nopreview	3	46	510	147	147	147
37	42	Feb.	Feb.	Feb.	8	nopreview	3	47	633	354	996	354
38	43	9	9	9,	8	nopreview	3	48	591	591	591	255
	44	,	,		8	nopreview	3	49				
39	45	2018	2018	2018.	8	nopreview	3	50	446	199	691	199
	46	.	.		8	nopreview	3	51				
40	47	The	The	The	8	nopreview	3	52	183	183	183	183
41	48	news	news	news	8	nopreview	3	53	0	0	0	0
42	49	came	came	came	8	nopreview	3	54	278	278	278	278
43	50	one	one	one	8	nopreview	3	55	0	0	0	0
44	51	day	day	day	8	nopreview	3	56	132	132	132	132
45	52	after	after	after	8	nopreview	3	57	146	0	0	0
46	53	@entity0	The	The	8	nopreview	3	58	126	126	272	126
47			Hollywood	Hollywood	8	nopreview	3	59	0	0	0	0
48			Reporter	Reporter	8	nopreview	3	60	178	178	178	178
49	54	reported	reported	reported	8	nopreview	3	61	439	439	439	258
50	55	exclusively	exclusively	exclusively	8	nopreview	3	62	205	205	205	205
51	56	that	that	that	8	nopreview	3	63	0	0	0	0
52	57	the	the	the	8	nopreview	3	64	144	144	144	144
53	58	husband	husband	husband	8	nopreview	3	65	801	199	199	199
54	59	of	of	of	8	nopreview	3	66	0	0	0	0
55	60	@entity12	EL	EL	8	nopreview	3	67	1673	0	0	0
56			James	James,	8	nopreview	3	68	1013	210	3775	210
	61	,	,		8	nopreview	3	69				
57	62	author	author	author	8	nopreview	3	70	309	0	0	0
58	63	of	of	of	8	nopreview	3	71	0	0	0	0
59	64	the	the	the	8	nopreview	3	72	119	119	428	119
60	65	-	-	-Fifty	8	nopreview	3	73	0	0	0	0
	66	@entity3	Fifty		8	nopreview	3	74				
61			Shades	Shades-	8	nopreview	3	75	0	0	0	0
	67	-	-		8	nopreview	3	76				
62	68	trilogy	trilogy	trilogy,	8	nopreview	3	77	0	0	0	0
	69	,	,		8	nopreview	3	78				
63	70	will	will	will	8	nopreview	3	79	0	0	0	0
64	71	write	write	write	8	nopreview	3	80	197	197	197	197
65	72	the	the	the	8	nopreview	3	81	0	0	0	0
66	73	script	script	script	8	nopreview	3	82	272	272	272	272
67	74	for	for	for	8	nopreview	3	83	0	0	0	0
68	75	the	the	the	8	nopreview	3	84	147	0	0	0
69	76	second	second	second	8	nopreview	3	85	536	171	318	171
70	77	film	film	film.	8	nopreview	3	86	409	181	774	181
	78	.	.		8	nopreview	3	87				
71	79	@entity16	Niall	Niall	8	nopreview	3	88	726	0	0	0
72			Leonard	Leonard,	8	nopreview	3	89	702	128	959	128
	80	,	,		8	nopreview	3	90				
73	81	who	who	who	8	nopreview	3	91	0	0	0	0
74	82	is	is	is	8	nopreview	3	92	343	150	150	150
75	83	married	married	married	8	nopreview	3	93	353	353	843	353
76	84	and	and	and	8	nopreview	3	94	0	0	0	0
77	85	has	has	has	8	nopreview	3	95	260	260	260	260
78	86	two	two	two	8	nopreview	3	96	0	0	0	0
79	87	sons	sons	sons	8	nopreview	3	97	326	326	326	326
80	88	with	with	with	8	nopreview	3	98	0	0	0	0
81	89	the	the	the	8	nopreview	3	99	143	0	0	0
82	90	@entity19	British	British	8	nopreview	3	100	193	193	336	193
83	91	author	author	author,	8	nopreview	3	101	391	391	391	174
	92	,	,		8	nopreview	3	102				
84	93	is	is	is	8	nopreview	3	103	0	0	0	0
85	94	an	an	an	8	nopreview	3	104	196	196	196	196
86	95	author	author	author	8	nopreview	3	105	171	171	171	171
87	96	himself	himself	himself,	8	nopreview	3	106	479	305	651	163
	97	,	,		8	nopreview	3	107				
88	98	in	in	in	8	nopreview	3	108	0	0	0	0
89	99	addition	addition	addition	8	nopreview	3	109	313	313	313	313
90	100	to	to	to	8	nopreview	3	110	0	0	0	0
91	101	being	being	being	8	nopreview	3	111	0	0	0	0
92	102	a	a	a	8	nopreview	3	112	163	163	163	163
93	103	screenwriter	screenwriter	screenwriter.	8	nopreview	3	113	308	308	308	194
	104	.	.		8	nopreview	3	114				
94	105	@entity12	James	James,	8	nopreview	3	115	91	91	91	91
	106	,	,		8	nopreview	3	116				
95	107	whose	whose	whose	8	nopreview	3	117	202	202	202	202
96	108	real	real	real	8	nopreview	3	118	247	0	0	0
97	109	name	name	name	8	nopreview	3	119	244	99	99	99
98	110	is	is	is	8	nopreview	3	120	0	0	0	0
99	111	@entity12	Erika	Erika	8	nopreview	3	121	309	169	701	169
100			Leonard	Leonard,	8	nopreview	3	122	407	407	407	150
	112	,	,		8	nopreview	3	123				
101	113	has	has	has	8	nopreview	3	124	128	128	128	128
102	114	been	been	been	8	nopreview	3	125	218	0	0	0
103	115	credited	credited	credited	8	nopreview	3	126	316	316	534	316
104	116	with	with	with	8	nopreview	3	127	190	190	190	190
105	117	keeping	keeping	keeping	8	nopreview	3	128	109	0	0	0
106	118	a	a	a	8	nopreview	3	129	114	114	223	114
107	119	strong	strong	strong	8	nopreview	3	130	239	239	239	239
108	120	amount	amount	amount	8	nopreview	3	131	163	163	163	163
109	121	of	of	of	8	nopreview	3	132	0	0	0	0
110	122	creative	creative	creative	8	nopreview	3	133	198	198	198	198
111	123	control	control	control	8	nopreview	3	134	0	0	0	0
112	124	when	when	when	8	nopreview	3	135	169	169	169	169
113	125	it	it	it	8	nopreview	3	136	0	0	0	0
114	126	comes	comes	comes	8	nopreview	3	137	518	0	0	0
115	127	to	to	to	8	nopreview	3	138	0	0	0	0
116	128	@entity4	Universal	Universal-s	8	nopreview	3	139	615	102	1133	102
	129	-s	-s		8	nopreview	3	140				
117	130	adaptations	adaptations	adaptations	8	nopreview	3	141	315	315	315	315
118	131	of	of	of	8	nopreview	3	142	0	0	0	0
119	132	her	her	her	8	nopreview	3	143	0	0	0	0
120	133	books	books	books,	8	nopreview	3	144	261	261	261	261
	134	,	,		8	nopreview	3	145				
121	135	the	the	the	8	nopreview	3	146	303	303	303	303
122	136	second	second	second	8	nopreview	3	147	212	212	212	212
123	137	of	of	of	8	nopreview	3	148	0	0	0	0
124	138	which	which	which	8	nopreview	3	149	180	180	180	180
125	139	is	is	is	8	nopreview	3	150	0	0	0	0
126	140	titled	titled	titled	8	nopreview	3	151	154	154	154	154
127	141	-	-	-Fifty	8	nopreview	3	152	141	141	141	141
	142	@entity32	Fifty		8	nopreview	3	153				
128			Shades	Shades	8	nopreview	3	154	381	381	381	220
129			Darker	Darker.-	8	nopreview	3	155	154	154	154	154
	143	.	.		8	nopreview	3	156				
130	144	-	-	After	8	nopreview	3	157	476	0	0	0
	145	After	After		8	nopreview	3	158				
131	146	clashing	clashing	clashing	8	nopreview	3	159	1270	127	978	127
132	147	with	with	with	8	nopreview	3	160	205	0	0	0
133	148	@entity12	James	James,	8	nopreview	3	161	795	369	1768	369
	149	,	,		8	nopreview	3	162				
134	150	@entity33	Sam	Sam	8	nopreview	3	163	256	0	0	0
135			Taylor	Taylor-Johnson	8	nopreview	3	164	763	512	1019	191
			-		8	nopreview	3	165				
			Johnson		8	nopreview	3	166				
136	151	is	is	isn-t	8	nopreview	3	167	185	185	185	185
	152	n-t	n-t		8	nopreview	3	168				
137	153	returning	returning	returning	8	nopreview	3	169	198	198	198	198
138	154	to	to	to	8	nopreview	3	170	0	0	0	0
139	155	direct	direct	direct	8	nopreview	3	171	334	0	0	0
140	156	the	the	the	8	nopreview	3	172	0	0	0	0
141	157	sequel	sequel	sequel.	8	nopreview	3	173	409	206	743	206
	158	.	.		8	nopreview	3	174				
142	159	Stars	Stars	Stars	8	nopreview	3	175	262	0	0	0
143	160	@entity35	Dakota	Dakota	8	nopreview	3	176	426	198	688	198
144			Johnson	Johnson	8	nopreview	3	177	110	110	110	110
145	161	and	and	and	8	nopreview	3	178	0	0	0	0
146	162	@entity36	Jamie	Jamie	8	nopreview	3	179	0	0	0	0
147			Dornan	Dornan	8	nopreview	3	180	575	575	575	196
148	163	are	are	are	8	nopreview	3	181	0	0	0	0
149	164	negotiating	negotiating	negotiating	8	nopreview	3	182	183	183	183	183
150	165	for	for	for	8	nopreview	3	183	143	0	0	0
151	166	more	more	more	8	nopreview	3	184	264	264	407	264
152	167	money	money	money	8	nopreview	3	185	0	0	0	0
153	168	for	for	for	8	nopreview	3	186	0	0	0	0
154	169	the	the	the	8	nopreview	3	187	153	153	153	153
155	170	sequel	sequel	sequel	8	nopreview	3	188	159	159	159	159
156	171	after	after	after	8	nopreview	3	189	0	0	0	0
157	172	the	the	the	8	nopreview	3	190	0	0	0	0
158	173	first	first	first	8	nopreview	3	191	262	262	262	262
159	174	film	film	film,	8	nopreview	3	192	0	0	0	0
	175	,	,		8	nopreview	3	193				
160	176	release	release	release	8	nopreview	3	194	327	327	327	141
161	177	over	over	over	8	nopreview	3	195	0	0	0	0
162	178	@entity40	Valentine	Valentine-s	8	nopreview	3	196	255	255	255	255
			-s		8	nopreview	3	197				
163			Day	Day	8	nopreview	3	198	0	0	0	0
164	179	weekend	weekend	weekend	8	nopreview	3	199	202	202	202	202
165	180	of	of	of	8	nopreview	3	200	0	0	0	0
166	181	this	this	this	8	nopreview	3	201	457	0	0	0
167	182	year	year	year,	8	nopreview	3	202	173	173	630	173
	183	,	,		8	nopreview	3	203				
168	184	earned	earned	earned	8	nopreview	3	204	287	287	287	287
169	185	a	a	a	8	nopreview	3	205	0	0	0	0
170	186	massive	massive	massive	8	nopreview	3	206	132	132	132	132
171	187	$	$	$568.8	8	nopreview	3	207	3652	1468	1468	146
	188	568.8	568.8		8	nopreview	3	208				
172	189	million	million	million	8	nopreview	3	209	518	334	334	173
173	190	worldwide	worldwide	worldwide.	8	nopreview	3	210	676	192	3044	192
	191	.	.		8	nopreview	3	211				
