HumanPosition	AnonymizedPosition	AnonymizedToken	OriginalToken	ExperimentToken	Participant	Condition	TextNo	JointPosition	tt	fp	rp	ff
1	0	(	(	The	8	nopreview	6	1	0	0	0	0
2	1	@entity0	CNN	underwater	8	nopreview	6	2	273	0	0	0
	2	)	)		8	nopreview	6	3				
	3	The	The		8	nopreview	6	4				
	4	underwater	underwater		8	nopreview	6	5				
3	5	search	search	search	8	nopreview	6	6	631	0	0	0
4	6	area	area	area	8	nopreview	6	7	359	0	0	0
5	7	for	for	for	8	nopreview	6	8	380	0	0	0
6	8	missing	missing	missing	8	nopreview	6	9	432	0	0	0
7	9	@entity2	Malaysia	Malaysia	8	nopreview	6	10	729	0	0	0
8			Airlines	Airlines	8	nopreview	6	11	588	0	0	0
9			Flight	Flight	8	nopreview	6	12	372	0	0	0
10			370	370	8	nopreview	6	13	570	0	0	0
11	10	looks	looks	looks	8	nopreview	6	14	168	0	0	0
12	11	set	set	set	8	nopreview	6	15	164	0	0	0
13	12	to	to	to	8	nopreview	6	16	0	0	0	0
14	13	double	double	double	8	nopreview	6	17	174	0	0	0
15	14	in	in	in	8	nopreview	6	18	120	0	0	0
16	15	size	size	size.	8	nopreview	6	19	348	0	0	0
	16	.	.		8	nopreview	6	20				
17	17	Teams	Teams	Teams	8	nopreview	6	21	0	0	0	0
18	18	are	are	are	8	nopreview	6	22	207	0	0	0
19	19	scouring	scouring	scouring	8	nopreview	6	23	131	0	0	0
20	20	the	the	the	8	nopreview	6	24	111	0	0	0
21	21	depths	depths	depths	8	nopreview	6	25	279	0	0	0
22	22	of	of	of	8	nopreview	6	26	140	0	0	0
23	23	a	a	a	8	nopreview	6	27	0	0	0	0
24	24	remote	remote	remote	8	nopreview	6	28	222	0	0	0
25	25	part	part	part	8	nopreview	6	29	311	0	0	0
26	26	of	of	of	8	nopreview	6	30	97	0	0	0
27	27	the	the	the	8	nopreview	6	31	0	0	0	0
28	28	southern	southern	southern	8	nopreview	6	32	586	0	0	0
29	29	@entity7	Indian	Indian	8	nopreview	6	33	188	0	0	0
30			Ocean	Ocean	8	nopreview	6	34	214	0	0	0
31	30	for	for	for	8	nopreview	6	35	114	0	0	0
32	31	the	the	the	8	nopreview	6	36	0	0	0	0
33	32	remains	remains	remains	8	nopreview	6	37	0	0	0	0
34	33	of	of	of	8	nopreview	6	38	0	0	0	0
35	34	the	the	the	8	nopreview	6	39	0	0	0	0
36	35	passenger	passenger	passenger	8	nopreview	6	40	186	0	0	0
37	36	jet	jet	jet	8	nopreview	6	41	299	0	0	0
38	37	that	that	that	8	nopreview	6	42	0	0	0	0
39	38	disappeared	disappeared	disappeared	8	nopreview	6	43	155	0	0	0
40	39	more	more	more	8	nopreview	6	44	174	0	0	0
41	40	than	than	than	8	nopreview	6	45	0	0	0	0
42	41	a	a	a	8	nopreview	6	46	0	0	0	0
43	42	year	year	year	8	nopreview	6	47	218	0	0	0
44	43	ago	ago	ago	8	nopreview	6	48	0	0	0	0
45	44	with	with	with	8	nopreview	6	49	194	0	0	0
46	45	239	239	239	8	nopreview	6	50	0	0	0	0
47	46	people	people	people	8	nopreview	6	51	829	0	0	0
48	47	on	on	on	8	nopreview	6	52	0	0	0	0
49	48	board	board	board.	8	nopreview	6	53	267	0	0	0
	49	.	.		8	nopreview	6	54				
50	50	So	So	So	8	nopreview	6	55	0	0	0	0
51	51	far	far	far,	8	nopreview	6	56	259	0	0	0
	52	,	,		8	nopreview	6	57				
52	53	they	they	they-ve	8	nopreview	6	58	0	0	0	0
	54	-ve	-ve		8	nopreview	6	59				
53	55	covered	covered	covered	8	nopreview	6	60	164	0	0	0
54	56	about	about	about	8	nopreview	6	61	161	0	0	0
55	57	60	60	60%	8	nopreview	6	62	538	0	0	0
	58	%	%		8	nopreview	6	63				
56	59	of	of	of	8	nopreview	6	64	0	0	0	0
57	60	the	the	the	8	nopreview	6	65	0	0	0	0
58	61	priority	priority	priority	8	nopreview	6	66	301	0	0	0
59	62	search	search	search	8	nopreview	6	67	177	0	0	0
60	63	zone	zone	zone	8	nopreview	6	68	163	0	0	0
61	64	without	without	without	8	nopreview	6	69	288	0	0	0
62	65	reporting	reporting	reporting	8	nopreview	6	70	317	0	0	0
63	66	any	any	any	8	nopreview	6	71	0	0	0	0
64	67	trace	trace	trace	8	nopreview	6	72	171	0	0	0
65	68	of	of	of	8	nopreview	6	73	0	0	0	0
66	69	the	the	the	8	nopreview	6	74	0	0	0	0
67	70	airliner	airliner	airliner.	8	nopreview	6	75	488	0	0	0
	71	.	.		8	nopreview	6	76				
68	72	Families	Families	Families	8	nopreview	6	77	255	0	0	0
69	73	of	of	of	8	nopreview	6	78	0	0	0	0
70	74	passengers	passengers	passengers	8	nopreview	6	79	327	0	0	0
71	75	and	and	and	8	nopreview	6	80	163	0	0	0
72	76	crew	crew	crew	8	nopreview	6	81	359	0	0	0
73	77	members	members	members	8	nopreview	6	82	309	0	0	0
74	78	still	still	still	8	nopreview	6	83	209	0	0	0
75	79	have	have	have	8	nopreview	6	84	282	0	0	0
76	80	no	no	no	8	nopreview	6	85	186	0	0	0
77	81	answers	answers	answers	8	nopreview	6	86	306	0	0	0
78	82	about	about	about	8	nopreview	6	87	0	0	0	0
79	83	what	what	what	8	nopreview	6	88	279	0	0	0
80	84	happened	happened	happened	8	nopreview	6	89	0	0	0	0
81	85	to	to	to	8	nopreview	6	90	0	0	0	0
82	86	their	their	their	8	nopreview	6	91	138	0	0	0
83	87	loved	loved	loved	8	nopreview	6	92	330	131	131	131
84	88	ones	ones	ones.	8	nopreview	6	93	192	192	16321	192
	89	.	.		8	nopreview	6	94				
85	90	If	If	If	8	nopreview	6	95	0	0	0	0
86	91	the	the	the	8	nopreview	6	96	241	0	0	0
87	92	searchers	searchers	searchers	8	nopreview	6	97	825	616	1066	341
88	93	have	have	haven-t	8	nopreview	6	98	176	0	0	0
	94	n-t	n-t		8	nopreview	6	99				
89	95	found	found	found	8	nopreview	6	100	142	142	318	142
90	96	anything	anything	anything	8	nopreview	6	101	0	0	0	0
91	97	by	by	by	8	nopreview	6	102	183	183	183	183
92	98	the	the	the	8	nopreview	6	103	0	0	0	0
93	99	time	time	time	8	nopreview	6	104	309	309	309	309
94	100	they	they	they-ve	8	nopreview	6	105	0	0	0	0
	101	-ve	-ve		8	nopreview	6	106				
95	102	covered	covered	covered	8	nopreview	6	107	365	365	365	365
96	103	the	the	the	8	nopreview	6	108	0	0	0	0
97	104	entire	entire	entire	8	nopreview	6	109	229	229	229	229
98	105	60,000	60,000	60,000-square-kilometer	8	nopreview	6	110	503	503	503	157
	106	-	-		8	nopreview	6	111				
	107	square	square		8	nopreview	6	112				
	108	-	-		8	nopreview	6	113				
	109	kilometer	kilometer		8	nopreview	6	114				
99	110	priority	priority	priority	8	nopreview	6	115	259	259	259	259
100	111	zone	zone	zone,	8	nopreview	6	116	0	0	0	0
	112	,	,		8	nopreview	6	117				
101	113	the	the	the	8	nopreview	6	118	0	0	0	0
102	114	search	search	search	8	nopreview	6	119	166	166	166	166
103	115	will	will	will	8	nopreview	6	120	0	0	0	0
104	116	stretch	stretch	stretch	8	nopreview	6	121	190	190	190	190
105	117	into	into	into	8	nopreview	6	122	0	0	0	0
106	118	a	a	a	8	nopreview	6	123	0	0	0	0
107	119	new	new	new	8	nopreview	6	124	223	0	0	0
108	120	equally	equally	equally	8	nopreview	6	125	1110	330	955	330
109	121	vast	vast	vast	8	nopreview	6	126	272	0	0	0
110	122	area	area	area,	8	nopreview	6	127	340	0	0	0
	123	,	,		8	nopreview	6	128				
111	124	government	government	government	8	nopreview	6	129	193	0	0	0
112	125	officials	officials	officials	8	nopreview	6	130	382	0	0	0
113	126	from	from	from	8	nopreview	6	131	0	0	0	0
114	127	@entity23	Malaysia	Malaysia,	8	nopreview	6	132	771	0	0	0
	128	,	,		8	nopreview	6	133				
115	129	@entity24	Australia	Australia	8	nopreview	6	134	508	230	2844	230
116	130	and	and	and	8	nopreview	6	135	0	0	0	0
117	131	@entity25	China	China	8	nopreview	6	136	241	241	241	241
118	132	announced	announced	announced	8	nopreview	6	137	187	187	187	187
119	133	Thursday	Thursday	Thursday.	8	nopreview	6	138	120	120	120	120
	134	.	.		8	nopreview	6	139				
120	135	-	-	-Ministers	8	nopreview	6	140	323	323	323	323
	136	Ministers	Ministers		8	nopreview	6	141				
121	137	remain	remain	remain	8	nopreview	6	142	169	169	169	169
122	138	committed	committed	committed	8	nopreview	6	143	295	295	295	91
123	139	to	to	to	8	nopreview	6	144	0	0	0	0
124	140	bring	bring	bring	8	nopreview	6	145	605	0	0	0
125	141	closure	closure	closure	8	nopreview	6	146	460	107	1065	107
126	142	and	and	and	8	nopreview	6	147	0	0	0	0
127	143	some	some	some	8	nopreview	6	148	190	190	190	190
128	144	peace	peace	peace	8	nopreview	6	149	152	152	152	152
129	145	to	to	to	8	nopreview	6	150	0	0	0	0
130	146	the	the	the	8	nopreview	6	151	0	0	0	0
131	147	families	families	families	8	nopreview	6	152	354	354	354	354
132	148	and	and	and	8	nopreview	6	153	0	0	0	0
133	149	loved	loved	loved	8	nopreview	6	154	193	193	193	193
134	150	ones	ones	ones	8	nopreview	6	155	0	0	0	0
135	151	of	of	of	8	nopreview	6	156	160	160	160	160
136	152	those	those	those	8	nopreview	6	157	348	348	348	209
137	153	on	on	on	8	nopreview	6	158	0	0	0	0
138	154	board	board	board	8	nopreview	6	159	398	0	0	0
139	155	@entity2	Malaysia	Malaysia	8	nopreview	6	160	332	116	730	116
140			Airlines	Airlines	8	nopreview	6	161	188	188	188	188
141			Flight	Flight	8	nopreview	6	162	286	286	286	286
142			MH370	MH370,-	8	nopreview	6	163	1853	1853	1993	733
	156	,	,		8	nopreview	6	164				
	157	-	-		8	nopreview	6	165				
143	158	the	the	the	8	nopreview	6	166	0	0	0	0
144	159	three	three	three	8	nopreview	6	167	158	158	158	158
145	160	countries	countries	countries	8	nopreview	6	168	200	200	200	200
146	161	said	said	said	8	nopreview	6	169	0	0	0	0
147	162	in	in	in	8	nopreview	6	170	322	322	322	322
148	163	a	a	a	8	nopreview	6	171	0	0	0	0
149	164	joint	joint	joint	8	nopreview	6	172	136	136	136	136
150	165	statement	statement	statement.	8	nopreview	6	173	183	183	183	183
	166	.	.		8	nopreview	6	174				
151	167	The	The	The	8	nopreview	6	175	0	0	0	0
152	168	search	search	search	8	nopreview	6	176	359	221	221	117
153	169	of	of	of	8	nopreview	6	177	0	0	0	0
154	170	the	the	the	8	nopreview	6	178	0	0	0	0
155	171	current	current	current	8	nopreview	6	179	0	0	0	0
156	172	priority	priority	priority	8	nopreview	6	180	86	86	86	86
157	173	zone	zone	zone	8	nopreview	6	181	121	121	121	121
158	174	is	is	is	8	nopreview	6	182	0	0	0	0
159	175	expected	expected	expected	8	nopreview	6	183	181	181	181	181
160	176	to	to	to	8	nopreview	6	184	0	0	0	0
161	177	be	be	be	8	nopreview	6	185	0	0	0	0
162	178	completed	completed	completed	8	nopreview	6	186	168	168	168	168
163	179	in	in	in	8	nopreview	6	187	159	159	159	159
164	180	May	May	May.	8	nopreview	6	188	187	187	187	187
	181	.	.		8	nopreview	6	189				
165	182	Covering	Covering	Covering	8	nopreview	6	190	254	254	392	254
166	183	the	the	the	8	nopreview	6	191	0	0	0	0
167	184	new	new	new	8	nopreview	6	192	201	201	201	201
168	185	zone	zone	zone	8	nopreview	6	193	0	0	0	0
169	186	could	could	could	8	nopreview	6	194	0	0	0	0
170	187	take	take	take	8	nopreview	6	195	320	99	99	99
171	188	as	as	as	8	nopreview	6	196	0	0	0	0
172	189	long	long	long	8	nopreview	6	197	203	122	424	122
173	190	as	as	as	8	nopreview	6	198	0	0	0	0
174	191	a	a	a	8	nopreview	6	199	0	0	0	0
175	192	year	year	year.	8	nopreview	6	200	306	306	306	306
	193	.	.		8	nopreview	6	201				
176	194	At	At	At	8	nopreview	6	202	0	0	0	0
177	195	that	that	that	8	nopreview	6	203	94	94	94	94
178	196	point	point	point,	8	nopreview	6	204	241	241	241	241
	197	,	,		8	nopreview	6	205				
179	198	-	-	-all	8	nopreview	6	206	0	0	0	0
	199	all	all		8	nopreview	6	207				
180	200	high	high	high	8	nopreview	6	208	381	381	381	142
181	201	probability	probability	probability	8	nopreview	6	209	0	0	0	0
182	202	search	search	search	8	nopreview	6	210	199	0	0	0
183	203	areas	areas	areas	8	nopreview	6	211	117	117	316	117
184	204	would	would	would	8	nopreview	6	212	140	140	140	140
185	205	have	have	have	8	nopreview	6	213	0	0	0	0
186	206	been	been	been	8	nopreview	6	214	202	202	202	202
187	207	covered	covered	covered,-	8	nopreview	6	215	0	0	0	0
	208	,	,		8	nopreview	6	216				
	209	-	-		8	nopreview	6	217				
188	210	the	the	the	8	nopreview	6	218	175	175	175	175
189	211	governments	governments	governments	8	nopreview	6	219	156	156	156	156
190	212	said	said	said	8	nopreview	6	220	0	0	0	0
191	213	Thursday	Thursday	Thursday.	8	nopreview	6	221	247	247	247	247
	214	.	.		8	nopreview	6	222				
192	215	The	The	The	8	nopreview	6	223	0	0	0	0
193	216	size	size	size	8	nopreview	6	224	183	183	183	183
194	217	of	of	of	8	nopreview	6	225	0	0	0	0
195	218	the	the	the	8	nopreview	6	226	111	111	111	111
196	219	doubled	doubled	doubled	8	nopreview	6	227	290	0	0	0
197	220	search	search	search	8	nopreview	6	228	249	140	539	140
198	221	area	area	area,	8	nopreview	6	229	0	0	0	0
	222	,	,		8	nopreview	6	230				
199	223	the	the	the	8	nopreview	6	231	0	0	0	0
200	224	equivalent	equivalent	equivalent	8	nopreview	6	232	598	598	598	191
201	225	of	of	of	8	nopreview	6	233	0	0	0	0
202	226	more	more	more	8	nopreview	6	234	0	0	0	0
203	227	than	than	than	8	nopreview	6	235	275	275	275	275
204	228	46,000	46,000	46,000	8	nopreview	6	236	468	468	468	468
205	229	square	square	square	8	nopreview	6	237	165	165	165	165
206	230	miles	miles	miles,	8	nopreview	6	238	314	314	314	314
	231	,	,		8	nopreview	6	239				
207	232	would	would	would	8	nopreview	6	240	158	158	158	158
208	233	be	be	be	8	nopreview	6	241	0	0	0	0
209	234	bigger	bigger	bigger	8	nopreview	6	242	109	109	109	109
210	235	than	than	than	8	nopreview	6	243	0	0	0	0
211	236	the	the	the	8	nopreview	6	244	190	0	0	0
212	237	@entity50	U.S.	U.S.	8	nopreview	6	245	146	146	336	146
213	238	state	state	state	8	nopreview	6	246	176	176	176	176
214	239	of	of	of	8	nopreview	6	247	0	0	0	0
215	240	@entity51	Pennsylvania	Pennsylvania.	8	nopreview	6	248	344	344	344	217
	241	.	.		8	nopreview	6	249				
216	242	Flight	Flight	Flight	8	nopreview	6	250	125	125	125	125
217	243	370	370	370	8	nopreview	6	251	1054	1054	1054	227
218	244	vanished	vanished	vanished	8	nopreview	6	252	392	229	229	229
219	245	after	after	after	8	nopreview	6	253	147	0	0	0
220	246	taking	taking	taking	8	nopreview	6	254	464	300	447	300
221	247	off	off	off	8	nopreview	6	255	190	190	190	190
222	248	from	from	from	8	nopreview	6	256	168	168	168	168
223	249	@entity53	Kuala	Kuala	8	nopreview	6	257	563	163	163	163
224			Lumpur	Lumpur,	8	nopreview	6	258	589	347	347	347
	250	,	,		8	nopreview	6	259				
225	251	@entity23	Malaysia	Malaysia,	8	nopreview	6	260	408	168	168	168
	252	,	,		8	nopreview	6	261				
226	253	on	on	on	8	nopreview	6	262	0	0	0	0
227	254	March	March	March	8	nopreview	6	263	0	0	0	0
228	255	8	8	8,	8	nopreview	6	264	329	329	329	329
	256	,	,		8	nopreview	6	265				
229	257	2014	2014	2014,	8	nopreview	6	266	781	781	781	278
	258	,	,		8	nopreview	6	267				
230	259	bound	bound	bound	8	nopreview	6	268	145	145	145	145
231	260	for	for	for	8	nopreview	6	269	191	0	0	0
232	261	@entity54	Beijing	Beijing.	8	nopreview	6	270	435	435	1835	177
	262	.	.		8	nopreview	6	271				
233	263	Officials	Officials	Officials	8	nopreview	6	272	147	147	147	147
234	264	are	are	are	8	nopreview	6	273	0	0	0	0
235	265	still	still	still	8	nopreview	6	274	105	105	105	105
236	266	trying	trying	trying	8	nopreview	6	275	171	171	171	171
237	267	to	to	to	8	nopreview	6	276	0	0	0	0
238	268	figure	figure	figure	8	nopreview	6	277	206	0	0	0
239	269	out	out	out	8	nopreview	6	278	172	0	0	0
240	270	why	why	why	8	nopreview	6	279	371	121	293	121
241	271	it	it	it	8	nopreview	6	280	215	215	671	215
242	272	veered	veered	veered	8	nopreview	6	281	290	290	290	290
243	273	dramatically	dramatically	dramatically	8	nopreview	6	282	171	171	171	171
244	274	off	off	off	8	nopreview	6	283	0	0	0	0
245	275	course	course	course	8	nopreview	6	284	420	202	202	202
246	276	over	over	over	8	nopreview	6	285	435	222	222	222
247	277	the	the	the	8	nopreview	6	286	0	0	0	0
248	278	sea	sea	sea	8	nopreview	6	287	0	0	0	0
249	279	between	between	between	8	nopreview	6	288	422	147	475	147
250	280	@entity23	Malaysia	Malaysia	8	nopreview	6	289	402	311	562	103
251	281	and	and	and	8	nopreview	6	290	0	0	0	0
252	282	@entity58	Vietnam	Vietnam	8	nopreview	6	291	387	0	0	0
253	283	and	and	and	8	nopreview	6	292	112	112	499	112
254	284	where	where	where	8	nopreview	6	293	0	0	0	0
255	285	exactly	exactly	exactly	8	nopreview	6	294	315	315	315	149
256	286	it	it	it	8	nopreview	6	295	0	0	0	0
257	287	ended	ended	ended	8	nopreview	6	296	333	333	333	333
258	288	up	up	up.	8	nopreview	6	297	0	0	0	0
	289	.	.		8	nopreview	6	298				
259	290	An	An	An	8	nopreview	6	299	0	0	0	0
260	291	international	international	international	8	nopreview	6	300	429	429	429	429
261	292	team	team	team	8	nopreview	6	301	112	112	112	112
262	293	of	of	of	8	nopreview	6	302	0	0	0	0
263	294	experts	experts	experts	8	nopreview	6	303	250	250	250	89
264	295	used	used	used	8	nopreview	6	304	180	180	180	180
265	296	satellite	satellite	satellite	8	nopreview	6	305	570	0	0	0
266	297	data	data	data	8	nopreview	6	306	212	115	492	115
267	298	to	to	to	8	nopreview	6	307	0	0	0	0
268	299	calculate	calculate	calculate	8	nopreview	6	308	219	219	219	219
269	300	that	that	that	8	nopreview	6	309	187	187	187	187
270	301	the	the	the	8	nopreview	6	310	0	0	0	0
271	302	plane	plane	plane	8	nopreview	6	311	161	161	161	161
272	303	eventually	eventually	eventually	8	nopreview	6	312	177	177	177	177
273	304	went	went	went	8	nopreview	6	313	0	0	0	0
274	305	down	down	down	8	nopreview	6	314	224	224	224	224
275	306	in	in	in	8	nopreview	6	315	0	0	0	0
276	307	the	the	the	8	nopreview	6	316	0	0	0	0
277	308	southern	southern	southern	8	nopreview	6	317	247	247	247	247
278	309	@entity7	Indian	Indian	8	nopreview	6	318	602	0	0	0
279			Ocean	Ocean,	8	nopreview	6	319	142	142	1034	142
	310	,	,		8	nopreview	6	320				
280	311	far	far	far	8	nopreview	6	321	0	0	0	0
281	312	off	off	off	8	nopreview	6	322	328	328	328	328
282	313	the	the	the	8	nopreview	6	323	178	0	0	0
283	314	coast	coast	coast	8	nopreview	6	324	803	507	507	98
284	315	of	of	of	8	nopreview	6	325	0	0	0	0
285	316	@entity24	Western	Western	8	nopreview	6	326	0	0	0	0
286			Australia	Australia.	8	nopreview	6	327	724	281	1198	281
	317	.	.		8	nopreview	6	328				
287	318	The	The	The	8	nopreview	6	329	0	0	0	0
288	319	people	people	people	8	nopreview	6	330	191	191	191	191
289	320	on	on	on	8	nopreview	6	331	0	0	0	0
290	321	board	board	board	8	nopreview	6	332	191	191	191	191
291	322	the	the	the	8	nopreview	6	333	0	0	0	0
292	323	@entity64	Boeing	Boeing	8	nopreview	6	334	170	170	170	170
293			777	777	8	nopreview	6	335	267	0	0	0
294	324	came	came	came	8	nopreview	6	336	377	377	644	138
295	325	from	from	from	8	nopreview	6	337	100	100	100	100
296	326	various	various	various	8	nopreview	6	338	237	237	237	237
297	327	nations	nations	nations,	8	nopreview	6	339	243	243	243	243
	328	,	,		8	nopreview	6	340				
298	329	but	but	but	8	nopreview	6	341	0	0	0	0
299	330	the	the	the	8	nopreview	6	342	0	0	0	0
300	331	majority	majority	majority	8	nopreview	6	343	435	197	197	197
301	332	were	were	were	8	nopreview	6	344	0	0	0	0
302	333	@entity25	Chinese	Chinese.	8	nopreview	6	345	909	382	1365	382
	334	.	.		8	nopreview	6	346				
