HumanPosition	AnonymizedPosition	AnonymizedToken	OriginalToken	ExperimentToken	Participant	Condition	TextNo	JointPosition	tt	fp	rp	ff
0	0	@entity0	Raheem	Raheem	1	nopreview	10	1	227	0	0	0
2			Sterling	Sterling	1	nopreview	10	2	289	145	516	145
3	1	has	has	has	1	nopreview	10	3	0	0	0	0
4	2	admitted	admitted	admitted	1	nopreview	10	4	427	427	427	427
5	3	he	he	he	1	nopreview	10	5	0	0	0	0
6	4	is	is	is	1	nopreview	10	6	0	0	0	0
7	5	not	not	not	1	nopreview	10	7	389	389	389	389
8	6	ready	ready	ready	1	nopreview	10	8	179	179	179	179
9	7	to	to	to	1	nopreview	10	9	161	0	0	0
10	8	sign	sign	sign	1	nopreview	10	10	257	257	257	257
11	9	a	a	a	1	nopreview	10	11	0	0	0	0
12	10	new	new	new	1	nopreview	10	12	0	0	0	0
13	11	contract	contract	contract	1	nopreview	10	13	409	409	409	217
14	12	at	at	at	1	nopreview	10	14	0	0	0	0
15	13	@entity3	Liverpool	Liverpool	1	nopreview	10	15	659	383	383	242
16	14	deal	deal	deal	1	nopreview	10	16	736	314	314	188
17	15	despite	despite	despite	1	nopreview	10	17	998	451	451	150
18	16	being	being	being	1	nopreview	10	18	231	0	0	0
19	17	offered	offered	offered	1	nopreview	10	19	1149	239	4214	89
20	18	a	a	a	1	nopreview	10	20	159	159	2056	159
21	19	£	£	£100,000-a-week	1	nopreview	10	21	525	525	525	289
	20	100,000	100,000		1	nopreview	10	22				
	21	-	-		1	nopreview	10	23				
	22	a	a		1	nopreview	10	24				
	23	-	-		1	nopreview	10	25				
	24	week	week		1	nopreview	10	26				
22	25	deal	deal	deal	1	nopreview	10	27	367	367	367	205
23	26	to	to	to	1	nopreview	10	28	0	0	0	0
24	27	stay	stay	stay	1	nopreview	10	29	265	265	265	265
25	28	with	with	with	1	nopreview	10	30	0	0	0	0
26	29	the	the	the	1	nopreview	10	31	149	149	149	149
27	30	@entity6	Merseyside	Merseyside	1	nopreview	10	32	328	328	328	175
28	31	club	club	club.	1	nopreview	10	33	150	150	150	150
	32	.	.		1	nopreview	10	34				
29	33	The	The	The	1	nopreview	10	35	138	0	0	0
30	34	20	20	20-year-old	1	nopreview	10	36	388	123	526	123
	35	-	-		1	nopreview	10	37				
	36	year	year		1	nopreview	10	38				
	37	-	-		1	nopreview	10	39				
	38	old	old		1	nopreview	10	40				
31	39	wideman	wideman	wideman	1	nopreview	10	41	217	217	217	217
32	40	edged	edged	edged	1	nopreview	10	42	284	0	0	0
33	41	closer	closer	closer	1	nopreview	10	43	514	210	798	210
34	42	towards	towards	towards	1	nopreview	10	44	408	408	408	282
35	43	an	an	an	1	nopreview	10	45	0	0	0	0
36	44	@entity9	Anfield	Anfield	1	nopreview	10	46	314	314	314	140
37	45	exit	exit	exit	1	nopreview	10	47	0	0	0	0
38	46	after	after	after	1	nopreview	10	48	210	210	210	210
39	47	revealing	revealing	revealing	1	nopreview	10	49	356	356	356	356
40	48	in	in	in	1	nopreview	10	50	0	0	0	0
41	49	an	an	an	1	nopreview	10	51	171	171	171	171
42	50	interview	interview	interview	1	nopreview	10	52	151	151	151	151
43	51	with	with	with	1	nopreview	10	53	0	0	0	0
44	52	the	the	the	1	nopreview	10	54	275	275	275	275
45	53	@entity11	BBC	BBC	1	nopreview	10	55	349	349	349	349
46	54	on	on	on	1	nopreview	10	56	0	0	0	0
47	55	Wednesday	Wednesday	Wednesday	1	nopreview	10	57	428	428	428	277
48	56	that	that	that	1	nopreview	10	58	234	0	0	0
49	57	he	he	he	1	nopreview	10	59	282	282	282	282
50	58	would	would	would	1	nopreview	10	60	787	351	1021	217
51	59	have	have	have	1	nopreview	10	61	0	0	0	0
52	60	signed	signed	signed	1	nopreview	10	62	452	452	452	250
53	61	for	for	for	1	nopreview	10	63	0	0	0	0
54	62	a	a	a	1	nopreview	10	64	0	0	0	0
55	63	lot	lot	lot	1	nopreview	10	65	563	267	267	267
56	64	less	less	less	1	nopreview	10	66	184	184	480	184
57	65	a	a	a	1	nopreview	10	67	437	244	244	244
58	66	year	year	year	1	nopreview	10	68	155	155	348	155
59	67	ago	ago	ago.	1	nopreview	10	69	0	0	0	0
	68	.	.		1	nopreview	10	70				
60	69	However	However	However,	1	nopreview	10	71	123	123	123	123
	70	,	,		1	nopreview	10	72				
61	71	despite	despite	despite	1	nopreview	10	73	197	197	197	197
62	72	being	being	being	1	nopreview	10	74	149	0	0	0
63	73	one	one	one	1	nopreview	10	75	151	151	300	151
64	74	of	of	of	1	nopreview	10	76	0	0	0	0
65	75	@entity3	Liverpool	Liverpool-s	1	nopreview	10	77	440	440	440	265
	76	-s	-s		1	nopreview	10	78				
66	77	star	star	star	1	nopreview	10	79	205	205	205	205
67	78	men	men	men,	1	nopreview	10	80	164	164	164	164
	79	,	,		1	nopreview	10	81				
68	80	@entity0	Sterling	Sterling	1	nopreview	10	82	201	201	201	201
69	81	has	has	has	1	nopreview	10	83	0	0	0	0
70	82	struggled	struggled	struggled	1	nopreview	10	84	487	487	487	245
71	83	to	to	to	1	nopreview	10	85	111	111	111	111
72	84	repeat	repeat	repeat	1	nopreview	10	86	0	0	0	0
73	85	the	the	the	1	nopreview	10	87	0	0	0	0
74	86	impressive	impressive	impressive	1	nopreview	10	88	206	206	206	206
75	87	form	form	form	1	nopreview	10	89	0	0	0	0
76	88	he	he	he	1	nopreview	10	90	204	204	204	204
77	89	showed	showed	showed	1	nopreview	10	91	291	291	291	291
78	90	for	for	for	1	nopreview	10	92	0	0	0	0
79	91	the	the	the	1	nopreview	10	93	182	182	182	182
80	92	@entity18	Reds	Reds	1	nopreview	10	94	245	245	245	245
81	93	last	last	last	1	nopreview	10	95	146	146	146	146
82	94	season	season	season.	1	nopreview	10	96	228	228	228	228
	95	.	.		1	nopreview	10	97				
83	96	The	The	The	1	nopreview	10	98	0	0	0	0
84	97	@entity19	England	England	1	nopreview	10	99	159	159	159	159
85	98	international	international	international	1	nopreview	10	100	0	0	0	0
86	99	has	has	has	1	nopreview	10	101	275	275	275	275
87	100	managed	managed	managed	1	nopreview	10	102	305	305	305	305
88	101	just	just	just	1	nopreview	10	103	197	197	197	197
89	102	six	six	six	1	nopreview	10	104	0	0	0	0
90	103	goals	goals	goals	1	nopreview	10	105	182	182	182	182
91	104	this	this	this	1	nopreview	10	106	0	0	0	0
92	105	season	season	season	1	nopreview	10	107	264	264	264	264
93	106	-	-	-	1	nopreview	10	108	0	0	0	0
94	107	one	one	one	1	nopreview	10	109	0	0	0	0
95	108	less	less	less	1	nopreview	10	110	170	170	170	170
96	109	than	than	than	1	nopreview	10	111	262	262	262	262
97	110	@entity23	Stoke	Stoke	1	nopreview	10	112	250	250	250	250
98	111	frontman	frontman	frontman	1	nopreview	10	113	618	618	618	284
99	112	@entity22	Jon	Jon	1	nopreview	10	114	176	0	0	0
100			Walters	Walters	1	nopreview	10	115	345	147	323	147
101	113	-	-	-	1	nopreview	10	116	0	0	0	0
102	114	while	while	while	1	nopreview	10	117	425	196	623	196
103	115	his	his	his	1	nopreview	10	118	0	0	0	0
104	116	conversion	conversion	conversion	1	nopreview	10	119	682	682	682	219
105	117	rate	rate	rate	1	nopreview	10	120	357	357	357	357
106	118	and	and	and	1	nopreview	10	121	0	0	0	0
107	119	minutes	minutes	minutes	1	nopreview	10	122	259	259	259	259
108	120	per	per	per	1	nopreview	10	123	137	0	0	0
109	121	goal	goal	goal	1	nopreview	10	124	183	183	320	183
110	122	ratio	ratio	ratio	1	nopreview	10	125	197	197	197	197
111	123	have	have	have	1	nopreview	10	126	144	0	0	0
112	124	worsened	worsened	worsened.	1	nopreview	10	127	544	544	688	273
	125	as	as		1	nopreview	10	128				
113	126	the	the	Raheem	1	nopreview	10	129	270	270	270	136
	127	graphic	graphic		1	nopreview	10	130				
	128	below	below		1	nopreview	10	131				
	129	shows	shows		1	nopreview	10	132				
	130	.	.		1	nopreview	10	133				
	131	@entity0	Raheem		1	nopreview	10	134				
114			Sterling	Sterling	1	nopreview	10	135	0	0	0	0
115	132	has	has	has	1	nopreview	10	136	0	0	0	0
116	133	managed	managed	managed	1	nopreview	10	137	398	235	235	235
117	134	just	just	just	1	nopreview	10	138	261	261	261	261
118	135	six	six	six	1	nopreview	10	139	302	302	465	302
119	136	goals	goals	goals	1	nopreview	10	140	269	269	269	269
120	137	this	this	this	1	nopreview	10	141	0	0	0	0
121	138	season	season	season	1	nopreview	10	142	503	503	503	238
122	139	-	-	-	1	nopreview	10	143	0	0	0	0
123	140	one	one	one	1	nopreview	10	144	0	0	0	0
124	141	less	less	less	1	nopreview	10	145	236	236	236	236
125	142	than	than	than	1	nopreview	10	146	0	0	0	0
126	143	@entity23	Stoke	Stoke	1	nopreview	10	147	211	211	211	211
127	144	forward	forward	forward	1	nopreview	10	148	441	203	203	203
128	145	@entity22	Jon	Jon	1	nopreview	10	149	152	0	0	0
129			Walters	Walters.	1	nopreview	10	150	150	150	540	150
	146	(	(		1	nopreview	10	151				
