HumanPosition	AnonymizedPosition	AnonymizedToken	OriginalToken	ExperimentToken	Participant	Condition	TextNo	JointPosition	tt	fp	rp	ff
0	0	@entity0	Chelsea	Chelsea	1	nopreview	11	1	336	0	0	0
2	1	are	are	are	1	nopreview	11	2	0	0	0	0
3	2	looking	looking	looking	1	nopreview	11	3	349	0	0	0
4	3	to	to	to	1	nopreview	11	4	0	0	0	0
5	4	beat	beat	beat	1	nopreview	11	5	282	0	0	0
6	5	@entity1	Manchester	Manchester	1	nopreview	11	6	229	0	0	0
7			City	City	1	nopreview	11	7	0	0	0	0
8	6	to	to	to	1	nopreview	11	8	413	0	0	0
9	7	sign	sign	sign	1	nopreview	11	9	313	0	0	0
10	8	@entity3	Brazilian	Brazilian	1	nopreview	11	10	291	0	0	0
11	9	prospect	prospect	prospect	1	nopreview	11	11	569	0	0	0
12	10	@entity2	Nathan	Nathan.	1	nopreview	11	12	358	0	0	0
	11	.	.		1	nopreview	11	13				
13	12	The	The	The	1	nopreview	11	14	0	0	0	0
14	13	attacking	attacking	attacking	1	nopreview	11	15	227	0	0	0
15	14	midfielder	midfielder	midfielder	1	nopreview	11	16	387	89	3754	89
16	15	turned	turned	turned	1	nopreview	11	17	108	108	108	108
17	16	19	19	19	1	nopreview	11	18	0	0	0	0
18	17	last	last	last	1	nopreview	11	19	190	190	190	190
19	18	month	month	month	1	nopreview	11	20	293	293	293	293
20	19	but	but	but	1	nopreview	11	21	0	0	0	0
21	20	has	has	has	1	nopreview	11	22	0	0	0	0
22	21	been	been	been	1	nopreview	11	23	459	226	226	226
23	22	in	in	in	1	nopreview	11	24	160	160	393	160
24	23	contract	contract	contract	1	nopreview	11	25	369	369	369	225
25	24	dispute	dispute	dispute	1	nopreview	11	26	249	249	249	249
26	25	with	with	with	1	nopreview	11	27	0	0	0	0
27	26	his	his	his	1	nopreview	11	28	190	190	190	190
28	27	club	club	club	1	nopreview	11	29	284	284	284	284
29	28	@entity6	Atletico	Atletico	1	nopreview	11	30	236	236	236	236
30			Paranaense	Paranaense.	1	nopreview	11	31	1892	1418	1418	274
	29	.	.		1	nopreview	11	32				
31	30	He	He	He	1	nopreview	11	33	0	0	0	0
32	31	is	is	is	1	nopreview	11	34	513	320	320	320
33	32	due	due	due	1	nopreview	11	35	474	198	1141	198
34	33	to	to	to	1	nopreview	11	36	0	0	0	0
35	34	speak	speak	speak	1	nopreview	11	37	443	231	231	231
36	35	to	to	to	1	nopreview	11	38	0	0	0	0
37	36	@entity0	Chelsea	Chelsea	1	nopreview	11	39	573	573	573	283
38	37	next	next	next	1	nopreview	11	40	0	0	0	0
39	38	week	week	week	1	nopreview	11	41	332	332	332	332
40	39	ahead	ahead	ahead	1	nopreview	11	42	198	198	198	198
41	40	of	of	of	1	nopreview	11	43	0	0	0	0
42	41	a	a	a	1	nopreview	11	44	0	0	0	0
43	42	proposed	proposed	proposed	1	nopreview	11	45	309	309	309	226
44	43	move	move	move	1	nopreview	11	46	0	0	0	0
45	44	to	to	to	1	nopreview	11	47	97	0	0	0
46	45	@entity8	Stamford	Stamford	1	nopreview	11	48	270	100	367	100
47			Bridge	Bridge	1	nopreview	11	49	270	270	270	270
48	46	which	which	which	1	nopreview	11	50	0	0	0	0
49	47	would	would	would	1	nopreview	11	51	281	281	281	281
50	48	likely	likely	likely	1	nopreview	11	52	451	451	451	451
51	49	see	see	see	1	nopreview	11	53	0	0	0	0
52	50	him	him	him	1	nopreview	11	54	248	248	248	248
53	51	loaned	loaned	loaned	1	nopreview	11	55	403	403	403	121
54	52	out	out	out.	1	nopreview	11	56	95	95	95	95
	53	.	.		1	nopreview	11	57				
55	54	@entity6	Atletico	Manchester	1	nopreview	11	58	101	0	0	0
			Paranaense		1	nopreview	11	59				
	55	attacking	attacking		1	nopreview	11	60				
	56	midfielder	midfielder		1	nopreview	11	61				
	57	@entity2	Nathan		1	nopreview	11	62				
	58	is	is		1	nopreview	11	63				
	59	attracting	attracting		1	nopreview	11	64				
	60	interest	interest		1	nopreview	11	65				
	61	from	from		1	nopreview	11	66				
	62	@entity0	Chelsea		1	nopreview	11	67				
	63	and	and		1	nopreview	11	68				
	64	@entity1	Manchester		1	nopreview	11	69				
56	65	@entity11	City	City	1	nopreview	11	70	169	169	270	169
57			Jose	have	1	nopreview	11	71	399	399	399	274
58			Mourinho	been	1	nopreview	11	72	0	0	0	0
	66	and	and		1	nopreview	11	73				
	67	@entity12	Manuel		1	nopreview	11	74				
			Pellegrini		1	nopreview	11	75				
	68	will	will		1	nopreview	11	76				
	69	go	go		1	nopreview	11	77				
	70	head	head		1	nopreview	11	78				
59	71	-	-	keen	1	nopreview	11	79	309	194	194	194
	72	to	to		1	nopreview	11	80				
	73	-	-		1	nopreview	11	81				
	74	head	head		1	nopreview	11	82				
60	75	to	to	on	1	nopreview	11	83	345	228	228	228
61	76	sign	sign	Nathan	1	nopreview	11	84	83	83	200	83
	77	@entity3	Brazilian		1	nopreview	11	85				
	78	starlet	starlet		1	nopreview	11	86				
	79	@entity2	Nathan		1	nopreview	11	87				
62	80	@entity1	Manchester	following	1	nopreview	11	88	880	709	709	437
			City		1	nopreview	11	89				
	81	have	have		1	nopreview	11	90				
	82	been	been		1	nopreview	11	91				
	83	keen	keen		1	nopreview	11	92				
	84	on	on		1	nopreview	11	93				
	85	@entity2	Nathan		1	nopreview	11	94				
	86	following	following		1	nopreview	11	95				
63	87	his	his	his	1	nopreview	11	96	136	136	136	136
64	88	performances	performances	performances	1	nopreview	11	97	315	176	486	176
65	89	in	in	in	1	nopreview	11	98	0	0	0	0
66	90	the	the	the	1	nopreview	11	99	0	0	0	0
67	91	@entity16	World	World	1	nopreview	11	100	355	355	355	187
68			U17	U17	1	nopreview	11	101	401	401	401	401
69			Championships	Championships	1	nopreview	11	102	636	636	636	352
70	92	two	two	two	1	nopreview	11	103	279	279	394	279
71	93	years	years	years	1	nopreview	11	104	206	0	0	0
72	94	ago	ago	ago	1	nopreview	11	105	0	0	0	0
73	95	and	and	and	1	nopreview	11	106	0	0	0	0
74	96	he	he	he	1	nopreview	11	107	0	0	0	0
75	97	has	has	has	1	nopreview	11	108	0	0	0	0
76	98	since	since	since	1	nopreview	11	109	434	434	434	156
77	99	broken	broken	broken	1	nopreview	11	110	439	294	294	294
78	100	into	into	into	1	nopreview	11	111	0	0	0	0
79	101	@entity6	Paranaense	Paranaense-s	1	nopreview	11	112	1380	220	1152	220
	102	-s	-s		1	nopreview	11	113				
80	103	first	first	first	1	nopreview	11	114	638	195	1011	195
81	104	team	team	team.	1	nopreview	11	115	241	241	241	241
	105	.	.		1	nopreview	11	116				
82	106	@entity0	Chelsea	Chelsea	1	nopreview	11	117	345	345	345	163
83	107	have	have	have	1	nopreview	11	118	0	0	0	0
84	108	a	a	a	1	nopreview	11	119	0	0	0	0
85	109	strong	strong	strong	1	nopreview	11	120	486	486	692	221
86	110	@entity3	Brazilian	Brazilian	1	nopreview	11	121	0	0	0	0
87	111	contingency	contingency	contingency	1	nopreview	11	122	293	293	293	184
88	112	with	with	with	1	nopreview	11	123	0	0	0	0
89	113	the	the	the	1	nopreview	11	124	0	0	0	0
90	114	likes	likes	likes	1	nopreview	11	125	361	361	361	207
91	115	of	of	of	1	nopreview	11	126	177	177	177	177
92	116	@entity20	Willian	Willian,	1	nopreview	11	127	168	168	168	168
	117	,	,		1	nopreview	11	128				
93	118	@entity21	Ramires	Ramires,	1	nopreview	11	129	234	234	234	234
	119	,	,		1	nopreview	11	130				
94	120	@entity22	Filipe	Filipe	1	nopreview	11	131	339	339	339	202
95			Luis	Luis	1	nopreview	11	132	92	92	92	92
96	121	and	and	and	1	nopreview	11	133	0	0	0	0
97	122	@entity23	Oscar	Oscar	1	nopreview	11	134	251	251	251	251
98	123	while	while	while	1	nopreview	11	135	331	331	331	241
99	124	21	21	21-year-old	1	nopreview	11	136	381	381	381	219
	125	-	-		1	nopreview	11	137				
	126	year	year		1	nopreview	11	138				
	127	-	-		1	nopreview	11	139				
	128	old	old		1	nopreview	11	140				
100	129	@entity24	Lucas	Lucas	1	nopreview	11	141	165	165	165	165
101			Piazon	Piazon	1	nopreview	11	142	250	250	250	250
102	130	is	is	is	1	nopreview	11	143	0	0	0	0
103	131	on	on	on	1	nopreview	11	144	0	0	0	0
104	132	loan	loan	loan	1	nopreview	11	145	444	444	444	444
105	133	at	at	at	1	nopreview	11	146	0	0	0	0
106	134	@entity26	Eintracht	Eintracht	1	nopreview	11	147	1500	917	917	285
107			Frankfurt	Frankfurt.	1	nopreview	11	148	849	370	1644	213
	135	.	.		1	nopreview	11	149				
