Namespace(LAMBDA=0.5, batchSize=128, clip_bound=5, clip_type='inf', corpus='cnn', dropout=0.0, glove=True, learning_rate=0.02, myID=15449451)
[0.2231141692302764]
[2.8296578051968573]
[3.0347893920999542]
0.5 0.5
3.0 	 Accuracy 0.22808358817533128 0.218144750254842 	 Fixations 0.41030161193629894 0.41022473348876143
