HumanPosition	AnonymizedPosition	AnonymizedToken	OriginalToken	ExperimentToken	Participant	Condition	TextNo	JointPosition	tt	fp	rp	ff
1	0	(	(	The	9	nopreview	8	1	179	0	0	0
2	1	@entity3	CNN	accidental	9	nopreview	8	2	714	135	893	135
	2	)	)		9	nopreview	8	3				
	3	The	The		9	nopreview	8	4				
	4	accidental	accidental		9	nopreview	8	5				
3	5	death	death	death	9	nopreview	8	6	490	490	490	138
4	6	of	of	of	9	nopreview	8	7	0	0	0	0
5	7	a	a	a	9	nopreview	8	8	0	0	0	0
6	8	2	2	2-year-old	9	nopreview	8	9	327	327	327	327
	9	-	-		9	nopreview	8	10				
	10	year	year		9	nopreview	8	11				
	11	-	-		9	nopreview	8	12				
	12	old	old		9	nopreview	8	13				
7	13	boy	boy	boy	9	nopreview	8	14	318	318	318	318
8	14	in	in	in	9	nopreview	8	15	105	105	105	105
9	15	@entity2	Milwaukee	Milwaukee	9	nopreview	8	16	2750	2750	2750	294
10	16	on	on	on	9	nopreview	8	17	297	0	0	0
11	17	Sunday	Sunday	Sunday	9	nopreview	8	18	218	218	218	218
12	18	triggered	triggered	triggered	9	nopreview	8	19	382	262	679	262
13	19	a	a	a	9	nopreview	8	20	390	164	164	164
14	20	violent	violent	violent	9	nopreview	8	21	558	430	784	430
15	21	chain	chain	chain	9	nopreview	8	22	489	489	489	489
16	22	of	of	of	9	nopreview	8	23	0	0	0	0
17	23	events	events	events,	9	nopreview	8	24	298	298	298	298
	24	,	,		9	nopreview	8	25				
18	25	eventually	eventually	eventually	9	nopreview	8	26	513	294	294	294
19	26	claiming	claiming	claiming	9	nopreview	8	27	396	396	615	396
20	27	the	the	the	9	nopreview	8	28	139	139	139	139
21	28	lives	lives	lives	9	nopreview	8	29	258	0	0	0
22	29	of	of	of	9	nopreview	8	30	215	215	473	215
23	30	three	three	three	9	nopreview	8	31	288	288	288	288
24	31	more	more	more	9	nopreview	8	32	0	0	0	0
25	32	people	people	people.	9	nopreview	8	33	533	533	533	384
	33	.	.		9	nopreview	8	34				
26	34	It	It	It	9	nopreview	8	35	0	0	0	0
27	35	all	all	all	9	nopreview	8	36	139	0	0	0
28	36	started	started	started	9	nopreview	8	37	550	290	689	290
29	37	with	with	with	9	nopreview	8	38	703	0	0	0
30	38	a	a	a	9	nopreview	8	39	0	0	0	0
31	39	birthday	birthday	birthday	9	nopreview	8	40	2237	155	685	155
32	40	party	party	party	9	nopreview	8	41	926	0	0	0
33	41	that	that	that	9	nopreview	8	42	733	291	291	291
34	42	little	little	little	9	nopreview	8	43	1730	0	0	0
35	43	@entity9	Damani	Damani	9	nopreview	8	44	1811	166	427	166
36			Terry	Terry	9	nopreview	8	45	678	306	592	306
37	44	was	was	was	9	nopreview	8	46	208	208	208	208
38	45	attending	attending	attending.	9	nopreview	8	47	1197	265	2024	265
	46	.	.		9	nopreview	8	48				
39	47	During	During	During	9	nopreview	8	49	2156	455	1217	455
40	48	the	the	the	9	nopreview	8	50	460	0	0	0
41	49	family	family	family	9	nopreview	8	51	1716	378	8493	378
42	50	gathering	gathering	gathering,	9	nopreview	8	52	2047	975	975	975
	51	,	,		9	nopreview	8	53				
43	52	he	he	he	9	nopreview	8	54	238	0	0	0
44	53	dashed	dashed	dashed	9	nopreview	8	55	2110	637	2833	637
45	54	out	out	out	9	nopreview	8	56	364	0	0	0
46	55	into	into	into	9	nopreview	8	57	756	241	1189	241
47	56	the	the	the	9	nopreview	8	58	199	199	1335	199
48	57	street	street	street	9	nopreview	8	59	145	145	145	145
49	58	and	and	and	9	nopreview	8	60	0	0	0	0
50	59	was	was	was	9	nopreview	8	61	253	253	253	253
51	60	struck	struck	struck	9	nopreview	8	62	386	386	386	386
52	61	and	and	and	9	nopreview	8	63	0	0	0	0
53	62	killed	killed	killed	9	nopreview	8	64	313	313	313	313
54	63	by	by	by	9	nopreview	8	65	0	0	0	0
55	64	a	a	a	9	nopreview	8	66	136	136	136	136
56	65	@entity14	GMC	GMC	9	nopreview	8	67	460	460	460	460
57	66	van	van	van,	9	nopreview	8	68	418	418	418	418
	67	,	,		9	nopreview	8	69				
58	68	according	according	according	9	nopreview	8	70	265	0	0	0
59	69	to	to	to	9	nopreview	8	71	125	125	390	125
60	70	@entity2	Milwaukee	Milwaukee	9	nopreview	8	72	239	239	239	239
61	71	police	police	police.	9	nopreview	8	73	169	169	169	169
	72	.	.		9	nopreview	8	74				
62	73	The	The	The	9	nopreview	8	75	0	0	0	0
63	74	distraught	distraught	distraught	9	nopreview	8	76	357	272	272	272
64	75	driver	driver	driver,	9	nopreview	8	77	435	435	435	435
	76	,	,		9	nopreview	8	78				
65	77	@entity16	Archie	Archie	9	nopreview	8	79	0	0	0	0
66			Brown	Brown	9	nopreview	8	80	372	372	372	372
67			Jr.	Jr.,	9	nopreview	8	81	0	0	0	0
	78	,	,		9	nopreview	8	82				
68	79	40	40	40,	9	nopreview	8	83	404	404	404	150
	80	,	,		9	nopreview	8	84				
69	81	immediately	immediately	immediately	9	nopreview	8	85	368	368	368	163
70	82	stopped	stopped	stopped	9	nopreview	8	86	302	302	302	302
71	83	and	and	and	9	nopreview	8	87	0	0	0	0
72	84	got	got	got	9	nopreview	8	88	0	0	0	0
73	85	out	out	out	9	nopreview	8	89	589	589	589	589
74	86	to	to	to	9	nopreview	8	90	0	0	0	0
75	87	tend	tend	tend	9	nopreview	8	91	0	0	0	0
76	88	to	to	to	9	nopreview	8	92	526	224	224	224
77	89	the	the	the	9	nopreview	8	93	0	0	0	0
78	90	boy	boy	boy.	9	nopreview	8	94	299	299	601	299
	91	.	.		9	nopreview	8	95				
79	92	But	But	But	9	nopreview	8	96	0	0	0	0
80	93	it	it	it	9	nopreview	8	97	108	0	0	0
81	94	was	was	was	9	nopreview	8	98	0	0	0	0
82	95	too	too	too	9	nopreview	8	99	310	310	418	310
83	96	late	late	late,	9	nopreview	8	100	506	369	369	212
	97	,	,		9	nopreview	8	101				
84	98	police	police	police	9	nopreview	8	102	234	0	0	0
85	99	said	said	said.	9	nopreview	8	103	1023	357	663	357
	100	.	.		9	nopreview	8	104				
86	101	@entity9	Damani	Damani	9	nopreview	8	105	1238	0	0	0
87	102	was	was	was	9	nopreview	8	106	508	174	506	174
88	103	dead	dead	dead.	9	nopreview	8	107	977	312	312	312
	104	.	.		9	nopreview	8	108				
89	105	@entity9	Damani	Damani-s	9	nopreview	8	109	1768	86	86	86
	106	-s	-s		9	nopreview	8	110				
90	107	alarmed	alarmed	alarmed	9	nopreview	8	111	2778	270	7003	270
91	108	family	family	family	9	nopreview	8	112	985	985	1078	375
92	109	came	came	came	9	nopreview	8	113	285	285	285	285
93	110	running	running	running,	9	nopreview	8	114	1092	1092	1092	937
	111	,	,		9	nopreview	8	115				
94	112	including	including	including	9	nopreview	8	116	316	316	316	316
95	113	his	his	his	9	nopreview	8	117	0	0	0	0
96	114	older	older	older	9	nopreview	8	118	192	192	192	192
97	115	brother	brother	brother,	9	nopreview	8	119	527	527	527	527
	116	,	,		9	nopreview	8	120				
98	117	15	15	15-year-old	9	nopreview	8	121	376	376	376	190
	118	-	-		9	nopreview	8	122				
	119	year	year		9	nopreview	8	123				
	120	-	-		9	nopreview	8	124				
	121	old	old		9	nopreview	8	125				
99	122	@entity22	Rasheed	Rasheed	9	nopreview	8	126	186	0	0	0
100			Chiles	Chiles,	9	nopreview	8	127	441	261	627	261
	123	,	,		9	nopreview	8	128				
101	124	police	police	police	9	nopreview	8	129	357	357	357	357
102	125	said	said	said.	9	nopreview	8	130	289	289	289	289
	126	.	.		9	nopreview	8	131				
103	127	That	That	That	9	nopreview	8	132	244	0	0	0
104	128	was	was	was	9	nopreview	8	133	620	0	0	0
105	129	not	not	not	9	nopreview	8	134	762	451	713	451
106	130	the	the	the	9	nopreview	8	135	508	0	0	0
107	131	end	end	end	9	nopreview	8	136	480	140	893	140
108	132	of	of	of	9	nopreview	8	137	847	435	435	435
109	133	the	the	the	9	nopreview	8	138	0	0	0	0
110	134	situation	situation	situation.	9	nopreview	8	139	662	511	2082	388
	135	.	.		9	nopreview	8	140				
111	136	Soon	Soon	Soon,	9	nopreview	8	141	332	332	332	222
	137	,	,		9	nopreview	8	142				
112	138	two	two	two	9	nopreview	8	143	0	0	0	0
113	139	more	more	more	9	nopreview	8	144	332	0	0	0
114	140	people	people	people	9	nopreview	8	145	479	123	704	123
115	141	would	would	would	9	nopreview	8	146	0	0	0	0
116	142	also	also	also	9	nopreview	8	147	645	342	342	342
117	143	die	die	die:	9	nopreview	8	148	1465	424	1418	424
118	144	:	:	the	9	nopreview	8	149	0	0	0	0
119	145	the	the	driver	9	nopreview	8	150	308	308	308	308
	146	driver	driver		9	nopreview	8	151				
120	147	and	and	and	9	nopreview	8	152	362	123	123	123
121	148	the	the	the	9	nopreview	8	153	318	0	0	0
122	149	teen	teen	teen	9	nopreview	8	154	1286	757	996	757
123	150	were	were	were	9	nopreview	8	155	1140	267	267	267
124	151	both	both	both	9	nopreview	8	156	1984	0	0	0
125	152	felled	felled	felled	9	nopreview	8	157	2169	560	2210	560
126	153	by	by	by	9	nopreview	8	158	1086	0	0	0
127	154	bullets	bullets	bullets	9	nopreview	8	159	824	227	3802	227
128	155	fired	fired	fired	9	nopreview	8	160	1293	786	786	379
129	156	by	by	by	9	nopreview	8	161	124	0	0	0
130	157	the	the	the	9	nopreview	8	162	679	199	199	199
131	158	same	same	same	9	nopreview	8	163	437	0	0	0
132	159	man	man	man,	9	nopreview	8	164	1234	698	1018	315
	160	,	,		9	nopreview	8	165				
133	161	police	police	police	9	nopreview	8	166	587	410	410	410
134	162	said	said	said.	9	nopreview	8	167	247	0	0	0
	163	.	.		9	nopreview	8	168				
135	164	That	That	That	9	nopreview	8	169	665	175	175	175
136	165	man	man	man,	9	nopreview	8	170	134	134	2591	134
	166	,	,		9	nopreview	8	171				
137	167	identified	identified	identified	9	nopreview	8	172	941	270	270	270
138	168	as	as	as	9	nopreview	8	173	0	0	0	0
139	169	@entity33	Ricky	Ricky	9	nopreview	8	174	204	204	204	204
140			Ricardo	Ricardo	9	nopreview	8	175	870	166	166	166
141			Chiles	Chiles	9	nopreview	8	176	449	0	0	0
142			III	III,	9	nopreview	8	177	321	321	321	321
	170	,	,		9	nopreview	8	178				
143	171	was	was	was	9	nopreview	8	179	0	0	0	0
144	172	located	located	located	9	nopreview	8	180	1237	461	461	168
145	173	late	late	late	9	nopreview	8	181	207	207	207	207
146	174	Wednesday	Wednesday	Wednesday	9	nopreview	8	182	228	0	0	0
147	175	at	at	at	9	nopreview	8	183	0	0	0	0
148	176	a	a	a	9	nopreview	8	184	161	161	161	161
149	177	@entity35	Chicago	Chicago-area	9	nopreview	8	185	1067	215	215	215
	178	-	-		9	nopreview	8	186				
	179	area	area		9	nopreview	8	187				
150	180	hotel	hotel	hotel.	9	nopreview	8	188	565	0	0	0
	181	.	.		9	nopreview	8	189				
151	182	He	He	He	9	nopreview	8	190	165	165	165	165
152	183	committed	committed	committed	9	nopreview	8	191	1506	602	602	314
153	184	suicide	suicide	suicide	9	nopreview	8	192	238	238	7921	238
154	185	as	as	as	9	nopreview	8	193	0	0	0	0
155	186	authorities	authorities	authorities	9	nopreview	8	194	426	426	426	157
156	187	closed	closed	closed	9	nopreview	8	195	1053	316	316	316
157	188	in	in	in	9	nopreview	8	196	724	0	0	0
158	189	with	with	with	9	nopreview	8	197	673	249	249	249
159	190	a	a	a	9	nopreview	8	198	607	0	0	0
160	191	warrant	warrant	warrant	9	nopreview	8	199	355	203	2208	203
161	192	for	for	for	9	nopreview	8	200	0	0	0	0
162	193	his	his	his	9	nopreview	8	201	0	0	0	0
163	194	arrest	arrest	arrest,	9	nopreview	8	202	128	128	128	128
	195	,	,		9	nopreview	8	203				
164	196	@entity2	Milwaukee	Milwaukee	9	nopreview	8	204	2040	637	637	218
165	197	Police	Police	Police	9	nopreview	8	205	685	365	365	365
166	198	Chief	Chief	Chief	9	nopreview	8	206	673	0	0	0
167	199	@entity36	Ed	Ed	9	nopreview	8	207	457	227	227	227
168			Flynn	Flynn	9	nopreview	8	208	556	146	146	146
169	200	told	told	told	9	nopreview	8	209	282	0	0	0
170	201	reporters	reporters	reporters.	9	nopreview	8	210	373	0	0	0
	202	.	.		9	nopreview	8	211				
171	203	-	-	-Chicago	9	nopreview	8	212	2435	0	0	0
	204	@entity35	Chicago		9	nopreview	8	213				
172	205	police	police	police	9	nopreview	8	214	150	150	871	150
173	206	and	and	and	9	nopreview	8	215	181	0	0	0
174	207	@entity43	United	United	9	nopreview	8	216	454	186	186	186
175			States	States	9	nopreview	8	217	183	183	183	183
176			Marshals	Marshals	9	nopreview	8	218	369	274	274	274
177			Service	Service	9	nopreview	8	219	498	0	0	0
178	208	entered	entered	entered	9	nopreview	8	220	2862	1233	1233	426
179	209	the	the	the	9	nopreview	8	221	272	0	0	0
180	210	hotel	hotel	hotel	9	nopreview	8	222	1895	492	3084	215
181	211	room	room	room,	9	nopreview	8	223	270	0	0	0
	212	,	,		9	nopreview	8	224				
182	213	whereupon	whereupon	whereupon	9	nopreview	8	225	3094	0	0	0
183	214	Mr.	Mr.	Mr.	9	nopreview	8	226	810	0	0	0
184	215	@entity22	Chiles	Chiles	9	nopreview	8	227	2370	289	289	289
185	216	took	took	took	9	nopreview	8	228	885	0	0	0
186	217	his	his	his	9	nopreview	8	229	1608	473	2913	473
187	218	own	own	own	9	nopreview	8	230	475	475	475	475
188	219	life	life	life	9	nopreview	8	231	688	0	0	0
189	220	with	with	with	9	nopreview	8	232	361	361	680	361
190	221	his	his	his	9	nopreview	8	233	574	267	267	267
191	222	firearm	firearm	firearm,-	9	nopreview	8	234	882	354	2049	354
	223	,	,		9	nopreview	8	235				
	224	-	-		9	nopreview	8	236				
192	225	the	the	the	9	nopreview	8	237	116	116	116	116
193	226	police	police	police	9	nopreview	8	238	530	203	13672	203
194	227	chief	chief	chief	9	nopreview	8	239	173	173	173	173
195	228	said	said	said	9	nopreview	8	240	223	223	223	223
196	229	Thursday	Thursday	Thursday.	9	nopreview	8	241	995	995	995	178
	230	.	.		9	nopreview	8	242				
197	231	An	An	An	9	nopreview	8	243	329	0	0	0
198	232	accidental	accidental	accidental	9	nopreview	8	244	1210	348	1258	348
199	233	death	death	death,	9	nopreview	8	245	713	273	994	273
	234	,	,		9	nopreview	8	246				
200	235	a	a	a	9	nopreview	8	247	0	0	0	0
201	236	fatal	fatal	fatal	9	nopreview	8	248	395	395	395	395
202	237	retaliation	retaliation	retaliation	9	nopreview	8	249	1120	1120	1120	451
203	238	rips	rips	rips	9	nopreview	8	250	2244	0	0	0
204	239	apart	apart	apart	9	nopreview	8	251	739	408	2983	408
205	240	two	two	two	9	nopreview	8	252	173	173	173	173
206	241	families	families	families	9	nopreview	8	253	364	364	364	364
207	242	@entity9	Damani	Damani-s	9	nopreview	8	254	209	209	209	209
	243	-s	-s		9	nopreview	8	255				
208	244	family	family	family	9	nopreview	8	256	597	597	597	597
209	245	members	members	members	9	nopreview	8	257	381	0	0	0
210	246	had	had	had	9	nopreview	8	258	181	0	0	0
211	247	previously	previously	previously	9	nopreview	8	259	400	0	0	0
212	248	identified	identified	identified	9	nopreview	8	260	406	0	0	0
213	249	the	the	the	9	nopreview	8	261	0	0	0	0
214	250	shooting	shooting	shooting	9	nopreview	8	262	278	0	0	0
215	251	suspect	suspect	suspect	9	nopreview	8	263	549	0	0	0
216	252	as	as	as	9	nopreview	8	264	0	0	0	0
217	253	the	the	the	9	nopreview	8	265	0	0	0	0
218	254	boys	boys	boys-	9	nopreview	8	266	794	137	137	137
	255	-	-		9	nopreview	8	267				
219	256	uncle	uncle	uncle.	9	nopreview	8	268	212	212	3064	212
	257	.	.		9	nopreview	8	269				
220	258	-	-	-Sunday	9	nopreview	8	270	512	0	0	0
	259	Sunday	Sunday		9	nopreview	8	271				
221	260	was	was	was	9	nopreview	8	272	0	0	0	0
222	261	the	the	the	9	nopreview	8	273	425	159	937	159
223	262	worst	worst	worst	9	nopreview	8	274	287	287	287	287
224	263	day	day	day	9	nopreview	8	275	0	0	0	0
225	264	I	I	I	9	nopreview	8	276	135	135	135	135
226	265	ever	ever	ever	9	nopreview	8	277	197	0	0	0
227	266	lived	lived	lived	9	nopreview	8	278	243	243	440	243
228	267	in	in	in	9	nopreview	8	279	0	0	0	0
229	268	my	my	my	9	nopreview	8	280	186	186	186	186
230	269	whole	whole	whole	9	nopreview	8	281	0	0	0	0
231	270	entire	entire	entire	9	nopreview	8	282	186	186	186	186
232	271	life	life	life,-	9	nopreview	8	283	266	266	266	266
	272	,	,		9	nopreview	8	284				
	273	-	-		9	nopreview	8	285				
233	274	@entity54	Lena	Lena	9	nopreview	8	286	0	0	0	0
234			Tidwell	Tidwell,	9	nopreview	8	287	232	232	232	232
	275	,	,		9	nopreview	8	288				
235	276	told	told	told	9	nopreview	8	289	0	0	0	0
236	277	@entity3	CNN	CNN	9	nopreview	8	290	270	0	0	0
237	278	affiliate	affiliate	affiliate	9	nopreview	8	291	1350	0	0	0
238	279	@entity55	WISN	WISN.	9	nopreview	8	292	569	0	0	0
	280	.	.		9	nopreview	8	293				
239	281	-	-	-It-s	9	nopreview	8	294	342	0	0	0
	282	It	It		9	nopreview	8	295				
	283	-s	-s		9	nopreview	8	296				
240	284	a	a	a	9	nopreview	8	297	334	0	0	0
241	285	day	day	day	9	nopreview	8	298	282	0	0	0
242	286	I	I	I	9	nopreview	8	299	439	0	0	0
243	287	wish	wish	wish	9	nopreview	8	300	506	0	0	0
244	288	had	had	had	9	nopreview	8	301	0	0	0	0
245	289	never	never	never,	9	nopreview	8	302	548	0	0	0
	290	,	,		9	nopreview	8	303				
246	291	never	never	never	9	nopreview	8	304	285	0	0	0
247	292	came	came	came.-	9	nopreview	8	305	167	0	0	0
	293	.	.		9	nopreview	8	306				
248	294	-	-	Tidwell	9	nopreview	8	307	1613	0	0	0
	295	@entity54	Tidwell		9	nopreview	8	308				
249	296	is	is	is	9	nopreview	8	309	435	0	0	0
250	297	the	the	the	9	nopreview	8	310	685	0	0	0
251	298	boys	boys	boys-	9	nopreview	8	311	864	230	8062	230
	299	-	-		9	nopreview	8	312				
252	300	grandmother	grandmother	grandmother	9	nopreview	8	313	494	494	494	494
253	301	and	and	and	9	nopreview	8	314	0	0	0	0
254	302	the	the	the	9	nopreview	8	315	280	280	280	280
255	303	mother	mother	mother	9	nopreview	8	316	1054	343	343	343
256	304	of	of	of	9	nopreview	8	317	533	0	0	0
257	305	the	the	the	9	nopreview	8	318	588	0	0	0
258	306	alleged	alleged	alleged	9	nopreview	8	319	1162	307	307	307
259	307	gunman	gunman	gunman.	9	nopreview	8	320	954	412	1472	412
	308	.	.		9	nopreview	8	321				
260	309	She	She	She	9	nopreview	8	322	2023	208	208	208
261	310	said	said	said	9	nopreview	8	323	4510	254	254	254
262	311	she	she	she	9	nopreview	8	324	3980	160	372	160
263	312	was	was	was	9	nopreview	8	325	2263	628	880	628
264	313	inside	inside	inside	9	nopreview	8	326	3985	445	8705	445
265	314	eating	eating	eating	9	nopreview	8	327	2146	439	439	439
266	315	cake	cake	cake	9	nopreview	8	328	1076	584	11921	584
267	316	and	and	and	9	nopreview	8	329	0	0	0	0
268	317	ice	ice	ice	9	nopreview	8	330	582	325	325	325
269	318	cream	cream	cream	9	nopreview	8	331	216	216	473	216
270	319	at	at	at	9	nopreview	8	332	292	0	0	0
271	320	the	the	the	9	nopreview	8	333	667	298	298	298
272	321	birthday	birthday	birthday	9	nopreview	8	334	675	87	379	87
273	322	when	when	when	9	nopreview	8	335	857	530	614	174
274	323	her	her	her	9	nopreview	8	336	828	187	1758	187
275	324	life	life	life	9	nopreview	8	337	2018	0	0	0
276	325	turned	turned	turned	9	nopreview	8	338	788	253	1450	253
277	326	upside	upside	upside	9	nopreview	8	339	776	253	2140	253
278	327	down	down	down.	9	nopreview	8	340	0	0	0	0
	328	.	.		9	nopreview	8	341				
279	329	-	-	-I	9	nopreview	8	342	290	290	552	290
	330	I	I		9	nopreview	8	343				
280	331	did	did	didn-t	9	nopreview	8	344	664	664	664	664
	332	n-t	n-t		9	nopreview	8	345				
281	333	know	know	know	9	nopreview	8	346	332	332	332	332
282	334	my	my	my	9	nopreview	8	347	86	86	86	86
283	335	grandbaby	grandbaby	grandbaby	9	nopreview	8	348	919	436	436	140
284	336	got	got	got	9	nopreview	8	349	378	256	739	256
285	337	hit	hit	hit,	9	nopreview	8	350	353	353	475	353
	338	,	,		9	nopreview	8	351				
286	339	and	and	and	9	nopreview	8	352	0	0	0	0
287	340	then	then	then	9	nopreview	8	353	301	301	301	301
288	341	I	I	I	9	nopreview	8	354	0	0	0	0
289	342	heard	heard	heard	9	nopreview	8	355	490	490	490	261
290	343	people	people	people	9	nopreview	8	356	155	155	155	155
291	344	just	just	just	9	nopreview	8	357	0	0	0	0
292	345	screaming	screaming	screaming,-	9	nopreview	8	358	425	425	425	425
	346	,	,		9	nopreview	8	359				
	347	-	-		9	nopreview	8	360				
293	348	she	she	she	9	nopreview	8	361	0	0	0	0
294	349	said	said	said.	9	nopreview	8	362	0	0	0	0
	350	.	.		9	nopreview	8	363				
295	351	-	-	-Then	9	nopreview	8	364	359	359	359	359
	352	Then	Then		9	nopreview	8	365				
296	353	I	I	I	9	nopreview	8	366	0	0	0	0
297	354	just	just	just	9	nopreview	8	367	655	495	495	209
298	355	heard	heard	heard	9	nopreview	8	368	280	0	0	0
299	356	gunshots	gunshots	gunshots,	9	nopreview	8	369	354	127	634	127
	357	,	,		9	nopreview	8	370				
300	358	and	and	and	9	nopreview	8	371	113	113	113	113
301	359	my	my	my	9	nopreview	8	372	201	0	0	0
302	360	daughter	daughter	daughter	9	nopreview	8	373	471	471	471	471
303	361	ran	ran	ran	9	nopreview	8	374	791	0	0	0
304	362	in	in	in	9	nopreview	8	375	701	346	1061	346
305	363	the	the	the	9	nopreview	8	376	568	0	0	0
306	364	house	house	house	9	nopreview	8	377	451	324	324	324
307	365	with	with	with	9	nopreview	8	378	1035	392	2362	392
308	366	the	the	the	9	nopreview	8	379	0	0	0	0
309	367	baby	baby	baby	9	nopreview	8	380	392	392	392	392
310	368	in	in	in	9	nopreview	8	381	0	0	0	0
311	369	her	her	her	9	nopreview	8	382	420	420	420	420
312	370	arms	arms	arms.-	9	nopreview	8	383	153	153	153	153
	371	.	.		9	nopreview	8	384				
313	372	-	-	The	9	nopreview	8	385	420	420	580	420
314	373	The	The	family	9	nopreview	8	386	394	394	394	179
	374	family	family		9	nopreview	8	387				
315	375	believes	believes	believes	9	nopreview	8	388	924	284	284	284
316	376	the	the	the	9	nopreview	8	389	0	0	0	0
317	377	uncle	uncle	uncle	9	nopreview	8	390	945	218	218	218
318	378	targeted	targeted	targeted	9	nopreview	8	391	1118	500	650	500
319	379	@entity16	Brown	Brown,	9	nopreview	8	392	682	399	2517	313
	380	,	,		9	nopreview	8	393				
320	381	and	and	and	9	nopreview	8	394	269	0	0	0
321	382	@entity22	Rasheed	Rasheed	9	nopreview	8	395	1684	955	955	687
322	383	was	was	was	9	nopreview	8	396	0	0	0	0
323	384	struck	struck	struck	9	nopreview	8	397	496	311	1494	311
324	385	by	by	by	9	nopreview	8	398	188	188	188	188
325	386	an	an	an	9	nopreview	8	399	198	198	198	198
326	387	errant	errant	errant	9	nopreview	8	400	1214	598	598	433
327	388	bullet	bullet	bullet.	9	nopreview	8	401	412	267	1028	267
	389	.	.		9	nopreview	8	402				
328	390	-	-	-I	9	nopreview	8	403	0	0	0	0
	391	I	I		9	nopreview	8	404				
329	392	heard	heard	heard	9	nopreview	8	405	764	0	0	0
330	393	he	he	he	9	nopreview	8	406	387	0	0	0
331	394	was	was	was	9	nopreview	8	407	771	137	1590	137
332	395	trying	trying	trying	9	nopreview	8	408	115	0	0	0
333	396	to	to	to	9	nopreview	8	409	634	353	1081	353
334	397	pick	pick	pick	9	nopreview	8	410	315	315	315	315
335	398	his	his	his	9	nopreview	8	411	243	243	243	243
336	399	brother	brother	brother	9	nopreview	8	412	0	0	0	0
337	400	up	up	up.	9	nopreview	8	413	262	262	262	262
	401	.	.		9	nopreview	8	414				
338	402	He	He	He	9	nopreview	8	415	159	159	159	159
339	403	was	was	was	9	nopreview	8	416	235	0	0	0
340	404	trying	trying	trying	9	nopreview	8	417	679	256	914	256
341	405	to	to	to	9	nopreview	8	418	0	0	0	0
342	406	hold	hold	hold	9	nopreview	8	419	400	400	400	400
343	407	him	him	him	9	nopreview	8	420	337	337	337	337
344	408	and	and	and	9	nopreview	8	421	0	0	0	0
345	409	save	save	save	9	nopreview	8	422	360	360	360	360
346	410	him	him	him,-	9	nopreview	8	423	409	0	0	0
	411	,	,		9	nopreview	8	424				
	412	-	-		9	nopreview	8	425				
347	413	a	a	a	9	nopreview	8	426	0	0	0	0
348	414	family	family	family	9	nopreview	8	427	133	133	542	133
349	415	friend	friend	friend,	9	nopreview	8	428	0	0	0	0
	416	,	,		9	nopreview	8	429				
350	417	@entity77	Stephanie	Stephanie	9	nopreview	8	430	270	270	270	270
351			Townsend	Townsend,	9	nopreview	8	431	0	0	0	0
	418	,	,		9	nopreview	8	432				
352	419	told	told	told	9	nopreview	8	433	0	0	0	0
353	420	@entity3	CNN	CNN	9	nopreview	8	434	335	335	335	335
354	421	affiliate	affiliate	affiliate	9	nopreview	8	435	387	387	387	151
355	422	@entity78	WITI	WITI.	9	nopreview	8	436	0	0	0	0
	423	.	.		9	nopreview	8	437				
356	424	Earlier	Earlier	Earlier	9	nopreview	8	438	451	451	451	451
357	425	this	this	this	9	nopreview	8	439	350	350	350	350
358	426	week	week	week,	9	nopreview	8	440	339	0	0	0
	427	,	,		9	nopreview	8	441				
359	428	@entity36	Flynn	Flynn	9	nopreview	8	442	312	0	0	0
360	429	bemoaned	bemoaned	bemoaned	9	nopreview	8	443	2225	112	2610	112
361	430	the	the	the	9	nopreview	8	444	245	0	0	0
362	431	apparent	apparent	apparent	9	nopreview	8	445	1809	674	674	177
363	432	madness	madness	madness	9	nopreview	8	446	1064	251	2710	251
364	433	of	of	of	9	nopreview	8	447	0	0	0	0
365	434	what	what	what	9	nopreview	8	448	0	0	0	0
366	435	happened	happened	happened.	9	nopreview	8	449	119	119	119	119
	436	.	.		9	nopreview	8	450				
367	437	-	-	-What	9	nopreview	8	451	864	458	458	458
	438	What	What		9	nopreview	8	452				
368	439	did	did	did	9	nopreview	8	453	0	0	0	0
369	440	we	we	we	9	nopreview	8	454	956	390	1073	390
370	441	have	have	have	9	nopreview	8	455	1126	108	463	108
371	442	Sunday	Sunday	Sunday?-	9	nopreview	8	456	1329	414	1464	157
	443	?	?		9	nopreview	8	457				
	444	-	-		9	nopreview	8	458				
372	445	@entity36	Flynn	Flynn	9	nopreview	8	459	319	0	0	0
373	446	asked	asked	asked.	9	nopreview	8	460	545	406	1681	406
	447	.	.		9	nopreview	8	461				
374	448	-	-	-We	9	nopreview	8	462	0	0	0	0
	449	We	We		9	nopreview	8	463				
375	450	had	had	had	9	nopreview	8	464	628	446	1721	296
376	451	some	some	some	9	nopreview	8	465	245	0	0	0
377	452	clown	clown	clown	9	nopreview	8	466	989	989	1416	389
378	453	take	take	take	9	nopreview	8	467	384	384	384	384
379	454	the	the	the	9	nopreview	8	468	176	176	176	176
380	455	law	law	law	9	nopreview	8	469	0	0	0	0
381	456	into	into	into	9	nopreview	8	470	661	333	333	333
382	457	his	his	his	9	nopreview	8	471	462	462	462	462
383	458	own	own	own	9	nopreview	8	472	180	180	508	180
384	459	hands	hands	hands	9	nopreview	8	473	280	155	155	155
385	460	and	and	and	9	nopreview	8	474	0	0	0	0
386	461	murder	murder	murder	9	nopreview	8	475	2387	1747	1747	180
387	462	a	a	a	9	nopreview	8	476	164	0	0	0
388	463	guy	guy	guy	9	nopreview	8	477	536	0	0	0
389	464	who	who	who	9	nopreview	8	478	1353	0	0	0
390	465	was	was	was	9	nopreview	8	479	1867	139	2769	139
391	466	doing	doing	doing	9	nopreview	8	480	1117	325	689	325
392	467	what	what	what	9	nopreview	8	481	667	239	416	239
393	468	we	we	we	9	nopreview	8	482	645	297	297	297
394	469	expect	expect	expect	9	nopreview	8	483	1600	0	0	0
395	470	good	good	good	9	nopreview	8	484	585	205	205	205
396	471	citizens	citizens	citizens	9	nopreview	8	485	960	333	493	333
397	472	to	to	to	9	nopreview	8	486	0	0	0	0
398	473	do	do	do,	9	nopreview	8	487	424	0	0	0
	474	,	,		9	nopreview	8	488				
399	475	and	and	and	9	nopreview	8	489	0	0	0	0
400	476	oops	oops	oops,	9	nopreview	8	490	314	178	178	178
	477	,	,		9	nopreview	8	491				
401	478	accidentally	accidentally	accidentally	9	nopreview	8	492	921	564	564	564
402	479	kill	kill	kill	9	nopreview	8	493	202	202	202	202
403	480	somebody	somebody	somebody	9	nopreview	8	494	490	490	490	490
404	481	else	else	else.-	9	nopreview	8	495	382	382	6689	249
	482	.	.		9	nopreview	8	496				
