HumanPosition	AnonymizedPosition	AnonymizedToken	OriginalToken	ExperimentToken	Participant	Condition	TextNo	JointPosition	tt	fp	rp	ff
0	0	@entity0	Alejandro	Alejandro	5	preview	12	1	0	0	0	0
2			Valverde	Valverde	5	preview	12	2	217	0	0	0
3	1	successfully	successfully	successfully	5	preview	12	3	0	0	0	0
4	2	defended	defended	defended	5	preview	12	4	0	0	0	0
5	3	his	his	his	5	preview	12	5	0	0	0	0
6	4	@entity2	Fleche	Fleche	5	preview	12	6	0	0	0	0
7			Wallonne	Wallonne	5	preview	12	7	0	0	0	0
8	5	title	title	title	5	preview	12	8	0	0	0	0
9	6	on	on	on	5	preview	12	9	0	0	0	0
10	7	Wednesday	Wednesday	Wednesday	5	preview	12	10	0	0	0	0
11	8	as	as	as	5	preview	12	11	0	0	0	0
12	9	@entity3	Chris	Chris	5	preview	12	12	0	0	0	0
13			Froome	Froome	5	preview	12	13	0	0	0	0
14	10	finished	finished	finished	5	preview	12	14	0	0	0	0
15	11	back	back	back	5	preview	12	15	0	0	0	0
16	12	in	in	in	5	preview	12	16	0	0	0	0
17	13	123rd	123rd	123rd	5	preview	12	17	0	0	0	0
18	14	after	after	after	5	preview	12	18	0	0	0	0
19	15	a	a	a	5	preview	12	19	0	0	0	0
20	16	fall	fall	fall.	5	preview	12	20	0	0	0	0
	17	.	.		5	preview	12	21				
21	18	@entity4	Movistar	Movistar	5	preview	12	22	0	0	0	0
22	19	rider	rider	rider	5	preview	12	23	0	0	0	0
23	20	@entity0	Valverde	Valverde	5	preview	12	24	0	0	0	0
24	21	sprinted	sprinted	sprinted	5	preview	12	25	0	0	0	0
25	22	to	to	to	5	preview	12	26	0	0	0	0
26	23	victory	victory	victory	5	preview	12	27	0	0	0	0
27	24	ahead	ahead	ahead	5	preview	12	28	0	0	0	0
28	25	of	of	of	5	preview	12	29	0	0	0	0
29	26	@entity6	Julian	Julian	5	preview	12	30	0	0	0	0
30			Alaphilippe	Alaphilippe	5	preview	12	31	147	147	364	147
31	27	and	and	and	5	preview	12	32	0	0	0	0
32	28	@entity7	Michael	Michael	5	preview	12	33	0	0	0	0
33			Albasini	Albasini	5	preview	12	34	0	0	0	0
34	29	in	in	in	5	preview	12	35	0	0	0	0
35	30	a	a	a	5	preview	12	36	0	0	0	0
36	31	race	race	race	5	preview	12	37	0	0	0	0
37	32	which	which	which	5	preview	12	38	0	0	0	0
38	33	saw	saw	saw	5	preview	12	39	0	0	0	0
39	34	former	former	former	5	preview	12	40	0	0	0	0
40	35	winner	winner	winner	5	preview	12	41	0	0	0	0
41	36	@entity9	Philippe	Philippe	5	preview	12	42	0	0	0	0
42			Gilbert	Gilbert	5	preview	12	43	0	0	0	0
43	37	pull	pull	pull	5	preview	12	44	0	0	0	0
44	38	out	out	out	5	preview	12	45	0	0	0	0
45	39	after	after	after	5	preview	12	46	0	0	0	0
46	40	a	a	a	5	preview	12	47	199	199	199	199
47	41	bad	bad	bad	5	preview	12	48	0	0	0	0
48	42	crash	crash	crash	5	preview	12	49	403	403	403	403
49	43	some	some	some	5	preview	12	50	0	0	0	0
50	44	50	50	50	5	preview	12	51	0	0	0	0
51	45	kilometres	kilometres	kilometres	5	preview	12	52	218	218	218	218
52	46	from	from	from	5	preview	12	53	171	171	171	171
53	47	the	the	the	5	preview	12	54	0	0	0	0
54	48	end	end	end.	5	preview	12	55	0	0	0	0
	49	.	.		5	preview	12	56				
55	50	@entity3	Froome	Froome	5	preview	12	57	0	0	0	0
56	51	was	was	was	5	preview	12	58	0	0	0	0
57	52	involved	involved	involved	5	preview	12	59	0	0	0	0
58	53	in	in	in	5	preview	12	60	0	0	0	0
59	54	a	a	a	5	preview	12	61	0	0	0	0
60	55	crash	crash	crash	5	preview	12	62	0	0	0	0
61	56	in	in	in	5	preview	12	63	0	0	0	0
62	57	the	the	the	5	preview	12	64	0	0	0	0
63	58	final	final	final	5	preview	12	65	234	0	0	0
64	59	12	12	12	5	preview	12	66	0	0	0	0
65	60	kilometres	kilometres	kilometres	5	preview	12	67	139	139	373	139
66	61	but	but	but	5	preview	12	68	0	0	0	0
67	62	was	was	was	5	preview	12	69	0	0	0	0
68	63	able	able	able	5	preview	12	70	0	0	0	0
69	64	to	to	to	5	preview	12	71	0	0	0	0
70	65	get	get	get	5	preview	12	72	0	0	0	0
71	66	back	back	back	5	preview	12	73	0	0	0	0
72	67	on	on	on	5	preview	12	74	0	0	0	0
73	68	his	his	his	5	preview	12	75	0	0	0	0
74	69	bike	bike	bike	5	preview	12	76	0	0	0	0
75	70	and	and	and	5	preview	12	77	0	0	0	0
76	71	finish	finish	finish.	5	preview	12	78	0	0	0	0
	72	.	.		5	preview	12	79				
77	73	@entity14	Spain	Team	5	preview	12	80	0	0	0	0
	74	-s	-s		5	preview	12	81				
	75	@entity0	Alejandro		5	preview	12	82				
			Valverde		5	preview	12	83				
	76	(	(		5	preview	12	84				
	77	centre	centre		5	preview	12	85				
	78	)	)		5	preview	12	86				
	79	realises	realises		5	preview	12	87				
	80	he	he		5	preview	12	88				
78	81	-s	-s	Sky-s	5	preview	12	89	0	0	0	0
	82	done	done		5	preview	12	90				
	83	enough	enough		5	preview	12	91				
	84	to	to		5	preview	12	92				
79	85	claim	claim	sports	5	preview	12	93	0	0	0	0
	86	victory	victory		5	preview	12	94				
	87	in	in		5	preview	12	95				
	88	@entity17	Belgium		5	preview	12	96				
	89	-s	-s		5	preview	12	97				
	90	@entity2	Fleche		5	preview	12	98				
	91	@entity0	Wallonne		5	preview	12	99				
			Valverde		5	preview	12	100				
	92	(	(		5	preview	12	101				
	93	centre	centre		5	preview	12	102				
	94	)	)		5	preview	12	103				
	95	finished	finished		5	preview	12	104				
	96	ahead	ahead		5	preview	12	105				
	97	of	of		5	preview	12	106				
	98	@entity6	Julian		5	preview	12	107				
			Alaphilippe		5	preview	12	108				
	99	(	(		5	preview	12	109				
	100	left	left		5	preview	12	110				
	101	)	)		5	preview	12	111				
	102	and	and		5	preview	12	112				
	103	@entity7	Michael		5	preview	12	113				
			Albasini		5	preview	12	114				
	104	(	(		5	preview	12	115				
	105	right	right		5	preview	12	116				
	106	)	)		5	preview	12	117				
	107	on	on		5	preview	12	118				
	108	Wednesday	Wednesday		5	preview	12	119				
	109	@entity20	Team		5	preview	12	120				
			Sky		5	preview	12	121				
	110	-s	-s		5	preview	12	122				
	111	sports	sports		5	preview	12	123				
80	112	director	director	director	5	preview	12	124	230	230	230	230
81	113	@entity19	Gabriel	Gabriel	5	preview	12	125	0	0	0	0
82			Rasch	Rasch	5	preview	12	126	0	0	0	0
83	114	praised	praised	praised	5	preview	12	127	0	0	0	0
84	115	@entity3	Froome	Froome	5	preview	12	128	0	0	0	0
85	116	for	for	for	5	preview	12	129	0	0	0	0
86	117	finishing	finishing	finishing	5	preview	12	130	0	0	0	0
87	118	the	the	the	5	preview	12	131	0	0	0	0
88	119	race	race	race	5	preview	12	132	0	0	0	0
89	120	and	and	and	5	preview	12	133	0	0	0	0
90	121	said	said	said	5	preview	12	134	0	0	0	0
91	122	he	he	he	5	preview	12	135	0	0	0	0
92	123	expects	expects	expects	5	preview	12	136	0	0	0	0
93	124	the	the	the	5	preview	12	137	0	0	0	0
94	125	former	former	former	5	preview	12	138	0	0	0	0
95	126	@entity23	Tour	Tour	5	preview	12	139	152	152	152	152
96			de	de	5	preview	12	140	0	0	0	0
97			France	France	5	preview	12	141	222	222	222	222
98	127	winner	winner	winner	5	preview	12	142	0	0	0	0
99	128	will	will	will	5	preview	12	143	0	0	0	0
100	129	be	be	be	5	preview	12	144	0	0	0	0
101	130	fine	fine	fine	5	preview	12	145	0	0	0	0
102	131	to	to	to	5	preview	12	146	0	0	0	0
103	132	take	take	take	5	preview	12	147	0	0	0	0
104	133	part	part	part	5	preview	12	148	0	0	0	0
105	134	in	in	in	5	preview	12	149	0	0	0	0
106	135	the	the	the	5	preview	12	150	0	0	0	0
107	136	@entity25	Tour	Tour	5	preview	12	151	0	0	0	0
108			de	de	5	preview	12	152	0	0	0	0
109			Romandie	Romandie	5	preview	12	153	0	0	0	0
110	137	next	next	next	5	preview	12	154	0	0	0	0
111	138	week	week	week.	5	preview	12	155	0	0	0	0
	139	.	.		5	preview	12	156				
112	140	@entity19	Rasch	Rasch	5	preview	12	157	0	0	0	0
113	141	told	told	told	5	preview	12	158	0	0	0	0
114	142	@entity26	TeamSky.com	TeamSky.com:	5	preview	12	159	124	124	124	124
115	143	:	:	-Chris	5	preview	12	160	158	158	158	158
	144	-	-		5	preview	12	161				
	145	@entity3	Chris		5	preview	12	162				
116	146	was	was	was	5	preview	12	163	0	0	0	0
117	147	pretty	pretty	pretty	5	preview	12	164	0	0	0	0
118	148	banged	banged	banged	5	preview	12	165	171	0	0	0
119	149	up	up	up	5	preview	12	166	158	158	329	158
120	150	but	but	but	5	preview	12	167	0	0	0	0
121	151	showed	showed	showed	5	preview	12	168	196	196	196	196
122	152	real	real	real	5	preview	12	169	210	210	210	210
123	153	courage	courage	courage	5	preview	12	170	0	0	0	0
124	154	to	to	to	5	preview	12	171	0	0	0	0
125	155	finish	finish	finish	5	preview	12	172	183	183	183	183
126	156	the	the	the	5	preview	12	173	0	0	0	0
127	157	race	race	race	5	preview	12	174	0	0	0	0
128	158	and	and	and	5	preview	12	175	163	163	163	163
129	159	we	we	we-ll	5	preview	12	176	0	0	0	0
	160	-ll	-ll		5	preview	12	177				
130	161	assess	assess	assess	5	preview	12	178	145	145	145	145
131	162	his	his	his	5	preview	12	179	0	0	0	0
132	163	injuries	injuries	injuries	5	preview	12	180	96	0	0	0
133	164	overnight	overnight	overnight.	5	preview	12	181	195	195	291	195
	165	.	.		5	preview	12	182				
134	166	-	-	-He	5	preview	12	183	0	0	0	0
	167	He	He		5	preview	12	184				
135	168	has	has	hasn-t	5	preview	12	185	163	163	163	163
	169	n-t	n-t		5	preview	12	186				
136	170	needed	needed	needed	5	preview	12	187	0	0	0	0
137	171	to	to	to	5	preview	12	188	155	155	155	155
138	172	go	go	go	5	preview	12	189	0	0	0	0
139	173	to	to	to	5	preview	12	190	0	0	0	0
140	174	hospital	hospital	hospital	5	preview	12	191	195	195	195	195
141	175	and	and	and	5	preview	12	192	0	0	0	0
142	176	right	right	right	5	preview	12	193	0	0	0	0
143	177	now	now	now,	5	preview	12	194	192	192	192	192
	178	,	,		5	preview	12	195				
144	179	as	as	as	5	preview	12	196	0	0	0	0
145	180	things	things	things	5	preview	12	197	172	172	172	172
146	181	stand	stand	stand,	5	preview	12	198	0	0	0	0
	182	,	,		5	preview	12	199				
147	183	we	we	we-re	5	preview	12	200	190	190	190	190
	184	-re	-re		5	preview	12	201				
148	185	still	still	still	5	preview	12	202	0	0	0	0
149	186	expecting	expecting	expecting	5	preview	12	203	151	151	151	151
150	187	him	him	him	5	preview	12	204	0	0	0	0
151	188	to	to	to	5	preview	12	205	0	0	0	0
152	189	line	line	line	5	preview	12	206	237	237	237	237
153	190	up	up	up	5	preview	12	207	0	0	0	0
154	191	at	at	at	5	preview	12	208	138	138	138	138
155	192	the	the	the	5	preview	12	209	0	0	0	0
156	193	@entity25	Tour	Tour	5	preview	12	210	0	0	0	0
157			de	de	5	preview	12	211	170	170	170	170
158			Romandie	Romandie	5	preview	12	212	336	336	336	336
159	194	next	next	next	5	preview	12	213	0	0	0	0
160	195	Tuesday	Tuesday	Tuesday.-	5	preview	12	214	0	0	0	0
	196	.	.		5	preview	12	215				
161	197	-	-	Team	5	preview	12	216	0	0	0	0
	198	@entity20	Team		5	preview	12	217				
162			Sky	Sky-s	5	preview	12	218	0	0	0	0
	199	-s	-s		5	preview	12	219				
163	200	@entity3	Chris	Chris	5	preview	12	220	197	0	0	0
164			Froome	Froome	5	preview	12	221	189	189	386	189
165	201	fell	fell	fell	5	preview	12	222	0	0	0	0
166	202	in	in	in	5	preview	12	223	0	0	0	0
167	203	the	the	the	5	preview	12	224	0	0	0	0
168	204	closing	closing	closing	5	preview	12	225	0	0	0	0
169	205	12km	12km	12km	5	preview	12	226	0	0	0	0
170	206	but	but	but	5	preview	12	227	0	0	0	0
171	207	fought	fought	fought	5	preview	12	228	0	0	0	0
172	208	on	on	on	5	preview	12	229	0	0	0	0
173	209	to	to	to	5	preview	12	230	0	0	0	0
174	210	finish	finish	finish	5	preview	12	231	0	0	0	0
175	211	the	the	the	5	preview	12	232	0	0	0	0
176	212	race	race	race	5	preview	12	233	0	0	0	0
177	213	despite	despite	despite	5	preview	12	234	0	0	0	0
178	214	being	being	being	5	preview	12	235	0	0	0	0
179	215	-	-	-banged	5	preview	12	236	0	0	0	0
	216	banged	banged		5	preview	12	237				
180	217	up	up	up-.	5	preview	12	238	0	0	0	0
	218	-	-		5	preview	12	239				
