HumanPosition	AnonymizedPosition	AnonymizedToken	OriginalToken	ExperimentToken	Participant	Condition	TextNo	JointPosition	tt	fp	rp	ff
1	0	One	One	One	5	preview	14	1	0	0	0	0
2	1	@entity1	Wall	Wall	5	preview	14	2	0	0	0	0
3			Street	Street	5	preview	14	3	120	0	0	0
4	2	trader	trader	trader	5	preview	14	4	164	0	0	0
5	3	closed	closed	closed	5	preview	14	5	157	0	0	0
6	4	out	out	out	5	preview	14	6	0	0	0	0
7	5	his	his	his	5	preview	14	7	0	0	0	0
8	6	week	week	week	5	preview	14	8	0	0	0	0
9	7	a	a	a	5	preview	14	9	0	0	0	0
10	8	few	few	few	5	preview	14	10	0	0	0	0
11	9	million	million	million	5	preview	14	11	245	0	0	0
12	10	dollars	dollars	dollars	5	preview	14	12	92	0	0	0
13	11	richer	richer	richer	5	preview	14	13	235	0	0	0
14	12	last	last	last	5	preview	14	14	0	0	0	0
15	13	Friday	Friday	Friday	5	preview	14	15	0	0	0	0
16	14	-	-	-	5	preview	14	16	0	0	0	0
17	15	and	and	and	5	preview	14	17	0	0	0	0
18	16	it	it	it	5	preview	14	18	0	0	0	0
19	17	was	was	was	5	preview	14	19	0	0	0	0
20	18	all	all	all	5	preview	14	20	0	0	0	0
21	19	thanks	thanks	thanks	5	preview	14	21	0	0	0	0
22	20	to	to	to	5	preview	14	22	0	0	0	0
23	21	social	social	social	5	preview	14	23	0	0	0	0
24	22	media	media	media.	5	preview	14	24	0	0	0	0
	23	.	.		5	preview	14	25				
25	24	The	The	The	5	preview	14	26	0	0	0	0
26	25	unnamed	unnamed	unnamed	5	preview	14	27	0	0	0	0
27	26	trader	trader	trader	5	preview	14	28	0	0	0	0
28	27	used	used	used	5	preview	14	29	0	0	0	0
29	28	perfect	perfect	perfect	5	preview	14	30	0	0	0	0
30	29	timing	timing	timing	5	preview	14	31	0	0	0	0
31	30	to	to	to	5	preview	14	32	0	0	0	0
32	31	capitalize	capitalize	capitalize	5	preview	14	33	0	0	0	0
33	32	on	on	on	5	preview	14	34	0	0	0	0
34	33	one	one	one	5	preview	14	35	0	0	0	0
35	34	of	of	of	5	preview	14	36	0	0	0	0
36	35	the	the	the	5	preview	14	37	0	0	0	0
37	36	biggest	biggest	biggest	5	preview	14	38	0	0	0	0
38	37	deals	deals	deals	5	preview	14	39	0	0	0	0
39	38	of	of	of	5	preview	14	40	0	0	0	0
40	39	the	the	the	5	preview	14	41	0	0	0	0
41	40	year	year	year	5	preview	14	42	0	0	0	0
42	41	when	when	when	5	preview	14	43	0	0	0	0
43	42	@entity10	Wall	Wall	5	preview	14	44	0	0	0	0
44			Street	Street	5	preview	14	45	303	0	0	0
45			Journal	Journal	5	preview	14	46	0	0	0	0
46	43	mergers	mergers	mergers	5	preview	14	47	0	0	0	0
47	44	and	and	and	5	preview	14	48	0	0	0	0
48	45	acquisitions	acquisitions	acquisitions	5	preview	14	49	360	0	0	0
49	46	reporter	reporter	reporter	5	preview	14	50	97	0	0	0
50	47	@entity9	Dana	Dana	5	preview	14	51	0	0	0	0
51			Mattioli	Mattioli	5	preview	14	52	0	0	0	0
52	48	took	took	took	5	preview	14	53	0	0	0	0
53	49	to	to	to	5	preview	14	54	0	0	0	0
54	50	@entity11	Twitter	Twitter	5	preview	14	55	0	0	0	0
55	51	to	to	to	5	preview	14	56	0	0	0	0
56	52	announce	announce	announce	5	preview	14	57	0	0	0	0
57	53	that	that	that	5	preview	14	58	0	0	0	0
58	54	@entity12	Intel	Intel	5	preview	14	59	0	0	0	0
59	55	was	was	was	5	preview	14	60	0	0	0	0
60	56	in	in	in	5	preview	14	61	0	0	0	0
61	57	talks	talks	talks	5	preview	14	62	0	0	0	0
62	58	to	to	to	5	preview	14	63	0	0	0	0
63	59	buy	buy	buy	5	preview	14	64	0	0	0	0
64	60	one	one	one	5	preview	14	65	0	0	0	0
65	61	of	of	of	5	preview	14	66	0	0	0	0
66	62	its	its	its	5	preview	14	67	0	0	0	0
67	63	competitors	competitors	competitors,	5	preview	14	68	0	0	0	0
	64	,	,		5	preview	14	69				
68	65	chipmaker	chipmaker	chipmaker	5	preview	14	70	210	91	1983	91
69	66	@entity16	Altera	Altera.	5	preview	14	71	0	0	0	0
	67	.	.		5	preview	14	72				
70	68	Seconds	Seconds	Seconds	5	preview	14	73	157	157	157	157
71	69	later	later	later,	5	preview	14	74	0	0	0	0
	70	,	,		5	preview	14	75				
72	71	the	the	the	5	preview	14	76	120	120	120	120
73	72	trader	trader	trader	5	preview	14	77	112	112	112	112
74	73	had	had	had	5	preview	14	78	0	0	0	0
75	74	snapped	snapped	snapped	5	preview	14	79	0	0	0	0
76	75	up	up	up	5	preview	14	80	254	254	254	254
77	76	3,158	3,158	3,158	5	preview	14	81	0	0	0	0
78	77	contracts	contracts	contracts	5	preview	14	82	0	0	0	0
79	78	of	of	of	5	preview	14	83	0	0	0	0
80	79	@entity16	Altera	Altera,	5	preview	14	84	146	146	146	146
	80	,	,		5	preview	14	85				
81	81	with	with	with	5	preview	14	86	0	0	0	0
82	82	each	each	each	5	preview	14	87	0	0	0	0
83	83	option	option	option	5	preview	14	88	294	294	294	294
84	84	contract	contract	contract	5	preview	14	89	236	236	236	236
85	85	giving	giving	giving	5	preview	14	90	0	0	0	0
86	86	them	them	them	5	preview	14	91	152	152	152	152
87	87	the	the	the	5	preview	14	92	0	0	0	0
88	88	right	right	right	5	preview	14	93	0	0	0	0
89	89	to	to	to	5	preview	14	94	0	0	0	0
90	90	purchase	purchase	purchase	5	preview	14	95	232	232	232	232
91	91	100	100	100	5	preview	14	96	0	0	0	0
92	92	shares	shares	shares.	5	preview	14	97	0	0	0	0
	93	.	.		5	preview	14	98				
93	94	Scroll	Scroll	CNBC	5	preview	14	99	0	0	0	0
	95	down	down		5	preview	14	100				
	96	for	for		5	preview	14	101				
	97	video	video		5	preview	14	102				
	98	An	An		5	preview	14	103				
	99	unnamed	unnamed		5	preview	14	104				
	100	@entity1	Wall		5	preview	14	105				
			Street		5	preview	14	106				
	101	trader	trader		5	preview	14	107				
	102	made	made		5	preview	14	108				
	103	a	a		5	preview	14	109				
	104	profit	profit		5	preview	14	110				
	105	of	of		5	preview	14	111				
	106	approximately	approximately		5	preview	14	112				
	107	$	$		5	preview	14	113				
	108	2.5million	2.5million		5	preview	14	114				
	109	on	on		5	preview	14	115				
	110	Friday	Friday		5	preview	14	116				
	111	thanks	thanks		5	preview	14	117				
	112	to	to		5	preview	14	118				
	113	a	a		5	preview	14	119				
	114	tweet	tweet		5	preview	14	120				
	115	from	from		5	preview	14	121				
	116	the	the		5	preview	14	122				
	117	@entity10	Wall		5	preview	14	123				
			Street		5	preview	14	124				
			Journal		5	preview	14	125				
	118	The	The		5	preview	14	126				
	119	trader	trader		5	preview	14	127				
	120	purchased	purchased		5	preview	14	128				
	121	315,800	315,800		5	preview	14	129				
	122	shares	shares		5	preview	14	130				
	123	of	of		5	preview	14	131				
	124	chipmaker	chipmaker		5	preview	14	132				
	125	@entity16	Altera		5	preview	14	133				
	126	one	one		5	preview	14	134				
	127	minute	minute		5	preview	14	135				
	128	after	after		5	preview	14	136				
	129	the	the		5	preview	14	137				
	130	@entity10	Journal		5	preview	14	138				
	131	reported	reported		5	preview	14	139				
	132	@entity12	Intel		5	preview	14	140				
	133	was	was		5	preview	14	141				
	134	in	in		5	preview	14	142				
	135	talks	talks		5	preview	14	143				
	136	to	to		5	preview	14	144				
	137	purchase	purchase		5	preview	14	145				
	138	them	them		5	preview	14	146				
	139	@entity32	CNBC		5	preview	14	147				
94	140	reports	reports	reports	5	preview	14	148	215	215	215	215
95	141	that	that	that	5	preview	14	149	0	0	0	0
96	142	the	the	the	5	preview	14	150	0	0	0	0
97	143	trader	trader	trader	5	preview	14	151	135	135	135	135
98	144	paid	paid	paid	5	preview	14	152	0	0	0	0
99	145	$	$	$36	5	preview	14	153	277	277	277	277
	146	36	36		5	preview	14	154				
100	147	a	a	a	5	preview	14	155	0	0	0	0
101	148	share	share	share,	5	preview	14	156	0	0	0	0
	149	,	,		5	preview	14	157				
102	150	and	and	and	5	preview	14	158	0	0	0	0
103	151	the	the	the	5	preview	14	159	131	131	131	131
104	152	call	call	call	5	preview	14	160	0	0	0	0
105	153	option	option	option	5	preview	14	161	0	0	0	0
106	154	was	was	was	5	preview	14	162	0	0	0	0
107	155	a	a	a	5	preview	14	163	0	0	0	0
108	156	mere	mere	mere	5	preview	14	164	0	0	0	0
109	157	35	35	35	5	preview	14	165	0	0	0	0
110	158	cents	cents	cents	5	preview	14	166	0	0	0	0
111	159	as	as	as	5	preview	14	167	0	0	0	0
112	160	options	options	options	5	preview	14	168	0	0	0	0
113	161	on	on	on	5	preview	14	169	0	0	0	0
114	162	the	the	the	5	preview	14	170	0	0	0	0
115	163	stock	stock	stock,	5	preview	14	171	0	0	0	0
	164	,	,		5	preview	14	172				
116	165	at	at	at	5	preview	14	173	0	0	0	0
117	166	that	that	that	5	preview	14	174	0	0	0	0
118	167	point	point	point	5	preview	14	175	231	231	231	231
119	168	valued	valued	valued	5	preview	14	176	0	0	0	0
120	169	at	at	at	5	preview	14	177	0	0	0	0
121	170	$	$	$34.76	5	preview	14	178	0	0	0	0
	171	34.76	34.76		5	preview	14	179				
122	172	a	a	a	5	preview	14	180	0	0	0	0
123	173	share	share	share,	5	preview	14	181	0	0	0	0
	174	,	,		5	preview	14	182				
124	175	were	were	were	5	preview	14	183	0	0	0	0
125	176	set	set	set	5	preview	14	184	0	0	0	0
126	177	to	to	to	5	preview	14	185	0	0	0	0
127	178	expire	expire	expire	5	preview	14	186	0	0	0	0
128	179	in	in	in	5	preview	14	187	0	0	0	0
129	180	just	just	just	5	preview	14	188	0	0	0	0
130	181	a	a	a	5	preview	14	189	0	0	0	0
131	182	few	few	few	5	preview	14	190	0	0	0	0
132	183	weeks	weeks	weeks.	5	preview	14	191	0	0	0	0
	184	.	.		5	preview	14	192				
133	185	3:32pm	3:32pm	When	5	preview	14	193	0	0	0	0
	186	:	:		5	preview	14	194				
	187	The	The		5	preview	14	195				
134	188	@entity10	Wall	the	5	preview	14	196	198	0	0	0
			Street		5	preview	14	197				
			Journal		5	preview	14	198				
	189	reports	reports		5	preview	14	199				
	190	that	that		5	preview	14	200				
135	191	@entity12	Intel	market	5	preview	14	201	142	142	340	142
	192	is	is		5	preview	14	202				
	193	in	in		5	preview	14	203				
	194	talks	talks		5	preview	14	204				
	195	to	to		5	preview	14	205				
	196	buy	buy		5	preview	14	206				
	197	@entity16	Altera		5	preview	14	207				
	198	.	.		5	preview	14	208				
	199	3:33pm	3:33pm		5	preview	14	209				
	200	:	:		5	preview	14	210				
	201	Trader	Trader		5	preview	14	211				
	202	purchases	purchases		5	preview	14	212				
	203	315,800	315,800		5	preview	14	213				
	204	shares	shares		5	preview	14	214				
	205	of	of		5	preview	14	215				
	206	@entity16	Altera		5	preview	14	216				
	207	at	at		5	preview	14	217				
	208	$	$		5	preview	14	218				
	209	36	36		5	preview	14	219				
	210	a	a		5	preview	14	220				
	211	share	share		5	preview	14	221				
	212	for	for		5	preview	14	222				
	213	a	a		5	preview	14	223				
	214	total	total		5	preview	14	224				
	215	cost	cost		5	preview	14	225				
	216	of	of		5	preview	14	226				
	217	$	$		5	preview	14	227				
	218	11,368,000	11,368,000		5	preview	14	228				
	219	plus	plus		5	preview	14	229				
	220	$	$		5	preview	14	230				
	221	110,530	110,530		5	preview	14	231				
	222	for	for		5	preview	14	232				
	223	a	a		5	preview	14	233				
	224	$	$		5	preview	14	234				
	225	0.35	0.35		5	preview	14	235				
	226	call	call		5	preview	14	236				
	227	option	option		5	preview	14	237				
	228	.	.		5	preview	14	238				
	229	3:35pm	3:35pm		5	preview	14	239				
	230	:	:		5	preview	14	240				
	231	@entity46	Nasdaq		5	preview	14	241				
	232	suspends	suspends		5	preview	14	242				
	233	trading	trading		5	preview	14	243				
	234	of	of		5	preview	14	244				
	235	@entity16	Altera		5	preview	14	245				
	236	in	in		5	preview	14	246				
	237	the	the		5	preview	14	247				
	238	wake	wake		5	preview	14	248				
136	239	of	of	closed	5	preview	14	249	0	0	0	0
	240	the	the		5	preview	14	250				
	241	@entity10	Journal		5	preview	14	251				
	242	-s	-s		5	preview	14	252				
	243	tweet	tweet		5	preview	14	253				
	244	.	.		5	preview	14	254				
	245	4:00pm	4:00pm		5	preview	14	255				
	246	:	:		5	preview	14	256				
	247	Trader	Trader		5	preview	14	257				
	248	sells	sells		5	preview	14	258				
	249	@entity16	Altera		5	preview	14	259				
	250	at	at		5	preview	14	260				
	251	the	the		5	preview	14	261				
	252	new	new		5	preview	14	262				
	253	share	share		5	preview	14	263				
	254	price	price		5	preview	14	264				
	255	of	of		5	preview	14	265				
	256	$	$		5	preview	14	266				
	257	44.39	44.39		5	preview	14	267				
	258	for	for		5	preview	14	268				
	259	a	a		5	preview	14	269				
	260	total	total		5	preview	14	270				
	261	of	of		5	preview	14	271				
	262	$	$		5	preview	14	272				
	263	14,018,362	14,018,362		5	preview	14	273				
	264	.	.		5	preview	14	274				
	265	This	This		5	preview	14	275				
	266	,	,		5	preview	14	276				
	267	after	after		5	preview	14	277				
	268	factoring	factoring		5	preview	14	278				
	269	in	in		5	preview	14	279				
	270	the	the		5	preview	14	280				
	271	intital	intital		5	preview	14	281				
	272	share	share		5	preview	14	282				
	273	price	price		5	preview	14	283				
	274	and	and		5	preview	14	284				
	275	call	call		5	preview	14	285				
	276	option	option		5	preview	14	286				
	277	,	,		5	preview	14	287				
	278	leaves	leaves		5	preview	14	288				
	279	them	them		5	preview	14	289				
	280	with	with		5	preview	14	290				
	281	a	a		5	preview	14	291				
	282	profit	profit		5	preview	14	292				
	283	of	of		5	preview	14	293				
	284	approximately	approximately		5	preview	14	294				
	285	$	$		5	preview	14	295				
	286	2,539.832	2,539.832		5	preview	14	296				
	287	.	.		5	preview	14	297				
	288	This	This		5	preview	14	298				
	289	call	call		5	preview	14	299				
	290	option	option		5	preview	14	300				
	291	allowed	allowed		5	preview	14	301				
137	292	the	the	for	5	preview	14	302	0	0	0	0
138	293	trader	trader	the	5	preview	14	303	0	0	0	0
	294	the	the		5	preview	14	304				
139	295	right	right	day,	5	preview	14	305	0	0	0	0
	296	to	to		5	preview	14	306				
	297	purchase	purchase		5	preview	14	307				
	298	more	more		5	preview	14	308				
	299	shares	shares		5	preview	14	309				
	300	in	in		5	preview	14	310				
140	301	the	the	Altera	5	preview	14	311	0	0	0	0
	302	company	company		5	preview	14	312				
	303	,	,		5	preview	14	313				
	304	in	in		5	preview	14	314				
	305	this	this		5	preview	14	315				
	306	case	case		5	preview	14	316				
	307	315,800	315,800		5	preview	14	317				
	308	shares	shares		5	preview	14	318				
	309	,	,		5	preview	14	319				
	310	at	at		5	preview	14	320				
	311	the	the		5	preview	14	321				
	312	cost	cost		5	preview	14	322				
	313	of	of		5	preview	14	323				
	314	$	$		5	preview	14	324				
	315	36	36		5	preview	14	325				
	316	,	,		5	preview	14	326				
	317	even	even		5	preview	14	327				
	318	though	though		5	preview	14	328				
	319	the	the		5	preview	14	329				
	320	value	value		5	preview	14	330				
	321	of	of		5	preview	14	331				
	322	shares	shares		5	preview	14	332				
	323	quickly	quickly		5	preview	14	333				
	324	began	began		5	preview	14	334				
	325	to	to		5	preview	14	335				
	326	rise	rise		5	preview	14	336				
	327	.	.		5	preview	14	337				
	328	Just	Just		5	preview	14	338				
	329	28	28		5	preview	14	339				
	330	minutes	minutes		5	preview	14	340				
	331	later	later		5	preview	14	341				
141	332	,	,	was	5	preview	14	342	222	0	0	0
142	333	when	when	valued	5	preview	14	343	277	0	0	0
	334	the	the		5	preview	14	344				
	335	market	market		5	preview	14	345				
	336	closed	closed		5	preview	14	346				
	337	for	for		5	preview	14	347				
	338	the	the		5	preview	14	348				
	339	day	day		5	preview	14	349				
	340	,	,		5	preview	14	350				
	341	@entity16	Altera		5	preview	14	351				
	342	was	was		5	preview	14	352				
	343	valued	valued		5	preview	14	353				
143	344	at	at	at	5	preview	14	354	0	0	0	0
144	345	$	$	$44.39	5	preview	14	355	0	0	0	0
	346	44.39	44.39		5	preview	14	356				
145	347	per	per	per	5	preview	14	357	221	0	0	0
146	348	share	share	share.	5	preview	14	358	0	0	0	0
	349	.	.		5	preview	14	359				
147	350	That	That	That	5	preview	14	360	100	100	820	100
148	351	was	was	was	5	preview	14	361	163	163	163	163
149	352	an	an	an	5	preview	14	362	0	0	0	0
150	353	increase	increase	increase	5	preview	14	363	0	0	0	0
151	354	of	of	of	5	preview	14	364	163	163	163	163
152	355	28	28	28%,	5	preview	14	365	170	170	170	170
	356	%	%		5	preview	14	366				
	357	,	,		5	preview	14	367				
153	358	but	but	but	5	preview	14	368	0	0	0	0
154	359	because	because	because	5	preview	14	369	167	167	167	167
155	360	of	of	of	5	preview	14	370	0	0	0	0
156	361	the	the	the	5	preview	14	371	0	0	0	0
157	362	call	call	call	5	preview	14	372	0	0	0	0
158	363	option	option	option,	5	preview	14	373	353	353	353	209
	364	,	,		5	preview	14	374				
159	365	the	the	the	5	preview	14	375	0	0	0	0
160	366	trader	trader	trader	5	preview	14	376	203	203	203	203
161	367	was	was	was	5	preview	14	377	0	0	0	0
162	368	able	able	able	5	preview	14	378	0	0	0	0
163	369	to	to	to	5	preview	14	379	290	290	290	290
164	370	sell	sell	sell	5	preview	14	380	0	0	0	0
165	371	their	their	their	5	preview	14	381	193	193	193	193
166	372	stocks	stocks	stocks	5	preview	14	382	160	160	160	160
167	373	at	at	at	5	preview	14	383	0	0	0	0
168	374	a	a	a	5	preview	14	384	0	0	0	0
169	375	far	far	far	5	preview	14	385	0	0	0	0
170	376	greater	greater	greater	5	preview	14	386	337	337	337	337
171	377	profit	profit	profit.	5	preview	14	387	131	131	131	131
	378	.	.		5	preview	14	388				
172	379	So	So	So	5	preview	14	389	0	0	0	0
173	380	instead	instead	instead	5	preview	14	390	277	0	0	0
174	381	of	of	of	5	preview	14	391	0	0	0	0
175	382	making	making	making	5	preview	14	392	0	0	0	0
176	383	a	a	a	5	preview	14	393	0	0	0	0
177	384	28	28	28%	5	preview	14	394	106	0	0	0
	385	%	%		5	preview	14	395				
178	386	profit	profit	profit,	5	preview	14	396	181	0	0	0
	387	,	,		5	preview	14	397				
179	388	the	the	the	5	preview	14	398	0	0	0	0
180	389	trader	trader	trader	5	preview	14	399	172	172	172	172
181	390	made	made	made	5	preview	14	400	0	0	0	0
182	391	a	a	a	5	preview	14	401	224	0	0	0
183	392	2,220	2,220	2,220%	5	preview	14	402	239	239	239	239
	393	%	%		5	preview	14	403				
184	394	profit	profit	profit	5	preview	14	404	199	0	0	0
185	395	of	of	of	5	preview	14	405	166	166	1153	166
186	396	roughly	roughly	roughly	5	preview	14	406	0	0	0	0
187	397	$	$	$2.5million	5	preview	14	407	295	0	0	0
	398	2.5million	2.5million		5	preview	14	408				
188	399	when	when	when	5	preview	14	409	0	0	0	0
189	400	they	they	they	5	preview	14	410	0	0	0	0
190	401	sold	sold	sold	5	preview	14	411	0	0	0	0
191	402	their	their	their	5	preview	14	412	0	0	0	0
192	403	shares	shares	shares.	5	preview	14	413	0	0	0	0
	404	.	.		5	preview	14	414				
193	405	Even	Even	Even	5	preview	14	415	0	0	0	0
194	406	more	more	more	5	preview	14	416	0	0	0	0
195	407	impressive	impressive	impressive	5	preview	14	417	308	308	308	308
196	408	is	is	is	5	preview	14	418	0	0	0	0
197	409	that	that	that	5	preview	14	419	0	0	0	0
198	410	the	the	the	5	preview	14	420	160	160	455	160
199	411	trader	trader	trader	5	preview	14	421	0	0	295	0
200	412	managed	managed	managed	5	preview	14	422	0	0	0	0
201	413	to	to	to	5	preview	14	423	0	0	0	0
202	414	make	make	make	5	preview	14	424	0	0	0	0
203	415	the	the	the	5	preview	14	425	0	0	0	0
204	416	purchase	purchase	purchase	5	preview	14	426	0	0	0	0
205	417	just	just	just	5	preview	14	427	0	0	0	0
206	418	minutes	minutes	minutes	5	preview	14	428	0	0	0	0
207	419	before	before	before	5	preview	14	429	0	0	0	0
208	420	@entity46	Nasdaq	Nasdaq	5	preview	14	430	0	0	0	0
209	421	suspended	suspended	suspended	5	preview	14	431	0	0	0	0
210	422	trading	trading	trading	5	preview	14	432	0	0	0	0
211	423	of	of	of	5	preview	14	433	0	0	0	0
212	424	@entity16	Altera	Altera	5	preview	14	434	0	0	0	0
213	425	because	because	because	5	preview	14	435	0	0	0	0
214	426	of	of	of	5	preview	14	436	273	0	0	0
215	427	the	the	the	5	preview	14	437	0	0	0	0
216	428	tweet	tweet	tweet	5	preview	14	438	0	0	0	0
217	429	from	from	from	5	preview	14	439	0	0	0	0
218	430	@entity9	Mattioli	Mattioli.	5	preview	14	440	0	0	0	0
	431	.	.		5	preview	14	441				
219	432	What	What	What-s	5	preview	14	442	137	137	137	137
	433	-s	-s		5	preview	14	443				
220	434	more	more	more,	5	preview	14	444	0	0	0	0
	435	,	,		5	preview	14	445				
221	436	call	call	call	5	preview	14	446	176	176	176	176
222	437	options	options	options	5	preview	14	447	0	0	0	0
223	438	for	for	for	5	preview	14	448	204	204	204	204
224	439	@entity16	Altera	Altera	5	preview	14	449	0	0	0	0
225	440	had	had	had	5	preview	14	450	103	103	376	103
226	441	at	at	at	5	preview	14	451	0	0	273	0
227	442	that	that	that	5	preview	14	452	0	0	0	0
228	443	point	point	point	5	preview	14	453	0	0	0	0
229	444	reached	reached	reached	5	preview	14	454	0	0	0	0
230	445	a	a	a	5	preview	14	455	0	0	0	0
231	446	price	price	price	5	preview	14	456	0	0	0	0
232	447	of	of	of	5	preview	14	457	0	0	0	0
233	448	$	$	$8.10	5	preview	14	458	287	287	287	287
	449	8.10	8.10		5	preview	14	459				
234	450	by	by	by	5	preview	14	460	0	0	0	0
235	451	the	the	the	5	preview	14	461	0	0	0	0
236	452	end	end	end	5	preview	14	462	0	0	0	0
237	453	of	of	of	5	preview	14	463	0	0	0	0
238	454	the	the	the	5	preview	14	464	0	0	0	0
239	455	day	day	day.	5	preview	14	465	0	0	0	0
	456	.	.		5	preview	14	466				
240	457	There	There	There	5	preview	14	467	0	0	0	0
241	458	is	is	is	5	preview	14	468	0	0	0	0
242	459	also	also	also	5	preview	14	469	0	0	0	0
243	460	a	a	a	5	preview	14	470	0	0	0	0
244	461	chance	chance	chance,	5	preview	14	471	0	0	0	0
	462	,	,		5	preview	14	472				
245	463	reports	reports	reports	5	preview	14	473	0	0	0	0
246	464	@entity90	Matt	Matt	5	preview	14	474	0	0	0	0
247			Khouw	Khouw,	5	preview	14	475	0	0	0	0
	465	,	,		5	preview	14	476				
248	466	that	that	that	5	preview	14	477	0	0	0	0
249	467	the	the	the	5	preview	14	478	0	0	0	0
250	468	trader	trader	trader	5	preview	14	479	213	0	0	0
251	469	could	could	could	5	preview	14	480	154	154	367	154
252	470	have	have	have	5	preview	14	481	0	0	0	0
253	471	been	been	been	5	preview	14	482	166	166	166	166
254	472	aware	aware	aware	5	preview	14	483	0	0	0	0
255	473	of	of	of	5	preview	14	484	0	0	0	0
256	474	@entity12	Intel	Intel-s	5	preview	14	485	174	174	174	174
	475	-s	-s		5	preview	14	486				
257	476	plan	plan	plan	5	preview	14	487	0	0	0	0
258	477	to	to	to	5	preview	14	488	182	182	182	182
259	478	buy	buy	buy	5	preview	14	489	0	0	0	0
260	479	@entity16	Altera	Altera	5	preview	14	490	113	113	113	113
261	480	early	early	early,	5	preview	14	491	0	0	0	0
	481	,	,		5	preview	14	492				
262	482	or	or	or	5	preview	14	493	0	0	0	0
263	483	that	that	that	5	preview	14	494	180	180	180	180
264	484	they	they	they	5	preview	14	495	0	0	0	0
265	485	used	used	used	5	preview	14	496	135	135	135	135
266	486	a	a	a	5	preview	14	497	0	0	0	0
267	487	bot	bot	bot	5	preview	14	498	166	166	166	166
268	488	to	to	to	5	preview	14	499	0	0	0	0
269	489	quickly	quickly	quickly	5	preview	14	500	246	246	246	246
270	490	buy	buy	buy	5	preview	14	501	185	185	185	185
271	491	the	the	the	5	preview	14	502	0	0	0	0
272	492	shares	shares	shares.	5	preview	14	503	147	147	147	147
	493	.	.		5	preview	14	504				
273	494	-	-	-A	5	preview	14	505	0	0	0	0
	495	A	A		5	preview	14	506				
274	496	bot	bot	bot	5	preview	14	507	0	0	0	0
275	497	is	is	is	5	preview	14	508	0	0	0	0
276	498	not	not	not	5	preview	14	509	251	251	251	251
277	499	as	as	as	5	preview	14	510	0	0	0	0
278	500	outlandish	outlandish	outlandish	5	preview	14	511	238	238	238	238
279	501	as	as	as	5	preview	14	512	0	0	0	0
280	502	it	it	it	5	preview	14	513	0	0	0	0
281	503	sounds	sounds	sounds,-	5	preview	14	514	312	312	312	312
	504	,	,		5	preview	14	515				
282	505	-	-	Khouw	5	preview	14	516	0	0	0	0
	506	@entity90	Khouw		5	preview	14	517				
283	507	said	said	said.	5	preview	14	518	0	0	0	0
	508	.	.		5	preview	14	519				
284	509	-	-	-Traders	5	preview	14	520	0	0	0	0
	510	Traders	Traders		5	preview	14	521				
285	511	need	need	need	5	preview	14	522	0	0	0	0
286	512	to	to	to	5	preview	14	523	0	0	0	0
287	513	aggregate	aggregate	aggregate	5	preview	14	524	0	0	0	0
288	514	and	and	and	5	preview	14	525	0	0	0	0
289	515	filter	filter	filter	5	preview	14	526	0	0	0	0
290	516	through	through	through	5	preview	14	527	0	0	0	0
291	517	tremendous	tremendous	tremendous	5	preview	14	528	0	0	0	0
292	518	amounts	amounts	amounts	5	preview	14	529	0	0	0	0
293	519	of	of	of	5	preview	14	530	0	0	0	0
294	520	data	data	data	5	preview	14	531	0	0	0	0
295	521	quickly	quickly	quickly	5	preview	14	532	0	0	0	0
296	522	and	and	and	5	preview	14	533	0	0	0	0
297	523	will	will	will	5	preview	14	534	0	0	0	0
298	524	rely	rely	rely	5	preview	14	535	0	0	0	0
299	525	on	on	on	5	preview	14	536	154	154	154	154
300	526	technology	technology	technology	5	preview	14	537	198	198	198	198
301	527	to	to	to	5	preview	14	538	0	0	0	0
302	528	help	help	help	5	preview	14	539	0	0	0	0
303	529	if	if	if	5	preview	14	540	0	0	0	0
304	530	it	it	it	5	preview	14	541	0	0	0	0
305	531	is	is	is	5	preview	14	542	0	0	0	0
306	532	available	available	available.-	5	preview	14	543	0	0	0	0
	533	.	.		5	preview	14	544				
307	534	-	-	As	5	preview	14	545	0	0	0	0
308	535	As	As	for	5	preview	14	546	0	0	0	0
309	536	for	for	Intel-s	5	preview	14	547	0	0	0	0
	537	@entity12	Intel		5	preview	14	548				
	538	-s	-s		5	preview	14	549				
310	539	reported	reported	reported	5	preview	14	550	0	0	0	0
311	540	purchase	purchase	purchase	5	preview	14	551	0	0	0	0
312	541	of	of	of	5	preview	14	552	0	0	0	0
313	542	@entity16	Altera	Altera,	5	preview	14	553	0	0	0	0
	543	,	,		5	preview	14	554				
314	544	that	that	that	5	preview	14	555	0	0	0	0
315	545	still	still	still	5	preview	14	556	0	0	0	0
316	546	has	has	has	5	preview	14	557	170	170	170	170
317	547	yet	yet	yet	5	preview	14	558	0	0	0	0
318	548	to	to	to	5	preview	14	559	0	0	0	0
319	549	happen	happen	happen.	5	preview	14	560	224	224	224	224
	550	.	.		5	preview	14	561				
320	551	Meanwhile	Meanwhile	Meanwhile,	5	preview	14	562	151	151	151	151
	552	,	,		5	preview	14	563				
321	553	@entity12	Intel	Intel	5	preview	14	564	0	0	0	0
322	554	share	share	share	5	preview	14	565	519	0	0	0
323	555	prices	prices	prices	5	preview	14	566	224	224	356	224
324	556	fell	fell	fell	5	preview	14	567	168	168	168	168
325	557	earlier	earlier	earlier	5	preview	14	568	163	163	163	163
326	558	this	this	this	5	preview	14	569	0	0	0	0
327	559	week	week	week	5	preview	14	570	204	204	204	204
328	560	in	in	in	5	preview	14	571	0	0	0	0
329	561	response	response	response	5	preview	14	572	190	190	190	190
330	562	to	to	to	5	preview	14	573	0	0	0	0
331	563	the	the	the	5	preview	14	574	0	0	0	0
332	564	news	news	news	5	preview	14	575	272	272	272	127
333	565	that	that	that	5	preview	14	576	0	0	0	0
334	566	they	they	they	5	preview	14	577	198	198	585	198
335	567	might	might	might	5	preview	14	578	0	0	0	0
336	568	purchase	purchase	purchase	5	preview	14	579	0	0	0	0
337	569	@entity16	Altera	Altera.	5	preview	14	580	0	0	0	0
	570	.	.		5	preview	14	581				
