b_Intercept 	 -0.3539984 	 0.1607488 	 0.01775 
b_HumanPosition.Centered 	 0.01853155 	 0.09948389 	 0.571 
b_Condition.dummy.Centered 	 0.9765512 	 0.3097381 	 0.99875 
b_LogWordFreq.Centered 	 -0.6508631 	 0.03697998 	 0 
b_IsNamedEntity.Centered 	 0.05387514 	 0.05998595 	 0.812 
b_IsCorrectAnswer.Resid 	 0.2137506 	 0.1347088 	 0.9425 
b_Surprisal.Resid 	 0.008259279 	 0.006658436 	 0.8905 
b_ExperimentTokenLength.Resid 	 0.2891881 	 0.01446976 	 1 
b_Condition.dummy.Centered:LogWordFreq.Centered 	 -0.1391067 	 0.06737165 	 0.02075 
b_LogWordFreq.Centered:ExperimentTokenLength.Resid 	 0.04516873 	 0.00844773 	 1 
b_LogWordFreq.Centered:IsNamedEntity.Centered 	 0.212613 	 0.04908849 	 1 
b_Condition.dummy.Centered:IsNamedEntity.Centered 	 -0.1927273 	 0.08801717 	 0.01375 
b_Condition.dummy.Centered:ExperimentTokenLength.Resid 	 0.03863006 	 0.02704455 	 0.9295 
b_HumanPosition.Centered:Condition.dummy.Centered 	 0.05624616 	 0.08263739 	 0.7605 
b_Condition.dummy.Centered:Surprisal.Resid 	 -0.01765058 	 0.01116971 	 0.05375 
b_Condition.dummy.Centered:IsCorrectAnswer.Resid 	 -0.3065605 	 0.1551177 	 0.02975 
b_IsNamedEntity.Centered:Surprisal.Resid 	 0.02184085 	 0.01133148 	 0.97375 
