HumanPosition	AnonymizedPosition	AnonymizedToken	OriginalToken	ExperimentToken	Participant	Condition	TextNo	JointPosition	tt	fp	rp	ff	rb	sp
1	0	(	(	Good	12	nopreview	3	1	0	0	0	0	0	0
	1	The	The		12	nopreview	3	2						
	2	@entity0	Hollywood		12	nopreview	3	3						
			Reporter		12	nopreview	3	4						
	3	)	)		12	nopreview	3	5						
	4	Good	Good		12	nopreview	3	6						
2	5	news	news	news	12	nopreview	3	7	956	548	548	126	548	408
3	6	arrived	arrived	arrived	12	nopreview	3	8	303	141	431	141	303	162
4	7	Thursday	Thursday	Thursday	12	nopreview	3	9	211	0	0	0	0	211
5	8	for	for	for	12	nopreview	3	10	155	0	0	0	0	155
6	9	-	-	-Fifty	12	nopreview	3	11	542	240	395	240	240	302
	10	@entity3	Fifty		12	nopreview	3	12						
7			Shades	Shades	12	nopreview	3	13	189	189	189	189	189	0
8			of	of	12	nopreview	3	14	159	0	0	0	0	159
9			Grey	Grey-	12	nopreview	3	15	344	160	160	160	160	184
	11	-	-		12	nopreview	3	16						
10	12	fans	fans	fans.	12	nopreview	3	17	650	0	0	0	0	650
	13	.	.		12	nopreview	3	18						
11	14	@entity4	Universal	Universal	12	nopreview	3	19	655	137	552	137	313	518
12	15	announced	announced	announced	12	nopreview	3	20	467	255	255	255	255	212
13	16	Thursday	Thursday	Thursday	12	nopreview	3	21	206	206	206	206	206	0
14	17	that	that	that	12	nopreview	3	22	349	0	0	0	0	349
15	18	the	the	the	12	nopreview	3	23	321	321	321	176	321	0
16	19	sequel	sequel	sequel	12	nopreview	3	24	145	0	0	0	0	145
17	20	to	to	to	12	nopreview	3	25	0	0	0	0	0	0
18	21	the	the	the	12	nopreview	3	26	204	204	204	204	204	0
19	22	box	box	box	12	nopreview	3	27	0	0	0	0	0	0
20	23	office	office	office	12	nopreview	3	28	340	340	340	175	340	0
21	24	blockbuster	blockbuster	blockbuster	12	nopreview	3	29	194	194	194	194	194	0
22	25	will	will	will	12	nopreview	3	30	0	0	0	0	0	0
23	26	hit	hit	hit	12	nopreview	3	31	194	0	0	0	0	194
24	27	theaters	theaters	theaters	12	nopreview	3	32	882	494	494	171	494	388
25	28	on	on	on	12	nopreview	3	33	0	0	0	0	0	0
26	29	Feb.	Feb.	Feb.	12	nopreview	3	34	1818	524	1057	322	700	1294
27	30	10	10	10,	12	nopreview	3	35	213	0	0	0	0	213
	31	,	,		12	nopreview	3	36						
28	32	2017	2017	2017.	12	nopreview	3	37	1418	369	369	158	369	1049
	33	.	.		12	nopreview	3	38						
29	34	The	The	The	12	nopreview	3	39	153	0	0	0	0	153
30	35	third	third	third	12	nopreview	3	40	1732	213	213	213	213	1519
31	36	film	film	film	12	nopreview	3	41	1512	178	178	178	178	1334
32	37	in	in	in	12	nopreview	3	42	1375	217	217	217	217	1158
33	38	the	the	the	12	nopreview	3	43	160	0	0	0	0	160
34	39	series	series	series	12	nopreview	3	44	436	130	130	130	130	306
35	40	will	will	will	12	nopreview	3	45	612	185	185	185	185	427
36	41	debut	debut	debut	12	nopreview	3	46	1163	324	324	324	324	839
37	42	Feb.	Feb.	Feb.	12	nopreview	3	47	1357	0	0	0	0	1357
38	43	9	9	9,	12	nopreview	3	48	671	0	0	0	0	671
	44	,	,		12	nopreview	3	49						
39	45	2018	2018	2018.	12	nopreview	3	50	1538	590	7689	373	926	948
	46	.	.		12	nopreview	3	51						
40	47	The	The	The	12	nopreview	3	52	0	0	0	0	0	0
41	48	news	news	news	12	nopreview	3	53	689	0	0	0	0	689
42	49	came	came	came	12	nopreview	3	54	0	0	0	0	0	0
43	50	one	one	one	12	nopreview	3	55	379	0	0	0	0	379
44	51	day	day	day	12	nopreview	3	56	348	0	0	0	0	348
45	52	after	after	after	12	nopreview	3	57	123	0	0	0	0	123
46	53	@entity0	The	The	12	nopreview	3	58	659	0	0	0	0	659
47			Hollywood	Hollywood	12	nopreview	3	59	106	0	0	0	0	106
48			Reporter	Reporter	12	nopreview	3	60	527	0	0	0	0	527
49	54	reported	reported	reported	12	nopreview	3	61	521	0	0	0	0	521
50	55	exclusively	exclusively	exclusively	12	nopreview	3	62	849	0	0	0	0	849
51	56	that	that	that	12	nopreview	3	63	0	0	0	0	0	0
52	57	the	the	the	12	nopreview	3	64	487	0	0	0	0	487
53	58	husband	husband	husband	12	nopreview	3	65	1318	0	0	0	0	1318
54	59	of	of	of	12	nopreview	3	66	389	0	0	0	0	389
55	60	@entity12	EL	EL	12	nopreview	3	67	1413	246	10088	246	771	1167
56			James	James,	12	nopreview	3	68	1239	112	112	112	112	1127
	61	,	,		12	nopreview	3	69						
57	62	author	author	author	12	nopreview	3	70	508	0	0	0	0	508
58	63	of	of	of	12	nopreview	3	71	96	96	313	96	96	0
59	64	the	the	the	12	nopreview	3	72	366	0	0	0	0	366
60	65	-	-	-Fifty	12	nopreview	3	73	426	171	171	171	171	255
	66	@entity3	Fifty		12	nopreview	3	74						
61			Shades	Shades-	12	nopreview	3	75	0	0	0	0	0	0
	67	-	-		12	nopreview	3	76						
62	68	trilogy	trilogy	trilogy,	12	nopreview	3	77	843	219	219	219	219	624
	69	,	,		12	nopreview	3	78						
63	70	will	will	will	12	nopreview	3	79	816	0	0	0	0	816
64	71	write	write	write	12	nopreview	3	80	701	310	310	151	310	391
65	72	the	the	the	12	nopreview	3	81	489	181	181	181	181	308
66	73	script	script	script	12	nopreview	3	82	383	202	202	202	202	181
67	74	for	for	for	12	nopreview	3	83	215	0	0	0	0	215
68	75	the	the	the	12	nopreview	3	84	0	0	0	0	0	0
69	76	second	second	second	12	nopreview	3	85	931	221	221	221	221	710
70	77	film	film	film.	12	nopreview	3	86	439	303	303	303	303	136
	78	.	.		12	nopreview	3	87						
71	79	@entity16	Niall	Niall	12	nopreview	3	88	231	231	231	231	231	0
72			Leonard	Leonard,	12	nopreview	3	89	572	0	0	0	0	572
	80	,	,		12	nopreview	3	90						
73	81	who	who	who	12	nopreview	3	91	0	0	0	0	0	0
74	82	is	is	is	12	nopreview	3	92	261	261	261	261	261	0
75	83	married	married	married	12	nopreview	3	93	604	147	147	147	147	457
76	84	and	and	and	12	nopreview	3	94	154	0	0	0	0	154
77	85	has	has	has	12	nopreview	3	95	458	232	232	232	232	226
78	86	two	two	two	12	nopreview	3	96	198	198	198	198	198	0
79	87	sons	sons	sons	12	nopreview	3	97	444	0	0	0	0	444
80	88	with	with	with	12	nopreview	3	98	314	157	157	157	157	157
81	89	the	the	the	12	nopreview	3	99	0	0	0	0	0	0
82	90	@entity19	British	British	12	nopreview	3	100	506	261	261	261	261	245
83	91	author	author	author,	12	nopreview	3	101	645	210	210	210	210	435
	92	,	,		12	nopreview	3	102						
84	93	is	is	is	12	nopreview	3	103	0	0	0	0	0	0
85	94	an	an	an	12	nopreview	3	104	850	0	0	0	0	850
86	95	author	author	author	12	nopreview	3	105	543	266	565	266	368	277
87	96	himself	himself	himself,	12	nopreview	3	106	350	146	146	146	146	204
	97	,	,		12	nopreview	3	107						
88	98	in	in	in	12	nopreview	3	108	0	0	0	0	0	0
89	99	addition	addition	addition	12	nopreview	3	109	293	116	13593	116	293	177
90	100	to	to	to	12	nopreview	3	110	117	0	0	0	0	117
91	101	being	being	being	12	nopreview	3	111	365	171	482	171	365	194
92	102	a	a	a	12	nopreview	3	112	0	0	0	0	0	0
93	103	screenwriter	screenwriter	screenwriter.	12	nopreview	3	113	108	108	108	108	108	0
	104	.	.		12	nopreview	3	114						
94	105	@entity12	James	James,	12	nopreview	3	115	233	0	0	0	0	233
	106	,	,		12	nopreview	3	116						
95	107	whose	whose	whose	12	nopreview	3	117	458	281	281	281	281	177
96	108	real	real	real	12	nopreview	3	118	229	229	229	229	229	0
97	109	name	name	name	12	nopreview	3	119	485	221	454	221	221	264
98	110	is	is	is	12	nopreview	3	120	86	0	0	0	0	86
99	111	@entity12	Erika	Erika	12	nopreview	3	121	667	471	471	471	471	196
100			Leonard	Leonard,	12	nopreview	3	122	285	285	1008	204	285	0
	112	,	,		12	nopreview	3	123						
101	113	has	has	has	12	nopreview	3	124	235	235	1243	235	235	0
102	114	been	been	been	12	nopreview	3	125	0	0	0	0	0	0
103	115	credited	credited	credited	12	nopreview	3	126	209	209	209	209	209	0
104	116	with	with	with	12	nopreview	3	127	0	0	0	0	0	0
105	117	keeping	keeping	keeping	12	nopreview	3	128	300	300	300	167	300	0
106	118	a	a	a	12	nopreview	3	129	0	0	0	0	0	0
107	119	strong	strong	strong	12	nopreview	3	130	193	193	193	193	193	0
108	120	amount	amount	amount	12	nopreview	3	131	205	205	205	205	205	0
109	121	of	of	of	12	nopreview	3	132	0	0	0	0	0	0
110	122	creative	creative	creative	12	nopreview	3	133	245	245	245	245	245	0
111	123	control	control	control	12	nopreview	3	134	263	263	263	263	263	0
112	124	when	when	when	12	nopreview	3	135	169	169	169	169	169	0
113	125	it	it	it	12	nopreview	3	136	0	0	0	0	0	0
114	126	comes	comes	comes	12	nopreview	3	137	150	0	0	0	0	150
115	127	to	to	to	12	nopreview	3	138	116	116	266	116	116	0
116	128	@entity4	Universal	Universal-s	12	nopreview	3	139	156	156	156	156	156	0
	129	-s	-s		12	nopreview	3	140						
117	130	adaptations	adaptations	adaptations	12	nopreview	3	141	198	198	198	198	198	0
118	131	of	of	of	12	nopreview	3	142	0	0	0	0	0	0
119	132	her	her	her	12	nopreview	3	143	0	0	0	0	0	0
120	133	books	books	books,	12	nopreview	3	144	215	215	215	215	215	0
	134	,	,		12	nopreview	3	145						
121	135	the	the	the	12	nopreview	3	146	0	0	0	0	0	0
122	136	second	second	second	12	nopreview	3	147	270	270	270	270	270	0
123	137	of	of	of	12	nopreview	3	148	0	0	0	0	0	0
124	138	which	which	which	12	nopreview	3	149	176	176	176	176	176	0
125	139	is	is	is	12	nopreview	3	150	177	177	177	177	177	0
126	140	titled	titled	titled	12	nopreview	3	151	163	163	163	163	163	0
127	141	-	-	-Fifty	12	nopreview	3	152	0	0	0	0	0	0
	142	@entity32	Fifty		12	nopreview	3	153						
128			Shades	Shades	12	nopreview	3	154	386	185	185	185	185	201
129			Darker	Darker.-	12	nopreview	3	155	366	277	567	277	366	89
	143	.	.		12	nopreview	3	156						
130	144	-	-	After	12	nopreview	3	157	0	0	0	0	0	0
	145	After	After		12	nopreview	3	158						
131	146	clashing	clashing	clashing	12	nopreview	3	159	404	404	404	211	404	0
132	147	with	with	with	12	nopreview	3	160	0	0	0	0	0	0
133	148	@entity12	James	James,	12	nopreview	3	161	344	344	344	344	344	0
	149	,	,		12	nopreview	3	162						
134	150	@entity33	Sam	Sam	12	nopreview	3	163	0	0	0	0	0	0
135			Taylor	Taylor-Johnson	12	nopreview	3	164	546	241	241	241	241	305
			-		12	nopreview	3	165						
			Johnson		12	nopreview	3	166						
136	151	is	is	isn-t	12	nopreview	3	167	151	151	151	151	151	0
	152	n-t	n-t		12	nopreview	3	168						
137	153	returning	returning	returning	12	nopreview	3	169	559	256	864	256	559	303
138	154	to	to	to	12	nopreview	3	170	0	0	0	0	0	0
139	155	direct	direct	direct	12	nopreview	3	171	0	0	0	0	0	0
140	156	the	the	the	12	nopreview	3	172	0	0	0	0	0	0
141	157	sequel	sequel	sequel.	12	nopreview	3	173	0	0	0	0	0	0
	158	.	.		12	nopreview	3	174						
142	159	Stars	Stars	Stars	12	nopreview	3	175	281	0	0	0	0	281
143	160	@entity35	Dakota	Dakota	12	nopreview	3	176	0	0	0	0	0	0
144			Johnson	Johnson	12	nopreview	3	177	525	233	514	233	233	292
145	161	and	and	and	12	nopreview	3	178	0	0	0	0	0	0
146	162	@entity36	Jamie	Jamie	12	nopreview	3	179	0	0	0	0	0	0
147			Dornan	Dornan	12	nopreview	3	180	259	0	0	0	0	259
148	163	are	are	are	12	nopreview	3	181	256	0	0	0	0	256
149	164	negotiating	negotiating	negotiating	12	nopreview	3	182	368	191	1175	191	368	177
150	165	for	for	for	12	nopreview	3	183	142	142	677	142	142	0
151	166	more	more	more	12	nopreview	3	184	0	0	0	0	0	0
152	167	money	money	money	12	nopreview	3	185	187	187	187	187	187	0
153	168	for	for	for	12	nopreview	3	186	319	0	0	0	0	319
154	169	the	the	the	12	nopreview	3	187	383	187	187	187	187	196
155	170	sequel	sequel	sequel	12	nopreview	3	188	145	145	145	145	145	0
156	171	after	after	after	12	nopreview	3	189	186	186	186	186	186	0
157	172	the	the	the	12	nopreview	3	190	0	0	0	0	0	0
158	173	first	first	first	12	nopreview	3	191	210	210	210	210	210	0
159	174	film	film	film,	12	nopreview	3	192	425	114	114	114	114	311
	175	,	,		12	nopreview	3	193						
160	176	release	release	release	12	nopreview	3	194	404	204	204	204	204	200
161	177	over	over	over	12	nopreview	3	195	889	0	0	0	0	889
162	178	@entity40	Valentine	Valentine-s	12	nopreview	3	196	722	299	299	299	299	423
			-s		12	nopreview	3	197						
163			Day	Day	12	nopreview	3	198	434	223	223	223	223	211
164	179	weekend	weekend	weekend	12	nopreview	3	199	312	209	209	209	209	103
165	180	of	of	of	12	nopreview	3	200	0	0	0	0	0	0
166	181	this	this	this	12	nopreview	3	201	160	0	0	0	0	160
167	182	year	year	year,	12	nopreview	3	202	231	231	231	231	231	0
	183	,	,		12	nopreview	3	203						
168	184	earned	earned	earned	12	nopreview	3	204	613	0	0	0	0	613
169	185	a	a	a	12	nopreview	3	205	0	0	0	0	0	0
170	186	massive	massive	massive	12	nopreview	3	206	581	129	591	129	321	452
171	187	$	$	$568.8	12	nopreview	3	207	291	291	291	291	291	0
	188	568.8	568.8		12	nopreview	3	208						
172	189	million	million	million	12	nopreview	3	209	430	151	151	151	151	279
173	190	worldwide	worldwide	worldwide.	12	nopreview	3	210	255	255	3949	255	255	0
	191	.	.		12	nopreview	3	211						
