b_Intercept 	 202.3291 	 4.990814 	 1 
b_HumanPosition.Centered 	 0.4664726 	 0.8798591 	 0.722 
b_Condition.dummy.Centered 	 14.7735 	 9.420729 	 0.94525 
b_LogWordFreq.Centered 	 -4.447574 	 0.8637272 	 0 
b_IsNamedEntity.Centered 	 -5.287074 	 1.817916 	 0.00225 
b_IsCorrectAnswer.Centered 	 -2.70367 	 5.287677 	 0.2945 
b_Surprisal.Centered 	 2.914359 	 0.512076 	 1 
b_ExperimentTokenLength.Centered 	 0.9559902 	 0.8295669 	 0.8755 
b_LogWordFreq.Centered:ExperimentTokenLength.Centered 	 1.754063 	 0.6938121 	 0.99075 
b_LogWordFreq.Centered:IsNamedEntity.Centered 	 -5.95956 	 1.943572 	 0.002 
b_IsNamedEntity.Centered:Surprisal.Centered 	 -1.93558 	 1.016961 	 0.02525 
b_Condition.dummy.Centered:IsCorrectAnswer.Centered 	 -12.07258 	 6.542088 	 0.02875 
