HumanPosition	AnonymizedPosition	AnonymizedToken	OriginalToken	ExperimentToken	Participant	Condition	TextNo	JointPosition	tt	fp	rp	ff	rb	sp
0	0	@entity0	Raheem	Raheem	1	preview	10	1	155	0	0	0	0	155
2			Sterling	Sterling	1	preview	10	2	0	0	0	0	0	0
3	1	has	has	has	1	preview	10	3	118	0	0	0	0	118
4	2	admitted	admitted	admitted	1	preview	10	4	0	0	0	0	0	0
5	3	he	he	he	1	preview	10	5	141	0	0	0	0	141
6	4	is	is	is	1	preview	10	6	0	0	0	0	0	0
7	5	not	not	not	1	preview	10	7	0	0	0	0	0	0
8	6	ready	ready	ready	1	preview	10	8	198	0	0	0	0	198
9	7	to	to	to	1	preview	10	9	0	0	0	0	0	0
10	8	sign	sign	sign	1	preview	10	10	343	0	0	0	0	343
11	9	a	a	a	1	preview	10	11	172	0	0	0	0	172
12	10	new	new	new	1	preview	10	12	287	0	0	0	0	287
13	11	contract	contract	contract	1	preview	10	13	326	0	0	0	0	326
14	12	at	at	at	1	preview	10	14	0	0	0	0	0	0
15	13	@entity3	Liverpool	Liverpool	1	preview	10	15	125	0	0	0	0	125
16	14	deal	deal	deal	1	preview	10	16	174	0	0	0	0	174
17	15	despite	despite	despite	1	preview	10	17	762	100	1693	100	100	662
18	16	being	being	being	1	preview	10	18	311	0	0	0	0	311
19	17	offered	offered	offered	1	preview	10	19	240	108	912	108	108	132
20	18	a	a	a	1	preview	10	20	230	230	230	230	230	0
21	19	£	£	£100,000-a-week	1	preview	10	21	659	402	402	263	402	257
	20	100,000	100,000		1	preview	10	22						
	21	-	-		1	preview	10	23						
	22	a	a		1	preview	10	24						
	23	-	-		1	preview	10	25						
	24	week	week		1	preview	10	26						
22	25	deal	deal	deal	1	preview	10	27	0	0	0	0	0	0
23	26	to	to	to	1	preview	10	28	136	0	0	0	0	136
24	27	stay	stay	stay	1	preview	10	29	351	197	197	197	197	154
25	28	with	with	with	1	preview	10	30	0	0	0	0	0	0
26	29	the	the	the	1	preview	10	31	0	0	0	0	0	0
27	30	@entity6	Merseyside	Merseyside	1	preview	10	32	280	280	280	178	280	0
28	31	club	club	club.	1	preview	10	33	0	0	0	0	0	0
	32	.	.		1	preview	10	34						
29	33	The	The	The	1	preview	10	35	0	0	0	0	0	0
30	34	20	20	20-year-old	1	preview	10	36	179	0	0	0	0	179
	35	-	-		1	preview	10	37						
	36	year	year		1	preview	10	38						
	37	-	-		1	preview	10	39						
	38	old	old		1	preview	10	40						
31	39	wideman	wideman	wideman	1	preview	10	41	264	114	443	114	264	150
32	40	edged	edged	edged	1	preview	10	42	0	0	0	0	0	0
33	41	closer	closer	closer	1	preview	10	43	142	142	142	142	142	0
34	42	towards	towards	towards	1	preview	10	44	0	0	0	0	0	0
35	43	an	an	an	1	preview	10	45	0	0	0	0	0	0
36	44	@entity9	Anfield	Anfield	1	preview	10	46	249	249	249	249	249	0
37	45	exit	exit	exit	1	preview	10	47	0	0	0	0	0	0
38	46	after	after	after	1	preview	10	48	0	0	0	0	0	0
39	47	revealing	revealing	revealing	1	preview	10	49	340	188	188	188	188	152
40	48	in	in	in	1	preview	10	50	0	0	0	0	0	0
41	49	an	an	an	1	preview	10	51	0	0	0	0	0	0
42	50	interview	interview	interview	1	preview	10	52	197	0	0	0	0	197
43	51	with	with	with	1	preview	10	53	0	0	0	0	0	0
44	52	the	the	the	1	preview	10	54	112	112	309	112	112	0
45	53	@entity11	BBC	BBC	1	preview	10	55	0	0	0	0	0	0
46	54	on	on	on	1	preview	10	56	156	156	156	156	156	0
47	55	Wednesday	Wednesday	Wednesday	1	preview	10	57	0	0	0	0	0	0
48	56	that	that	that	1	preview	10	58	153	153	153	153	153	0
49	57	he	he	he	1	preview	10	59	0	0	0	0	0	0
50	58	would	would	would	1	preview	10	60	180	180	180	180	180	0
51	59	have	have	have	1	preview	10	61	0	0	0	0	0	0
52	60	signed	signed	signed	1	preview	10	62	171	171	171	171	171	0
53	61	for	for	for	1	preview	10	63	0	0	0	0	0	0
54	62	a	a	a	1	preview	10	64	0	0	0	0	0	0
55	63	lot	lot	lot	1	preview	10	65	0	0	0	0	0	0
56	64	less	less	less	1	preview	10	66	245	245	245	245	245	0
57	65	a	a	a	1	preview	10	67	0	0	0	0	0	0
58	66	year	year	year	1	preview	10	68	0	0	0	0	0	0
59	67	ago	ago	ago.	1	preview	10	69	0	0	0	0	0	0
	68	.	.		1	preview	10	70						
60	69	However	However	However,	1	preview	10	71	243	0	0	0	0	243
	70	,	,		1	preview	10	72						
61	71	despite	despite	despite	1	preview	10	73	127	127	370	127	127	0
62	72	being	being	being	1	preview	10	74	0	0	0	0	0	0
63	73	one	one	one	1	preview	10	75	145	145	145	145	145	0
64	74	of	of	of	1	preview	10	76	0	0	0	0	0	0
65	75	@entity3	Liverpool	Liverpool-s	1	preview	10	77	131	131	131	131	131	0
	76	-s	-s		1	preview	10	78						
66	77	star	star	star	1	preview	10	79	0	0	0	0	0	0
67	78	men	men	men,	1	preview	10	80	129	129	129	129	129	0
	79	,	,		1	preview	10	81						
68	80	@entity0	Sterling	Sterling	1	preview	10	82	129	129	129	129	129	0
69	81	has	has	has	1	preview	10	83	0	0	0	0	0	0
70	82	struggled	struggled	struggled	1	preview	10	84	197	197	197	197	197	0
71	83	to	to	to	1	preview	10	85	0	0	0	0	0	0
72	84	repeat	repeat	repeat	1	preview	10	86	212	0	0	0	0	212
73	85	the	the	the	1	preview	10	87	0	0	0	0	0	0
74	86	impressive	impressive	impressive	1	preview	10	88	145	145	357	145	145	0
75	87	form	form	form	1	preview	10	89	237	237	237	237	237	0
76	88	he	he	he	1	preview	10	90	0	0	0	0	0	0
77	89	showed	showed	showed	1	preview	10	91	154	154	154	154	154	0
78	90	for	for	for	1	preview	10	92	0	0	0	0	0	0
79	91	the	the	the	1	preview	10	93	0	0	0	0	0	0
80	92	@entity18	Reds	Reds	1	preview	10	94	169	169	169	169	169	0
81	93	last	last	last	1	preview	10	95	0	0	0	0	0	0
82	94	season	season	season.	1	preview	10	96	138	138	138	138	138	0
	95	.	.		1	preview	10	97						
83	96	The	The	The	1	preview	10	98	0	0	0	0	0	0
84	97	@entity19	England	England	1	preview	10	99	201	201	201	201	201	0
85	98	international	international	international	1	preview	10	100	0	0	0	0	0	0
86	99	has	has	has	1	preview	10	101	138	0	0	0	0	138
87	100	managed	managed	managed	1	preview	10	102	0	0	0	0	0	0
88	101	just	just	just	1	preview	10	103	149	0	0	0	0	149
89	102	six	six	six	1	preview	10	104	0	0	0	0	0	0
90	103	goals	goals	goals	1	preview	10	105	0	0	0	0	0	0
91	104	this	this	this	1	preview	10	106	143	0	0	0	0	143
92	105	season	season	season	1	preview	10	107	101	101	1547	101	101	0
93	106	-	-	-	1	preview	10	108	0	0	0	0	0	0
94	107	one	one	one	1	preview	10	109	146	0	0	0	0	146
95	108	less	less	less	1	preview	10	110	0	0	0	0	0	0
96	109	than	than	than	1	preview	10	111	0	0	0	0	0	0
97	110	@entity23	Stoke	Stoke	1	preview	10	112	183	0	0	0	0	183
98	111	frontman	frontman	frontman	1	preview	10	113	119	0	0	0	0	119
99	112	@entity22	Jon	Jon	1	preview	10	114	0	0	0	0	0	0
100			Walters	Walters	1	preview	10	115	214	0	0	0	0	214
101	113	-	-	-	1	preview	10	116	0	0	0	0	0	0
102	114	while	while	while	1	preview	10	117	142	142	1020	142	142	0
103	115	his	his	his	1	preview	10	118	130	130	344	130	130	0
104	116	conversion	conversion	conversion	1	preview	10	119	175	175	175	175	175	0
105	117	rate	rate	rate	1	preview	10	120	0	0	0	0	0	0
106	118	and	and	and	1	preview	10	121	0	0	0	0	0	0
107	119	minutes	minutes	minutes	1	preview	10	122	0	0	0	0	0	0
108	120	per	per	per	1	preview	10	123	0	0	0	0	0	0
109	121	goal	goal	goal	1	preview	10	124	0	0	0	0	0	0
110	122	ratio	ratio	ratio	1	preview	10	125	0	0	0	0	0	0
111	123	have	have	have	1	preview	10	126	155	0	0	0	0	155
112	124	worsened	worsened	worsened.	1	preview	10	127	161	161	316	161	161	0
	125	as	as		1	preview	10	128						
113	126	the	the	Raheem	1	preview	10	129	0	0	0	0	0	0
	127	graphic	graphic		1	preview	10	130						
	128	below	below		1	preview	10	131						
	129	shows	shows		1	preview	10	132						
	130	.	.		1	preview	10	133						
	131	@entity0	Raheem		1	preview	10	134						
114			Sterling	Sterling	1	preview	10	135	199	0	0	0	0	199
115	132	has	has	has	1	preview	10	136	131	131	330	131	131	0
116	133	managed	managed	managed	1	preview	10	137	0	0	0	0	0	0
117	134	just	just	just	1	preview	10	138	0	0	0	0	0	0
118	135	six	six	six	1	preview	10	139	154	154	154	154	154	0
119	136	goals	goals	goals	1	preview	10	140	0	0	0	0	0	0
120	137	this	this	this	1	preview	10	141	139	139	139	139	139	0
121	138	season	season	season	1	preview	10	142	0	0	0	0	0	0
122	139	-	-	-	1	preview	10	143	0	0	0	0	0	0
123	140	one	one	one	1	preview	10	144	131	131	131	131	131	0
124	141	less	less	less	1	preview	10	145	0	0	0	0	0	0
125	142	than	than	than	1	preview	10	146	0	0	0	0	0	0
126	143	@entity23	Stoke	Stoke	1	preview	10	147	187	187	187	187	187	0
127	144	forward	forward	forward	1	preview	10	148	0	0	0	0	0	0
128	145	@entity22	Jon	Jon	1	preview	10	149	0	0	0	0	0	0
129			Walters	Walters.	1	preview	10	150	117	117	117	117	117	0
	146	(	(		1	preview	10	151						
