HumanPosition	AnonymizedPosition	AnonymizedToken	OriginalToken	ExperimentToken	Participant	Condition	TextNo	JointPosition	tt	fp	rp	ff	rb	sp
1	0	A	A	A	8	nopreview	18	1	0	0	0	0	0	0
2	1	man	man	man	8	nopreview	18	2	0	0	0	0	0	0
3	2	was	was	was	8	nopreview	18	3	495	0	0	0	0	495
4	3	horrified	horrified	horrified	8	nopreview	18	4	499	0	0	0	0	499
5	4	after	after	after	8	nopreview	18	5	298	0	0	0	0	298
6	5	finding	finding	finding	8	nopreview	18	6	1233	0	0	0	0	1233
7	6	a	a	a	8	nopreview	18	7	0	0	0	0	0	0
8	7	five	five	five	8	nopreview	18	8	872	0	0	0	0	872
9	8	inch	inch	inch	8	nopreview	18	9	839	0	0	0	0	839
10	9	piece	piece	piece	8	nopreview	18	10	2206	0	0	0	0	2206
11	10	of	of	of	8	nopreview	18	11	0	0	0	0	0	0
12	11	TIMBER	TIMBER	TIMBER	8	nopreview	18	12	1359	0	0	0	0	1359
13	12	in	in	in	8	nopreview	18	13	0	0	0	0	0	0
14	13	his	his	his	8	nopreview	18	14	167	0	0	0	0	167
15	14	frozen	frozen	frozen	8	nopreview	18	15	564	0	0	0	0	564
16	15	curry	curry	curry.	8	nopreview	18	16	408	0	0	0	0	408
	16	.	.		8	nopreview	18	17						
17	17	@entity5	John	John	8	nopreview	18	18	367	0	0	0	0	367
18			Foran	Foran-s	8	nopreview	18	19	580	0	0	0	0	580
	18	’s	’s		8	nopreview	18	20						
19	19	wife	wife	wife	8	nopreview	18	21	482	0	0	0	0	482
20	20	@entity4	Nita	Nita	8	nopreview	18	22	276	0	0	0	0	276
21	21	was	was	was	8	nopreview	18	23	0	0	0	0	0	0
22	22	preparing	preparing	preparing	8	nopreview	18	24	0	0	0	0	0	0
23	23	a	a	a	8	nopreview	18	25	0	0	0	0	0	0
24	24	chicken	chicken	chicken	8	nopreview	18	26	107	0	0	0	0	107
25	25	tikka	tikka	tikka	8	nopreview	18	27	766	0	0	0	0	766
26	26	biryani	biryani	biryani	8	nopreview	18	28	573	0	0	0	0	573
27	27	stir	stir	stir-fry	8	nopreview	18	29	212	0	0	0	0	212
	28	-	-		8	nopreview	18	30						
	29	fry	fry		8	nopreview	18	31						
28	30	on	on	on	8	nopreview	18	32	0	0	0	0	0	0
29	31	Tuesday	Tuesday	Tuesday	8	nopreview	18	33	263	0	0	0	0	263
30	32	April	April	April	8	nopreview	18	34	368	0	0	0	0	368
31	33	7	7	7	8	nopreview	18	35	128	0	0	0	0	128
32	34	when	when	when	8	nopreview	18	36	0	0	0	0	0	0
33	35	he	he	he	8	nopreview	18	37	253	0	0	0	0	253
34	36	found	found	found	8	nopreview	18	38	418	110	13733	110	418	308
35	37	the	the	the	8	nopreview	18	39	0	0	0	0	0	0
36	38	splinter	splinter	splinter-covered	8	nopreview	18	40	374	190	190	190	190	184
	39	-	-		8	nopreview	18	41						
	40	covered	covered		8	nopreview	18	42						
37	41	shard	shard	shard.	8	nopreview	18	43	310	206	494	206	310	104
	42	.	.		8	nopreview	18	44						
38	43	The	The	The	8	nopreview	18	45	0	0	0	0	0	0
39	44	£	£	£2	8	nopreview	18	46	205	0	0	0	0	205
	45	2	2		8	nopreview	18	47						
40	46	ready	ready	ready	8	nopreview	18	48	454	454	659	454	454	0
41	47	meal	meal	meal	8	nopreview	18	49	230	230	230	230	230	0
42	48	was	was	was	8	nopreview	18	50	0	0	0	0	0	0
43	49	bought	bought	bought	8	nopreview	18	51	177	177	177	177	177	0
44	50	from	from	from	8	nopreview	18	52	210	210	210	210	210	0
45	51	an	an	an	8	nopreview	18	53	0	0	0	0	0	0
46	52	@entity11	Iceland	Iceland	8	nopreview	18	54	285	0	0	0	0	285
47			Foods	Foods	8	nopreview	18	55	540	117	825	117	540	423
48	53	store	store	store	8	nopreview	18	56	441	441	441	441	441	0
49	54	in	in	in	8	nopreview	18	57	0	0	0	0	0	0
50	55	@entity12	Spytty	Spytty	8	nopreview	18	58	549	549	549	136	549	0
51			Retail	Retail	8	nopreview	18	59	135	135	135	135	135	0
52			Park	Park	8	nopreview	18	60	173	173	173	173	173	0
53	56	near	near	near	8	nopreview	18	61	0	0	0	0	0	0
54	57	the	the	the	8	nopreview	18	62	188	188	188	188	188	0
55	58	couple	couple	couple-s	8	nopreview	18	63	204	204	204	204	204	0
	59	’s	’s		8	nopreview	18	64						
56	60	home	home	home	8	nopreview	18	65	0	0	0	0	0	0
57	61	in	in	in	8	nopreview	18	66	0	0	0	0	0	0
58	62	@entity15	Newport	Newport,	8	nopreview	18	67	368	368	368	148	368	0
	63	,	,		8	nopreview	18	68						
59	64	@entity16	South	South	8	nopreview	18	69	86	86	86	86	86	0
60			Wales	Wales,	8	nopreview	18	70	353	0	0	0	0	353
	65	,	,		8	nopreview	18	71						
61	66	within	within	within	8	nopreview	18	72	120	120	473	120	120	0
62	67	the	the	the	8	nopreview	18	73	204	204	204	204	204	0
63	68	last	last	last	8	nopreview	18	74	0	0	0	0	0	0
64	69	two	two	two	8	nopreview	18	75	474	474	474	474	474	0
65	70	weeks	weeks	weeks.	8	nopreview	18	76	0	0	0	0	0	0
	71	.	.		8	nopreview	18	77						
66	72	@entity5	John	John,	8	nopreview	18	78	269	0	0	0	0	269
			Foran		8	nopreview	18	79						
	73	was	was		8	nopreview	18	80						
67	74	horrified	horrified	59,	8	nopreview	18	81	188	188	342	188	188	0
	75	to	to		8	nopreview	18	82						
	76	find	find		8	nopreview	18	83						
	77	a	a		8	nopreview	18	84						
68	78	five	five	said:	8	nopreview	18	85	200	200	200	200	200	0
	79	inch	inch		8	nopreview	18	86						
	80	piece	piece		8	nopreview	18	87						
	81	of	of		8	nopreview	18	88						
	82	timber	timber		8	nopreview	18	89						
	83	in	in		8	nopreview	18	90						
	84	his	his		8	nopreview	18	91						
	85	@entity11	Iceland		8	nopreview	18	92						
	86	chicken	chicken		8	nopreview	18	93						
	87	tikka	tikka		8	nopreview	18	94						
	88	biryani	biryani		8	nopreview	18	95						
	89	curry	curry		8	nopreview	18	96						
	90	@entity5	John		8	nopreview	18	97						
	91	,	,		8	nopreview	18	98						
	92	59	59		8	nopreview	18	99						
	93	,	,		8	nopreview	18	100						
	94	said	said		8	nopreview	18	101						
69	95	:	:	-When	8	nopreview	18	102	0	0	0	0	0	0
	96	-	-		8	nopreview	18	103						
	97	When	When		8	nopreview	18	104						
70	98	it	it	it	8	nopreview	18	105	0	0	0	0	0	0
71	99	fell	fell	fell	8	nopreview	18	106	219	219	219	219	219	0
72	100	out	out	out	8	nopreview	18	107	156	156	156	156	156	0
73	101	of	of	of	8	nopreview	18	108	0	0	0	0	0	0
74	102	the	the	the	8	nopreview	18	109	0	0	0	0	0	0
75	103	bag	bag	bag	8	nopreview	18	110	141	141	141	141	141	0
76	104	I	I	I	8	nopreview	18	111	0	0	0	0	0	0
77	105	could	could	couldn-t	8	nopreview	18	112	172	0	0	0	0	172
	106	n’t	n’t		8	nopreview	18	113						
78	107	believe	believe	believe	8	nopreview	18	114	132	132	304	132	132	0
79	108	it	it	it.	8	nopreview	18	115	0	0	0	0	0	0
	109	.	.		8	nopreview	18	116						
80	110	-	-	-As	8	nopreview	18	117	0	0	0	0	0	0
	111	As	As		8	nopreview	18	118						
81	112	@entity4	Nita	Nita	8	nopreview	18	119	406	0	0	0	0	406
82	113	was	was	was	8	nopreview	18	120	86	86	492	86	86	0
83	114	putting	putting	putting	8	nopreview	18	121	252	252	252	252	252	0
84	115	it	it	it	8	nopreview	18	122	0	0	0	0	0	0
85	116	in	in	in	8	nopreview	18	123	160	160	160	160	160	0
86	117	the	the	the	8	nopreview	18	124	0	0	0	0	0	0
87	118	stir	stir	stir	8	nopreview	18	125	0	0	0	0	0	0
88	119	fry	fry	fry	8	nopreview	18	126	294	294	294	294	294	0
89	120	dish	dish	dish,	8	nopreview	18	127	0	0	0	0	0	0
	121	,	,		8	nopreview	18	128						
90	122	she	she	she	8	nopreview	18	129	0	0	0	0	0	0
91	123	thought	thought	thought	8	nopreview	18	130	177	177	177	177	177	0
92	124	it	it	it	8	nopreview	18	131	0	0	0	0	0	0
93	125	was	was	was	8	nopreview	18	132	136	136	136	136	136	0
94	126	just	just	just	8	nopreview	18	133	0	0	0	0	0	0
95	127	a	a	a	8	nopreview	18	134	115	0	0	0	0	115
96	128	big	big	big	8	nopreview	18	135	123	123	238	123	123	0
97	129	bit	bit	bit	8	nopreview	18	136	0	0	0	0	0	0
98	130	of	of	of	8	nopreview	18	137	270	270	270	270	270	0
99	131	veg	veg	veg.	8	nopreview	18	138	0	0	0	0	0	0
	132	.	.		8	nopreview	18	139						
100	133	-	-	-It	8	nopreview	18	140	0	0	0	0	0	0
	134	It	It		8	nopreview	18	141						
101	135	was	was	was	8	nopreview	18	142	0	0	0	0	0	0
102	136	a	a	a	8	nopreview	18	143	133	0	0	0	0	133
103	137	piece	piece	piece	8	nopreview	18	144	190	190	323	190	190	0
104	138	of	of	of	8	nopreview	18	145	0	0	0	0	0	0
105	139	wood	wood	wood	8	nopreview	18	146	149	149	149	149	149	0
106	140	with	with	with	8	nopreview	18	147	0	0	0	0	0	0
107	141	splinters	splinters	splinters	8	nopreview	18	148	414	182	182	182	182	232
108	142	coming	coming	coming	8	nopreview	18	149	0	0	0	0	0	0
109	143	off	off	off	8	nopreview	18	150	156	156	156	156	156	0
110	144	it	it	it.	8	nopreview	18	151	285	285	285	173	285	0
	145	.	.		8	nopreview	18	152						
111	146	-	-	-I	8	nopreview	18	153	0	0	0	0	0	0
	147	I	I		8	nopreview	18	154						
112	148	just	just	just	8	nopreview	18	155	190	190	190	190	190	0
113	149	do	do	don-t	8	nopreview	18	156	157	0	0	0	0	157
	150	n’t	n’t		8	nopreview	18	157						
114	151	understand	understand	understand	8	nopreview	18	158	102	102	259	102	102	0
115	152	how	how	how	8	nopreview	18	159	0	0	0	0	0	0
116	153	it	it	it	8	nopreview	18	160	177	0	0	0	0	177
117	154	got	got	got	8	nopreview	18	161	178	178	355	178	178	0
118	155	inside	inside	inside.-	8	nopreview	18	162	0	0	0	0	0	0
	156	.	.		8	nopreview	18	163						
119	157	-	-	Shocked	8	nopreview	18	164	241	0	0	0	0	241
	158	@entity11	Iceland		8	nopreview	18	165						
	159	said	said		8	nopreview	18	166						
	160	they	they		8	nopreview	18	167						
	161	are	are		8	nopreview	18	168						
	162	carrying	carrying		8	nopreview	18	169						
	163	out	out		8	nopreview	18	170						
	164	a	a		8	nopreview	18	171						
	165	thorough	thorough		8	nopreview	18	172						
	166	investigation	investigation		8	nopreview	18	173						
	167	into	into		8	nopreview	18	174						
	168	how	how		8	nopreview	18	175						
	169	the	the		8	nopreview	18	176						
	170	timber	timber		8	nopreview	18	177						
	171	shard	shard		8	nopreview	18	178						
	172	came	came		8	nopreview	18	179						
	173	to	to		8	nopreview	18	180						
	174	be	be		8	nopreview	18	181						
	175	in	in		8	nopreview	18	182						
	176	the	the		8	nopreview	18	183						
	177	curry	curry		8	nopreview	18	184						
	178	Shocked	Shocked		8	nopreview	18	185						
120	179	@entity5	John	John	8	nopreview	18	186	324	150	565	150	324	174
121	180	immediately	immediately	immediately	8	nopreview	18	187	144	144	144	144	144	0
122	181	contacted	contacted	contacted	8	nopreview	18	188	262	262	262	262	262	0
123	182	@entity11	Iceland	Iceland	8	nopreview	18	189	170	170	170	170	170	0
124	183	who	who	who	8	nopreview	18	190	0	0	0	0	0	0
125	184	are	are	are	8	nopreview	18	191	0	0	0	0	0	0
126	185	currently	currently	currently	8	nopreview	18	192	211	211	211	211	211	0
127	186	investigating	investigating	investigating	8	nopreview	18	193	153	153	153	153	153	0
128	187	the	the	the	8	nopreview	18	194	0	0	0	0	0	0
129	188	matter	matter	matter.	8	nopreview	18	195	177	177	177	177	177	0
	189	.	.		8	nopreview	18	196						
130	190	He	He	He	8	nopreview	18	197	0	0	0	0	0	0
131	191	said	said	said:	8	nopreview	18	198	212	212	212	212	212	0
132	192	:	:	-It	8	nopreview	18	199	0	0	0	0	0	0
	193	“	“		8	nopreview	18	200						
133	194	It	It	may	8	nopreview	18	201	0	0	0	0	0	0
134	195	may	may	only	8	nopreview	18	202	303	303	303	303	303	0
135	196	only	only	have	8	nopreview	18	203	0	0	0	0	0	0
	197	have	have		8	nopreview	18	204						
136	198	been	been	been	8	nopreview	18	205	0	0	0	0	0	0
137	199	£	£	£2	8	nopreview	18	206	235	235	235	235	235	0
	200	2	2		8	nopreview	18	207						
138	201	but	but	but	8	nopreview	18	208	0	0	0	0	0	0
139	202	that	that	that-s	8	nopreview	18	209	0	0	0	0	0	0
	203	’s	’s		8	nopreview	18	210						
140	204	beside	beside	beside	8	nopreview	18	211	354	354	354	120	354	0
141	205	the	the	the	8	nopreview	18	212	0	0	0	0	0	0
142	206	point	point	point.	8	nopreview	18	213	0	0	0	0	0	0
	207	.	.		8	nopreview	18	214						
143	208	-	-	-Things	8	nopreview	18	215	112	112	112	112	112	0
	209	Things	Things		8	nopreview	18	216						
144	210	like	like	like	8	nopreview	18	217	0	0	0	0	0	0
145	211	this	this	this	8	nopreview	18	218	183	183	183	183	183	0
146	212	should	should	should	8	nopreview	18	219	0	0	0	0	0	0
147	213	not	not	not	8	nopreview	18	220	164	164	164	164	164	0
148	214	be	be	be	8	nopreview	18	221	0	0	0	0	0	0
149	215	in	in	in	8	nopreview	18	222	0	0	0	0	0	0
150	216	your	your	your	8	nopreview	18	223	0	0	0	0	0	0
151	217	food	food	food.	8	nopreview	18	224	218	218	218	218	218	0
	218	.	.		8	nopreview	18	225						
152	219	-	-	-I	8	nopreview	18	226	0	0	0	0	0	0
	220	I	I		8	nopreview	18	227						
153	221	contacted	contacted	contacted	8	nopreview	18	228	193	193	193	193	193	0
154	222	@entity11	Iceland	Iceland	8	nopreview	18	229	159	0	0	0	0	159
155	223	and	and	and	8	nopreview	18	230	107	107	266	107	107	0
156	224	all	all	all	8	nopreview	18	231	0	0	0	0	0	0
157	225	they	they	they	8	nopreview	18	232	174	174	174	174	174	0
158	226	said	said	said	8	nopreview	18	233	162	0	0	0	0	162
159	227	was	was	was	8	nopreview	18	234	243	243	405	243	243	0
160	228	take	take	take	8	nopreview	18	235	264	0	0	0	0	264
161	229	it	it	it	8	nopreview	18	236	124	124	388	124	124	0
162	230	back	back	back	8	nopreview	18	237	146	146	410	146	146	0
163	231	to	to	to	8	nopreview	18	238	0	0	0	0	0	0
164	232	the	the	the	8	nopreview	18	239	0	0	0	0	0	0
165	233	shop	shop	shop	8	nopreview	18	240	188	188	188	188	188	0
166	234	and	and	and	8	nopreview	18	241	0	0	0	0	0	0
167	235	that	that	that	8	nopreview	18	242	0	0	0	0	0	0
168	236	they	they	they-ll	8	nopreview	18	243	165	165	165	165	165	0
	237	’ll	’ll		8	nopreview	18	244						
169	238	be	be	be	8	nopreview	18	245	0	0	0	0	0	0
170	239	in	in	in	8	nopreview	18	246	0	0	0	0	0	0
171	240	touch	touch	touch.	8	nopreview	18	247	222	222	569	222	222	0
	241	.	.		8	nopreview	18	248						
172	242	-	-	-But	8	nopreview	18	249	0	0	0	0	0	0
	243	But	But		8	nopreview	18	250						
173	244	I	I	I	8	nopreview	18	251	154	0	0	0	0	154
174	245	want	want	want	8	nopreview	18	252	125	125	279	125	125	0
175	246	people	people	people	8	nopreview	18	253	89	89	89	89	89	0
176	247	to	to	to	8	nopreview	18	254	0	0	0	0	0	0
177	248	know	know	know	8	nopreview	18	255	173	173	173	173	173	0
178	249	what	what	what	8	nopreview	18	256	0	0	0	0	0	0
179	250	could	could	could	8	nopreview	18	257	217	0	0	0	0	217
180	251	be	be	be	8	nopreview	18	258	142	142	359	142	142	0
181	252	hiding	hiding	hiding	8	nopreview	18	259	148	148	148	148	148	0
182	253	in	in	in	8	nopreview	18	260	0	0	0	0	0	0
183	254	their	their	their	8	nopreview	18	261	0	0	0	0	0	0
184	255	meal	meal	meal.-	8	nopreview	18	262	143	143	143	143	143	0
	256	.	.		8	nopreview	18	263						
185	257	”	”	An	8	nopreview	18	264	108	0	0	0	0	108
186	258	An	An	Iceland	8	nopreview	18	265	155	155	263	155	155	0
	259	@entity11	Iceland		8	nopreview	18	266						
187	260	spokeswoman	spokeswoman	spokeswoman	8	nopreview	18	267	287	287	287	137	287	0
188	261	said	said	said:	8	nopreview	18	268	279	279	279	279	279	0
189	262	:	:	-Please	8	nopreview	18	269	0	0	0	0	0	0
	263	’	’		8	nopreview	18	270						
	264	Please	Please		8	nopreview	18	271						
190	265	be	be	be	8	nopreview	18	272	189	189	189	189	189	0
191	266	assured	assured	assured	8	nopreview	18	273	108	108	108	108	108	0
192	267	that	that	that	8	nopreview	18	274	0	0	0	0	0	0
193	268	we	we	we	8	nopreview	18	275	0	0	0	0	0	0
194	269	take	take	take	8	nopreview	18	276	239	239	239	239	239	0
195	270	all	all	all	8	nopreview	18	277	0	0	0	0	0	0
196	271	complaints	complaints	complaints	8	nopreview	18	278	187	187	187	187	187	0
197	272	extremely	extremely	extremely	8	nopreview	18	279	265	265	265	265	265	0
198	273	seriously	seriously	seriously.	8	nopreview	18	280	151	151	151	151	151	0
	274	.	.		8	nopreview	18	281						
199	275	We	We	We	8	nopreview	18	282	0	0	0	0	0	0
200	276	can	can	can	8	nopreview	18	283	0	0	0	0	0	0
201	277	confirm	confirm	confirm	8	nopreview	18	284	192	192	192	192	192	0
202	278	that	that	that	8	nopreview	18	285	0	0	0	0	0	0
203	279	Mr	Mr	Mr	8	nopreview	18	286	0	0	0	0	0	0
204	280	@entity5	Foran	Foran	8	nopreview	18	287	148	148	148	148	148	0
205	281	has	has	has	8	nopreview	18	288	0	0	0	0	0	0
206	282	now	now	now	8	nopreview	18	289	167	167	167	167	167	0
207	283	been	been	been	8	nopreview	18	290	0	0	0	0	0	0
208	284	in	in	in	8	nopreview	18	291	0	0	0	0	0	0
209	285	touch	touch	touch	8	nopreview	18	292	168	168	168	168	168	0
210	286	with	with	with	8	nopreview	18	293	0	0	0	0	0	0
211	287	our	our	our	8	nopreview	18	294	0	0	0	0	0	0
212	288	customer	customer	customer	8	nopreview	18	295	190	190	190	190	190	0
213	289	care	care	care	8	nopreview	18	296	0	0	0	0	0	0
214	290	department	department	department	8	nopreview	18	297	166	166	166	166	166	0
215	291	regarding	regarding	regarding	8	nopreview	18	298	150	0	0	0	0	150
216	292	the	the	the	8	nopreview	18	299	113	113	263	113	113	0
217	293	foreign	foreign	foreign	8	nopreview	18	300	0	0	0	0	0	0
218	294	body	body	body	8	nopreview	18	301	108	108	108	108	108	0
219	295	found	found	found	8	nopreview	18	302	128	128	128	128	128	0
220	296	in	in	in	8	nopreview	18	303	0	0	0	0	0	0
221	297	his	his	his	8	nopreview	18	304	0	0	0	0	0	0
222	298	ready	ready	ready	8	nopreview	18	305	163	163	163	163	163	0
223	299	meal	meal	meal.	8	nopreview	18	306	0	0	0	0	0	0
	300	.	.		8	nopreview	18	307						
224	301	-	-	-Mr	8	nopreview	18	308	0	0	0	0	0	0
	302	Mr	Mr		8	nopreview	18	309						
225	303	@entity5	Foran	Foran	8	nopreview	18	310	170	170	170	170	170	0
226	304	is	is	is	8	nopreview	18	311	210	210	210	210	210	0
227	305	returning	returning	returning	8	nopreview	18	312	170	170	170	170	170	0
228	306	the	the	the	8	nopreview	18	313	0	0	0	0	0	0
229	307	item	item	item	8	nopreview	18	314	289	289	289	289	289	0
230	308	to	to	to	8	nopreview	18	315	0	0	0	0	0	0
231	309	the	the	the	8	nopreview	18	316	0	0	0	0	0	0
232	310	store	store	store	8	nopreview	18	317	284	284	284	284	284	0
233	311	and	and	and	8	nopreview	18	318	0	0	0	0	0	0
234	312	the	the	the	8	nopreview	18	319	0	0	0	0	0	0
235	313	foreign	foreign	foreign	8	nopreview	18	320	290	290	290	290	290	0
236	314	body	body	body	8	nopreview	18	321	0	0	0	0	0	0
237	315	will	will	will	8	nopreview	18	322	151	151	151	151	151	0
238	316	be	be	be	8	nopreview	18	323	0	0	0	0	0	0
239	317	collected	collected	collected	8	nopreview	18	324	177	177	177	177	177	0
240	318	by	by	by	8	nopreview	18	325	0	0	0	0	0	0
241	319	our	our	our	8	nopreview	18	326	0	0	0	0	0	0
242	320	supplier	supplier	supplier	8	nopreview	18	327	253	253	253	253	253	0
243	321	in	in	in	8	nopreview	18	328	0	0	0	0	0	0
244	322	order	order	order	8	nopreview	18	329	159	159	159	159	159	0
245	323	for	for	for	8	nopreview	18	330	0	0	0	0	0	0
246	324	them	them	them	8	nopreview	18	331	185	185	185	185	185	0
247	325	to	to	to	8	nopreview	18	332	0	0	0	0	0	0
248	326	carry	carry	carry	8	nopreview	18	333	0	0	0	0	0	0
249	327	out	out	out	8	nopreview	18	334	199	199	199	199	199	0
250	328	a	a	a	8	nopreview	18	335	0	0	0	0	0	0
251	329	thorough	thorough	thorough	8	nopreview	18	336	90	0	0	0	0	90
252	330	investigation	investigation	investigation.	8	nopreview	18	337	211	211	301	211	211	0
	331	.	.		8	nopreview	18	338						
253	332	As	As	As	8	nopreview	18	339	0	0	0	0	0	0
254	333	soon	soon	soon	8	nopreview	18	340	292	292	292	292	292	0
255	334	as	as	as	8	nopreview	18	341	0	0	0	0	0	0
256	335	we	we	we	8	nopreview	18	342	0	0	0	0	0	0
257	336	have	have	have	8	nopreview	18	343	195	195	195	195	195	0
258	337	the	the	the	8	nopreview	18	344	0	0	0	0	0	0
259	338	results	results	results	8	nopreview	18	345	187	187	187	187	187	0
260	339	of	of	of	8	nopreview	18	346	0	0	0	0	0	0
261	340	this	this	this	8	nopreview	18	347	128	128	128	128	128	0
262	341	investigation	investigation	investigation	8	nopreview	18	348	362	362	362	122	362	0
263	342	we	we	we	8	nopreview	18	349	0	0	0	0	0	0
264	343	will	will	will	8	nopreview	18	350	129	129	129	129	129	0
265	344	get	get	get	8	nopreview	18	351	0	0	0	0	0	0
266	345	back	back	back	8	nopreview	18	352	185	185	185	185	185	0
267	346	in	in	in	8	nopreview	18	353	0	0	0	0	0	0
268	347	touch	touch	touch	8	nopreview	18	354	0	0	0	0	0	0
269	348	with	with	with	8	nopreview	18	355	148	148	148	148	148	0
270	349	Mr	Mr	Mr	8	nopreview	18	356	0	0	0	0	0	0
271	350	@entity5	Foran	Foran.-	8	nopreview	18	357	650	650	650	223	650	0
	351	.	.		8	nopreview	18	358						
