HumanPosition	AnonymizedPosition	AnonymizedToken	OriginalToken	ExperimentToken	Participant	Condition	TextNo	JointPosition	tt	fp	rp	ff	rb	sp
1	0	Fighting	Fighting	Fighting	7	nopreview	19	1	512	0	0	0	0	512
2	1	between	between	between	7	nopreview	19	2	734	0	0	0	0	734
3	2	rival	rival	rival	7	nopreview	19	3	545	110	1293	110	322	435
4	3	fans	fans	fans	7	nopreview	19	4	123	0	0	0	0	123
5	4	forced	forced	forced	7	nopreview	19	5	719	252	592	252	469	467
6	5	a	a	a	7	nopreview	19	6	0	0	0	0	0	0
7	6	@entity2	Russian	Russian	7	nopreview	19	7	647	213	753	115	503	434
8			Premier	Premier	7	nopreview	19	8	446	250	250	250	250	196
9			League	League	7	nopreview	19	9	757	363	363	262	363	394
10	7	match	match	match	7	nopreview	19	10	240	240	240	240	240	0
11	8	between	between	between	7	nopreview	19	11	574	358	358	358	358	216
12	9	@entity3	Arsenal	Arsenal	7	nopreview	19	12	459	459	459	215	459	0
13			Tula	Tula	7	nopreview	19	13	609	0	0	0	0	609
14	10	and	and	and	7	nopreview	19	14	0	0	0	0	0	0
15	11	@entity4	Torpedo	Torpedo	7	nopreview	19	15	1321	97	1117	97	787	1224
16			Moscow	Moscow	7	nopreview	19	16	711	235	991	235	557	476
17	12	to	to	to	7	nopreview	19	17	0	0	0	0	0	0
18	13	be	be	be	7	nopreview	19	18	0	0	0	0	0	0
19	14	stopped	stopped	stopped	7	nopreview	19	19	133	133	133	133	133	0
20	15	for	for	for	7	nopreview	19	20	242	0	0	0	0	242
21	16	seven	seven	seven	7	nopreview	19	21	438	307	307	307	307	131
22	17	minutes	minutes	minutes	7	nopreview	19	22	0	0	0	0	0	0
23	18	on	on	on	7	nopreview	19	23	0	0	0	0	0	0
24	19	Sunday	Sunday	Sunday.	7	nopreview	19	24	232	232	605	232	232	0
	20	.	.		7	nopreview	19	25						
25	21	A	A	A	7	nopreview	19	26	0	0	0	0	0	0
26	22	statement	statement	statement	7	nopreview	19	27	673	262	1349	139	673	411
27	23	on	on	on	7	nopreview	19	28	0	0	0	0	0	0
28	24	@entity3	Arsenal	Arsenal-s	7	nopreview	19	29	134	0	0	0	0	134
	25	-s	-s		7	nopreview	19	30						
29	26	official	official	official	7	nopreview	19	31	570	116	459	116	325	454
30	27	site	site	site	7	nopreview	19	32	105	105	1655	105	105	0
31	28	read	read	read:	7	nopreview	19	33	226	226	226	226	226	0
32	29	:	:	-In	7	nopreview	19	34	245	153	153	153	153	92
	30	-	-		7	nopreview	19	35						
33	31	In	In	the	7	nopreview	19	36	0	0	0	0	0	0
34	32	the	the	31st	7	nopreview	19	37	674	388	480	143	388	286
	33	31st	31st		7	nopreview	19	38						
35	34	minute	minute	minute,	7	nopreview	19	39	253	127	539	127	253	126
	35	,	,		7	nopreview	19	40						
36	36	fans	fans	fans	7	nopreview	19	41	0	0	0	0	0	0
37	37	from	from	from	7	nopreview	19	42	178	178	178	178	178	0
38	38	the	the	the	7	nopreview	19	43	107	0	0	0	0	107
39	39	visiting	visiting	visiting	7	nopreview	19	44	416	163	163	163	163	253
40	40	@entity9	Moscow	Moscow	7	nopreview	19	45	149	149	509	149	149	0
41	41	club	club	club	7	nopreview	19	46	131	131	131	131	131	0
42	42	broke	broke	broke	7	nopreview	19	47	92	0	0	0	0	92
43	43	down	down	down	7	nopreview	19	48	109	109	201	109	109	0
44	44	barriers	barriers	barriers	7	nopreview	19	49	195	195	195	195	195	0
45	45	in	in	in	7	nopreview	19	50	0	0	0	0	0	0
46	46	front	front	front	7	nopreview	19	51	155	155	155	155	155	0
47	47	of	of	of	7	nopreview	19	52	0	0	0	0	0	0
48	48	the	the	the	7	nopreview	19	53	0	0	0	0	0	0
49	49	visitors	visitors	visitors	7	nopreview	19	54	163	163	163	163	163	0
50	50	sector	sector	sector	7	nopreview	19	55	184	184	184	184	184	0
51	51	and	and	and	7	nopreview	19	56	0	0	0	0	0	0
52	52	tried	tried	tried	7	nopreview	19	57	224	224	224	224	224	0
53	53	to	to	to	7	nopreview	19	58	0	0	0	0	0	0
54	54	get	get	get	7	nopreview	19	59	130	0	0	0	0	130
55	55	to	to	to	7	nopreview	19	60	158	158	288	158	158	0
56	56	the	the	the	7	nopreview	19	61	185	0	0	0	0	185
57	57	@entity13	East	East	7	nopreview	19	62	97	97	282	97	97	0
58			Stand	Stand,	7	nopreview	19	63	161	0	0	0	0	161
	58	,	,		7	nopreview	19	64						
59	59	where	where	where	7	nopreview	19	65	111	111	272	111	111	0
60	60	a	a	a	7	nopreview	19	66	136	0	0	0	0	136
61	61	number	number	number	7	nopreview	19	67	151	151	287	151	151	0
62	62	of	of	of	7	nopreview	19	68	0	0	0	0	0	0
63	63	women	women	women	7	nopreview	19	69	195	195	195	195	195	0
64	64	and	and	and	7	nopreview	19	70	0	0	0	0	0	0
65	65	children	children	children	7	nopreview	19	71	158	158	158	158	158	0
66	66	were	were	were	7	nopreview	19	72	0	0	0	0	0	0
67	67	sitting	sitting	sitting.	7	nopreview	19	73	139	139	139	139	139	0
	68	.	.		7	nopreview	19	74						
68	69	-	-	-The	7	nopreview	19	75	0	0	0	0	0	0
	70	The	The		7	nopreview	19	76						
69	71	@entity4	Torpedo	Torpedo	7	nopreview	19	77	144	144	144	144	144	0
70	72	fans	fans	fans	7	nopreview	19	78	179	179	179	179	179	0
71	73	began	began	began	7	nopreview	19	79	257	257	257	257	257	0
72	74	breaking	breaking	breaking	7	nopreview	19	80	115	0	0	0	0	115
73	75	seats	seats	seats	7	nopreview	19	81	96	96	211	96	96	0
74	76	and	and	and	7	nopreview	19	82	0	0	0	0	0	0
75	77	throwing	throwing	throwing	7	nopreview	19	83	345	345	345	224	345	0
76	78	them	them	them	7	nopreview	19	84	143	143	143	143	143	0
77	79	towards	towards	towards	7	nopreview	19	85	0	0	0	0	0	0
78	80	law	law	law	7	nopreview	19	86	0	0	0	0	0	0
79	81	enforcement	enforcement	enforcement	7	nopreview	19	87	210	210	210	210	210	0
80	82	officers	officers	officers	7	nopreview	19	88	302	302	302	201	302	0
81	83	and	and	and	7	nopreview	19	89	0	0	0	0	0	0
82	84	stewards	stewards	stewards.-	7	nopreview	19	90	173	173	173	173	173	0
	85	.	.		7	nopreview	19	91						
83	86	-	-	Referee	7	nopreview	19	92	234	0	0	0	0	234
	87	Scroll	Scroll		7	nopreview	19	93						
	88	down	down		7	nopreview	19	94						
	89	to	to		7	nopreview	19	95						
	90	watch	watch		7	nopreview	19	96						
	91	video	video		7	nopreview	19	97						
	92	footage	footage		7	nopreview	19	98						
	93	of	of		7	nopreview	19	99						
	94	the	the		7	nopreview	19	100						
	95	incident	incident		7	nopreview	19	101						
	96	Fans	Fans		7	nopreview	19	102						
	97	fight	fight		7	nopreview	19	103						
	98	leading	leading		7	nopreview	19	104						
	99	to	to		7	nopreview	19	105						
	100	@entity3	Arsenal		7	nopreview	19	106						
			Tula		7	nopreview	19	107						
	101	vs	vs		7	nopreview	19	108						
	102	@entity4	Torpedo		7	nopreview	19	109						
			Moscow		7	nopreview	19	110						
	103	to	to		7	nopreview	19	111						
	104	be	be		7	nopreview	19	112						
	105	suspended	suspended		7	nopreview	19	113						
	106	for	for		7	nopreview	19	114						
	107	seven	seven		7	nopreview	19	115						
	108	minutes	minutes		7	nopreview	19	116						
	109	on	on		7	nopreview	19	117						
	110	Sunday	Sunday		7	nopreview	19	118						
	111	@entity4	Torpedo		7	nopreview	19	119						
			Moscow		7	nopreview	19	120						
	112	fans	fans		7	nopreview	19	121						
	113	broke	broke		7	nopreview	19	122						
	114	down	down		7	nopreview	19	123						
	115	barriers	barriers		7	nopreview	19	124						
	116	and	and		7	nopreview	19	125						
	117	threw	threw		7	nopreview	19	126						
	118	chairs	chairs		7	nopreview	19	127						
	119	,	,		7	nopreview	19	128						
	120	according	according		7	nopreview	19	129						
	121	to	to		7	nopreview	19	130						
	122	@entity3	Arsenal		7	nopreview	19	131						
			Tula		7	nopreview	19	132						
	123	-s	-s		7	nopreview	19	133						
	124	website	website		7	nopreview	19	134						
	125	Referee	Referee		7	nopreview	19	135						
84	126	@entity28	Alexander	Alexander	7	nopreview	19	136	495	0	0	0	0	495
85			Yegorov	Yegorov	7	nopreview	19	137	355	150	1084	150	355	205
86	127	stopped	stopped	stopped	7	nopreview	19	138	259	259	259	259	259	0
87	128	the	the	the	7	nopreview	19	139	0	0	0	0	0	0
88	129	match	match	match	7	nopreview	19	140	132	132	132	132	132	0
89	130	and	and	and	7	nopreview	19	141	0	0	0	0	0	0
90	131	told	told	told	7	nopreview	19	142	0	0	0	0	0	0
91	132	the	the	the	7	nopreview	19	143	154	154	154	154	154	0
92	133	players	players	players	7	nopreview	19	144	0	0	0	0	0	0
93	134	to	to	to	7	nopreview	19	145	150	150	150	150	150	0
94	135	leave	leave	leave	7	nopreview	19	146	0	0	0	0	0	0
95	136	the	the	the	7	nopreview	19	147	136	136	136	136	136	0
96	137	pitch	pitch	pitch	7	nopreview	19	148	98	98	98	98	98	0
97	138	and	and	and	7	nopreview	19	149	0	0	0	0	0	0
98	139	head	head	head	7	nopreview	19	150	107	0	0	0	0	107
99	140	for	for	for	7	nopreview	19	151	263	120	227	120	120	143
100	141	the	the	the	7	nopreview	19	152	0	0	0	0	0	0
101	142	dressing	dressing	dressing	7	nopreview	19	153	240	240	383	137	240	0
102	143	rooms	rooms	rooms,	7	nopreview	19	154	0	0	0	0	0	0
	144	,	,		7	nopreview	19	155						
103	145	while	while	while	7	nopreview	19	156	119	0	0	0	0	119
104	146	fights	fights	fights	7	nopreview	19	157	146	146	265	146	146	0
105	147	broke	broke	broke	7	nopreview	19	158	0	0	0	0	0	0
106	148	out	out	out	7	nopreview	19	159	160	160	160	160	160	0
107	149	between	between	between	7	nopreview	19	160	124	0	0	0	0	124
108	150	fans	fans	fans	7	nopreview	19	161	274	158	282	158	158	116
109	151	on	on	on	7	nopreview	19	162	0	0	0	0	0	0
110	152	the	the	the	7	nopreview	19	163	0	0	0	0	0	0
111	153	running	running	running	7	nopreview	19	164	131	131	247	131	131	0
112	154	track	track	track	7	nopreview	19	165	123	0	0	0	0	123
113	155	after	after	after	7	nopreview	19	166	121	121	244	121	121	0
114	156	they	they	they	7	nopreview	19	167	137	0	0	0	0	137
115	157	managed	managed	managed	7	nopreview	19	168	114	114	251	114	114	0
116	158	to	to	to	7	nopreview	19	169	0	0	0	0	0	0
117	159	climb	climb	climb	7	nopreview	19	170	0	0	0	0	0	0
118	160	over	over	over	7	nopreview	19	171	226	226	226	226	226	0
119	161	barriers	barriers	barriers.	7	nopreview	19	172	118	118	118	118	118	0
	162	.	.		7	nopreview	19	173						
120	163	After	After	After	7	nopreview	19	174	881	0	0	0	0	881
121	164	order	order	order	7	nopreview	19	175	506	118	1387	118	506	388
122	165	was	was	was	7	nopreview	19	176	138	0	0	0	0	138
123	166	restored	restored	restored	7	nopreview	19	177	310	159	448	159	310	151
124	167	play	play	play	7	nopreview	19	178	82	82	82	82	82	0
125	168	resumed	resumed	resumed	7	nopreview	19	179	124	124	124	124	124	0
126	169	and	and	and	7	nopreview	19	180	0	0	124	0	0	0
127	170	@entity4	Torpedo	Torpedo	7	nopreview	19	181	264	0	0	0	0	264
128	171	ran	ran	ran	7	nopreview	19	182	716	238	238	238	238	478
129	172	out	out	out	7	nopreview	19	183	244	0	0	0	0	244
130	173	3	3	3-1	7	nopreview	19	184	268	0	0	0	0	268
	174	-	-		7	nopreview	19	185						
	175	1	1		7	nopreview	19	186						
131	176	winners	winners	winners.	7	nopreview	19	187	796	143	2050	143	796	653
	177	.	.		7	nopreview	19	188						
132	178	@entity41	Sergei	Sergei	7	nopreview	19	189	702	222	222	222	222	480
133			Cheban	Cheban,	7	nopreview	19	190	475	123	955	123	475	352
	179	,	,		7	nopreview	19	191						
134	180	executive	executive	executive	7	nopreview	19	192	280	280	280	280	280	0
135	181	director	director	director	7	nopreview	19	193	165	165	165	165	165	0
136	182	of	of	of	7	nopreview	19	194	0	0	0	0	0	0
137	183	the	the	the	7	nopreview	19	195	0	0	0	0	0	0
138	184	@entity2	Russian	Russian	7	nopreview	19	196	117	0	0	0	0	117
139			Football	Football	7	nopreview	19	197	106	106	223	106	106	0
140			Premier	Premier	7	nopreview	19	198	250	250	250	124	250	0
141			League	League,	7	nopreview	19	199	0	0	0	0	0	0
	185	,	,		7	nopreview	19	200						
142	186	said	said	said	7	nopreview	19	201	0	0	0	0	0	0
143	187	@entity4	Torpedo	Torpedo	7	nopreview	19	202	166	166	166	166	166	0
144	188	could	could	could	7	nopreview	19	203	254	128	128	128	128	126
145	189	expected	expected	expected	7	nopreview	19	204	623	148	148	148	148	475
146	190	to	to	to	7	nopreview	19	205	305	0	0	0	0	305
147	191	be	be	be	7	nopreview	19	206	433	182	783	182	182	251
148	192	heavily	heavily	heavily	7	nopreview	19	207	147	147	241	147	147	0
149	193	punished	punished	punished	7	nopreview	19	208	166	166	628	166	166	0
150	194	for	for	for	7	nopreview	19	209	0	0	0	0	0	0
151	195	this	this	this	7	nopreview	19	210	217	217	217	217	217	0
152	196	latest	latest	latest	7	nopreview	19	211	132	0	0	0	0	132
153	197	outbreak	outbreak	outbreak	7	nopreview	19	212	268	130	262	130	130	138
154	198	of	of	of	7	nopreview	19	213	0	0	0	0	0	0
155	199	violence	violence	violence	7	nopreview	19	214	174	174	312	174	174	0
156	200	by	by	by	7	nopreview	19	215	201	0	0	0	0	201
157	201	their	their	their	7	nopreview	19	216	202	202	403	202	202	0
158	202	fans	fans	fans.	7	nopreview	19	217	0	0	0	0	0	0
	203	.	.		7	nopreview	19	218						
159	204	-	-	-Those	7	nopreview	19	219	578	260	260	138	260	318
	205	Those	Those		7	nopreview	19	220						
160	206	people	people	people	7	nopreview	19	221	549	166	722	166	549	383
161	207	who	who	who	7	nopreview	19	222	96	0	0	0	0	96
162	208	organised	organised	organised	7	nopreview	19	223	434	119	675	119	434	315
163	209	the	the	the	7	nopreview	19	224	0	0	0	0	0	0
164	210	trouble	trouble	trouble	7	nopreview	19	225	143	0	0	0	0	143
165	211	have	have	have	7	nopreview	19	226	127	0	0	0	0	127
166	212	already	already	already	7	nopreview	19	227	108	108	251	108	108	0
167	213	been	been	been	7	nopreview	19	228	152	152	279	152	152	0
168	214	detained	detained	detained.	7	nopreview	19	229	184	184	184	184	184	0
	215	.	.		7	nopreview	19	230						
169	216	The	The	The	7	nopreview	19	231	0	0	0	0	0	0
170	217	security	security	security	7	nopreview	19	232	230	230	230	230	230	0
171	218	forces	forces	forces	7	nopreview	19	233	179	179	179	179	179	0
172	219	on	on	on	7	nopreview	19	234	272	0	0	0	0	272
173	220	duty	duty	duty	7	nopreview	19	235	214	214	486	214	214	0
174	221	were	were	were	7	nopreview	19	236	246	246	246	246	246	0
175	222	very	very	very	7	nopreview	19	237	0	0	0	0	0	0
176	223	professional	professional	professional	7	nopreview	19	238	232	232	232	112	232	0
177	224	in	in	in	7	nopreview	19	239	341	0	0	0	0	341
178	225	their	their	their	7	nopreview	19	240	145	145	486	145	145	0
179	226	work	work	work,-	7	nopreview	19	241	0	0	0	0	0	0
	227	,	,		7	nopreview	19	242						
180	228	-	-	said	7	nopreview	19	243	0	0	0	0	0	0
	229	said	said		7	nopreview	19	244						
181	230	@entity41	Cheban	Cheban	7	nopreview	19	245	0	0	0	0	0	0
182	231	in	in	in	7	nopreview	19	246	0	0	0	0	0	0
183	232	an	an	an	7	nopreview	19	247	0	0	0	0	0	0
184	233	interview	interview	interview	7	nopreview	19	248	0	0	0	0	0	0
185	234	with	with	with	7	nopreview	19	249	0	0	0	0	0	0
186	235	@entity52	Championat.com	Championat.com.	7	nopreview	19	250	0	0	0	0	0	0
	236	.	.		7	nopreview	19	251						
187	237	-	-	-Torpedo	7	nopreview	19	252	251	251	251	119	251	0
	238	@entity4	Torpedo		7	nopreview	19	253						
188	239	can	can	can	7	nopreview	19	254	139	0	0	0	0	139
189	240	expect	expect	expect	7	nopreview	19	255	148	148	287	148	148	0
190	241	to	to	to	7	nopreview	19	256	149	149	149	149	149	0
191	242	receive	receive	receive	7	nopreview	19	257	89	89	89	89	89	0
192	243	serious	serious	serious	7	nopreview	19	258	139	0	0	0	0	139
193	244	punishment	punishment	punishment.	7	nopreview	19	259	121	121	260	121	121	0
	245	.	.		7	nopreview	19	260						
194	246	This	This	This	7	nopreview	19	261	131	0	0	0	0	131
195	247	is	is	is	7	nopreview	19	262	0	0	0	0	0	0
196	248	hooliganism	hooliganism	hooliganism	7	nopreview	19	263	153	153	284	153	153	0
197	249	and	and	and	7	nopreview	19	264	0	0	0	0	0	0
198	250	it	it	it	7	nopreview	19	265	362	224	224	224	224	138
199	251	not	not	not	7	nopreview	19	266	253	166	391	166	253	87
200	252	the	the	the	7	nopreview	19	267	0	0	0	0	0	0
201	253	first	first	first	7	nopreview	19	268	120	0	0	0	0	120
202	254	time	time	time	7	nopreview	19	269	101	101	221	101	101	0
203	255	they	they	they	7	nopreview	19	270	0	0	0	0	0	0
204	256	have	have	have	7	nopreview	19	271	142	142	142	142	142	0
205	257	stopped	stopped	stopped	7	nopreview	19	272	128	0	0	0	0	128
206	258	a	a	a	7	nopreview	19	273	0	0	0	0	0	0
207	259	match	match	match.	7	nopreview	19	274	139	139	267	139	139	0
	260	.	.		7	nopreview	19	275						
208	261	The	The	The	7	nopreview	19	276	0	0	0	0	0	0
209	262	punishment	punishment	punishment	7	nopreview	19	277	196	196	196	196	196	0
210	263	will	will	will	7	nopreview	19	278	0	0	0	0	0	0
211	264	be	be	be	7	nopreview	19	279	198	198	198	198	198	0
212	265	harsh	harsh	harsh.-	7	nopreview	19	280	0	0	0	0	0	0
	266	.	.		7	nopreview	19	281						
213	267	-	-	Torpedo-s	7	nopreview	19	282	165	165	165	165	165	0
	268	@entity4	Torpedo		7	nopreview	19	283						
	269	-s	-s		7	nopreview	19	284						
214	270	fans	fans	fans	7	nopreview	19	285	111	111	111	111	111	0
215	271	have	have	have	7	nopreview	19	286	130	0	0	0	0	130
216	272	caused	caused	caused	7	nopreview	19	287	0	0	0	0	0	0
217	273	trouble	trouble	trouble	7	nopreview	19	288	282	131	412	131	282	151
218	274	on	on	on	7	nopreview	19	289	98	0	0	0	0	98
219	275	a	a	a	7	nopreview	19	290	0	0	0	0	0	0
220	276	number	number	number	7	nopreview	19	291	134	134	232	134	134	0
221	277	of	of	of	7	nopreview	19	292	0	0	0	0	0	0
222	278	occasions	occasions	occasions	7	nopreview	19	293	198	198	198	198	198	0
223	279	and	and	and	7	nopreview	19	294	0	0	0	0	0	0
224	280	the	the	the	7	nopreview	19	295	184	0	0	0	0	184
225	281	club	club	club	7	nopreview	19	296	0	0	0	0	0	0
226	282	have	have	have	7	nopreview	19	297	139	139	139	139	139	0
227	283	already	already	already	7	nopreview	19	298	697	201	201	201	201	496
228	284	been	been	been	7	nopreview	19	299	427	0	0	0	0	427
229	285	punished	punished	punished	7	nopreview	19	300	344	146	794	146	344	198
230	286	three	three	three	7	nopreview	19	301	248	0	0	0	0	248
231	287	times	times	times	7	nopreview	19	302	280	0	0	0	0	280
232	288	this	this	this	7	nopreview	19	303	483	0	0	0	0	483
233	289	season	season	season	7	nopreview	19	304	267	0	0	0	0	267
234	290	for	for	for	7	nopreview	19	305	169	0	0	0	0	169
235	291	racist	racist	racist	7	nopreview	19	306	405	84	1651	84	405	321
236	292	behaviour	behaviour	behaviour	7	nopreview	19	307	127	127	127	127	127	0
237	293	of	of	of	7	nopreview	19	308	370	0	0	0	0	370
238	294	their	their	their	7	nopreview	19	309	404	103	103	103	103	301
239	295	supporters	supporters	supporters.	7	nopreview	19	310	426	312	720	312	312	114
	296	.	.		7	nopreview	19	311						
240	297	The	The	The	7	nopreview	19	312	0	0	0	0	0	0
241	298	last	last	last	7	nopreview	19	313	464	223	223	223	223	241
242	299	incident	incident	incident	7	nopreview	19	314	311	103	1787	103	311	208
243	300	occurred	occurred	occurred	7	nopreview	19	315	111	0	0	0	0	111
244	301	on	on	on	7	nopreview	19	316	105	105	216	105	105	0
245	302	March	March	March	7	nopreview	19	317	167	167	167	167	167	0
246	303	15	15	15	7	nopreview	19	318	0	0	0	0	0	0
247	304	when	when	when	7	nopreview	19	319	181	181	181	181	181	0
248	305	@entity4	Torpedo	Torpedo	7	nopreview	19	320	146	146	146	146	146	0
249	306	fans	fans	fans	7	nopreview	19	321	136	136	136	136	136	0
250	307	abused	abused	abused	7	nopreview	19	322	124	0	0	0	0	124
251	308	@entity73	Zenit	Zenit	7	nopreview	19	323	311	115	435	115	311	196
252			St	St	7	nopreview	19	324	218	0	0	0	0	218
253			Petersburg	Petersburg-s	7	nopreview	19	325	797	185	185	185	185	612
	309	-s	-s		7	nopreview	19	326						
254	310	@entity72	Brazilian	Brazilian	7	nopreview	19	327	919	453	453	453	453	466
255	311	forward	forward	forward	7	nopreview	19	328	689	277	1985	277	689	412
256	312	@entity71	Hulk	Hulk.	7	nopreview	19	329	352	352	352	99	352	0
	313	.	.		7	nopreview	19	330						
257	314	The	The	The	7	nopreview	19	331	0	0	0	0	0	0
258	315	side	side	side	7	nopreview	19	332	627	627	627	125	627	0
259	316	were	were	were	7	nopreview	19	333	0	0	0	0	0	0
260	317	sanctioned	sanctioned	sanctioned	7	nopreview	19	334	246	246	246	246	246	0
261	318	by	by	by	7	nopreview	19	335	222	0	0	0	0	222
262	319	having	having	having	7	nopreview	19	336	145	145	145	145	145	0
263	320	to	to	to	7	nopreview	19	337	203	0	0	0	0	203
264	321	play	play	play	7	nopreview	19	338	185	185	185	185	185	0
265	322	two	two	two	7	nopreview	19	339	0	0	0	0	0	0
266	323	matches	matches	matches	7	nopreview	19	340	341	186	766	186	341	155
267	324	behind	behind	behind	7	nopreview	19	341	345	139	139	139	139	206
268	325	closed	closed	closed	7	nopreview	19	342	162	0	0	0	0	162
269	326	doors	doors	doors.	7	nopreview	19	343	144	144	512	144	144	0
	327	.	.		7	nopreview	19	344						
270	328	@entity4	Torpedo	Torpedo	7	nopreview	19	345	375	0	0	0	0	375
271	329	are	are	are	7	nopreview	19	346	138	0	0	0	0	138
272	330	currently	currently	currently	7	nopreview	19	347	179	0	0	0	0	179
273	331	in	in	in	7	nopreview	19	348	148	0	0	0	0	148
274	332	12th	12th	12th	7	nopreview	19	349	482	87	746	87	293	395
275	333	place	place	place	7	nopreview	19	350	0	0	0	0	0	0
276	334	in	in	in	7	nopreview	19	351	0	0	0	0	0	0
277	335	the	the	the	7	nopreview	19	352	0	0	0	0	0	0
278	336	@entity2	Russian	Russian	7	nopreview	19	353	210	210	210	210	210	0
279			Premier	Premier	7	nopreview	19	354	185	185	185	185	185	0
280			League	League	7	nopreview	19	355	0	0	0	0	0	0
281	337	table	table	table	7	nopreview	19	356	573	573	573	178	573	0
282	338	with	with	with	7	nopreview	19	357	211	0	0	0	0	211
283	339	19	19	19	7	nopreview	19	358	133	133	133	133	133	0
284	340	points	points	points,	7	nopreview	19	359	258	258	258	102	258	0
	341	,	,		7	nopreview	19	360						
285	342	while	while	while	7	nopreview	19	361	151	0	0	0	0	151
286	343	@entity3	Arsenal	Arsenal	7	nopreview	19	362	136	136	287	136	136	0
287			Tula	Tula	7	nopreview	19	363	97	97	97	97	97	0
288	344	are	are	are	7	nopreview	19	364	152	0	0	0	0	152
289	345	one	one	one	7	nopreview	19	365	0	0	0	0	0	0
290	346	place	place	place	7	nopreview	19	366	419	419	571	116	419	0
291	347	off	off	off	7	nopreview	19	367	106	0	0	0	0	106
292	348	the	the	the	7	nopreview	19	368	0	0	0	0	0	0
293	349	bottom	bottom	bottom	7	nopreview	19	369	148	148	254	148	148	0
294	350	with	with	with	7	nopreview	19	370	0	0	0	0	0	0
295	351	14	14	14	7	nopreview	19	371	420	420	1207	204	420	0
296	352	points	points	points.	7	nopreview	19	372	0	0	0	0	0	0
	353	.	.		7	nopreview	19	373						
