HumanPosition	AnonymizedPosition	AnonymizedToken	OriginalToken	ExperimentToken	Participant	Condition	TextNo	JointPosition	tt	fp	rp	ff	rb	sp
1	0	(	(	The	7	nopreview	6	1	0	0	0	0	0	0
2	1	@entity0	CNN	underwater	7	nopreview	6	2	258	258	258	137	258	0
	2	)	)		7	nopreview	6	3						
	3	The	The		7	nopreview	6	4						
	4	underwater	underwater		7	nopreview	6	5						
3	5	search	search	search	7	nopreview	6	6	178	178	178	178	178	0
4	6	area	area	area	7	nopreview	6	7	127	127	127	127	127	0
5	7	for	for	for	7	nopreview	6	8	0	0	563	0	0	0
6	8	missing	missing	missing	7	nopreview	6	9	208	208	208	208	208	0
7	9	@entity2	Malaysia	Malaysia	7	nopreview	6	10	153	0	0	0	0	153
8			Airlines	Airlines	7	nopreview	6	11	203	122	275	122	122	81
9			Flight	Flight	7	nopreview	6	12	165	165	246	165	165	0
10			370	370	7	nopreview	6	13	160	0	0	0	0	160
11	10	looks	looks	looks	7	nopreview	6	14	971	177	666	177	506	794
12	11	set	set	set	7	nopreview	6	15	124	0	0	0	0	124
13	12	to	to	to	7	nopreview	6	16	435	201	201	201	201	234
14	13	double	double	double	7	nopreview	6	17	99	0	0	0	0	99
15	14	in	in	in	7	nopreview	6	18	0	0	0	0	0	0
16	15	size	size	size.	7	nopreview	6	19	105	105	1027	105	105	0
	16	.	.		7	nopreview	6	20						
17	17	Teams	Teams	Teams	7	nopreview	6	21	186	0	0	0	0	186
18	18	are	are	are	7	nopreview	6	22	157	0	0	0	0	157
19	19	scouring	scouring	scouring	7	nopreview	6	23	746	140	852	140	509	606
20	20	the	the	the	7	nopreview	6	24	0	0	0	0	0	0
21	21	depths	depths	depths	7	nopreview	6	25	422	284	659	139	422	138
22	22	of	of	of	7	nopreview	6	26	0	0	0	0	0	0
23	23	a	a	a	7	nopreview	6	27	0	0	0	0	0	0
24	24	remote	remote	remote	7	nopreview	6	28	181	181	181	181	181	0
25	25	part	part	part	7	nopreview	6	29	139	139	139	139	139	0
26	26	of	of	of	7	nopreview	6	30	0	0	0	0	0	0
27	27	the	the	the	7	nopreview	6	31	0	0	0	0	0	0
28	28	southern	southern	southern	7	nopreview	6	32	0	0	0	0	0	0
29	29	@entity7	Indian	Indian	7	nopreview	6	33	140	140	140	140	140	0
30			Ocean	Ocean	7	nopreview	6	34	171	171	171	171	171	0
31	30	for	for	for	7	nopreview	6	35	373	0	0	0	0	373
32	31	the	the	the	7	nopreview	6	36	0	0	171	0	0	0
33	32	remains	remains	remains	7	nopreview	6	37	119	119	492	119	119	0
34	33	of	of	of	7	nopreview	6	38	0	0	0	0	0	0
35	34	the	the	the	7	nopreview	6	39	191	191	191	191	191	0
36	35	passenger	passenger	passenger	7	nopreview	6	40	114	114	114	114	114	0
37	36	jet	jet	jet	7	nopreview	6	41	0	0	0	0	0	0
38	37	that	that	that	7	nopreview	6	42	161	0	0	0	0	161
39	38	disappeared	disappeared	disappeared	7	nopreview	6	43	144	144	305	144	144	0
40	39	more	more	more	7	nopreview	6	44	0	0	0	0	0	0
41	40	than	than	than	7	nopreview	6	45	238	238	238	238	238	0
42	41	a	a	a	7	nopreview	6	46	0	0	0	0	0	0
43	42	year	year	year	7	nopreview	6	47	172	172	172	172	172	0
44	43	ago	ago	ago	7	nopreview	6	48	0	0	0	0	0	0
45	44	with	with	with	7	nopreview	6	49	228	228	228	228	228	0
46	45	239	239	239	7	nopreview	6	50	0	0	0	0	0	0
47	46	people	people	people	7	nopreview	6	51	197	197	197	197	197	0
48	47	on	on	on	7	nopreview	6	52	0	0	0	0	0	0
49	48	board	board	board.	7	nopreview	6	53	212	212	212	212	212	0
	49	.	.		7	nopreview	6	54						
50	50	So	So	So	7	nopreview	6	55	104	0	0	0	0	104
51	51	far	far	far,	7	nopreview	6	56	191	191	295	191	191	0
	52	,	,		7	nopreview	6	57						
52	53	they	they	they-ve	7	nopreview	6	58	0	0	0	0	0	0
	54	-ve	-ve		7	nopreview	6	59						
53	55	covered	covered	covered	7	nopreview	6	60	166	166	166	166	166	0
54	56	about	about	about	7	nopreview	6	61	192	192	192	192	192	0
55	57	60	60	60%	7	nopreview	6	62	0	0	0	0	0	0
	58	%	%		7	nopreview	6	63						
56	59	of	of	of	7	nopreview	6	64	0	0	0	0	0	0
57	60	the	the	the	7	nopreview	6	65	103	103	103	103	103	0
58	61	priority	priority	priority	7	nopreview	6	66	191	0	0	0	0	191
59	62	search	search	search	7	nopreview	6	67	525	110	716	110	525	415
60	63	zone	zone	zone	7	nopreview	6	68	0	0	0	0	0	0
61	64	without	without	without	7	nopreview	6	69	279	0	0	0	0	279
62	65	reporting	reporting	reporting	7	nopreview	6	70	540	214	214	214	214	326
63	66	any	any	any	7	nopreview	6	71	266	0	0	0	0	266
64	67	trace	trace	trace	7	nopreview	6	72	117	117	117	117	117	0
65	68	of	of	of	7	nopreview	6	73	0	0	0	0	0	0
66	69	the	the	the	7	nopreview	6	74	190	0	0	0	0	190
67	70	airliner	airliner	airliner.	7	nopreview	6	75	98	98	1059	98	98	0
	71	.	.		7	nopreview	6	76						
68	72	Families	Families	Families	7	nopreview	6	77	754	0	0	0	0	754
69	73	of	of	of	7	nopreview	6	78	109	109	229	109	109	0
70	74	passengers	passengers	passengers	7	nopreview	6	79	1235	141	141	141	141	1094
71	75	and	and	and	7	nopreview	6	80	0	0	0	0	0	0
72	76	crew	crew	crew	7	nopreview	6	81	538	161	2122	161	394	377
73	77	members	members	members	7	nopreview	6	82	128	128	372	128	128	0
74	78	still	still	still	7	nopreview	6	83	0	0	0	0	0	0
75	79	have	have	have	7	nopreview	6	84	186	186	186	186	186	0
76	80	no	no	no	7	nopreview	6	85	0	0	0	0	0	0
77	81	answers	answers	answers	7	nopreview	6	86	229	229	229	229	229	0
78	82	about	about	about	7	nopreview	6	87	285	285	285	184	285	0
79	83	what	what	what	7	nopreview	6	88	0	0	0	0	0	0
80	84	happened	happened	happened	7	nopreview	6	89	177	177	177	177	177	0
81	85	to	to	to	7	nopreview	6	90	0	0	0	0	0	0
82	86	their	their	their	7	nopreview	6	91	152	152	152	152	152	0
83	87	loved	loved	loved	7	nopreview	6	92	209	209	209	209	209	0
84	88	ones	ones	ones.	7	nopreview	6	93	0	0	0	0	0	0
	89	.	.		7	nopreview	6	94						
85	90	If	If	If	7	nopreview	6	95	0	0	0	0	0	0
86	91	the	the	the	7	nopreview	6	96	260	260	260	178	260	0
87	92	searchers	searchers	searchers	7	nopreview	6	97	201	201	201	201	201	0
88	93	have	have	haven-t	7	nopreview	6	98	241	0	0	0	0	241
	94	n-t	n-t		7	nopreview	6	99						
89	95	found	found	found	7	nopreview	6	100	127	0	0	0	0	127
90	96	anything	anything	anything	7	nopreview	6	101	222	87	590	87	222	135
91	97	by	by	by	7	nopreview	6	102	0	0	0	0	0	0
92	98	the	the	the	7	nopreview	6	103	0	0	0	0	0	0
93	99	time	time	time	7	nopreview	6	104	141	141	141	141	141	0
94	100	they	they	they-ve	7	nopreview	6	105	0	0	0	0	0	0
	101	-ve	-ve		7	nopreview	6	106						
95	102	covered	covered	covered	7	nopreview	6	107	428	180	180	180	180	248
96	103	the	the	the	7	nopreview	6	108	0	0	0	0	0	0
97	104	entire	entire	entire	7	nopreview	6	109	350	190	190	190	190	160
98	105	60,000	60,000	60,000-square-kilometer	7	nopreview	6	110	493	96	901	96	493	397
	106	-	-		7	nopreview	6	111						
	107	square	square		7	nopreview	6	112						
	108	-	-		7	nopreview	6	113						
	109	kilometer	kilometer		7	nopreview	6	114						
99	110	priority	priority	priority	7	nopreview	6	115	178	0	0	0	0	178
100	111	zone	zone	zone,	7	nopreview	6	116	119	119	297	119	119	0
	112	,	,		7	nopreview	6	117						
101	113	the	the	the	7	nopreview	6	118	0	0	0	0	0	0
102	114	search	search	search	7	nopreview	6	119	330	330	330	160	330	0
103	115	will	will	will	7	nopreview	6	120	0	0	0	0	0	0
104	116	stretch	stretch	stretch	7	nopreview	6	121	161	161	161	161	161	0
105	117	into	into	into	7	nopreview	6	122	0	0	0	0	0	0
106	118	a	a	a	7	nopreview	6	123	0	0	0	0	0	0
107	119	new	new	new	7	nopreview	6	124	620	132	132	132	132	488
108	120	equally	equally	equally	7	nopreview	6	125	590	178	259	178	178	412
109	121	vast	vast	vast	7	nopreview	6	126	407	237	1226	237	407	170
110	122	area	area	area,	7	nopreview	6	127	0	0	0	0	0	0
	123	,	,		7	nopreview	6	128						
111	124	government	government	government	7	nopreview	6	129	202	202	202	202	202	0
112	125	officials	officials	officials	7	nopreview	6	130	254	254	254	147	254	0
113	126	from	from	from	7	nopreview	6	131	0	0	0	0	0	0
114	127	@entity23	Malaysia	Malaysia,	7	nopreview	6	132	144	144	144	144	144	0
	128	,	,		7	nopreview	6	133						
115	129	@entity24	Australia	Australia	7	nopreview	6	134	135	135	135	135	135	0
116	130	and	and	and	7	nopreview	6	135	0	0	0	0	0	0
117	131	@entity25	China	China	7	nopreview	6	136	0	0	0	0	0	0
118	132	announced	announced	announced	7	nopreview	6	137	140	140	140	140	140	0
119	133	Thursday	Thursday	Thursday.	7	nopreview	6	138	122	122	122	122	122	0
	134	.	.		7	nopreview	6	139						
120	135	-	-	-Ministers	7	nopreview	6	140	224	224	224	224	224	0
	136	Ministers	Ministers		7	nopreview	6	141						
121	137	remain	remain	remain	7	nopreview	6	142	114	114	114	114	114	0
122	138	committed	committed	committed	7	nopreview	6	143	241	241	241	122	241	0
123	139	to	to	to	7	nopreview	6	144	0	0	0	0	0	0
124	140	bring	bring	bring	7	nopreview	6	145	179	179	179	179	179	0
125	141	closure	closure	closure	7	nopreview	6	146	0	0	0	0	0	0
126	142	and	and	and	7	nopreview	6	147	0	0	0	0	0	0
127	143	some	some	some	7	nopreview	6	148	129	0	0	0	0	129
128	144	peace	peace	peace	7	nopreview	6	149	415	257	386	257	257	158
129	145	to	to	to	7	nopreview	6	150	0	0	0	0	0	0
130	146	the	the	the	7	nopreview	6	151	0	0	0	0	0	0
131	147	families	families	families	7	nopreview	6	152	199	199	357	199	199	0
132	148	and	and	and	7	nopreview	6	153	0	0	0	0	0	0
133	149	loved	loved	loved	7	nopreview	6	154	208	208	208	208	208	0
134	150	ones	ones	ones	7	nopreview	6	155	144	144	144	144	144	0
135	151	of	of	of	7	nopreview	6	156	0	0	0	0	0	0
136	152	those	those	those	7	nopreview	6	157	166	166	166	166	166	0
137	153	on	on	on	7	nopreview	6	158	0	0	0	0	0	0
138	154	board	board	board	7	nopreview	6	159	137	0	0	0	0	137
139	155	@entity2	Malaysia	Malaysia	7	nopreview	6	160	132	132	269	132	132	0
140			Airlines	Airlines	7	nopreview	6	161	166	166	166	166	166	0
141			Flight	Flight	7	nopreview	6	162	166	166	166	166	166	0
142			MH370	MH370,-	7	nopreview	6	163	740	283	283	283	283	457
	156	,	,		7	nopreview	6	164						
	157	-	-		7	nopreview	6	165						
143	158	the	the	the	7	nopreview	6	166	0	0	0	0	0	0
144	159	three	three	three	7	nopreview	6	167	359	0	0	0	0	359
145	160	countries	countries	countries	7	nopreview	6	168	346	169	1162	169	346	177
146	161	said	said	said	7	nopreview	6	169	0	0	0	0	0	0
147	162	in	in	in	7	nopreview	6	170	338	179	179	179	179	159
148	163	a	a	a	7	nopreview	6	171	0	0	0	0	0	0
149	164	joint	joint	joint	7	nopreview	6	172	140	0	0	0	0	140
150	165	statement	statement	statement.	7	nopreview	6	173	144	144	443	144	144	0
	166	.	.		7	nopreview	6	174						
151	167	The	The	The	7	nopreview	6	175	0	0	0	0	0	0
152	168	search	search	search	7	nopreview	6	176	144	0	0	0	0	144
153	169	of	of	of	7	nopreview	6	177	0	0	0	0	0	0
154	170	the	the	the	7	nopreview	6	178	0	0	0	0	0	0
155	171	current	current	current	7	nopreview	6	179	174	0	0	0	0	174
156	172	priority	priority	priority	7	nopreview	6	180	120	0	0	0	0	120
157	173	zone	zone	zone	7	nopreview	6	181	0	0	0	0	0	0
158	174	is	is	is	7	nopreview	6	182	0	0	0	0	0	0
159	175	expected	expected	expected	7	nopreview	6	183	300	0	0	0	0	300
160	176	to	to	to	7	nopreview	6	184	0	0	0	0	0	0
161	177	be	be	be	7	nopreview	6	185	0	0	0	0	0	0
162	178	completed	completed	completed	7	nopreview	6	186	436	0	0	0	0	436
163	179	in	in	in	7	nopreview	6	187	178	0	0	0	0	178
164	180	May	May	May.	7	nopreview	6	188	353	0	0	0	0	353
	181	.	.		7	nopreview	6	189						
165	182	Covering	Covering	Covering	7	nopreview	6	190	890	0	0	0	0	890
166	183	the	the	the	7	nopreview	6	191	0	0	0	0	0	0
167	184	new	new	new	7	nopreview	6	192	233	0	0	0	0	233
168	185	zone	zone	zone	7	nopreview	6	193	211	0	0	0	0	211
169	186	could	could	could	7	nopreview	6	194	285	135	2730	135	135	150
170	187	take	take	take	7	nopreview	6	195	101	101	695	101	101	0
171	188	as	as	as	7	nopreview	6	196	0	0	0	0	0	0
172	189	long	long	long	7	nopreview	6	197	349	349	349	225	349	0
173	190	as	as	as	7	nopreview	6	198	0	0	0	0	0	0
174	191	a	a	a	7	nopreview	6	199	168	168	168	168	168	0
175	192	year	year	year.	7	nopreview	6	200	0	0	0	0	0	0
	193	.	.		7	nopreview	6	201						
176	194	At	At	At	7	nopreview	6	202	189	0	0	0	0	189
177	195	that	that	that	7	nopreview	6	203	483	0	0	0	0	483
178	196	point	point	point,	7	nopreview	6	204	323	148	995	148	323	175
	197	,	,		7	nopreview	6	205						
179	198	-	-	-all	7	nopreview	6	206	152	152	152	152	152	0
	199	all	all		7	nopreview	6	207						
180	200	high	high	high	7	nopreview	6	208	249	249	249	249	249	0
181	201	probability	probability	probability	7	nopreview	6	209	765	765	765	469	765	0
182	202	search	search	search	7	nopreview	6	210	116	0	0	0	0	116
183	203	areas	areas	areas	7	nopreview	6	211	0	0	0	0	0	0
184	204	would	would	would	7	nopreview	6	212	149	0	0	0	0	149
185	205	have	have	have	7	nopreview	6	213	85	85	350	85	85	0
186	206	been	been	been	7	nopreview	6	214	0	0	0	0	0	0
187	207	covered	covered	covered,-	7	nopreview	6	215	188	188	188	188	188	0
	208	,	,		7	nopreview	6	216						
	209	-	-		7	nopreview	6	217						
188	210	the	the	the	7	nopreview	6	218	0	0	0	0	0	0
189	211	governments	governments	governments	7	nopreview	6	219	199	199	199	199	199	0
190	212	said	said	said	7	nopreview	6	220	0	0	0	0	0	0
191	213	Thursday	Thursday	Thursday.	7	nopreview	6	221	206	206	206	206	206	0
	214	.	.		7	nopreview	6	222						
192	215	The	The	The	7	nopreview	6	223	0	0	0	0	0	0
193	216	size	size	size	7	nopreview	6	224	211	211	211	211	211	0
194	217	of	of	of	7	nopreview	6	225	111	111	111	111	111	0
195	218	the	the	the	7	nopreview	6	226	0	0	0	0	0	0
196	219	doubled	doubled	doubled	7	nopreview	6	227	103	0	0	0	0	103
197	220	search	search	search	7	nopreview	6	228	252	96	355	96	252	156
198	221	area	area	area,	7	nopreview	6	229	0	0	0	0	0	0
	222	,	,		7	nopreview	6	230						
199	223	the	the	the	7	nopreview	6	231	0	0	0	0	0	0
200	224	equivalent	equivalent	equivalent	7	nopreview	6	232	270	270	270	270	270	0
201	225	of	of	of	7	nopreview	6	233	0	0	0	0	0	0
202	226	more	more	more	7	nopreview	6	234	0	0	0	0	0	0
203	227	than	than	than	7	nopreview	6	235	176	176	176	176	176	0
204	228	46,000	46,000	46,000	7	nopreview	6	236	243	0	0	0	0	243
205	229	square	square	square	7	nopreview	6	237	193	193	436	193	193	0
206	230	miles	miles	miles,	7	nopreview	6	238	0	0	0	0	0	0
	231	,	,		7	nopreview	6	239						
207	232	would	would	would	7	nopreview	6	240	271	0	0	0	0	271
208	233	be	be	be	7	nopreview	6	241	100	0	0	0	0	100
209	234	bigger	bigger	bigger	7	nopreview	6	242	138	138	509	138	138	0
210	235	than	than	than	7	nopreview	6	243	135	0	0	0	0	135
211	236	the	the	the	7	nopreview	6	244	216	0	0	0	0	216
212	237	@entity50	U.S.	U.S.	7	nopreview	6	245	0	0	0	0	0	0
213	238	state	state	state	7	nopreview	6	246	191	98	314	98	98	93
214	239	of	of	of	7	nopreview	6	247	0	0	0	0	0	0
215	240	@entity51	Pennsylvania	Pennsylvania.	7	nopreview	6	248	139	139	367	139	139	0
	241	.	.		7	nopreview	6	249						
216	242	Flight	Flight	Flight	7	nopreview	6	250	542	196	196	196	196	346
217	243	370	370	370	7	nopreview	6	251	135	0	0	0	0	135
218	244	vanished	vanished	vanished	7	nopreview	6	252	826	216	216	216	216	610
219	245	after	after	after	7	nopreview	6	253	439	0	0	0	0	439
220	246	taking	taking	taking	7	nopreview	6	254	320	132	1579	132	320	188
221	247	off	off	off	7	nopreview	6	255	0	0	0	0	0	0
222	248	from	from	from	7	nopreview	6	256	201	201	472	201	201	0
223	249	@entity53	Kuala	Kuala	7	nopreview	6	257	238	238	238	238	238	0
224			Lumpur	Lumpur,	7	nopreview	6	258	143	0	0	0	0	143
	250	,	,		7	nopreview	6	259						
225	251	@entity23	Malaysia	Malaysia,	7	nopreview	6	260	290	107	433	107	290	183
	252	,	,		7	nopreview	6	261						
226	253	on	on	on	7	nopreview	6	262	0	0	0	0	0	0
227	254	March	March	March	7	nopreview	6	263	157	157	157	157	157	0
228	255	8	8	8,	7	nopreview	6	264	0	0	0	0	0	0
	256	,	,		7	nopreview	6	265						
229	257	2014	2014	2014,	7	nopreview	6	266	184	184	184	184	184	0
	258	,	,		7	nopreview	6	267						
230	259	bound	bound	bound	7	nopreview	6	268	244	0	0	0	0	244
231	260	for	for	for	7	nopreview	6	269	0	0	0	0	0	0
232	261	@entity54	Beijing	Beijing.	7	nopreview	6	270	364	170	608	170	364	194
	262	.	.		7	nopreview	6	271						
233	263	Officials	Officials	Officials	7	nopreview	6	272	221	221	221	221	221	0
234	264	are	are	are	7	nopreview	6	273	0	0	0	0	0	0
235	265	still	still	still	7	nopreview	6	274	531	233	233	233	233	298
236	266	trying	trying	trying	7	nopreview	6	275	843	173	1141	173	843	670
237	267	to	to	to	7	nopreview	6	276	0	0	0	0	0	0
238	268	figure	figure	figure	7	nopreview	6	277	386	202	202	202	202	184
239	269	out	out	out	7	nopreview	6	278	0	0	0	0	0	0
240	270	why	why	why	7	nopreview	6	279	1406	0	0	0	0	1406
241	271	it	it	it	7	nopreview	6	280	996	0	202	0	0	996
242	272	veered	veered	veered	7	nopreview	6	281	285	115	649	115	115	170
243	273	dramatically	dramatically	dramatically	7	nopreview	6	282	799	163	163	163	163	636
244	274	off	off	off	7	nopreview	6	283	0	0	0	0	0	0
245	275	course	course	course	7	nopreview	6	284	586	152	152	152	152	434
246	276	over	over	over	7	nopreview	6	285	181	0	0	0	0	181
247	277	the	the	the	7	nopreview	6	286	383	0	0	0	0	383
248	278	sea	sea	sea	7	nopreview	6	287	314	0	0	0	0	314
249	279	between	between	between	7	nopreview	6	288	394	225	4564	225	394	169
250	280	@entity23	Malaysia	Malaysia	7	nopreview	6	289	287	287	287	141	287	0
251	281	and	and	and	7	nopreview	6	290	0	0	0	0	0	0
252	282	@entity58	Vietnam	Vietnam	7	nopreview	6	291	332	332	332	112	332	0
253	283	and	and	and	7	nopreview	6	292	0	0	0	0	0	0
254	284	where	where	where	7	nopreview	6	293	169	0	0	0	0	169
255	285	exactly	exactly	exactly	7	nopreview	6	294	163	163	332	163	163	0
256	286	it	it	it	7	nopreview	6	295	0	0	0	0	0	0
257	287	ended	ended	ended	7	nopreview	6	296	237	237	237	237	237	0
258	288	up	up	up.	7	nopreview	6	297	0	0	0	0	0	0
	289	.	.		7	nopreview	6	298						
259	290	An	An	An	7	nopreview	6	299	0	0	0	0	0	0
260	291	international	international	international	7	nopreview	6	300	518	518	518	227	518	0
261	292	team	team	team	7	nopreview	6	301	0	0	0	0	0	0
262	293	of	of	of	7	nopreview	6	302	136	136	136	136	136	0
263	294	experts	experts	experts	7	nopreview	6	303	169	169	169	169	169	0
264	295	used	used	used	7	nopreview	6	304	107	107	107	107	107	0
265	296	satellite	satellite	satellite	7	nopreview	6	305	244	244	244	117	244	0
266	297	data	data	data	7	nopreview	6	306	0	0	0	0	0	0
267	298	to	to	to	7	nopreview	6	307	167	167	167	167	167	0
268	299	calculate	calculate	calculate	7	nopreview	6	308	174	174	174	174	174	0
269	300	that	that	that	7	nopreview	6	309	0	0	0	0	0	0
270	301	the	the	the	7	nopreview	6	310	0	0	0	0	0	0
271	302	plane	plane	plane	7	nopreview	6	311	159	159	159	159	159	0
272	303	eventually	eventually	eventually	7	nopreview	6	312	120	120	120	120	120	0
273	304	went	went	went	7	nopreview	6	313	0	0	0	0	0	0
274	305	down	down	down	7	nopreview	6	314	189	189	189	189	189	0
275	306	in	in	in	7	nopreview	6	315	0	0	0	0	0	0
276	307	the	the	the	7	nopreview	6	316	0	0	0	0	0	0
277	308	southern	southern	southern	7	nopreview	6	317	195	195	195	195	195	0
278	309	@entity7	Indian	Indian	7	nopreview	6	318	239	0	0	0	0	239
279			Ocean	Ocean,	7	nopreview	6	319	111	0	0	0	0	111
	310	,	,		7	nopreview	6	320						
280	311	far	far	far	7	nopreview	6	321	0	0	0	0	0	0
281	312	off	off	off	7	nopreview	6	322	126	0	0	0	0	126
282	313	the	the	the	7	nopreview	6	323	0	0	0	0	0	0
283	314	coast	coast	coast	7	nopreview	6	324	154	154	265	154	154	0
284	315	of	of	of	7	nopreview	6	325	0	0	0	0	0	0
285	316	@entity24	Western	Western	7	nopreview	6	326	160	0	0	0	0	160
286			Australia	Australia.	7	nopreview	6	327	0	0	0	0	0	0
	317	.	.		7	nopreview	6	328						
287	318	The	The	The	7	nopreview	6	329	181	181	181	181	181	0
288	319	people	people	people	7	nopreview	6	330	518	0	0	0	0	518
289	320	on	on	on	7	nopreview	6	331	0	0	0	0	0	0
290	321	board	board	board	7	nopreview	6	332	450	155	251	155	155	295
291	322	the	the	the	7	nopreview	6	333	0	0	0	0	0	0
292	323	@entity64	Boeing	Boeing	7	nopreview	6	334	142	142	142	142	142	0
293			777	777	7	nopreview	6	335	0	0	0	0	0	0
294	324	came	came	came	7	nopreview	6	336	447	0	0	0	0	447
295	325	from	from	from	7	nopreview	6	337	0	0	0	0	0	0
296	326	various	various	various	7	nopreview	6	338	331	91	622	91	331	240
297	327	nations	nations	nations,	7	nopreview	6	339	140	140	296	140	140	0
	328	,	,		7	nopreview	6	340						
298	329	but	but	but	7	nopreview	6	341	0	0	0	0	0	0
299	330	the	the	the	7	nopreview	6	342	0	0	0	0	0	0
300	331	majority	majority	majority	7	nopreview	6	343	306	143	143	143	143	163
301	332	were	were	were	7	nopreview	6	344	0	0	0	0	0	0
302	333	@entity25	Chinese	Chinese.	7	nopreview	6	345	151	151	1556	151	151	0
	334	.	.		7	nopreview	6	346						
