HumanPosition	AnonymizedPosition	AnonymizedToken	OriginalToken	ExperimentToken	Participant	Condition	TextNo	JointPosition	tt	fp	rp	ff	rb	sp
1	0	(	(	The	6	nopreview	8	1	0	0	0	0	0	0
2	1	@entity3	CNN	accidental	6	nopreview	8	2	191	191	191	191	191	0
	2	)	)		6	nopreview	8	3						
	3	The	The		6	nopreview	8	4						
	4	accidental	accidental		6	nopreview	8	5						
3	5	death	death	death	6	nopreview	8	6	282	282	282	282	282	0
4	6	of	of	of	6	nopreview	8	7	0	0	0	0	0	0
5	7	a	a	a	6	nopreview	8	8	0	0	0	0	0	0
6	8	2	2	2-year-old	6	nopreview	8	9	451	451	451	297	451	0
	9	-	-		6	nopreview	8	10						
	10	year	year		6	nopreview	8	11						
	11	-	-		6	nopreview	8	12						
	12	old	old		6	nopreview	8	13						
7	13	boy	boy	boy	6	nopreview	8	14	471	471	471	297	471	0
8	14	in	in	in	6	nopreview	8	15	0	0	0	0	0	0
9	15	@entity2	Milwaukee	Milwaukee	6	nopreview	8	16	688	477	477	268	477	211
10	16	on	on	on	6	nopreview	8	17	0	0	0	0	0	0
11	17	Sunday	Sunday	Sunday	6	nopreview	8	18	739	456	456	191	456	283
12	18	triggered	triggered	triggered	6	nopreview	8	19	453	289	289	289	289	164
13	19	a	a	a	6	nopreview	8	20	0	0	0	0	0	0
14	20	violent	violent	violent	6	nopreview	8	21	246	246	246	246	246	0
15	21	chain	chain	chain	6	nopreview	8	22	369	369	369	369	369	0
16	22	of	of	of	6	nopreview	8	23	0	0	0	0	0	0
17	23	events	events	events,	6	nopreview	8	24	175	175	175	175	175	0
	24	,	,		6	nopreview	8	25						
18	25	eventually	eventually	eventually	6	nopreview	8	26	588	588	588	454	588	0
19	26	claiming	claiming	claiming	6	nopreview	8	27	536	221	221	221	221	315
20	27	the	the	the	6	nopreview	8	28	0	0	0	0	0	0
21	28	lives	lives	lives	6	nopreview	8	29	252	252	252	252	252	0
22	29	of	of	of	6	nopreview	8	30	0	0	0	0	0	0
23	30	three	three	three	6	nopreview	8	31	268	268	268	268	268	0
24	31	more	more	more	6	nopreview	8	32	301	301	301	301	301	0
25	32	people	people	people.	6	nopreview	8	33	0	0	0	0	0	0
	33	.	.		6	nopreview	8	34						
26	34	It	It	It	6	nopreview	8	35	0	0	0	0	0	0
27	35	all	all	all	6	nopreview	8	36	274	274	274	274	274	0
28	36	started	started	started	6	nopreview	8	37	194	194	194	194	194	0
29	37	with	with	with	6	nopreview	8	38	234	0	0	0	0	234
30	38	a	a	a	6	nopreview	8	39	117	117	351	117	117	0
31	39	birthday	birthday	birthday	6	nopreview	8	40	0	0	0	0	0	0
32	40	party	party	party	6	nopreview	8	41	241	241	241	241	241	0
33	41	that	that	that	6	nopreview	8	42	256	256	256	256	256	0
34	42	little	little	little	6	nopreview	8	43	174	0	0	0	0	174
35	43	@entity9	Damani	Damani	6	nopreview	8	44	1014	428	1188	234	1014	586
36			Terry	Terry	6	nopreview	8	45	243	243	243	243	243	0
37	44	was	was	was	6	nopreview	8	46	0	0	0	0	0	0
38	45	attending	attending	attending.	6	nopreview	8	47	308	308	308	308	308	0
	46	.	.		6	nopreview	8	48						
39	47	During	During	During	6	nopreview	8	49	256	256	256	256	256	0
40	48	the	the	the	6	nopreview	8	50	443	443	443	443	443	0
41	49	family	family	family	6	nopreview	8	51	0	0	0	0	0	0
42	50	gathering	gathering	gathering,	6	nopreview	8	52	292	292	292	112	292	0
	51	,	,		6	nopreview	8	53						
43	52	he	he	he	6	nopreview	8	54	0	0	0	0	0	0
44	53	dashed	dashed	dashed	6	nopreview	8	55	319	319	319	319	319	0
45	54	out	out	out	6	nopreview	8	56	240	240	240	240	240	0
46	55	into	into	into	6	nopreview	8	57	149	0	0	0	0	149
47	56	the	the	the	6	nopreview	8	58	162	162	311	162	162	0
48	57	street	street	street	6	nopreview	8	59	228	228	228	228	228	0
49	58	and	and	and	6	nopreview	8	60	0	0	0	0	0	0
50	59	was	was	was	6	nopreview	8	61	471	471	471	275	471	0
51	60	struck	struck	struck	6	nopreview	8	62	0	0	0	0	0	0
52	61	and	and	and	6	nopreview	8	63	0	0	0	0	0	0
53	62	killed	killed	killed	6	nopreview	8	64	441	441	441	252	441	0
54	63	by	by	by	6	nopreview	8	65	0	0	0	0	0	0
55	64	a	a	a	6	nopreview	8	66	0	0	0	0	0	0
56	65	@entity14	GMC	GMC	6	nopreview	8	67	1082	1082	1082	238	1082	0
57	66	van	van	van,	6	nopreview	8	68	157	157	157	157	157	0
	67	,	,		6	nopreview	8	69						
58	68	according	according	according	6	nopreview	8	70	336	336	336	140	336	0
59	69	to	to	to	6	nopreview	8	71	147	0	0	0	0	147
60	70	@entity2	Milwaukee	Milwaukee	6	nopreview	8	72	620	233	380	233	233	387
61	71	police	police	police.	6	nopreview	8	73	611	216	1757	216	397	395
	72	.	.		6	nopreview	8	74						
62	73	The	The	The	6	nopreview	8	75	0	0	0	0	0	0
63	74	distraught	distraught	distraught	6	nopreview	8	76	478	0	0	0	0	478
64	75	driver	driver	driver,	6	nopreview	8	77	303	0	0	0	0	303
	76	,	,		6	nopreview	8	78						
65	77	@entity16	Archie	Archie	6	nopreview	8	79	407	0	0	0	0	407
66			Brown	Brown	6	nopreview	8	80	242	0	0	0	0	242
67			Jr.	Jr.,	6	nopreview	8	81	236	0	0	0	0	236
	78	,	,		6	nopreview	8	82						
68	79	40	40	40,	6	nopreview	8	83	111	0	0	0	0	111
	80	,	,		6	nopreview	8	84						
69	81	immediately	immediately	immediately	6	nopreview	8	85	258	0	0	0	0	258
70	82	stopped	stopped	stopped	6	nopreview	8	86	221	0	0	0	0	221
71	83	and	and	and	6	nopreview	8	87	256	0	0	0	0	256
72	84	got	got	got	6	nopreview	8	88	0	0	0	0	0	0
73	85	out	out	out	6	nopreview	8	89	0	0	0	0	0	0
74	86	to	to	to	6	nopreview	8	90	381	134	3107	134	381	247
75	87	tend	tend	tend	6	nopreview	8	91	230	230	230	230	230	0
76	88	to	to	to	6	nopreview	8	92	190	0	0	0	0	190
77	89	the	the	the	6	nopreview	8	93	200	200	390	200	200	0
78	90	boy	boy	boy.	6	nopreview	8	94	0	0	0	0	0	0
	91	.	.		6	nopreview	8	95						
79	92	But	But	But	6	nopreview	8	96	0	0	0	0	0	0
80	93	it	it	it	6	nopreview	8	97	218	218	218	218	218	0
81	94	was	was	was	6	nopreview	8	98	0	0	0	0	0	0
82	95	too	too	too	6	nopreview	8	99	156	156	156	156	156	0
83	96	late	late	late,	6	nopreview	8	100	216	216	216	216	216	0
	97	,	,		6	nopreview	8	101						
84	98	police	police	police	6	nopreview	8	102	179	179	179	179	179	0
85	99	said	said	said.	6	nopreview	8	103	122	122	122	122	122	0
	100	.	.		6	nopreview	8	104						
86	101	@entity9	Damani	Damani	6	nopreview	8	105	535	293	293	116	293	242
87	102	was	was	was	6	nopreview	8	106	227	0	0	0	0	227
88	103	dead	dead	dead.	6	nopreview	8	107	359	197	828	197	359	162
	104	.	.		6	nopreview	8	108						
89	105	@entity9	Damani	Damani-s	6	nopreview	8	109	221	221	221	221	221	0
	106	-s	-s		6	nopreview	8	110						
90	107	alarmed	alarmed	alarmed	6	nopreview	8	111	387	387	387	387	387	0
91	108	family	family	family	6	nopreview	8	112	121	121	121	121	121	0
92	109	came	came	came	6	nopreview	8	113	0	0	0	0	0	0
93	110	running	running	running,	6	nopreview	8	114	282	282	282	282	282	0
	111	,	,		6	nopreview	8	115						
94	112	including	including	including	6	nopreview	8	116	237	237	237	237	237	0
95	113	his	his	his	6	nopreview	8	117	0	0	0	0	0	0
96	114	older	older	older	6	nopreview	8	118	295	295	295	295	295	0
97	115	brother	brother	brother,	6	nopreview	8	119	95	95	95	95	95	0
	116	,	,		6	nopreview	8	120						
98	117	15	15	15-year-old	6	nopreview	8	121	492	295	295	295	295	197
	118	-	-		6	nopreview	8	122						
	119	year	year		6	nopreview	8	123						
	120	-	-		6	nopreview	8	124						
	121	old	old		6	nopreview	8	125						
99	122	@entity22	Rasheed	Rasheed	6	nopreview	8	126	1105	491	491	310	491	614
100			Chiles	Chiles,	6	nopreview	8	127	868	246	1679	246	868	622
	123	,	,		6	nopreview	8	128						
101	124	police	police	police	6	nopreview	8	129	299	299	299	299	299	0
102	125	said	said	said.	6	nopreview	8	130	133	133	133	133	133	0
	126	.	.		6	nopreview	8	131						
103	127	That	That	That	6	nopreview	8	132	0	0	0	0	0	0
104	128	was	was	was	6	nopreview	8	133	231	231	231	231	231	0
105	129	not	not	not	6	nopreview	8	134	0	0	0	0	0	0
106	130	the	the	the	6	nopreview	8	135	233	233	233	233	233	0
107	131	end	end	end	6	nopreview	8	136	136	136	136	136	136	0
108	132	of	of	of	6	nopreview	8	137	0	0	0	0	0	0
109	133	the	the	the	6	nopreview	8	138	0	0	0	0	0	0
110	134	situation	situation	situation.	6	nopreview	8	139	300	300	300	300	300	0
	135	.	.		6	nopreview	8	140						
111	136	Soon	Soon	Soon,	6	nopreview	8	141	197	197	197	197	197	0
	137	,	,		6	nopreview	8	142						
112	138	two	two	two	6	nopreview	8	143	0	0	0	0	0	0
113	139	more	more	more	6	nopreview	8	144	426	426	426	426	426	0
114	140	people	people	people	6	nopreview	8	145	205	205	205	205	205	0
115	141	would	would	would	6	nopreview	8	146	245	245	245	245	245	0
116	142	also	also	also	6	nopreview	8	147	419	419	419	419	419	0
117	143	die	die	die:	6	nopreview	8	148	0	0	0	0	0	0
118	144	:	:	the	6	nopreview	8	149	0	0	0	0	0	0
119	145	the	the	driver	6	nopreview	8	150	272	272	272	150	272	0
	146	driver	driver		6	nopreview	8	151						
120	147	and	and	and	6	nopreview	8	152	0	0	0	0	0	0
121	148	the	the	the	6	nopreview	8	153	331	331	331	331	331	0
122	149	teen	teen	teen	6	nopreview	8	154	210	210	210	210	210	0
123	150	were	were	were	6	nopreview	8	155	313	313	313	313	313	0
124	151	both	both	both	6	nopreview	8	156	0	0	0	0	0	0
125	152	felled	felled	felled	6	nopreview	8	157	293	293	293	293	293	0
126	153	by	by	by	6	nopreview	8	158	0	0	0	0	0	0
127	154	bullets	bullets	bullets	6	nopreview	8	159	470	470	470	470	470	0
128	155	fired	fired	fired	6	nopreview	8	160	208	0	0	0	0	208
129	156	by	by	by	6	nopreview	8	161	107	107	315	107	107	0
130	157	the	the	the	6	nopreview	8	162	313	313	313	313	313	0
131	158	same	same	same	6	nopreview	8	163	186	186	186	186	186	0
132	159	man	man	man,	6	nopreview	8	164	0	0	0	0	0	0
	160	,	,		6	nopreview	8	165						
133	161	police	police	police	6	nopreview	8	166	254	254	254	254	254	0
134	162	said	said	said.	6	nopreview	8	167	224	224	224	224	224	0
	163	.	.		6	nopreview	8	168						
135	164	That	That	That	6	nopreview	8	169	0	0	0	0	0	0
136	165	man	man	man,	6	nopreview	8	170	268	268	268	268	268	0
	166	,	,		6	nopreview	8	171						
137	167	identified	identified	identified	6	nopreview	8	172	762	254	254	254	254	508
138	168	as	as	as	6	nopreview	8	173	0	0	0	0	0	0
139	169	@entity33	Ricky	Ricky	6	nopreview	8	174	390	155	898	155	390	235
140			Ricardo	Ricardo	6	nopreview	8	175	420	420	420	420	420	0
141			Chiles	Chiles	6	nopreview	8	176	409	409	409	84	409	0
142			III	III,	6	nopreview	8	177	224	224	224	224	224	0
	170	,	,		6	nopreview	8	178						
143	171	was	was	was	6	nopreview	8	179	164	0	0	0	0	164
144	172	located	located	located	6	nopreview	8	180	154	154	318	154	154	0
145	173	late	late	late	6	nopreview	8	181	366	0	0	0	0	366
146	174	Wednesday	Wednesday	Wednesday	6	nopreview	8	182	151	151	517	151	151	0
147	175	at	at	at	6	nopreview	8	183	0	0	0	0	0	0
148	176	a	a	a	6	nopreview	8	184	300	300	300	300	300	0
149	177	@entity35	Chicago	Chicago-area	6	nopreview	8	185	875	0	0	0	0	875
	178	-	-		6	nopreview	8	186						
	179	area	area		6	nopreview	8	187						
150	180	hotel	hotel	hotel.	6	nopreview	8	188	281	281	506	281	281	0
	181	.	.		6	nopreview	8	189						
151	182	He	He	He	6	nopreview	8	190	0	0	0	0	0	0
152	183	committed	committed	committed	6	nopreview	8	191	269	269	269	269	269	0
153	184	suicide	suicide	suicide	6	nopreview	8	192	454	239	239	239	239	215
154	185	as	as	as	6	nopreview	8	193	166	166	1031	166	166	0
155	186	authorities	authorities	authorities	6	nopreview	8	194	175	175	175	175	175	0
156	187	closed	closed	closed	6	nopreview	8	195	305	305	305	305	305	0
157	188	in	in	in	6	nopreview	8	196	0	0	0	0	0	0
158	189	with	with	with	6	nopreview	8	197	428	428	428	293	428	0
159	190	a	a	a	6	nopreview	8	198	0	0	0	0	0	0
160	191	warrant	warrant	warrant	6	nopreview	8	199	572	572	572	218	572	0
161	192	for	for	for	6	nopreview	8	200	0	0	0	0	0	0
162	193	his	his	his	6	nopreview	8	201	0	0	0	0	0	0
163	194	arrest	arrest	arrest,	6	nopreview	8	202	293	293	293	293	293	0
	195	,	,		6	nopreview	8	203						
164	196	@entity2	Milwaukee	Milwaukee	6	nopreview	8	204	243	243	243	243	243	0
165	197	Police	Police	Police	6	nopreview	8	205	554	326	326	326	326	228
166	198	Chief	Chief	Chief	6	nopreview	8	206	382	152	610	152	382	230
167	199	@entity36	Ed	Ed	6	nopreview	8	207	340	340	340	340	340	0
168			Flynn	Flynn	6	nopreview	8	208	146	146	146	146	146	0
169	200	told	told	told	6	nopreview	8	209	165	0	0	0	0	165
170	201	reporters	reporters	reporters.	6	nopreview	8	210	105	105	270	105	105	0
	202	.	.		6	nopreview	8	211						
171	203	-	-	-Chicago	6	nopreview	8	212	196	196	196	196	196	0
	204	@entity35	Chicago		6	nopreview	8	213						
172	205	police	police	police	6	nopreview	8	214	190	190	190	190	190	0
173	206	and	and	and	6	nopreview	8	215	0	0	0	0	0	0
174	207	@entity43	United	United	6	nopreview	8	216	314	314	314	314	314	0
175			States	States	6	nopreview	8	217	0	0	0	0	0	0
176			Marshals	Marshals	6	nopreview	8	218	243	243	243	243	243	0
177			Service	Service	6	nopreview	8	219	223	223	223	223	223	0
178	208	entered	entered	entered	6	nopreview	8	220	449	449	449	449	449	0
179	209	the	the	the	6	nopreview	8	221	0	0	0	0	0	0
180	210	hotel	hotel	hotel	6	nopreview	8	222	273	273	273	273	273	0
181	211	room	room	room,	6	nopreview	8	223	166	0	0	0	0	166
	212	,	,		6	nopreview	8	224						
182	213	whereupon	whereupon	whereupon	6	nopreview	8	225	434	126	600	126	434	308
183	214	Mr.	Mr.	Mr.	6	nopreview	8	226	295	295	295	295	295	0
184	215	@entity22	Chiles	Chiles	6	nopreview	8	227	578	0	0	0	0	578
185	216	took	took	took	6	nopreview	8	228	379	0	0	0	0	379
186	217	his	his	his	6	nopreview	8	229	150	150	1107	150	150	0
187	218	own	own	own	6	nopreview	8	230	185	185	185	185	185	0
188	219	life	life	life	6	nopreview	8	231	192	192	192	192	192	0
189	220	with	with	with	6	nopreview	8	232	257	0	0	0	0	257
190	221	his	his	his	6	nopreview	8	233	130	130	387	130	130	0
191	222	firearm	firearm	firearm,-	6	nopreview	8	234	198	198	198	198	198	0
	223	,	,		6	nopreview	8	235						
	224	-	-		6	nopreview	8	236						
192	225	the	the	the	6	nopreview	8	237	0	0	0	0	0	0
193	226	police	police	police	6	nopreview	8	238	273	273	273	273	273	0
194	227	chief	chief	chief	6	nopreview	8	239	257	257	257	257	257	0
195	228	said	said	said	6	nopreview	8	240	173	173	173	173	173	0
196	229	Thursday	Thursday	Thursday.	6	nopreview	8	241	570	570	570	570	570	0
	230	.	.		6	nopreview	8	242						
197	231	An	An	An	6	nopreview	8	243	0	0	0	0	0	0
198	232	accidental	accidental	accidental	6	nopreview	8	244	374	374	374	210	374	0
199	233	death	death	death,	6	nopreview	8	245	360	360	360	360	360	0
	234	,	,		6	nopreview	8	246						
200	235	a	a	a	6	nopreview	8	247	0	0	0	0	0	0
201	236	fatal	fatal	fatal	6	nopreview	8	248	340	340	340	340	340	0
202	237	retaliation	retaliation	retaliation	6	nopreview	8	249	869	519	519	351	519	350
203	238	rips	rips	rips	6	nopreview	8	250	432	432	782	432	432	0
204	239	apart	apart	apart	6	nopreview	8	251	588	588	588	144	588	0
205	240	two	two	two	6	nopreview	8	252	0	0	0	0	0	0
206	241	families	families	families	6	nopreview	8	253	355	355	355	355	355	0
207	242	@entity9	Damani	Damani-s	6	nopreview	8	254	675	425	425	271	425	250
	243	-s	-s		6	nopreview	8	255						
208	244	family	family	family	6	nopreview	8	256	360	360	360	156	360	0
209	245	members	members	members	6	nopreview	8	257	218	218	218	218	218	0
210	246	had	had	had	6	nopreview	8	258	145	0	0	0	0	145
211	247	previously	previously	previously	6	nopreview	8	259	179	179	324	179	179	0
212	248	identified	identified	identified	6	nopreview	8	260	188	188	188	188	188	0
213	249	the	the	the	6	nopreview	8	261	0	0	0	0	0	0
214	250	shooting	shooting	shooting	6	nopreview	8	262	267	267	267	267	267	0
215	251	suspect	suspect	suspect	6	nopreview	8	263	246	246	246	246	246	0
216	252	as	as	as	6	nopreview	8	264	0	0	0	0	0	0
217	253	the	the	the	6	nopreview	8	265	352	352	352	181	352	0
218	254	boys	boys	boys-	6	nopreview	8	266	491	0	0	0	0	491
	255	-	-		6	nopreview	8	267						
219	256	uncle	uncle	uncle.	6	nopreview	8	268	1538	279	2279	279	1538	1259
	257	.	.		6	nopreview	8	269						
220	258	-	-	-Sunday	6	nopreview	8	270	369	0	0	0	0	369
	259	Sunday	Sunday		6	nopreview	8	271						
221	260	was	was	was	6	nopreview	8	272	463	0	0	0	0	463
222	261	the	the	the	6	nopreview	8	273	115	115	583	115	115	0
223	262	worst	worst	worst	6	nopreview	8	274	257	257	257	257	257	0
224	263	day	day	day	6	nopreview	8	275	250	0	0	0	0	250
225	264	I	I	I	6	nopreview	8	276	334	334	334	334	334	0
226	265	ever	ever	ever	6	nopreview	8	277	616	616	616	363	616	0
227	266	lived	lived	lived	6	nopreview	8	278	218	218	218	218	218	0
228	267	in	in	in	6	nopreview	8	279	0	0	0	0	0	0
229	268	my	my	my	6	nopreview	8	280	371	371	371	371	371	0
230	269	whole	whole	whole	6	nopreview	8	281	0	0	0	0	0	0
231	270	entire	entire	entire	6	nopreview	8	282	735	346	346	346	346	389
232	271	life	life	life,-	6	nopreview	8	283	106	0	0	0	0	106
	272	,	,		6	nopreview	8	284						
	273	-	-		6	nopreview	8	285						
233	274	@entity54	Lena	Lena	6	nopreview	8	286	227	0	0	0	0	227
234			Tidwell	Tidwell,	6	nopreview	8	287	775	216	1497	216	775	559
	275	,	,		6	nopreview	8	288						
235	276	told	told	told	6	nopreview	8	289	202	202	202	202	202	0
236	277	@entity3	CNN	CNN	6	nopreview	8	290	0	0	0	0	0	0
237	278	affiliate	affiliate	affiliate	6	nopreview	8	291	1368	969	969	120	969	399
238	279	@entity55	WISN	WISN.	6	nopreview	8	292	2341	675	1289	675	675	1666
	280	.	.		6	nopreview	8	293						
239	281	-	-	-It-s	6	nopreview	8	294	474	164	2539	164	474	310
	282	It	It		6	nopreview	8	295						
	283	-s	-s		6	nopreview	8	296						
240	284	a	a	a	6	nopreview	8	297	0	0	0	0	0	0
241	285	day	day	day	6	nopreview	8	298	0	0	0	0	0	0
242	286	I	I	I	6	nopreview	8	299	181	181	181	181	181	0
243	287	wish	wish	wish	6	nopreview	8	300	322	0	0	0	0	322
244	288	had	had	had	6	nopreview	8	301	1135	198	198	198	198	937
245	289	never	never	never,	6	nopreview	8	302	557	207	362	207	207	350
	290	,	,		6	nopreview	8	303						
246	291	never	never	never	6	nopreview	8	304	664	168	2118	168	664	496
247	292	came	came	came.-	6	nopreview	8	305	166	166	166	166	166	0
	293	.	.		6	nopreview	8	306						
248	294	-	-	Tidwell	6	nopreview	8	307	312	312	312	312	312	0
	295	@entity54	Tidwell		6	nopreview	8	308						
249	296	is	is	is	6	nopreview	8	309	0	0	0	0	0	0
250	297	the	the	the	6	nopreview	8	310	554	554	554	201	554	0
251	298	boys	boys	boys-	6	nopreview	8	311	176	176	176	176	176	0
	299	-	-		6	nopreview	8	312						
252	300	grandmother	grandmother	grandmother	6	nopreview	8	313	309	309	309	91	309	0
253	301	and	and	and	6	nopreview	8	314	255	255	255	255	255	0
254	302	the	the	the	6	nopreview	8	315	276	276	276	276	276	0
255	303	mother	mother	mother	6	nopreview	8	316	0	0	0	0	0	0
256	304	of	of	of	6	nopreview	8	317	0	0	0	0	0	0
257	305	the	the	the	6	nopreview	8	318	207	207	207	207	207	0
258	306	alleged	alleged	alleged	6	nopreview	8	319	276	276	276	276	276	0
259	307	gunman	gunman	gunman.	6	nopreview	8	320	259	259	259	259	259	0
	308	.	.		6	nopreview	8	321						
260	309	She	She	She	6	nopreview	8	322	187	0	0	0	0	187
261	310	said	said	said	6	nopreview	8	323	466	255	653	255	466	211
262	311	she	she	she	6	nopreview	8	324	0	0	0	0	0	0
263	312	was	was	was	6	nopreview	8	325	250	250	250	250	250	0
264	313	inside	inside	inside	6	nopreview	8	326	350	350	350	131	350	0
265	314	eating	eating	eating	6	nopreview	8	327	335	335	335	335	335	0
266	315	cake	cake	cake	6	nopreview	8	328	124	124	124	124	124	0
267	316	and	and	and	6	nopreview	8	329	0	0	0	0	0	0
268	317	ice	ice	ice	6	nopreview	8	330	358	358	358	358	358	0
269	318	cream	cream	cream	6	nopreview	8	331	168	168	168	168	168	0
270	319	at	at	at	6	nopreview	8	332	167	0	0	0	0	167
271	320	the	the	the	6	nopreview	8	333	156	156	323	156	156	0
272	321	birthday	birthday	birthday	6	nopreview	8	334	0	0	0	0	0	0
273	322	when	when	when	6	nopreview	8	335	299	299	299	299	299	0
274	323	her	her	her	6	nopreview	8	336	245	245	245	245	245	0
275	324	life	life	life	6	nopreview	8	337	0	0	0	0	0	0
276	325	turned	turned	turned	6	nopreview	8	338	277	277	277	142	277	0
277	326	upside	upside	upside	6	nopreview	8	339	216	216	216	216	216	0
278	327	down	down	down.	6	nopreview	8	340	0	0	0	0	0	0
	328	.	.		6	nopreview	8	341						
279	329	-	-	-I	6	nopreview	8	342	0	0	0	0	0	0
	330	I	I		6	nopreview	8	343						
280	331	did	did	didn-t	6	nopreview	8	344	278	278	278	278	278	0
	332	n-t	n-t		6	nopreview	8	345						
281	333	know	know	know	6	nopreview	8	346	243	243	243	243	243	0
282	334	my	my	my	6	nopreview	8	347	239	239	239	239	239	0
283	335	grandbaby	grandbaby	grandbaby	6	nopreview	8	348	724	270	270	162	270	454
284	336	got	got	got	6	nopreview	8	349	552	167	1006	167	552	385
285	337	hit	hit	hit,	6	nopreview	8	350	0	0	0	0	0	0
	338	,	,		6	nopreview	8	351						
286	339	and	and	and	6	nopreview	8	352	0	0	0	0	0	0
287	340	then	then	then	6	nopreview	8	353	417	417	417	261	417	0
288	341	I	I	I	6	nopreview	8	354	0	0	0	0	0	0
289	342	heard	heard	heard	6	nopreview	8	355	207	207	207	207	207	0
290	343	people	people	people	6	nopreview	8	356	248	248	248	248	248	0
291	344	just	just	just	6	nopreview	8	357	0	0	0	0	0	0
292	345	screaming	screaming	screaming,-	6	nopreview	8	358	286	286	286	286	286	0
	346	,	,		6	nopreview	8	359						
	347	-	-		6	nopreview	8	360						
293	348	she	she	she	6	nopreview	8	361	0	0	0	0	0	0
294	349	said	said	said.	6	nopreview	8	362	305	305	305	305	305	0
	350	.	.		6	nopreview	8	363						
295	351	-	-	-Then	6	nopreview	8	364	624	624	624	624	624	0
	352	Then	Then		6	nopreview	8	365						
296	353	I	I	I	6	nopreview	8	366	0	0	0	0	0	0
297	354	just	just	just	6	nopreview	8	367	220	220	220	220	220	0
298	355	heard	heard	heard	6	nopreview	8	368	366	0	0	0	0	366
299	356	gunshots	gunshots	gunshots,	6	nopreview	8	369	220	86	586	86	220	134
	357	,	,		6	nopreview	8	370						
300	358	and	and	and	6	nopreview	8	371	305	305	305	305	305	0
301	359	my	my	my	6	nopreview	8	372	0	0	0	0	0	0
302	360	daughter	daughter	daughter	6	nopreview	8	373	0	0	0	0	0	0
303	361	ran	ran	ran	6	nopreview	8	374	161	0	0	0	0	161
304	362	in	in	in	6	nopreview	8	375	163	163	324	163	163	0
305	363	the	the	the	6	nopreview	8	376	286	286	286	286	286	0
306	364	house	house	house	6	nopreview	8	377	0	0	0	0	0	0
307	365	with	with	with	6	nopreview	8	378	232	232	232	232	232	0
308	366	the	the	the	6	nopreview	8	379	0	0	0	0	0	0
309	367	baby	baby	baby	6	nopreview	8	380	168	168	168	168	168	0
310	368	in	in	in	6	nopreview	8	381	0	0	0	0	0	0
311	369	her	her	her	6	nopreview	8	382	659	659	659	201	659	0
312	370	arms	arms	arms.-	6	nopreview	8	383	0	0	0	0	0	0
	371	.	.		6	nopreview	8	384						
313	372	-	-	The	6	nopreview	8	385	444	444	444	444	444	0
314	373	The	The	family	6	nopreview	8	386	289	289	289	186	289	0
	374	family	family		6	nopreview	8	387						
315	375	believes	believes	believes	6	nopreview	8	388	183	183	183	183	183	0
316	376	the	the	the	6	nopreview	8	389	0	0	0	0	0	0
317	377	uncle	uncle	uncle	6	nopreview	8	390	294	294	294	294	294	0
318	378	targeted	targeted	targeted	6	nopreview	8	391	511	511	511	209	511	0
319	379	@entity16	Brown	Brown,	6	nopreview	8	392	0	0	0	0	0	0
	380	,	,		6	nopreview	8	393						
320	381	and	and	and	6	nopreview	8	394	0	0	0	0	0	0
321	382	@entity22	Rasheed	Rasheed	6	nopreview	8	395	342	342	342	342	342	0
322	383	was	was	was	6	nopreview	8	396	0	0	0	0	0	0
323	384	struck	struck	struck	6	nopreview	8	397	346	346	346	346	346	0
324	385	by	by	by	6	nopreview	8	398	217	217	217	217	217	0
325	386	an	an	an	6	nopreview	8	399	0	0	0	0	0	0
326	387	errant	errant	errant	6	nopreview	8	400	315	315	315	315	315	0
327	388	bullet	bullet	bullet.	6	nopreview	8	401	228	228	228	228	228	0
	389	.	.		6	nopreview	8	402						
328	390	-	-	-I	6	nopreview	8	403	226	226	226	226	226	0
	391	I	I		6	nopreview	8	404						
329	392	heard	heard	heard	6	nopreview	8	405	425	425	425	274	425	0
330	393	he	he	he	6	nopreview	8	406	0	0	0	0	0	0
331	394	was	was	was	6	nopreview	8	407	336	336	336	336	336	0
332	395	trying	trying	trying	6	nopreview	8	408	251	251	251	251	251	0
333	396	to	to	to	6	nopreview	8	409	0	0	0	0	0	0
334	397	pick	pick	pick	6	nopreview	8	410	243	243	243	243	243	0
335	398	his	his	his	6	nopreview	8	411	0	0	0	0	0	0
336	399	brother	brother	brother	6	nopreview	8	412	366	366	366	366	366	0
337	400	up	up	up.	6	nopreview	8	413	286	286	286	286	286	0
	401	.	.		6	nopreview	8	414						
338	402	He	He	He	6	nopreview	8	415	0	0	0	0	0	0
339	403	was	was	was	6	nopreview	8	416	332	332	332	332	332	0
340	404	trying	trying	trying	6	nopreview	8	417	338	338	338	175	338	0
341	405	to	to	to	6	nopreview	8	418	0	0	0	0	0	0
342	406	hold	hold	hold	6	nopreview	8	419	226	226	226	226	226	0
343	407	him	him	him	6	nopreview	8	420	0	0	0	0	0	0
344	408	and	and	and	6	nopreview	8	421	208	208	208	208	208	0
345	409	save	save	save	6	nopreview	8	422	137	137	137	137	137	0
346	410	him	him	him,-	6	nopreview	8	423	224	0	0	0	0	224
	411	,	,		6	nopreview	8	424						
	412	-	-		6	nopreview	8	425						
347	413	a	a	a	6	nopreview	8	426	106	106	330	106	106	0
348	414	family	family	family	6	nopreview	8	427	400	227	227	227	227	173
349	415	friend	friend	friend,	6	nopreview	8	428	588	270	270	270	270	318
	416	,	,		6	nopreview	8	429						
350	417	@entity77	Stephanie	Stephanie	6	nopreview	8	430	580	372	372	178	372	208
351			Townsend	Townsend,	6	nopreview	8	431	916	330	330	330	330	586
	418	,	,		6	nopreview	8	432						
352	419	told	told	told	6	nopreview	8	433	475	0	0	0	0	475
353	420	@entity3	CNN	CNN	6	nopreview	8	434	286	286	1138	286	286	0
354	421	affiliate	affiliate	affiliate	6	nopreview	8	435	929	598	598	226	598	331
355	422	@entity78	WITI	WITI.	6	nopreview	8	436	1042	134	1373	134	1042	908
	423	.	.		6	nopreview	8	437						
356	424	Earlier	Earlier	Earlier	6	nopreview	8	438	261	261	261	261	261	0
357	425	this	this	this	6	nopreview	8	439	143	143	143	143	143	0
358	426	week	week	week,	6	nopreview	8	440	193	0	0	0	0	193
	427	,	,		6	nopreview	8	441						
359	428	@entity36	Flynn	Flynn	6	nopreview	8	442	341	112	534	112	341	229
360	429	bemoaned	bemoaned	bemoaned	6	nopreview	8	443	397	397	397	397	397	0
361	430	the	the	the	6	nopreview	8	444	0	0	0	0	0	0
362	431	apparent	apparent	apparent	6	nopreview	8	445	674	674	674	233	674	0
363	432	madness	madness	madness	6	nopreview	8	446	571	256	1479	164	571	315
364	433	of	of	of	6	nopreview	8	447	0	0	0	0	0	0
365	434	what	what	what	6	nopreview	8	448	467	467	467	185	467	0
366	435	happened	happened	happened.	6	nopreview	8	449	172	172	172	172	172	0
	436	.	.		6	nopreview	8	450						
367	437	-	-	-What	6	nopreview	8	451	180	0	0	0	0	180
	438	What	What		6	nopreview	8	452						
368	439	did	did	did	6	nopreview	8	453	540	337	720	337	540	203
369	440	we	we	we	6	nopreview	8	454	183	0	0	0	0	183
370	441	have	have	have	6	nopreview	8	455	495	190	190	190	190	305
371	442	Sunday	Sunday	Sunday?-	6	nopreview	8	456	287	287	287	287	287	0
	443	?	?		6	nopreview	8	457						
	444	-	-		6	nopreview	8	458						
372	445	@entity36	Flynn	Flynn	6	nopreview	8	459	606	472	472	170	472	134
373	446	asked	asked	asked.	6	nopreview	8	460	436	147	1058	147	436	289
	447	.	.		6	nopreview	8	461						
374	448	-	-	-We	6	nopreview	8	462	0	0	0	0	0	0
	449	We	We		6	nopreview	8	463						
375	450	had	had	had	6	nopreview	8	464	1550	1351	1351	235	1351	199
376	451	some	some	some	6	nopreview	8	465	372	216	216	216	216	156
377	452	clown	clown	clown	6	nopreview	8	466	561	0	0	0	0	561
378	453	take	take	take	6	nopreview	8	467	919	816	1061	167	816	103
379	454	the	the	the	6	nopreview	8	468	216	0	0	0	0	216
380	455	law	law	law	6	nopreview	8	469	256	256	256	256	256	0
381	456	into	into	into	6	nopreview	8	470	322	154	154	154	154	168
382	457	his	his	his	6	nopreview	8	471	372	372	372	372	372	0
383	458	own	own	own	6	nopreview	8	472	223	223	223	223	223	0
384	459	hands	hands	hands	6	nopreview	8	473	492	252	252	252	252	240
385	460	and	and	and	6	nopreview	8	474	0	0	0	0	0	0
386	461	murder	murder	murder	6	nopreview	8	475	584	312	1982	214	584	272
387	462	a	a	a	6	nopreview	8	476	121	121	121	121	121	0
388	463	guy	guy	guy	6	nopreview	8	477	248	248	248	248	248	0
389	464	who	who	who	6	nopreview	8	478	0	0	0	0	0	0
390	465	was	was	was	6	nopreview	8	479	262	262	262	262	262	0
391	466	doing	doing	doing	6	nopreview	8	480	111	111	111	111	111	0
392	467	what	what	what	6	nopreview	8	481	390	186	186	186	186	204
393	468	we	we	we	6	nopreview	8	482	89	0	0	0	0	89
394	469	expect	expect	expect	6	nopreview	8	483	480	205	773	205	480	275
395	470	good	good	good	6	nopreview	8	484	366	366	366	366	366	0
396	471	citizens	citizens	citizens	6	nopreview	8	485	0	0	0	0	0	0
397	472	to	to	to	6	nopreview	8	486	0	0	0	0	0	0
398	473	do	do	do,	6	nopreview	8	487	274	274	274	274	274	0
	474	,	,		6	nopreview	8	488						
399	475	and	and	and	6	nopreview	8	489	0	0	0	0	0	0
400	476	oops	oops	oops,	6	nopreview	8	490	318	318	318	318	318	0
	477	,	,		6	nopreview	8	491						
401	478	accidentally	accidentally	accidentally	6	nopreview	8	492	282	282	282	282	282	0
402	479	kill	kill	kill	6	nopreview	8	493	140	140	140	140	140	0
403	480	somebody	somebody	somebody	6	nopreview	8	494	283	283	283	283	283	0
404	481	else	else	else.-	6	nopreview	8	495	481	481	481	481	481	0
	482	.	.		6	nopreview	8	496						
