HumanPosition	AnonymizedPosition	AnonymizedToken	OriginalToken	ExperimentToken	Participant	Condition	TextNo	JointPosition	tt	fp	rp	ff
0	0	@entity0	Alejandro	Alejandro	10	nopreview	12	1	635	0	0	0
2			Valverde	Valverde	10	nopreview	12	2	591	89	1226	89
3	1	successfully	successfully	successfully	10	nopreview	12	3	241	241	241	241
4	2	defended	defended	defended	10	nopreview	12	4	375	0	0	0
5	3	his	his	his	10	nopreview	12	5	140	140	289	140
6	4	@entity2	Fleche	Fleche	10	nopreview	12	6	576	379	802	155
7			Wallonne	Wallonne	10	nopreview	12	7	382	382	382	242
8	5	title	title	title	10	nopreview	12	8	551	551	551	159
9	6	on	on	on	10	nopreview	12	9	0	0	0	0
10	7	Wednesday	Wednesday	Wednesday	10	nopreview	12	10	511	371	371	233
11	8	as	as	as	10	nopreview	12	11	99	0	0	0
12	9	@entity3	Chris	Chris	10	nopreview	12	12	409	0	0	0
13			Froome	Froome	10	nopreview	12	13	145	0	0	0
14	10	finished	finished	finished	10	nopreview	12	14	641	109	337	109
15	11	back	back	back	10	nopreview	12	15	1251	182	182	182
16	12	in	in	in	10	nopreview	12	16	208	0	4381	0
17	13	123rd	123rd	123rd	10	nopreview	12	17	1227	341	341	198
18	14	after	after	after	10	nopreview	12	18	450	0	0	0
19	15	a	a	a	10	nopreview	12	19	138	138	3848	138
20	16	fall	fall	fall.	10	nopreview	12	20	187	187	187	187
	17	.	.		10	nopreview	12	21				
21	18	@entity4	Movistar	Movistar	10	nopreview	12	22	808	358	358	213
22	19	rider	rider	rider	10	nopreview	12	23	522	169	169	169
23	20	@entity0	Valverde	Valverde	10	nopreview	12	24	186	186	186	186
24	21	sprinted	sprinted	sprinted	10	nopreview	12	25	303	154	1106	154
25	22	to	to	to	10	nopreview	12	26	140	140	1092	140
26	23	victory	victory	victory	10	nopreview	12	27	198	198	198	198
27	24	ahead	ahead	ahead	10	nopreview	12	28	0	0	0	0
28	25	of	of	of	10	nopreview	12	29	0	0	0	0
29	26	@entity6	Julian	Julian	10	nopreview	12	30	184	184	184	184
30			Alaphilippe	Alaphilippe	10	nopreview	12	31	148	148	148	148
31	27	and	and	and	10	nopreview	12	32	0	0	0	0
32	28	@entity7	Michael	Michael	10	nopreview	12	33	170	170	170	170
33			Albasini	Albasini	10	nopreview	12	34	0	0	0	0
34	29	in	in	in	10	nopreview	12	35	0	0	0	0
35	30	a	a	a	10	nopreview	12	36	187	187	187	187
36	31	race	race	race	10	nopreview	12	37	162	162	162	162
37	32	which	which	which	10	nopreview	12	38	0	0	0	0
38	33	saw	saw	saw	10	nopreview	12	39	224	224	224	224
39	34	former	former	former	10	nopreview	12	40	0	0	0	0
40	35	winner	winner	winner	10	nopreview	12	41	146	0	0	0
41	36	@entity9	Philippe	Philippe	10	nopreview	12	42	118	118	264	118
42			Gilbert	Gilbert	10	nopreview	12	43	184	184	184	184
43	37	pull	pull	pull	10	nopreview	12	44	0	0	0	0
44	38	out	out	out	10	nopreview	12	45	0	0	0	0
45	39	after	after	after	10	nopreview	12	46	192	192	192	192
46	40	a	a	a	10	nopreview	12	47	0	0	0	0
47	41	bad	bad	bad	10	nopreview	12	48	0	0	0	0
48	42	crash	crash	crash	10	nopreview	12	49	198	198	198	198
49	43	some	some	some	10	nopreview	12	50	164	164	164	164
50	44	50	50	50	10	nopreview	12	51	0	0	0	0
51	45	kilometres	kilometres	kilometres	10	nopreview	12	52	188	188	188	188
52	46	from	from	from	10	nopreview	12	53	0	0	0	0
53	47	the	the	the	10	nopreview	12	54	202	202	202	202
54	48	end	end	end.	10	nopreview	12	55	81	81	81	81
	49	.	.		10	nopreview	12	56				
55	50	@entity3	Froome	Froome	10	nopreview	12	57	488	0	0	0
56	51	was	was	was	10	nopreview	12	58	0	0	0	0
57	52	involved	involved	involved	10	nopreview	12	59	402	0	0	0
58	53	in	in	in	10	nopreview	12	60	109	109	999	109
59	54	a	a	a	10	nopreview	12	61	0	0	0	0
60	55	crash	crash	crash	10	nopreview	12	62	0	0	0	0
61	56	in	in	in	10	nopreview	12	63	219	219	219	219
62	57	the	the	the	10	nopreview	12	64	0	0	0	0
63	58	final	final	final	10	nopreview	12	65	220	220	220	220
64	59	12	12	12	10	nopreview	12	66	0	0	0	0
65	60	kilometres	kilometres	kilometres	10	nopreview	12	67	246	246	246	246
66	61	but	but	but	10	nopreview	12	68	0	0	0	0
67	62	was	was	was	10	nopreview	12	69	215	215	215	215
68	63	able	able	able	10	nopreview	12	70	0	0	0	0
69	64	to	to	to	10	nopreview	12	71	153	153	153	153
70	65	get	get	get	10	nopreview	12	72	0	0	0	0
71	66	back	back	back	10	nopreview	12	73	110	110	110	110
72	67	on	on	on	10	nopreview	12	74	0	0	0	0
73	68	his	his	his	10	nopreview	12	75	0	0	0	0
74	69	bike	bike	bike	10	nopreview	12	76	315	315	315	315
75	70	and	and	and	10	nopreview	12	77	0	0	0	0
76	71	finish	finish	finish.	10	nopreview	12	78	271	271	271	271
	72	.	.		10	nopreview	12	79				
77	73	@entity14	Spain	Team	10	nopreview	12	80	492	0	0	0
	74	-s	-s		10	nopreview	12	81				
	75	@entity0	Alejandro		10	nopreview	12	82				
			Valverde		10	nopreview	12	83				
	76	(	(		10	nopreview	12	84				
	77	centre	centre		10	nopreview	12	85				
	78	)	)		10	nopreview	12	86				
	79	realises	realises		10	nopreview	12	87				
	80	he	he		10	nopreview	12	88				
78	81	-s	-s	Sky-s	10	nopreview	12	89	939	294	432	294
	82	done	done		10	nopreview	12	90				
	83	enough	enough		10	nopreview	12	91				
	84	to	to		10	nopreview	12	92				
79	85	claim	claim	sports	10	nopreview	12	93	512	214	1511	214
	86	victory	victory		10	nopreview	12	94				
	87	in	in		10	nopreview	12	95				
	88	@entity17	Belgium		10	nopreview	12	96				
	89	-s	-s		10	nopreview	12	97				
	90	@entity2	Fleche		10	nopreview	12	98				
	91	@entity0	Wallonne		10	nopreview	12	99				
			Valverde		10	nopreview	12	100				
	92	(	(		10	nopreview	12	101				
	93	centre	centre		10	nopreview	12	102				
	94	)	)		10	nopreview	12	103				
	95	finished	finished		10	nopreview	12	104				
	96	ahead	ahead		10	nopreview	12	105				
	97	of	of		10	nopreview	12	106				
	98	@entity6	Julian		10	nopreview	12	107				
			Alaphilippe		10	nopreview	12	108				
	99	(	(		10	nopreview	12	109				
	100	left	left		10	nopreview	12	110				
	101	)	)		10	nopreview	12	111				
	102	and	and		10	nopreview	12	112				
	103	@entity7	Michael		10	nopreview	12	113				
			Albasini		10	nopreview	12	114				
	104	(	(		10	nopreview	12	115				
	105	right	right		10	nopreview	12	116				
	106	)	)		10	nopreview	12	117				
	107	on	on		10	nopreview	12	118				
	108	Wednesday	Wednesday		10	nopreview	12	119				
	109	@entity20	Team		10	nopreview	12	120				
			Sky		10	nopreview	12	121				
	110	-s	-s		10	nopreview	12	122				
	111	sports	sports		10	nopreview	12	123				
80	112	director	director	director	10	nopreview	12	124	212	212	212	212
81	113	@entity19	Gabriel	Gabriel	10	nopreview	12	125	188	188	188	188
82			Rasch	Rasch	10	nopreview	12	126	453	453	453	168
83	114	praised	praised	praised	10	nopreview	12	127	485	485	485	485
84	115	@entity3	Froome	Froome	10	nopreview	12	128	278	278	278	278
85	116	for	for	for	10	nopreview	12	129	136	136	136	136
86	117	finishing	finishing	finishing	10	nopreview	12	130	347	0	0	0
87	118	the	the	the	10	nopreview	12	131	0	0	0	0
88	119	race	race	race	10	nopreview	12	132	254	107	601	107
89	120	and	and	and	10	nopreview	12	133	0	0	0	0
90	121	said	said	said	10	nopreview	12	134	0	0	0	0
91	122	he	he	he	10	nopreview	12	135	384	384	384	190
92	123	expects	expects	expects	10	nopreview	12	136	183	183	183	183
93	124	the	the	the	10	nopreview	12	137	0	0	0	0
94	125	former	former	former	10	nopreview	12	138	173	173	173	173
95	126	@entity23	Tour	Tour	10	nopreview	12	139	0	0	0	0
96			de	de	10	nopreview	12	140	0	0	0	0
97			France	France	10	nopreview	12	141	274	274	274	274
98	127	winner	winner	winner	10	nopreview	12	142	330	330	330	330
99	128	will	will	will	10	nopreview	12	143	0	0	0	0
100	129	be	be	be	10	nopreview	12	144	147	147	147	147
101	130	fine	fine	fine	10	nopreview	12	145	83	83	83	83
102	131	to	to	to	10	nopreview	12	146	0	0	0	0
103	132	take	take	take	10	nopreview	12	147	670	0	0	0
104	133	part	part	part	10	nopreview	12	148	476	0	0	0
105	134	in	in	in	10	nopreview	12	149	0	0	0	0
106	135	the	the	the	10	nopreview	12	150	805	0	0	0
107	136	@entity25	Tour	Tour	10	nopreview	12	151	584	128	647	128
108			de	de	10	nopreview	12	152	275	275	2163	275
109			Romandie	Romandie	10	nopreview	12	153	0	0	0	0
110	137	next	next	next	10	nopreview	12	154	0	0	0	0
111	138	week	week	week.	10	nopreview	12	155	162	0	0	0
	139	.	.		10	nopreview	12	156				
112	140	@entity19	Rasch	Rasch	10	nopreview	12	157	307	147	309	147
113	141	told	told	told	10	nopreview	12	158	184	184	344	184
114	142	@entity26	TeamSky.com	TeamSky.com:	10	nopreview	12	159	992	992	992	191
115	143	:	:	-Chris	10	nopreview	12	160	147	147	147	147
	144	-	-		10	nopreview	12	161				
	145	@entity3	Chris		10	nopreview	12	162				
116	146	was	was	was	10	nopreview	12	163	0	0	0	0
117	147	pretty	pretty	pretty	10	nopreview	12	164	252	0	0	0
118	148	banged	banged	banged	10	nopreview	12	165	0	0	0	0
119	149	up	up	up	10	nopreview	12	166	82	82	334	82
120	150	but	but	but	10	nopreview	12	167	238	238	238	238
121	151	showed	showed	showed	10	nopreview	12	168	337	337	337	249
122	152	real	real	real	10	nopreview	12	169	0	0	0	0
123	153	courage	courage	courage	10	nopreview	12	170	0	0	0	0
124	154	to	to	to	10	nopreview	12	171	0	0	0	0
125	155	finish	finish	finish	10	nopreview	12	172	224	224	224	224
126	156	the	the	the	10	nopreview	12	173	0	0	0	0
127	157	race	race	race	10	nopreview	12	174	209	209	209	209
128	158	and	and	and	10	nopreview	12	175	0	0	0	0
129	159	we	we	we-ll	10	nopreview	12	176	429	286	286	286
	160	-ll	-ll		10	nopreview	12	177				
130	161	assess	assess	assess	10	nopreview	12	178	363	134	134	134
131	162	his	his	his	10	nopreview	12	179	219	219	219	219
132	163	injuries	injuries	injuries	10	nopreview	12	180	254	0	0	0
133	164	overnight	overnight	overnight.	10	nopreview	12	181	553	132	1179	132
	165	.	.		10	nopreview	12	182				
134	166	-	-	-He	10	nopreview	12	183	0	0	0	0
	167	He	He		10	nopreview	12	184				
135	168	has	has	hasn-t	10	nopreview	12	185	193	193	193	193
	169	n-t	n-t		10	nopreview	12	186				
136	170	needed	needed	needed	10	nopreview	12	187	193	193	193	193
137	171	to	to	to	10	nopreview	12	188	0	0	0	0
138	172	go	go	go	10	nopreview	12	189	255	0	0	0
139	173	to	to	to	10	nopreview	12	190	171	171	426	171
140	174	hospital	hospital	hospital	10	nopreview	12	191	532	137	137	137
141	175	and	and	and	10	nopreview	12	192	0	0	0	0
142	176	right	right	right	10	nopreview	12	193	210	0	0	0
143	177	now	now	now,	10	nopreview	12	194	329	197	934	197
	178	,	,		10	nopreview	12	195				
144	179	as	as	as	10	nopreview	12	196	0	0	0	0
145	180	things	things	things	10	nopreview	12	197	249	249	249	249
146	181	stand	stand	stand,	10	nopreview	12	198	162	0	0	0
	182	,	,		10	nopreview	12	199				
147	183	we	we	we-re	10	nopreview	12	200	288	107	450	107
	184	-re	-re		10	nopreview	12	201				
148	185	still	still	still	10	nopreview	12	202	0	0	0	0
149	186	expecting	expecting	expecting	10	nopreview	12	203	205	205	205	205
150	187	him	him	him	10	nopreview	12	204	152	152	152	152
151	188	to	to	to	10	nopreview	12	205	0	0	0	0
152	189	line	line	line	10	nopreview	12	206	0	0	0	0
153	190	up	up	up	10	nopreview	12	207	186	186	186	186
154	191	at	at	at	10	nopreview	12	208	0	0	0	0
155	192	the	the	the	10	nopreview	12	209	0	0	0	0
156	193	@entity25	Tour	Tour	10	nopreview	12	210	114	0	0	0
157			de	de	10	nopreview	12	211	176	176	290	176
158			Romandie	Romandie	10	nopreview	12	212	185	185	185	185
159	194	next	next	next	10	nopreview	12	213	0	0	0	0
160	195	Tuesday	Tuesday	Tuesday.-	10	nopreview	12	214	0	0	0	0
	196	.	.		10	nopreview	12	215				
161	197	-	-	Team	10	nopreview	12	216	0	0	0	0
	198	@entity20	Team		10	nopreview	12	217				
162			Sky	Sky-s	10	nopreview	12	218	375	0	0	0
	199	-s	-s		10	nopreview	12	219				
163	200	@entity3	Chris	Chris	10	nopreview	12	220	0	0	0	0
164			Froome	Froome	10	nopreview	12	221	246	87	621	87
165	201	fell	fell	fell	10	nopreview	12	222	382	171	171	171
166	202	in	in	in	10	nopreview	12	223	0	0	0	0
167	203	the	the	the	10	nopreview	12	224	177	0	0	0
168	204	closing	closing	closing	10	nopreview	12	225	188	188	188	188
169	205	12km	12km	12km	10	nopreview	12	226	578	363	966	248
170	206	but	but	but	10	nopreview	12	227	0	0	0	0
171	207	fought	fought	fought	10	nopreview	12	228	184	184	184	184
172	208	on	on	on	10	nopreview	12	229	0	0	0	0
173	209	to	to	to	10	nopreview	12	230	374	374	374	197
174	210	finish	finish	finish	10	nopreview	12	231	257	257	257	257
175	211	the	the	the	10	nopreview	12	232	0	0	0	0
176	212	race	race	race	10	nopreview	12	233	0	0	0	0
177	213	despite	despite	despite	10	nopreview	12	234	202	0	0	0
178	214	being	being	being	10	nopreview	12	235	215	215	417	215
179	215	-	-	-banged	10	nopreview	12	236	313	313	313	313
	216	banged	banged		10	nopreview	12	237				
180	217	up	up	up-.	10	nopreview	12	238	0	0	0	0
	218	-	-		10	nopreview	12	239				
