HumanPosition	AnonymizedPosition	AnonymizedToken	OriginalToken	ExperimentToken	Participant	Condition	TextNo	JointPosition	tt	fp	rp	ff	rb	sp
1	0	Fighting	Fighting	Fighting	6	preview	19	1	0	0	0	0	0	0
2	1	between	between	between	6	preview	19	2	0	0	0	0	0	0
3	2	rival	rival	rival	6	preview	19	3	0	0	0	0	0	0
4	3	fans	fans	fans	6	preview	19	4	289	0	0	0	0	289
5	4	forced	forced	forced	6	preview	19	5	0	0	0	0	0	0
6	5	a	a	a	6	preview	19	6	0	0	0	0	0	0
7	6	@entity2	Russian	Russian	6	preview	19	7	0	0	0	0	0	0
8			Premier	Premier	6	preview	19	8	346	0	0	0	0	346
9			League	League	6	preview	19	9	307	0	0	0	0	307
10	7	match	match	match	6	preview	19	10	0	0	0	0	0	0
11	8	between	between	between	6	preview	19	11	254	0	0	0	0	254
12	9	@entity3	Arsenal	Arsenal	6	preview	19	12	140	0	0	0	0	140
13			Tula	Tula	6	preview	19	13	0	0	0	0	0	0
14	10	and	and	and	6	preview	19	14	300	0	0	0	0	300
15	11	@entity4	Torpedo	Torpedo	6	preview	19	15	255	0	0	0	0	255
16			Moscow	Moscow	6	preview	19	16	534	121	2425	121	534	413
17	12	to	to	to	6	preview	19	17	0	0	0	0	0	0
18	13	be	be	be	6	preview	19	18	0	0	0	0	0	0
19	14	stopped	stopped	stopped	6	preview	19	19	164	0	0	0	0	164
20	15	for	for	for	6	preview	19	20	193	193	357	193	193	0
21	16	seven	seven	seven	6	preview	19	21	0	0	0	0	0	0
22	17	minutes	minutes	minutes	6	preview	19	22	0	0	0	0	0	0
23	18	on	on	on	6	preview	19	23	0	0	0	0	0	0
24	19	Sunday	Sunday	Sunday.	6	preview	19	24	199	199	199	199	199	0
	20	.	.		6	preview	19	25						
25	21	A	A	A	6	preview	19	26	0	0	0	0	0	0
26	22	statement	statement	statement	6	preview	19	27	369	369	369	223	369	0
27	23	on	on	on	6	preview	19	28	0	0	0	0	0	0
28	24	@entity3	Arsenal	Arsenal-s	6	preview	19	29	225	0	0	0	0	225
	25	-s	-s		6	preview	19	30						
29	26	official	official	official	6	preview	19	31	0	0	0	0	0	0
30	27	site	site	site	6	preview	19	32	131	131	356	131	131	0
31	28	read	read	read:	6	preview	19	33	0	0	0	0	0	0
32	29	:	:	-In	6	preview	19	34	0	0	0	0	0	0
	30	-	-		6	preview	19	35						
33	31	In	In	the	6	preview	19	36	0	0	0	0	0	0
34	32	the	the	31st	6	preview	19	37	274	274	274	274	274	0
	33	31st	31st		6	preview	19	38						
35	34	minute	minute	minute,	6	preview	19	39	0	0	0	0	0	0
	35	,	,		6	preview	19	40						
36	36	fans	fans	fans	6	preview	19	41	113	0	0	0	0	113
37	37	from	from	from	6	preview	19	42	0	0	0	0	0	0
38	38	the	the	the	6	preview	19	43	226	226	339	226	226	0
39	39	visiting	visiting	visiting	6	preview	19	44	172	0	0	0	0	172
40	40	@entity9	Moscow	Moscow	6	preview	19	45	716	530	530	202	530	186
41	41	club	club	club	6	preview	19	46	0	0	0	0	0	0
42	42	broke	broke	broke	6	preview	19	47	332	0	0	0	0	332
43	43	down	down	down	6	preview	19	48	0	0	0	0	0	0
44	44	barriers	barriers	barriers	6	preview	19	49	190	190	522	190	190	0
45	45	in	in	in	6	preview	19	50	0	0	0	0	0	0
46	46	front	front	front	6	preview	19	51	0	0	0	0	0	0
47	47	of	of	of	6	preview	19	52	149	149	149	149	149	0
48	48	the	the	the	6	preview	19	53	0	0	0	0	0	0
49	49	visitors	visitors	visitors	6	preview	19	54	301	301	301	301	301	0
50	50	sector	sector	sector	6	preview	19	55	0	0	0	0	0	0
51	51	and	and	and	6	preview	19	56	0	0	0	0	0	0
52	52	tried	tried	tried	6	preview	19	57	0	0	0	0	0	0
53	53	to	to	to	6	preview	19	58	0	0	0	0	0	0
54	54	get	get	get	6	preview	19	59	325	325	683	325	325	0
55	55	to	to	to	6	preview	19	60	0	0	0	0	0	0
56	56	the	the	the	6	preview	19	61	0	0	0	0	0	0
57	57	@entity13	East	East	6	preview	19	62	0	0	0	0	0	0
58			Stand	Stand,	6	preview	19	63	0	0	0	0	0	0
	58	,	,		6	preview	19	64						
59	59	where	where	where	6	preview	19	65	0	0	0	0	0	0
60	60	a	a	a	6	preview	19	66	0	0	0	0	0	0
61	61	number	number	number	6	preview	19	67	0	0	0	0	0	0
62	62	of	of	of	6	preview	19	68	0	0	0	0	0	0
63	63	women	women	women	6	preview	19	69	0	0	0	0	0	0
64	64	and	and	and	6	preview	19	70	0	0	0	0	0	0
65	65	children	children	children	6	preview	19	71	0	0	0	0	0	0
66	66	were	were	were	6	preview	19	72	0	0	0	0	0	0
67	67	sitting	sitting	sitting.	6	preview	19	73	0	0	0	0	0	0
	68	.	.		6	preview	19	74						
68	69	-	-	-The	6	preview	19	75	0	0	0	0	0	0
	70	The	The		6	preview	19	76						
69	71	@entity4	Torpedo	Torpedo	6	preview	19	77	228	228	228	228	228	0
70	72	fans	fans	fans	6	preview	19	78	262	262	262	262	262	0
71	73	began	began	began	6	preview	19	79	140	140	140	140	140	0
72	74	breaking	breaking	breaking	6	preview	19	80	466	0	0	0	0	466
73	75	seats	seats	seats	6	preview	19	81	0	0	0	0	0	0
74	76	and	and	and	6	preview	19	82	0	0	0	0	0	0
75	77	throwing	throwing	throwing	6	preview	19	83	117	117	583	117	117	0
76	78	them	them	them	6	preview	19	84	0	0	0	0	0	0
77	79	towards	towards	towards	6	preview	19	85	0	0	0	0	0	0
78	80	law	law	law	6	preview	19	86	0	0	0	0	0	0
79	81	enforcement	enforcement	enforcement	6	preview	19	87	0	0	0	0	0	0
80	82	officers	officers	officers	6	preview	19	88	0	0	0	0	0	0
81	83	and	and	and	6	preview	19	89	0	0	0	0	0	0
82	84	stewards	stewards	stewards.-	6	preview	19	90	0	0	0	0	0	0
	85	.	.		6	preview	19	91						
83	86	-	-	Referee	6	preview	19	92	506	0	0	0	0	506
	87	Scroll	Scroll		6	preview	19	93						
	88	down	down		6	preview	19	94						
	89	to	to		6	preview	19	95						
	90	watch	watch		6	preview	19	96						
	91	video	video		6	preview	19	97						
	92	footage	footage		6	preview	19	98						
	93	of	of		6	preview	19	99						
	94	the	the		6	preview	19	100						
	95	incident	incident		6	preview	19	101						
	96	Fans	Fans		6	preview	19	102						
	97	fight	fight		6	preview	19	103						
	98	leading	leading		6	preview	19	104						
	99	to	to		6	preview	19	105						
	100	@entity3	Arsenal		6	preview	19	106						
			Tula		6	preview	19	107						
	101	vs	vs		6	preview	19	108						
	102	@entity4	Torpedo		6	preview	19	109						
			Moscow		6	preview	19	110						
	103	to	to		6	preview	19	111						
	104	be	be		6	preview	19	112						
	105	suspended	suspended		6	preview	19	113						
	106	for	for		6	preview	19	114						
	107	seven	seven		6	preview	19	115						
	108	minutes	minutes		6	preview	19	116						
	109	on	on		6	preview	19	117						
	110	Sunday	Sunday		6	preview	19	118						
	111	@entity4	Torpedo		6	preview	19	119						
			Moscow		6	preview	19	120						
	112	fans	fans		6	preview	19	121						
	113	broke	broke		6	preview	19	122						
	114	down	down		6	preview	19	123						
	115	barriers	barriers		6	preview	19	124						
	116	and	and		6	preview	19	125						
	117	threw	threw		6	preview	19	126						
	118	chairs	chairs		6	preview	19	127						
	119	,	,		6	preview	19	128						
	120	according	according		6	preview	19	129						
	121	to	to		6	preview	19	130						
	122	@entity3	Arsenal		6	preview	19	131						
			Tula		6	preview	19	132						
	123	-s	-s		6	preview	19	133						
	124	website	website		6	preview	19	134						
	125	Referee	Referee		6	preview	19	135						
84	126	@entity28	Alexander	Alexander	6	preview	19	136	193	193	445	193	193	0
85			Yegorov	Yegorov	6	preview	19	137	189	0	0	0	0	189
86	127	stopped	stopped	stopped	6	preview	19	138	294	294	739	294	294	0
87	128	the	the	the	6	preview	19	139	0	0	0	0	0	0
88	129	match	match	match	6	preview	19	140	223	223	223	223	223	0
89	130	and	and	and	6	preview	19	141	0	0	0	0	0	0
90	131	told	told	told	6	preview	19	142	247	0	0	0	0	247
91	132	the	the	the	6	preview	19	143	489	183	1179	183	489	306
92	133	players	players	players	6	preview	19	144	0	0	0	0	0	0
93	134	to	to	to	6	preview	19	145	0	0	0	0	0	0
94	135	leave	leave	leave	6	preview	19	146	291	291	291	291	291	0
95	136	the	the	the	6	preview	19	147	98	98	98	98	98	0
96	137	pitch	pitch	pitch	6	preview	19	148	0	0	0	0	0	0
97	138	and	and	and	6	preview	19	149	0	0	0	0	0	0
98	139	head	head	head	6	preview	19	150	134	0	0	0	0	134
99	140	for	for	for	6	preview	19	151	0	0	0	0	0	0
100	141	the	the	the	6	preview	19	152	0	0	0	0	0	0
101	142	dressing	dressing	dressing	6	preview	19	153	135	135	269	135	135	0
102	143	rooms	rooms	rooms,	6	preview	19	154	0	0	0	0	0	0
	144	,	,		6	preview	19	155						
103	145	while	while	while	6	preview	19	156	0	0	0	0	0	0
104	146	fights	fights	fights	6	preview	19	157	251	0	0	0	0	251
105	147	broke	broke	broke	6	preview	19	158	181	181	432	181	181	0
106	148	out	out	out	6	preview	19	159	0	0	0	0	0	0
107	149	between	between	between	6	preview	19	160	217	217	217	217	217	0
108	150	fans	fans	fans	6	preview	19	161	0	0	0	0	0	0
109	151	on	on	on	6	preview	19	162	249	249	249	249	249	0
110	152	the	the	the	6	preview	19	163	0	0	0	0	0	0
111	153	running	running	running	6	preview	19	164	0	0	0	0	0	0
112	154	track	track	track	6	preview	19	165	0	0	0	0	0	0
113	155	after	after	after	6	preview	19	166	0	0	0	0	0	0
114	156	they	they	they	6	preview	19	167	0	0	0	0	0	0
115	157	managed	managed	managed	6	preview	19	168	0	0	0	0	0	0
116	158	to	to	to	6	preview	19	169	0	0	0	0	0	0
117	159	climb	climb	climb	6	preview	19	170	0	0	0	0	0	0
118	160	over	over	over	6	preview	19	171	0	0	0	0	0	0
119	161	barriers	barriers	barriers.	6	preview	19	172	167	167	167	167	167	0
	162	.	.		6	preview	19	173						
120	163	After	After	After	6	preview	19	174	0	0	0	0	0	0
121	164	order	order	order	6	preview	19	175	208	208	208	208	208	0
122	165	was	was	was	6	preview	19	176	0	0	0	0	0	0
123	166	restored	restored	restored	6	preview	19	177	154	154	154	154	154	0
124	167	play	play	play	6	preview	19	178	0	0	0	0	0	0
125	168	resumed	resumed	resumed	6	preview	19	179	325	0	0	0	0	325
126	169	and	and	and	6	preview	19	180	411	0	0	0	0	411
127	170	@entity4	Torpedo	Torpedo	6	preview	19	181	363	0	0	0	0	363
128	171	ran	ran	ran	6	preview	19	182	496	0	0	0	0	496
129	172	out	out	out	6	preview	19	183	389	238	441	238	238	151
130	173	3	3	3-1	6	preview	19	184	948	217	2491	217	948	731
	174	-	-		6	preview	19	185						
	175	1	1		6	preview	19	186						
131	176	winners	winners	winners.	6	preview	19	187	368	368	368	368	368	0
	177	.	.		6	preview	19	188						
132	178	@entity41	Sergei	Sergei	6	preview	19	189	155	0	0	0	0	155
133			Cheban	Cheban,	6	preview	19	190	193	193	348	193	193	0
	179	,	,		6	preview	19	191						
134	180	executive	executive	executive	6	preview	19	192	0	0	0	0	0	0
135	181	director	director	director	6	preview	19	193	282	282	282	282	282	0
136	182	of	of	of	6	preview	19	194	0	0	0	0	0	0
137	183	the	the	the	6	preview	19	195	0	0	0	0	0	0
138	184	@entity2	Russian	Russian	6	preview	19	196	0	0	0	0	0	0
139			Football	Football	6	preview	19	197	181	0	0	0	0	181
140			Premier	Premier	6	preview	19	198	0	0	0	0	0	0
141			League	League,	6	preview	19	199	126	126	307	126	126	0
	185	,	,		6	preview	19	200						
142	186	said	said	said	6	preview	19	201	0	0	0	0	0	0
143	187	@entity4	Torpedo	Torpedo	6	preview	19	202	371	371	371	371	371	0
144	188	could	could	could	6	preview	19	203	0	0	0	0	0	0
145	189	expected	expected	expected	6	preview	19	204	532	532	532	267	532	0
146	190	to	to	to	6	preview	19	205	0	0	0	0	0	0
147	191	be	be	be	6	preview	19	206	0	0	0	0	0	0
148	192	heavily	heavily	heavily	6	preview	19	207	0	0	0	0	0	0
149	193	punished	punished	punished	6	preview	19	208	345	345	345	345	345	0
150	194	for	for	for	6	preview	19	209	0	0	0	0	0	0
151	195	this	this	this	6	preview	19	210	162	0	0	0	0	162
152	196	latest	latest	latest	6	preview	19	211	130	130	292	130	130	0
153	197	outbreak	outbreak	outbreak	6	preview	19	212	0	0	0	0	0	0
154	198	of	of	of	6	preview	19	213	0	0	0	0	0	0
155	199	violence	violence	violence	6	preview	19	214	186	186	186	186	186	0
156	200	by	by	by	6	preview	19	215	0	0	0	0	0	0
157	201	their	their	their	6	preview	19	216	0	0	0	0	0	0
158	202	fans	fans	fans.	6	preview	19	217	0	0	0	0	0	0
	203	.	.		6	preview	19	218						
159	204	-	-	-Those	6	preview	19	219	175	175	175	175	175	0
	205	Those	Those		6	preview	19	220						
160	206	people	people	people	6	preview	19	221	207	0	0	0	0	207
161	207	who	who	who	6	preview	19	222	306	306	513	306	306	0
162	208	organised	organised	organised	6	preview	19	223	138	138	138	138	138	0
163	209	the	the	the	6	preview	19	224	0	0	0	0	0	0
164	210	trouble	trouble	trouble	6	preview	19	225	307	0	0	0	0	307
165	211	have	have	have	6	preview	19	226	0	0	0	0	0	0
166	212	already	already	already	6	preview	19	227	163	163	470	163	163	0
167	213	been	been	been	6	preview	19	228	0	0	0	0	0	0
168	214	detained	detained	detained.	6	preview	19	229	253	253	253	253	253	0
	215	.	.		6	preview	19	230						
169	216	The	The	The	6	preview	19	231	0	0	0	0	0	0
170	217	security	security	security	6	preview	19	232	0	0	0	0	0	0
171	218	forces	forces	forces	6	preview	19	233	285	285	285	285	285	0
172	219	on	on	on	6	preview	19	234	0	0	0	0	0	0
173	220	duty	duty	duty	6	preview	19	235	0	0	0	0	0	0
174	221	were	were	were	6	preview	19	236	0	0	0	0	0	0
175	222	very	very	very	6	preview	19	237	0	0	0	0	0	0
176	223	professional	professional	professional	6	preview	19	238	0	0	0	0	0	0
177	224	in	in	in	6	preview	19	239	0	0	0	0	0	0
178	225	their	their	their	6	preview	19	240	0	0	0	0	0	0
179	226	work	work	work,-	6	preview	19	241	0	0	0	0	0	0
	227	,	,		6	preview	19	242						
180	228	-	-	said	6	preview	19	243	140	0	0	0	0	140
	229	said	said		6	preview	19	244						
181	230	@entity41	Cheban	Cheban	6	preview	19	245	0	0	0	0	0	0
182	231	in	in	in	6	preview	19	246	0	0	0	0	0	0
183	232	an	an	an	6	preview	19	247	0	0	0	0	0	0
184	233	interview	interview	interview	6	preview	19	248	104	104	244	104	104	0
185	234	with	with	with	6	preview	19	249	0	0	0	0	0	0
186	235	@entity52	Championat.com	Championat.com.	6	preview	19	250	0	0	0	0	0	0
	236	.	.		6	preview	19	251						
187	237	-	-	-Torpedo	6	preview	19	252	0	0	0	0	0	0
	238	@entity4	Torpedo		6	preview	19	253						
188	239	can	can	can	6	preview	19	254	0	0	0	0	0	0
189	240	expect	expect	expect	6	preview	19	255	0	0	0	0	0	0
190	241	to	to	to	6	preview	19	256	0	0	0	0	0	0
191	242	receive	receive	receive	6	preview	19	257	0	0	0	0	0	0
192	243	serious	serious	serious	6	preview	19	258	0	0	0	0	0	0
193	244	punishment	punishment	punishment.	6	preview	19	259	0	0	0	0	0	0
	245	.	.		6	preview	19	260						
194	246	This	This	This	6	preview	19	261	0	0	0	0	0	0
195	247	is	is	is	6	preview	19	262	159	159	159	159	159	0
196	248	hooliganism	hooliganism	hooliganism	6	preview	19	263	471	471	471	309	471	0
197	249	and	and	and	6	preview	19	264	0	0	0	0	0	0
198	250	it	it	it	6	preview	19	265	0	0	0	0	0	0
199	251	not	not	not	6	preview	19	266	159	159	159	159	159	0
200	252	the	the	the	6	preview	19	267	0	0	0	0	0	0
201	253	first	first	first	6	preview	19	268	212	0	0	0	0	212
202	254	time	time	time	6	preview	19	269	0	0	0	0	0	0
203	255	they	they	they	6	preview	19	270	168	168	380	168	168	0
204	256	have	have	have	6	preview	19	271	0	0	0	0	0	0
205	257	stopped	stopped	stopped	6	preview	19	272	0	0	0	0	0	0
206	258	a	a	a	6	preview	19	273	0	0	0	0	0	0
207	259	match	match	match.	6	preview	19	274	267	267	267	267	267	0
	260	.	.		6	preview	19	275						
208	261	The	The	The	6	preview	19	276	0	0	0	0	0	0
209	262	punishment	punishment	punishment	6	preview	19	277	311	0	0	0	0	311
210	263	will	will	will	6	preview	19	278	195	195	506	195	195	0
211	264	be	be	be	6	preview	19	279	0	0	0	0	0	0
212	265	harsh	harsh	harsh.-	6	preview	19	280	0	0	0	0	0	0
	266	.	.		6	preview	19	281						
213	267	-	-	Torpedo-s	6	preview	19	282	248	0	0	0	0	248
	268	@entity4	Torpedo		6	preview	19	283						
	269	-s	-s		6	preview	19	284						
214	270	fans	fans	fans	6	preview	19	285	0	0	0	0	0	0
215	271	have	have	have	6	preview	19	286	0	0	0	0	0	0
216	272	caused	caused	caused	6	preview	19	287	319	0	0	0	0	319
217	273	trouble	trouble	trouble	6	preview	19	288	117	0	0	0	0	117
218	274	on	on	on	6	preview	19	289	0	0	0	0	0	0
219	275	a	a	a	6	preview	19	290	0	0	0	0	0	0
220	276	number	number	number	6	preview	19	291	262	0	0	0	0	262
221	277	of	of	of	6	preview	19	292	0	0	0	0	0	0
222	278	occasions	occasions	occasions	6	preview	19	293	0	0	0	0	0	0
223	279	and	and	and	6	preview	19	294	0	0	0	0	0	0
224	280	the	the	the	6	preview	19	295	0	0	0	0	0	0
225	281	club	club	club	6	preview	19	296	0	0	0	0	0	0
226	282	have	have	have	6	preview	19	297	128	128	1074	128	128	0
227	283	already	already	already	6	preview	19	298	0	0	0	0	0	0
228	284	been	been	been	6	preview	19	299	0	0	0	0	0	0
229	285	punished	punished	punished	6	preview	19	300	0	0	0	0	0	0
230	286	three	three	three	6	preview	19	301	0	0	0	0	0	0
231	287	times	times	times	6	preview	19	302	0	0	0	0	0	0
232	288	this	this	this	6	preview	19	303	0	0	0	0	0	0
233	289	season	season	season	6	preview	19	304	0	0	0	0	0	0
234	290	for	for	for	6	preview	19	305	0	0	0	0	0	0
235	291	racist	racist	racist	6	preview	19	306	0	0	0	0	0	0
236	292	behaviour	behaviour	behaviour	6	preview	19	307	212	212	212	212	212	0
237	293	of	of	of	6	preview	19	308	0	0	0	0	0	0
238	294	their	their	their	6	preview	19	309	0	0	0	0	0	0
239	295	supporters	supporters	supporters.	6	preview	19	310	203	203	203	203	203	0
	296	.	.		6	preview	19	311						
240	297	The	The	The	6	preview	19	312	0	0	0	0	0	0
241	298	last	last	last	6	preview	19	313	0	0	0	0	0	0
242	299	incident	incident	incident	6	preview	19	314	333	333	333	230	333	0
243	300	occurred	occurred	occurred	6	preview	19	315	244	0	0	0	0	244
244	301	on	on	on	6	preview	19	316	314	0	0	0	0	314
245	302	March	March	March	6	preview	19	317	0	0	0	0	0	0
246	303	15	15	15	6	preview	19	318	0	0	0	0	0	0
247	304	when	when	when	6	preview	19	319	0	0	0	0	0	0
248	305	@entity4	Torpedo	Torpedo	6	preview	19	320	157	157	715	157	157	0
249	306	fans	fans	fans	6	preview	19	321	0	0	0	0	0	0
250	307	abused	abused	abused	6	preview	19	322	284	284	284	284	284	0
251	308	@entity73	Zenit	Zenit	6	preview	19	323	335	0	0	0	0	335
252			St	St	6	preview	19	324	0	0	0	0	0	0
253			Petersburg	Petersburg-s	6	preview	19	325	189	189	524	189	189	0
	309	-s	-s		6	preview	19	326						
254	310	@entity72	Brazilian	Brazilian	6	preview	19	327	297	297	297	297	297	0
255	311	forward	forward	forward	6	preview	19	328	243	243	243	243	243	0
256	312	@entity71	Hulk	Hulk.	6	preview	19	329	239	0	0	0	0	239
	313	.	.		6	preview	19	330						
257	314	The	The	The	6	preview	19	331	0	0	0	0	0	0
258	315	side	side	side	6	preview	19	332	495	123	362	123	123	372
259	316	were	were	were	6	preview	19	333	355	355	580	355	355	0
260	317	sanctioned	sanctioned	sanctioned	6	preview	19	334	662	0	0	0	0	662
261	318	by	by	by	6	preview	19	335	740	242	242	242	242	498
262	319	having	having	having	6	preview	19	336	914	0	0	0	0	914
263	320	to	to	to	6	preview	19	337	0	0	0	0	0	0
264	321	play	play	play	6	preview	19	338	923	191	653	191	191	732
265	322	two	two	two	6	preview	19	339	595	385	385	385	385	210
266	323	matches	matches	matches	6	preview	19	340	749	0	0	0	0	749
267	324	behind	behind	behind	6	preview	19	341	240	240	240	240	240	0
268	325	closed	closed	closed	6	preview	19	342	366	0	0	0	0	366
269	326	doors	doors	doors.	6	preview	19	343	779	274	3531	274	779	505
	327	.	.		6	preview	19	344						
270	328	@entity4	Torpedo	Torpedo	6	preview	19	345	166	0	0	0	0	166
271	329	are	are	are	6	preview	19	346	562	0	0	0	0	562
272	330	currently	currently	currently	6	preview	19	347	0	0	0	0	0	0
273	331	in	in	in	6	preview	19	348	176	0	0	0	0	176
274	332	12th	12th	12th	6	preview	19	349	130	130	2098	130	130	0
275	333	place	place	place	6	preview	19	350	201	201	201	201	201	0
276	334	in	in	in	6	preview	19	351	0	0	0	0	0	0
277	335	the	the	the	6	preview	19	352	0	0	0	0	0	0
278	336	@entity2	Russian	Russian	6	preview	19	353	0	0	0	0	0	0
279			Premier	Premier	6	preview	19	354	225	225	225	225	225	0
280			League	League	6	preview	19	355	0	0	0	0	0	0
281	337	table	table	table	6	preview	19	356	0	0	0	0	0	0
282	338	with	with	with	6	preview	19	357	177	177	177	177	177	0
283	339	19	19	19	6	preview	19	358	0	0	0	0	0	0
284	340	points	points	points,	6	preview	19	359	193	0	0	0	0	193
	341	,	,		6	preview	19	360						
285	342	while	while	while	6	preview	19	361	0	0	0	0	0	0
286	343	@entity3	Arsenal	Arsenal	6	preview	19	362	439	175	368	175	175	264
287			Tula	Tula	6	preview	19	363	331	331	331	331	331	0
288	344	are	are	are	6	preview	19	364	0	0	0	0	0	0
289	345	one	one	one	6	preview	19	365	0	0	0	0	0	0
290	346	place	place	place	6	preview	19	366	170	0	0	0	0	170
291	347	off	off	off	6	preview	19	367	292	292	462	292	292	0
292	348	the	the	the	6	preview	19	368	0	0	0	0	0	0
293	349	bottom	bottom	bottom	6	preview	19	369	226	226	226	226	226	0
294	350	with	with	with	6	preview	19	370	0	0	0	0	0	0
295	351	14	14	14	6	preview	19	371	0	0	0	0	0	0
296	352	points	points	points.	6	preview	19	372	219	219	483	219	219	0
	353	.	.		6	preview	19	373						
