HumanPosition	AnonymizedPosition	AnonymizedToken	OriginalToken	ExperimentToken	Participant	Condition	TextNo	JointPosition	tt	fp	rp	ff
1	0	(	(	The	4	preview	8	1	0	0	0	0
2	1	@entity3	CNN	accidental	4	preview	8	2	398	238	238	86
	2	)	)		4	preview	8	3				
	3	The	The		4	preview	8	4				
	4	accidental	accidental		4	preview	8	5				
3	5	death	death	death	4	preview	8	6	172	0	0	0
4	6	of	of	of	4	preview	8	7	161	161	161	161
5	7	a	a	a	4	preview	8	8	0	0	0	0
6	8	2	2	2-year-old	4	preview	8	9	202	0	0	0
	9	-	-		4	preview	8	10				
	10	year	year		4	preview	8	11				
	11	-	-		4	preview	8	12				
	12	old	old		4	preview	8	13				
7	13	boy	boy	boy	4	preview	8	14	165	165	165	165
8	14	in	in	in	4	preview	8	15	0	0	0	0
9	15	@entity2	Milwaukee	Milwaukee	4	preview	8	16	657	294	294	294
10	16	on	on	on	4	preview	8	17	0	0	0	0
11	17	Sunday	Sunday	Sunday	4	preview	8	18	605	605	605	279
12	18	triggered	triggered	triggered	4	preview	8	19	149	149	149	149
13	19	a	a	a	4	preview	8	20	0	0	0	0
14	20	violent	violent	violent	4	preview	8	21	0	0	0	0
15	21	chain	chain	chain	4	preview	8	22	0	0	0	0
16	22	of	of	of	4	preview	8	23	323	323	323	323
17	23	events	events	events,	4	preview	8	24	0	0	0	0
	24	,	,		4	preview	8	25				
18	25	eventually	eventually	eventually	4	preview	8	26	115	115	115	115
19	26	claiming	claiming	claiming	4	preview	8	27	180	180	180	180
20	27	the	the	the	4	preview	8	28	0	0	0	0
21	28	lives	lives	lives	4	preview	8	29	167	167	167	167
22	29	of	of	of	4	preview	8	30	0	0	0	0
23	30	three	three	three	4	preview	8	31	157	0	0	0
24	31	more	more	more	4	preview	8	32	252	252	409	252
25	32	people	people	people.	4	preview	8	33	185	185	185	185
	33	.	.		4	preview	8	34				
26	34	It	It	It	4	preview	8	35	0	0	0	0
27	35	all	all	all	4	preview	8	36	371	196	1268	196
28	36	started	started	started	4	preview	8	37	0	0	0	0
29	37	with	with	with	4	preview	8	38	186	0	0	0
30	38	a	a	a	4	preview	8	39	0	0	0	0
31	39	birthday	birthday	birthday	4	preview	8	40	444	256	256	256
32	40	party	party	party	4	preview	8	41	0	0	0	0
33	41	that	that	that	4	preview	8	42	466	281	281	281
34	42	little	little	little	4	preview	8	43	0	0	0	0
35	43	@entity9	Damani	Damani	4	preview	8	44	175	175	175	175
36			Terry	Terry	4	preview	8	45	0	0	0	0
37	44	was	was	was	4	preview	8	46	0	0	0	0
38	45	attending	attending	attending.	4	preview	8	47	185	185	744	185
	46	.	.		4	preview	8	48				
39	47	During	During	During	4	preview	8	49	231	141	141	141
40	48	the	the	the	4	preview	8	50	166	166	256	166
41	49	family	family	family	4	preview	8	51	0	0	0	0
42	50	gathering	gathering	gathering,	4	preview	8	52	155	155	155	155
	51	,	,		4	preview	8	53				
43	52	he	he	he	4	preview	8	54	0	0	0	0
44	53	dashed	dashed	dashed	4	preview	8	55	177	177	177	177
45	54	out	out	out	4	preview	8	56	0	0	0	0
46	55	into	into	into	4	preview	8	57	0	0	0	0
47	56	the	the	the	4	preview	8	58	214	214	214	214
48	57	street	street	street	4	preview	8	59	0	0	0	0
49	58	and	and	and	4	preview	8	60	0	0	0	0
50	59	was	was	was	4	preview	8	61	0	0	0	0
51	60	struck	struck	struck	4	preview	8	62	212	212	212	212
52	61	and	and	and	4	preview	8	63	0	0	0	0
53	62	killed	killed	killed	4	preview	8	64	0	0	0	0
54	63	by	by	by	4	preview	8	65	0	0	0	0
55	64	a	a	a	4	preview	8	66	0	0	0	0
56	65	@entity14	GMC	GMC	4	preview	8	67	146	146	146	146
57	66	van	van	van,	4	preview	8	68	0	0	0	0
	67	,	,		4	preview	8	69				
58	68	according	according	according	4	preview	8	70	168	0	0	0
59	69	to	to	to	4	preview	8	71	113	113	281	113
60	70	@entity2	Milwaukee	Milwaukee	4	preview	8	72	0	0	0	0
61	71	police	police	police.	4	preview	8	73	163	163	163	163
	72	.	.		4	preview	8	74				
62	73	The	The	The	4	preview	8	75	0	0	0	0
63	74	distraught	distraught	distraught	4	preview	8	76	201	201	201	201
64	75	driver	driver	driver,	4	preview	8	77	142	142	142	142
	76	,	,		4	preview	8	78				
65	77	@entity16	Archie	Archie	4	preview	8	79	0	0	0	0
66			Brown	Brown	4	preview	8	80	239	239	239	239
67			Jr.	Jr.,	4	preview	8	81	0	0	0	0
	78	,	,		4	preview	8	82				
68	79	40	40	40,	4	preview	8	83	0	0	0	0
	80	,	,		4	preview	8	84				
69	81	immediately	immediately	immediately	4	preview	8	85	175	0	0	0
70	82	stopped	stopped	stopped	4	preview	8	86	136	136	311	136
71	83	and	and	and	4	preview	8	87	0	0	0	0
72	84	got	got	got	4	preview	8	88	0	0	0	0
73	85	out	out	out	4	preview	8	89	194	194	194	194
74	86	to	to	to	4	preview	8	90	0	0	0	0
75	87	tend	tend	tend	4	preview	8	91	168	168	168	168
76	88	to	to	to	4	preview	8	92	0	0	0	0
77	89	the	the	the	4	preview	8	93	0	0	0	0
78	90	boy	boy	boy.	4	preview	8	94	137	137	137	137
	91	.	.		4	preview	8	95				
79	92	But	But	But	4	preview	8	96	0	0	0	0
80	93	it	it	it	4	preview	8	97	0	0	0	0
81	94	was	was	was	4	preview	8	98	193	193	193	193
82	95	too	too	too	4	preview	8	99	0	0	0	0
83	96	late	late	late,	4	preview	8	100	0	0	0	0
	97	,	,		4	preview	8	101				
84	98	police	police	police	4	preview	8	102	140	140	140	140
85	99	said	said	said.	4	preview	8	103	0	0	0	0
	100	.	.		4	preview	8	104				
86	101	@entity9	Damani	Damani	4	preview	8	105	0	0	0	0
87	102	was	was	was	4	preview	8	106	0	0	0	0
88	103	dead	dead	dead.	4	preview	8	107	290	290	290	290
	104	.	.		4	preview	8	108				
89	105	@entity9	Damani	Damani-s	4	preview	8	109	0	0	0	0
	106	-s	-s		4	preview	8	110				
90	107	alarmed	alarmed	alarmed	4	preview	8	111	155	155	155	155
91	108	family	family	family	4	preview	8	112	0	0	0	0
92	109	came	came	came	4	preview	8	113	0	0	0	0
93	110	running	running	running,	4	preview	8	114	221	221	221	221
	111	,	,		4	preview	8	115				
94	112	including	including	including	4	preview	8	116	159	159	159	159
95	113	his	his	his	4	preview	8	117	0	0	0	0
96	114	older	older	older	4	preview	8	118	190	190	190	190
97	115	brother	brother	brother,	4	preview	8	119	0	0	0	0
	116	,	,		4	preview	8	120				
98	117	15	15	15-year-old	4	preview	8	121	254	254	254	254
	118	-	-		4	preview	8	122				
	119	year	year		4	preview	8	123				
	120	-	-		4	preview	8	124				
	121	old	old		4	preview	8	125				
99	122	@entity22	Rasheed	Rasheed	4	preview	8	126	0	0	0	0
100			Chiles	Chiles,	4	preview	8	127	0	0	0	0
	123	,	,		4	preview	8	128				
101	124	police	police	police	4	preview	8	129	236	236	236	236
102	125	said	said	said.	4	preview	8	130	0	0	0	0
	126	.	.		4	preview	8	131				
103	127	That	That	That	4	preview	8	132	0	0	0	0
104	128	was	was	was	4	preview	8	133	197	197	197	197
105	129	not	not	not	4	preview	8	134	0	0	0	0
106	130	the	the	the	4	preview	8	135	0	0	0	0
107	131	end	end	end	4	preview	8	136	0	0	0	0
108	132	of	of	of	4	preview	8	137	139	139	139	139
109	133	the	the	the	4	preview	8	138	0	0	0	0
110	134	situation	situation	situation.	4	preview	8	139	133	133	133	133
	135	.	.		4	preview	8	140				
111	136	Soon	Soon	Soon,	4	preview	8	141	0	0	0	0
	137	,	,		4	preview	8	142				
112	138	two	two	two	4	preview	8	143	0	0	0	0
113	139	more	more	more	4	preview	8	144	116	0	0	0
114	140	people	people	people	4	preview	8	145	155	155	271	155
115	141	would	would	would	4	preview	8	146	0	0	0	0
116	142	also	also	also	4	preview	8	147	276	276	276	276
117	143	die	die	die:	4	preview	8	148	0	0	0	0
118	144	:	:	the	4	preview	8	149	0	0	0	0
119	145	the	the	driver	4	preview	8	150	125	125	125	125
	146	driver	driver		4	preview	8	151				
120	147	and	and	and	4	preview	8	152	0	0	0	0
121	148	the	the	the	4	preview	8	153	0	0	0	0
122	149	teen	teen	teen	4	preview	8	154	0	0	0	0
123	150	were	were	were	4	preview	8	155	0	0	0	0
124	151	both	both	both	4	preview	8	156	494	494	494	494
125	152	felled	felled	felled	4	preview	8	157	84	84	84	84
126	153	by	by	by	4	preview	8	158	0	0	0	0
127	154	bullets	bullets	bullets	4	preview	8	159	239	239	239	239
128	155	fired	fired	fired	4	preview	8	160	0	0	0	0
129	156	by	by	by	4	preview	8	161	0	0	0	0
130	157	the	the	the	4	preview	8	162	238	238	238	238
131	158	same	same	same	4	preview	8	163	189	189	189	189
132	159	man	man	man,	4	preview	8	164	0	0	0	0
	160	,	,		4	preview	8	165				
133	161	police	police	police	4	preview	8	166	281	281	281	281
134	162	said	said	said.	4	preview	8	167	0	0	0	0
	163	.	.		4	preview	8	168				
135	164	That	That	That	4	preview	8	169	351	351	351	351
136	165	man	man	man,	4	preview	8	170	203	0	0	0
	166	,	,		4	preview	8	171				
137	167	identified	identified	identified	4	preview	8	172	170	170	170	170
138	168	as	as	as	4	preview	8	173	0	0	0	0
139	169	@entity33	Ricky	Ricky	4	preview	8	174	197	197	197	197
140			Ricardo	Ricardo	4	preview	8	175	0	0	0	0
141			Chiles	Chiles	4	preview	8	176	0	0	0	0
142			III	III,	4	preview	8	177	0	0	0	0
	170	,	,		4	preview	8	178				
143	171	was	was	was	4	preview	8	179	0	0	0	0
144	172	located	located	located	4	preview	8	180	221	0	0	0
145	173	late	late	late	4	preview	8	181	125	125	346	125
146	174	Wednesday	Wednesday	Wednesday	4	preview	8	182	0	0	0	0
147	175	at	at	at	4	preview	8	183	0	0	0	0
148	176	a	a	a	4	preview	8	184	0	0	0	0
149	177	@entity35	Chicago	Chicago-area	4	preview	8	185	408	192	192	192
	178	-	-		4	preview	8	186				
	179	area	area		4	preview	8	187				
150	180	hotel	hotel	hotel.	4	preview	8	188	0	0	0	0
	181	.	.		4	preview	8	189				
151	182	He	He	He	4	preview	8	190	0	0	0	0
152	183	committed	committed	committed	4	preview	8	191	0	0	0	0
153	184	suicide	suicide	suicide	4	preview	8	192	437	266	856	266
154	185	as	as	as	4	preview	8	193	0	0	0	0
155	186	authorities	authorities	authorities	4	preview	8	194	152	152	152	152
156	187	closed	closed	closed	4	preview	8	195	0	0	0	0
157	188	in	in	in	4	preview	8	196	0	0	0	0
158	189	with	with	with	4	preview	8	197	187	187	187	187
159	190	a	a	a	4	preview	8	198	0	0	0	0
160	191	warrant	warrant	warrant	4	preview	8	199	102	102	102	102
161	192	for	for	for	4	preview	8	200	0	0	0	0
162	193	his	his	his	4	preview	8	201	0	0	0	0
163	194	arrest	arrest	arrest,	4	preview	8	202	205	205	205	205
	195	,	,		4	preview	8	203				
164	196	@entity2	Milwaukee	Milwaukee	4	preview	8	204	238	238	238	238
165	197	Police	Police	Police	4	preview	8	205	0	0	0	0
166	198	Chief	Chief	Chief	4	preview	8	206	157	157	157	157
167	199	@entity36	Ed	Ed	4	preview	8	207	0	0	0	0
168			Flynn	Flynn	4	preview	8	208	0	0	0	0
169	200	told	told	told	4	preview	8	209	0	0	0	0
170	201	reporters	reporters	reporters.	4	preview	8	210	154	154	154	154
	202	.	.		4	preview	8	211				
171	203	-	-	-Chicago	4	preview	8	212	0	0	0	0
	204	@entity35	Chicago		4	preview	8	213				
172	205	police	police	police	4	preview	8	214	200	200	200	200
173	206	and	and	and	4	preview	8	215	0	0	0	0
174	207	@entity43	United	United	4	preview	8	216	195	195	195	195
175			States	States	4	preview	8	217	0	0	0	0
176			Marshals	Marshals	4	preview	8	218	0	0	0	0
177			Service	Service	4	preview	8	219	191	191	191	191
178	208	entered	entered	entered	4	preview	8	220	147	147	147	147
179	209	the	the	the	4	preview	8	221	0	0	0	0
180	210	hotel	hotel	hotel	4	preview	8	222	0	0	0	0
181	211	room	room	room,	4	preview	8	223	0	0	0	0
	212	,	,		4	preview	8	224				
182	213	whereupon	whereupon	whereupon	4	preview	8	225	284	284	284	284
183	214	Mr.	Mr.	Mr.	4	preview	8	226	0	0	0	0
184	215	@entity22	Chiles	Chiles	4	preview	8	227	0	0	0	0
185	216	took	took	took	4	preview	8	228	238	238	238	101
186	217	his	his	his	4	preview	8	229	0	0	137	0
187	218	own	own	own	4	preview	8	230	0	0	0	0
188	219	life	life	life	4	preview	8	231	0	0	0	0
189	220	with	with	with	4	preview	8	232	0	0	0	0
190	221	his	his	his	4	preview	8	233	0	0	0	0
191	222	firearm	firearm	firearm,-	4	preview	8	234	245	245	245	245
	223	,	,		4	preview	8	235				
	224	-	-		4	preview	8	236				
192	225	the	the	the	4	preview	8	237	0	0	0	0
193	226	police	police	police	4	preview	8	238	274	274	274	274
194	227	chief	chief	chief	4	preview	8	239	0	0	0	0
195	228	said	said	said	4	preview	8	240	0	0	0	0
196	229	Thursday	Thursday	Thursday.	4	preview	8	241	0	0	0	0
	230	.	.		4	preview	8	242				
197	231	An	An	An	4	preview	8	243	0	0	0	0
198	232	accidental	accidental	accidental	4	preview	8	244	339	0	0	0
199	233	death	death	death,	4	preview	8	245	0	0	0	0
	234	,	,		4	preview	8	246				
200	235	a	a	a	4	preview	8	247	0	0	0	0
201	236	fatal	fatal	fatal	4	preview	8	248	553	0	0	0
202	237	retaliation	retaliation	retaliation	4	preview	8	249	145	0	0	0
203	238	rips	rips	rips	4	preview	8	250	0	0	0	0
204	239	apart	apart	apart	4	preview	8	251	341	0	0	0
205	240	two	two	two	4	preview	8	252	119	119	1366	119
206	241	families	families	families	4	preview	8	253	470	361	601	361
207	242	@entity9	Damani	Damani-s	4	preview	8	254	134	134	134	134
	243	-s	-s		4	preview	8	255				
208	244	family	family	family	4	preview	8	256	274	274	274	274
209	245	members	members	members	4	preview	8	257	228	0	0	0
210	246	had	had	had	4	preview	8	258	144	0	0	0
211	247	previously	previously	previously	4	preview	8	259	377	213	213	213
212	248	identified	identified	identified	4	preview	8	260	335	172	172	172
213	249	the	the	the	4	preview	8	261	0	0	0	0
214	250	shooting	shooting	shooting	4	preview	8	262	328	240	240	240
215	251	suspect	suspect	suspect	4	preview	8	263	0	0	0	0
216	252	as	as	as	4	preview	8	264	0	0	0	0
217	253	the	the	the	4	preview	8	265	204	204	204	204
218	254	boys	boys	boys-	4	preview	8	266	152	152	152	152
	255	-	-		4	preview	8	267				
219	256	uncle	uncle	uncle.	4	preview	8	268	0	0	0	0
	257	.	.		4	preview	8	269				
220	258	-	-	-Sunday	4	preview	8	270	371	0	0	0
	259	Sunday	Sunday		4	preview	8	271				
221	260	was	was	was	4	preview	8	272	136	136	348	136
222	261	the	the	the	4	preview	8	273	0	0	0	0
223	262	worst	worst	worst	4	preview	8	274	152	152	1098	152
224	263	day	day	day	4	preview	8	275	268	268	268	268
225	264	I	I	I	4	preview	8	276	0	0	0	0
226	265	ever	ever	ever	4	preview	8	277	0	0	0	0
227	266	lived	lived	lived	4	preview	8	278	142	142	142	142
228	267	in	in	in	4	preview	8	279	0	0	0	0
229	268	my	my	my	4	preview	8	280	0	0	0	0
230	269	whole	whole	whole	4	preview	8	281	0	0	0	0
231	270	entire	entire	entire	4	preview	8	282	213	213	213	213
232	271	life	life	life,-	4	preview	8	283	0	0	0	0
	272	,	,		4	preview	8	284				
	273	-	-		4	preview	8	285				
233	274	@entity54	Lena	Lena	4	preview	8	286	0	0	0	0
234			Tidwell	Tidwell,	4	preview	8	287	222	222	222	222
	275	,	,		4	preview	8	288				
235	276	told	told	told	4	preview	8	289	0	0	0	0
236	277	@entity3	CNN	CNN	4	preview	8	290	0	0	0	0
237	278	affiliate	affiliate	affiliate	4	preview	8	291	0	0	0	0
238	279	@entity55	WISN	WISN.	4	preview	8	292	0	0	0	0
	280	.	.		4	preview	8	293				
239	281	-	-	-It-s	4	preview	8	294	0	0	0	0
	282	It	It		4	preview	8	295				
	283	-s	-s		4	preview	8	296				
240	284	a	a	a	4	preview	8	297	106	0	0	0
241	285	day	day	day	4	preview	8	298	159	159	265	159
242	286	I	I	I	4	preview	8	299	0	0	0	0
243	287	wish	wish	wish	4	preview	8	300	0	0	0	0
244	288	had	had	had	4	preview	8	301	0	0	0	0
245	289	never	never	never,	4	preview	8	302	206	206	206	206
	290	,	,		4	preview	8	303				
246	291	never	never	never	4	preview	8	304	126	126	126	126
247	292	came	came	came.-	4	preview	8	305	0	0	0	0
	293	.	.		4	preview	8	306				
248	294	-	-	Tidwell	4	preview	8	307	127	127	127	127
	295	@entity54	Tidwell		4	preview	8	308				
249	296	is	is	is	4	preview	8	309	0	0	0	0
250	297	the	the	the	4	preview	8	310	112	112	112	112
251	298	boys	boys	boys-	4	preview	8	311	0	0	0	0
	299	-	-		4	preview	8	312				
252	300	grandmother	grandmother	grandmother	4	preview	8	313	230	230	230	230
253	301	and	and	and	4	preview	8	314	0	0	0	0
254	302	the	the	the	4	preview	8	315	0	0	0	0
255	303	mother	mother	mother	4	preview	8	316	213	213	213	213
256	304	of	of	of	4	preview	8	317	0	0	0	0
257	305	the	the	the	4	preview	8	318	0	0	0	0
258	306	alleged	alleged	alleged	4	preview	8	319	269	269	269	269
259	307	gunman	gunman	gunman.	4	preview	8	320	0	0	0	0
	308	.	.		4	preview	8	321				
260	309	She	She	She	4	preview	8	322	0	0	0	0
261	310	said	said	said	4	preview	8	323	246	246	246	246
262	311	she	she	she	4	preview	8	324	0	0	0	0
263	312	was	was	was	4	preview	8	325	0	0	0	0
264	313	inside	inside	inside	4	preview	8	326	499	371	371	371
265	314	eating	eating	eating	4	preview	8	327	225	225	353	225
266	315	cake	cake	cake	4	preview	8	328	0	0	0	0
267	316	and	and	and	4	preview	8	329	0	0	0	0
268	317	ice	ice	ice	4	preview	8	330	0	0	0	0
269	318	cream	cream	cream	4	preview	8	331	263	263	263	263
270	319	at	at	at	4	preview	8	332	0	0	0	0
271	320	the	the	the	4	preview	8	333	0	0	0	0
272	321	birthday	birthday	birthday	4	preview	8	334	0	0	0	0
273	322	when	when	when	4	preview	8	335	239	239	239	239
274	323	her	her	her	4	preview	8	336	0	0	0	0
275	324	life	life	life	4	preview	8	337	0	0	0	0
276	325	turned	turned	turned	4	preview	8	338	0	0	0	0
277	326	upside	upside	upside	4	preview	8	339	246	246	246	246
278	327	down	down	down.	4	preview	8	340	0	0	0	0
	328	.	.		4	preview	8	341				
279	329	-	-	-I	4	preview	8	342	0	0	0	0
	330	I	I		4	preview	8	343				
280	331	did	did	didn-t	4	preview	8	344	198	198	198	198
	332	n-t	n-t		4	preview	8	345				
281	333	know	know	know	4	preview	8	346	0	0	0	0
282	334	my	my	my	4	preview	8	347	0	0	0	0
283	335	grandbaby	grandbaby	grandbaby	4	preview	8	348	370	0	0	0
284	336	got	got	got	4	preview	8	349	463	291	291	291
285	337	hit	hit	hit,	4	preview	8	350	0	0	0	0
	338	,	,		4	preview	8	351				
286	339	and	and	and	4	preview	8	352	0	0	0	0
287	340	then	then	then	4	preview	8	353	182	0	0	0
288	341	I	I	I	4	preview	8	354	0	0	0	0
289	342	heard	heard	heard	4	preview	8	355	92	92	816	92
290	343	people	people	people	4	preview	8	356	168	168	168	168
291	344	just	just	just	4	preview	8	357	0	0	0	0
292	345	screaming	screaming	screaming,-	4	preview	8	358	171	171	171	171
	346	,	,		4	preview	8	359				
	347	-	-		4	preview	8	360				
293	348	she	she	she	4	preview	8	361	144	0	0	0
294	349	said	said	said.	4	preview	8	362	0	0	0	0
	350	.	.		4	preview	8	363				
295	351	-	-	-Then	4	preview	8	364	150	150	150	150
	352	Then	Then		4	preview	8	365				
296	353	I	I	I	4	preview	8	366	0	0	0	0
297	354	just	just	just	4	preview	8	367	0	0	0	0
298	355	heard	heard	heard	4	preview	8	368	0	0	0	0
299	356	gunshots	gunshots	gunshots,	4	preview	8	369	292	292	292	292
	357	,	,		4	preview	8	370				
300	358	and	and	and	4	preview	8	371	0	0	0	0
301	359	my	my	my	4	preview	8	372	0	0	0	0
302	360	daughter	daughter	daughter	4	preview	8	373	182	182	182	182
303	361	ran	ran	ran	4	preview	8	374	0	0	0	0
304	362	in	in	in	4	preview	8	375	0	0	0	0
305	363	the	the	the	4	preview	8	376	231	231	375	231
306	364	house	house	house	4	preview	8	377	0	0	0	0
307	365	with	with	with	4	preview	8	378	0	0	0	0
308	366	the	the	the	4	preview	8	379	0	0	0	0
309	367	baby	baby	baby	4	preview	8	380	0	0	0	0
310	368	in	in	in	4	preview	8	381	0	0	0	0
311	369	her	her	her	4	preview	8	382	0	0	0	0
312	370	arms	arms	arms.-	4	preview	8	383	0	0	0	0
	371	.	.		4	preview	8	384				
313	372	-	-	The	4	preview	8	385	0	0	0	0
314	373	The	The	family	4	preview	8	386	158	0	0	0
	374	family	family		4	preview	8	387				
315	375	believes	believes	believes	4	preview	8	388	174	174	332	174
316	376	the	the	the	4	preview	8	389	0	0	0	0
317	377	uncle	uncle	uncle	4	preview	8	390	281	281	281	281
318	378	targeted	targeted	targeted	4	preview	8	391	261	0	0	0
319	379	@entity16	Brown	Brown,	4	preview	8	392	0	0	0	0
	380	,	,		4	preview	8	393				
320	381	and	and	and	4	preview	8	394	0	0	0	0
321	382	@entity22	Rasheed	Rasheed	4	preview	8	395	465	273	726	273
322	383	was	was	was	4	preview	8	396	153	0	0	0
323	384	struck	struck	struck	4	preview	8	397	178	178	178	178
324	385	by	by	by	4	preview	8	398	0	0	0	0
325	386	an	an	an	4	preview	8	399	0	0	0	0
326	387	errant	errant	errant	4	preview	8	400	276	276	429	276
327	388	bullet	bullet	bullet.	4	preview	8	401	0	0	0	0
	389	.	.		4	preview	8	402				
328	390	-	-	-I	4	preview	8	403	0	0	0	0
	391	I	I		4	preview	8	404				
329	392	heard	heard	heard	4	preview	8	405	410	0	0	0
330	393	he	he	he	4	preview	8	406	303	144	342	144
331	394	was	was	was	4	preview	8	407	214	0	0	0
332	395	trying	trying	trying	4	preview	8	408	157	157	157	157
333	396	to	to	to	4	preview	8	409	0	0	0	0
334	397	pick	pick	pick	4	preview	8	410	251	251	251	251
335	398	his	his	his	4	preview	8	411	0	0	0	0
336	399	brother	brother	brother	4	preview	8	412	81	81	81	81
337	400	up	up	up.	4	preview	8	413	0	0	0	0
	401	.	.		4	preview	8	414				
338	402	He	He	He	4	preview	8	415	224	0	0	0
339	403	was	was	was	4	preview	8	416	436	436	1245	194
340	404	trying	trying	trying	4	preview	8	417	0	0	0	0
341	405	to	to	to	4	preview	8	418	0	0	0	0
342	406	hold	hold	hold	4	preview	8	419	203	203	203	203
343	407	him	him	him	4	preview	8	420	0	0	0	0
344	408	and	and	and	4	preview	8	421	114	114	114	114
345	409	save	save	save	4	preview	8	422	0	0	0	0
346	410	him	him	him,-	4	preview	8	423	0	0	0	0
	411	,	,		4	preview	8	424				
	412	-	-		4	preview	8	425				
347	413	a	a	a	4	preview	8	426	0	0	0	0
348	414	family	family	family	4	preview	8	427	271	271	271	271
349	415	friend	friend	friend,	4	preview	8	428	0	0	0	0
	416	,	,		4	preview	8	429				
350	417	@entity77	Stephanie	Stephanie	4	preview	8	430	199	199	199	199
351			Townsend	Townsend,	4	preview	8	431	0	0	0	0
	418	,	,		4	preview	8	432				
352	419	told	told	told	4	preview	8	433	0	0	0	0
353	420	@entity3	CNN	CNN	4	preview	8	434	180	180	180	180
354	421	affiliate	affiliate	affiliate	4	preview	8	435	0	0	0	0
355	422	@entity78	WITI	WITI.	4	preview	8	436	0	0	0	0
	423	.	.		4	preview	8	437				
356	424	Earlier	Earlier	Earlier	4	preview	8	438	164	164	164	164
357	425	this	this	this	4	preview	8	439	0	0	0	0
358	426	week	week	week,	4	preview	8	440	0	0	0	0
	427	,	,		4	preview	8	441				
359	428	@entity36	Flynn	Flynn	4	preview	8	442	0	0	0	0
360	429	bemoaned	bemoaned	bemoaned	4	preview	8	443	0	0	0	0
361	430	the	the	the	4	preview	8	444	326	168	168	168
362	431	apparent	apparent	apparent	4	preview	8	445	0	0	0	0
363	432	madness	madness	madness	4	preview	8	446	214	0	0	0
364	433	of	of	of	4	preview	8	447	0	0	0	0
365	434	what	what	what	4	preview	8	448	0	0	0	0
366	435	happened	happened	happened.	4	preview	8	449	262	0	0	0
	436	.	.		4	preview	8	450				
367	437	-	-	-What	4	preview	8	451	283	0	0	0
	438	What	What		4	preview	8	452				
368	439	did	did	did	4	preview	8	453	299	0	0	0
369	440	we	we	we	4	preview	8	454	319	0	0	0
370	441	have	have	have	4	preview	8	455	0	0	0	0
371	442	Sunday	Sunday	Sunday?-	4	preview	8	456	343	227	1878	227
	443	?	?		4	preview	8	457				
	444	-	-		4	preview	8	458				
372	445	@entity36	Flynn	Flynn	4	preview	8	459	0	0	0	0
373	446	asked	asked	asked.	4	preview	8	460	218	218	218	218
	447	.	.		4	preview	8	461				
374	448	-	-	-We	4	preview	8	462	0	0	0	0
	449	We	We		4	preview	8	463				
375	450	had	had	had	4	preview	8	464	0	0	0	0
376	451	some	some	some	4	preview	8	465	373	186	186	186
377	452	clown	clown	clown	4	preview	8	466	166	0	0	0
378	453	take	take	take	4	preview	8	467	289	289	642	289
379	454	the	the	the	4	preview	8	468	0	0	0	0
380	455	law	law	law	4	preview	8	469	0	0	0	0
381	456	into	into	into	4	preview	8	470	236	236	236	236
382	457	his	his	his	4	preview	8	471	0	0	0	0
383	458	own	own	own	4	preview	8	472	249	249	249	249
384	459	hands	hands	hands	4	preview	8	473	0	0	0	0
385	460	and	and	and	4	preview	8	474	0	0	0	0
386	461	murder	murder	murder	4	preview	8	475	159	159	159	159
387	462	a	a	a	4	preview	8	476	0	0	0	0
388	463	guy	guy	guy	4	preview	8	477	0	0	0	0
389	464	who	who	who	4	preview	8	478	0	0	0	0
390	465	was	was	was	4	preview	8	479	325	325	325	325
391	466	doing	doing	doing	4	preview	8	480	118	0	0	0
392	467	what	what	what	4	preview	8	481	268	268	386	268
393	468	we	we	we	4	preview	8	482	230	0	0	0
394	469	expect	expect	expect	4	preview	8	483	0	0	0	0
395	470	good	good	good	4	preview	8	484	294	294	524	294
396	471	citizens	citizens	citizens	4	preview	8	485	448	0	0	0
397	472	to	to	to	4	preview	8	486	0	0	0	0
398	473	do	do	do,	4	preview	8	487	193	193	193	193
	474	,	,		4	preview	8	488				
399	475	and	and	and	4	preview	8	489	238	0	0	0
400	476	oops	oops	oops,	4	preview	8	490	183	183	183	183
	477	,	,		4	preview	8	491				
401	478	accidentally	accidentally	accidentally	4	preview	8	492	328	328	328	328
402	479	kill	kill	kill	4	preview	8	493	0	0	0	0
403	480	somebody	somebody	somebody	4	preview	8	494	279	279	965	279
404	481	else	else	else.-	4	preview	8	495	0	0	0	0
	482	.	.		4	preview	8	496				
