HumanPosition	AnonymizedPosition	AnonymizedToken	OriginalToken	ExperimentToken	Participant	Condition	TextNo	JointPosition	tt	fp	rp	ff	rb	sp
0	0	@entity0	Raheem	Raheem	8	preview	10	1	170	0	0	0	0	170
2			Sterling	Sterling	8	preview	10	2	131	131	301	131	131	0
3	1	has	has	has	8	preview	10	3	0	0	0	0	0	0
4	2	admitted	admitted	admitted	8	preview	10	4	0	0	301	0	0	0
5	3	he	he	he	8	preview	10	5	0	0	0	0	0	0
6	4	is	is	is	8	preview	10	6	0	0	0	0	0	0
7	5	not	not	not	8	preview	10	7	0	0	0	0	0	0
8	6	ready	ready	ready	8	preview	10	8	0	0	0	0	0	0
9	7	to	to	to	8	preview	10	9	0	0	0	0	0	0
10	8	sign	sign	sign	8	preview	10	10	0	0	0	0	0	0
11	9	a	a	a	8	preview	10	11	0	0	0	0	0	0
12	10	new	new	new	8	preview	10	12	0	0	0	0	0	0
13	11	contract	contract	contract	8	preview	10	13	0	0	0	0	0	0
14	12	at	at	at	8	preview	10	14	0	0	0	0	0	0
15	13	@entity3	Liverpool	Liverpool	8	preview	10	15	0	0	0	0	0	0
16	14	deal	deal	deal	8	preview	10	16	0	0	0	0	0	0
17	15	despite	despite	despite	8	preview	10	17	461	0	0	0	0	461
18	16	being	being	being	8	preview	10	18	113	0	0	0	0	113
19	17	offered	offered	offered	8	preview	10	19	372	0	0	0	0	372
20	18	a	a	a	8	preview	10	20	118	0	0	0	0	118
21	19	£	£	£100,000-a-week	8	preview	10	21	1813	195	195	195	195	1618
	20	100,000	100,000		8	preview	10	22						
	21	-	-		8	preview	10	23						
	22	a	a		8	preview	10	24						
	23	-	-		8	preview	10	25						
	24	week	week		8	preview	10	26						
22	25	deal	deal	deal	8	preview	10	27	383	0	0	0	0	383
23	26	to	to	to	8	preview	10	28	311	186	186	186	186	125
24	27	stay	stay	stay	8	preview	10	29	133	0	0	0	0	133
25	28	with	with	with	8	preview	10	30	567	0	0	0	0	567
26	29	the	the	the	8	preview	10	31	528	171	171	171	171	357
27	30	@entity6	Merseyside	Merseyside	8	preview	10	32	414	162	752	162	162	252
28	31	club	club	club.	8	preview	10	33	0	0	0	0	0	0
	32	.	.		8	preview	10	34						
29	33	The	The	The	8	preview	10	35	0	0	0	0	0	0
30	34	20	20	20-year-old	8	preview	10	36	177	0	0	0	0	177
	35	-	-		8	preview	10	37						
	36	year	year		8	preview	10	38						
	37	-	-		8	preview	10	39						
	38	old	old		8	preview	10	40						
31	39	wideman	wideman	wideman	8	preview	10	41	261	0	0	0	0	261
32	40	edged	edged	edged	8	preview	10	42	122	0	0	0	0	122
33	41	closer	closer	closer	8	preview	10	43	399	0	0	0	0	399
34	42	towards	towards	towards	8	preview	10	44	185	0	1605	0	0	185
35	43	an	an	an	8	preview	10	45	0	0	0	0	0	0
36	44	@entity9	Anfield	Anfield	8	preview	10	46	87	87	87	87	87	0
37	45	exit	exit	exit	8	preview	10	47	128	0	0	0	0	128
38	46	after	after	after	8	preview	10	48	147	147	147	147	147	0
39	47	revealing	revealing	revealing	8	preview	10	49	315	147	1222	147	147	168
40	48	in	in	in	8	preview	10	50	0	0	0	0	0	0
41	49	an	an	an	8	preview	10	51	0	0	0	0	0	0
42	50	interview	interview	interview	8	preview	10	52	0	0	0	0	0	0
43	51	with	with	with	8	preview	10	53	0	0	0	0	0	0
44	52	the	the	the	8	preview	10	54	0	0	0	0	0	0
45	53	@entity11	BBC	BBC	8	preview	10	55	0	0	0	0	0	0
46	54	on	on	on	8	preview	10	56	0	0	0	0	0	0
47	55	Wednesday	Wednesday	Wednesday	8	preview	10	57	172	0	0	0	0	172
48	56	that	that	that	8	preview	10	58	0	0	0	0	0	0
49	57	he	he	he	8	preview	10	59	0	0	0	0	0	0
50	58	would	would	would	8	preview	10	60	115	0	0	0	0	115
51	59	have	have	have	8	preview	10	61	212	212	499	212	212	0
52	60	signed	signed	signed	8	preview	10	62	0	0	0	0	0	0
53	61	for	for	for	8	preview	10	63	229	0	0	0	0	229
54	62	a	a	a	8	preview	10	64	0	0	0	0	0	0
55	63	lot	lot	lot	8	preview	10	65	0	0	0	0	0	0
56	64	less	less	less	8	preview	10	66	0	0	0	0	0	0
57	65	a	a	a	8	preview	10	67	0	0	0	0	0	0
58	66	year	year	year	8	preview	10	68	0	0	0	0	0	0
59	67	ago	ago	ago.	8	preview	10	69	0	0	0	0	0	0
	68	.	.		8	preview	10	70						
60	69	However	However	However,	8	preview	10	71	201	0	0	0	0	201
	70	,	,		8	preview	10	72						
61	71	despite	despite	despite	8	preview	10	73	125	0	0	0	0	125
62	72	being	being	being	8	preview	10	74	0	0	0	0	0	0
63	73	one	one	one	8	preview	10	75	0	0	0	0	0	0
64	74	of	of	of	8	preview	10	76	0	0	0	0	0	0
65	75	@entity3	Liverpool	Liverpool-s	8	preview	10	77	569	0	0	0	0	569
	76	-s	-s		8	preview	10	78						
66	77	star	star	star	8	preview	10	79	0	0	0	0	0	0
67	78	men	men	men,	8	preview	10	80	0	0	0	0	0	0
	79	,	,		8	preview	10	81						
68	80	@entity0	Sterling	Sterling	8	preview	10	82	525	307	307	158	307	218
69	81	has	has	has	8	preview	10	83	0	0	0	0	0	0
70	82	struggled	struggled	struggled	8	preview	10	84	109	109	678	109	109	0
71	83	to	to	to	8	preview	10	85	0	0	0	0	0	0
72	84	repeat	repeat	repeat	8	preview	10	86	0	0	0	0	0	0
73	85	the	the	the	8	preview	10	87	0	0	0	0	0	0
74	86	impressive	impressive	impressive	8	preview	10	88	142	0	0	0	0	142
75	87	form	form	form	8	preview	10	89	0	0	0	0	0	0
76	88	he	he	he	8	preview	10	90	104	0	0	0	0	104
77	89	showed	showed	showed	8	preview	10	91	0	0	0	0	0	0
78	90	for	for	for	8	preview	10	92	169	0	0	0	0	169
79	91	the	the	the	8	preview	10	93	0	0	0	0	0	0
80	92	@entity18	Reds	Reds	8	preview	10	94	0	0	0	0	0	0
81	93	last	last	last	8	preview	10	95	177	177	177	177	177	0
82	94	season	season	season.	8	preview	10	96	0	0	0	0	0	0
	95	.	.		8	preview	10	97						
83	96	The	The	The	8	preview	10	98	182	182	597	182	182	0
84	97	@entity19	England	England	8	preview	10	99	0	0	0	0	0	0
85	98	international	international	international	8	preview	10	100	0	0	0	0	0	0
86	99	has	has	has	8	preview	10	101	0	0	0	0	0	0
87	100	managed	managed	managed	8	preview	10	102	0	0	0	0	0	0
88	101	just	just	just	8	preview	10	103	0	0	0	0	0	0
89	102	six	six	six	8	preview	10	104	0	0	0	0	0	0
90	103	goals	goals	goals	8	preview	10	105	0	0	0	0	0	0
91	104	this	this	this	8	preview	10	106	226	226	226	226	226	0
92	105	season	season	season	8	preview	10	107	253	253	253	253	253	0
93	106	-	-	-	8	preview	10	108	0	0	0	0	0	0
94	107	one	one	one	8	preview	10	109	0	0	0	0	0	0
95	108	less	less	less	8	preview	10	110	0	0	0	0	0	0
96	109	than	than	than	8	preview	10	111	0	0	0	0	0	0
97	110	@entity23	Stoke	Stoke	8	preview	10	112	282	282	282	282	282	0
98	111	frontman	frontman	frontman	8	preview	10	113	0	0	0	0	0	0
99	112	@entity22	Jon	Jon	8	preview	10	114	0	0	0	0	0	0
100			Walters	Walters	8	preview	10	115	0	0	0	0	0	0
101	113	-	-	-	8	preview	10	116	182	0	0	0	0	182
102	114	while	while	while	8	preview	10	117	138	0	0	0	0	138
103	115	his	his	his	8	preview	10	118	0	0	0	0	0	0
104	116	conversion	conversion	conversion	8	preview	10	119	278	0	0	0	0	278
105	117	rate	rate	rate	8	preview	10	120	0	0	0	0	0	0
106	118	and	and	and	8	preview	10	121	134	0	0	0	0	134
107	119	minutes	minutes	minutes	8	preview	10	122	0	0	0	0	0	0
108	120	per	per	per	8	preview	10	123	0	0	0	0	0	0
109	121	goal	goal	goal	8	preview	10	124	0	0	0	0	0	0
110	122	ratio	ratio	ratio	8	preview	10	125	230	230	6009	230	230	0
111	123	have	have	have	8	preview	10	126	0	0	0	0	0	0
112	124	worsened	worsened	worsened.	8	preview	10	127	0	0	0	0	0	0
	125	as	as		8	preview	10	128						
113	126	the	the	Raheem	8	preview	10	129	0	0	0	0	0	0
	127	graphic	graphic		8	preview	10	130						
	128	below	below		8	preview	10	131						
	129	shows	shows		8	preview	10	132						
	130	.	.		8	preview	10	133						
	131	@entity0	Raheem		8	preview	10	134						
114			Sterling	Sterling	8	preview	10	135	0	0	0	0	0	0
115	132	has	has	has	8	preview	10	136	0	0	0	0	0	0
116	133	managed	managed	managed	8	preview	10	137	0	0	0	0	0	0
117	134	just	just	just	8	preview	10	138	0	0	0	0	0	0
118	135	six	six	six	8	preview	10	139	0	0	0	0	0	0
119	136	goals	goals	goals	8	preview	10	140	0	0	0	0	0	0
120	137	this	this	this	8	preview	10	141	0	0	0	0	0	0
121	138	season	season	season	8	preview	10	142	0	0	0	0	0	0
122	139	-	-	-	8	preview	10	143	0	0	0	0	0	0
123	140	one	one	one	8	preview	10	144	0	0	5047	0	0	0
124	141	less	less	less	8	preview	10	145	0	0	0	0	0	0
125	142	than	than	than	8	preview	10	146	0	0	0	0	0	0
126	143	@entity23	Stoke	Stoke	8	preview	10	147	0	0	0	0	0	0
127	144	forward	forward	forward	8	preview	10	148	0	0	0	0	0	0
128	145	@entity22	Jon	Jon	8	preview	10	149	0	0	0	0	0	0
129			Walters	Walters.	8	preview	10	150	0	0	0	0	0	0
	146	(	(		8	preview	10	151						
