HumanPosition	AnonymizedPosition	AnonymizedToken	OriginalToken	ExperimentToken	Participant	Condition	TextNo	JointPosition	tt	fp	rp	ff	rb	sp
1	0	Many	Many	Many	3	nopreview	13	1	378	378	378	158	378	0
2	1	animals	animals	animals	3	nopreview	13	2	0	0	0	0	0	0
3	2	mimic	mimic	mimic	3	nopreview	13	3	547	547	547	547	547	0
4	3	human	human	human	3	nopreview	13	4	128	128	128	128	128	0
5	4	traits	traits	traits	3	nopreview	13	5	317	317	317	317	317	0
6	5	and	and	and	3	nopreview	13	6	0	0	0	0	0	0
7	6	vice	vice	vice	3	nopreview	13	7	375	375	375	375	375	0
8	7	versa	versa	versa	3	nopreview	13	8	269	269	269	269	269	0
9	8	but	but	but	3	nopreview	13	9	310	0	0	0	0	310
10	9	this	this	this	3	nopreview	13	10	751	233	233	233	233	518
11	10	puppy	puppy	puppy	3	nopreview	13	11	702	288	288	288	288	414
12	11	takes	takes	takes	3	nopreview	13	12	1425	430	430	175	430	995
13	12	the	the	the	3	nopreview	13	13	177	0	0	0	0	177
14	13	biscuit	biscuit	biscuit.	3	nopreview	13	14	1130	437	3544	228	1130	693
	14	.	.		3	nopreview	13	15						
15	15	@entity5	Leia	Leia,	3	nopreview	13	16	750	101	101	101	101	649
	16	,	,		3	nopreview	13	17						
16	17	an	an	an	3	nopreview	13	18	503	503	1152	503	503	0
17	18	eight	eight	eight-month-old	3	nopreview	13	19	1350	1350	9112	269	1350	0
	19	-	-		3	nopreview	13	20						
	20	month	month		3	nopreview	13	21						
	21	-	-		3	nopreview	13	22						
	22	old	old		3	nopreview	13	23						
18	23	@entity6	Boxer	Boxer	3	nopreview	13	24	248	248	248	248	248	0
19	24	from	from	from	3	nopreview	13	25	129	129	129	129	129	0
20	25	@entity7	Pennsylvania	Pennsylvania,	3	nopreview	13	26	178	178	178	178	178	0
	26	,	,		3	nopreview	13	27						
21	27	was	was	was	3	nopreview	13	28	268	268	268	268	268	0
22	28	filmed	filmed	filmed	3	nopreview	13	29	214	214	214	214	214	0
23	29	as	as	as	3	nopreview	13	30	0	0	0	0	0	0
24	30	she	she	she	3	nopreview	13	31	286	286	286	286	286	0
25	31	lay	lay	lay	3	nopreview	13	32	497	497	497	297	497	0
26	32	on	on	on	3	nopreview	13	33	0	0	0	0	0	0
27	33	the	the	the	3	nopreview	13	34	0	0	0	0	0	0
28	34	couch	couch	couch	3	nopreview	13	35	200	200	200	200	200	0
29	35	and	and	and	3	nopreview	13	36	0	0	0	0	0	0
30	36	latched	latched	latched	3	nopreview	13	37	597	86	86	86	86	511
31	37	on	on	on	3	nopreview	13	38	704	704	1215	704	704	0
32	38	to	to	to	3	nopreview	13	39	579	208	208	208	208	371
33	39	a	a	a	3	nopreview	13	40	0	0	0	0	0	0
34	40	baby	baby	baby-s	3	nopreview	13	41	2126	313	313	313	313	1813
	41	-s	-s		3	nopreview	13	42						
35	42	pacifier	pacifier	pacifier.	3	nopreview	13	43	1607	490	3791	165	1607	1117
	43	.	.		3	nopreview	13	44						
36	44	Footage	Footage	Footage	3	nopreview	13	45	289	289	289	289	289	0
37	45	shows	shows	shows	3	nopreview	13	46	171	171	171	171	171	0
38	46	her	her	her	3	nopreview	13	47	390	182	182	182	182	208
39	47	then	then	then	3	nopreview	13	48	198	0	0	0	0	198
40	48	sucking	sucking	sucking	3	nopreview	13	49	1263	508	1338	335	932	755
41	49	on	on	on	3	nopreview	13	50	401	0	0	0	0	401
42	50	it	it	it	3	nopreview	13	51	0	0	0	0	0	0
43	51	before	before	before	3	nopreview	13	52	880	230	1612	230	880	650
44	52	closing	closing	closing	3	nopreview	13	53	291	0	0	0	0	291
45	53	her	her	her	3	nopreview	13	54	335	140	626	140	335	195
46	54	eyes	eyes	eyes	3	nopreview	13	55	0	0	0	0	0	0
47	55	and	and	and	3	nopreview	13	56	0	0	0	0	0	0
48	56	loudly	loudly	loudly	3	nopreview	13	57	262	262	262	262	262	0
49	57	snoring	snoring	snoring	3	nopreview	13	58	262	262	262	262	262	0
50	58	in	in	in	3	nopreview	13	59	160	160	160	160	160	0
51	59	her	her	her	3	nopreview	13	60	252	0	0	0	0	252
52	60	sleep	sleep	sleep.	3	nopreview	13	61	175	175	427	175	175	0
	61	.	.		3	nopreview	13	62						
53	62	A	A	A	3	nopreview	13	63	0	0	0	0	0	0
54	63	soothing	soothing	soothing	3	nopreview	13	64	654	230	230	139	230	424
55	64	rendition	rendition	rendition	3	nopreview	13	65	722	207	1146	207	722	515
56	65	of	of	of	3	nopreview	13	66	0	0	0	0	0	0
57	66	@entity16	Twinkle	Twinkle,	3	nopreview	13	67	351	351	351	205	351	0
			,		3	nopreview	13	68						
58			Twinkle	Twinkle	3	nopreview	13	69	302	302	302	302	302	0
59			Little	Little	3	nopreview	13	70	207	207	207	207	207	0
60			Star	Star	3	nopreview	13	71	0	0	0	0	0	0
61	67	is	is	is	3	nopreview	13	72	235	235	235	235	235	0
62	68	heard	heard	heard	3	nopreview	13	73	232	232	232	232	232	0
63	69	playing	playing	playing	3	nopreview	13	74	247	247	247	247	247	0
64	70	away	away	away	3	nopreview	13	75	279	279	279	279	279	0
65	71	in	in	in	3	nopreview	13	76	0	0	0	0	0	0
66	72	the	the	the	3	nopreview	13	77	0	0	0	0	0	0
67	73	background	background	background.	3	nopreview	13	78	308	308	308	308	308	0
	74	.	.		3	nopreview	13	79						
68	75	The	The	The	3	nopreview	13	80	0	0	0	0	0	0
69	76	pup	pup	pup-s	3	nopreview	13	81	448	275	275	93	275	173
	77	-s	-s		3	nopreview	13	82						
70	78	owner	owner	owner,	3	nopreview	13	83	386	386	559	386	386	0
	79	,	,		3	nopreview	13	84						
71	80	@entity18	Dave	Dave	3	nopreview	13	85	142	142	142	142	142	0
72			McK	McK,	3	nopreview	13	86	147	147	147	147	147	0
	81	,	,		3	nopreview	13	87						
73	82	says	says	says	3	nopreview	13	88	389	389	536	389	389	0
74	83	that	that	that	3	nopreview	13	89	0	0	0	0	0	0
75	84	apparently	apparently	apparently	3	nopreview	13	90	737	441	441	230	441	296
76	85	@entity5	Leia	Leia	3	nopreview	13	91	308	308	604	308	308	0
77	86	loves	loves	loves	3	nopreview	13	92	253	253	253	253	253	0
78	87	to	to	to	3	nopreview	13	93	0	0	0	0	0	0
79	88	suck	suck	suck	3	nopreview	13	94	172	172	172	172	172	0
80	89	on	on	on	3	nopreview	13	95	186	186	186	186	186	0
81	90	her	her	her	3	nopreview	13	96	526	0	0	0	0	526
82	91	pacifier	pacifier	pacifier.	3	nopreview	13	97	469	277	803	277	277	192
	92	.	.		3	nopreview	13	98						
83	93	Each	Each	Each	3	nopreview	13	99	509	0	0	0	0	509
84	94	time	time	time	3	nopreview	13	100	439	337	948	180	439	102
85	95	around	around	around,	3	nopreview	13	101	314	314	314	314	314	0
	96	,	,		3	nopreview	13	102						
86	97	she	she	she	3	nopreview	13	103	317	317	317	317	317	0
87	98	immediately	immediately	immediately	3	nopreview	13	104	360	360	360	145	360	0
88	99	falls	falls	falls	3	nopreview	13	105	270	270	270	270	270	0
89	100	to	to	to	3	nopreview	13	106	535	535	727	408	535	0
90	101	sleep	sleep	sleep.	3	nopreview	13	107	192	0	0	0	0	192
	102	.	.		3	nopreview	13	108						
91	103	To	To	To	3	nopreview	13	109	0	0	0	0	0	0
92	104	date	date	date	3	nopreview	13	110	309	144	501	144	309	165
93	105	the	the	the	3	nopreview	13	111	0	0	0	0	0	0
94	106	video	video	video	3	nopreview	13	112	263	263	263	263	263	0
95	107	of	of	of	3	nopreview	13	113	325	325	325	325	325	0
96	108	@entity5	Leia	Leia	3	nopreview	13	114	0	0	0	0	0	0
97	109	has	has	has	3	nopreview	13	115	158	158	158	158	158	0
98	110	garnered	garnered	garnered	3	nopreview	13	116	266	266	266	266	266	0
99	111	more	more	more	3	nopreview	13	117	220	220	220	220	220	0
100	112	than	than	than	3	nopreview	13	118	129	129	129	129	129	0
101	113	145,000	145,000	145,000	3	nopreview	13	119	240	240	240	240	240	0
102	114	likes	likes	likes	3	nopreview	13	120	393	0	0	0	0	393
103	115	on	on	on	3	nopreview	13	121	126	126	519	126	126	0
104	116	@entity23	Facebook	Facebook,	3	nopreview	13	122	191	191	191	191	191	0
	117	,	,		3	nopreview	13	123						
105	118	with	with	with	3	nopreview	13	124	279	279	279	279	279	0
106	119	many	many	many	3	nopreview	13	125	426	426	426	426	426	0
107	120	viewers	viewers	viewers	3	nopreview	13	126	0	0	0	0	0	0
108	121	deeming	deeming	deeming	3	nopreview	13	127	329	329	329	165	329	0
109	122	the	the	the	3	nopreview	13	128	0	0	0	0	0	0
110	123	scene	scene	scene	3	nopreview	13	129	204	204	204	204	204	0
111	124	-	-	-cute-	3	nopreview	13	130	357	357	357	166	357	0
	125	cute	cute		3	nopreview	13	131						
	126	-	-		3	nopreview	13	132						
112	127	and	and	and	3	nopreview	13	133	0	0	0	0	0	0
113	128	-	-	-adorable-.	3	nopreview	13	134	361	361	361	193	361	0
	129	adorable	adorable		3	nopreview	13	135						
	130	-	-		3	nopreview	13	136						
	131	.	.		3	nopreview	13	137						
114	132	-	-	-This	3	nopreview	13	138	117	117	117	117	117	0
	133	This	This		3	nopreview	13	139						
115	134	has	has	has	3	nopreview	13	140	317	0	0	0	0	317
116	135	made	made	made	3	nopreview	13	141	361	164	678	164	361	197
117	136	my	my	my	3	nopreview	13	142	0	0	0	0	0	0
118	137	night	night	night,-	3	nopreview	13	143	382	382	382	382	382	0
	138	,	,		3	nopreview	13	144						
119	139	-	-	one	3	nopreview	13	145	303	303	303	303	303	0
120	140	one	one	fan	3	nopreview	13	146	0	0	0	0	0	0
121	141	fan	fan	exclaimed,	3	nopreview	13	147	259	259	259	259	259	0
	142	exclaimed	exclaimed		3	nopreview	13	148						
	143	,	,		3	nopreview	13	149						
122	144	while	while	while	3	nopreview	13	150	165	165	165	165	165	0
123	145	another	another	another	3	nopreview	13	151	678	678	678	232	678	0
124	146	added	added	added:	3	nopreview	13	152	306	306	306	164	306	0
125	147	:	:	-That	3	nopreview	13	153	0	0	0	0	0	0
	148	-	-		3	nopreview	13	154						
	149	That	That		3	nopreview	13	155						
126	150	is	is	is	3	nopreview	13	156	0	0	0	0	0	0
127	151	the	the	the	3	nopreview	13	157	226	226	226	226	226	0
128	152	cutest	cutest	cutest	3	nopreview	13	158	230	230	230	230	230	0
129	153	thing	thing	thing	3	nopreview	13	159	113	113	113	113	113	0
130	154	I	I	I-ve	3	nopreview	13	160	0	0	0	0	0	0
	155	-ve	-ve		3	nopreview	13	161						
131	156	ever	ever	ever	3	nopreview	13	162	293	293	293	293	293	0
132	157	seen	seen	seen!-	3	nopreview	13	163	0	0	0	0	0	0
	158	!	!		3	nopreview	13	164						
	159	-	-		3	nopreview	13	165						
133	160	When	When	When	3	nopreview	13	166	232	232	232	232	232	0
134	161	she	she	she-s	3	nopreview	13	167	263	263	263	263	263	0
	162	-s	-s		3	nopreview	13	168						
135	163	not	not	not	3	nopreview	13	169	0	0	0	0	0	0
136	164	snoozing	snoozing	snoozing,	3	nopreview	13	170	692	692	692	407	692	0
	165	,	,		3	nopreview	13	171						
137	166	@entity5	Leia	Leia	3	nopreview	13	172	206	206	206	206	206	0
138	167	is	is	is	3	nopreview	13	173	0	0	0	0	0	0
139	168	usually	usually	usually	3	nopreview	13	174	246	246	246	246	246	0
140	169	getting	getting	getting	3	nopreview	13	175	272	272	272	272	272	0
141	170	up	up	up	3	nopreview	13	176	0	0	0	0	0	0
142	171	to	to	to	3	nopreview	13	177	237	237	237	237	237	0
143	172	mischief	mischief	mischief	3	nopreview	13	178	1012	219	219	219	219	793
144	173	with	with	with	3	nopreview	13	179	421	235	235	235	235	186
145	174	her	her	her	3	nopreview	13	180	269	269	269	269	269	0
146	175	older	older	older	3	nopreview	13	181	326	326	326	326	326	0
147	176	brother	brother	brother	3	nopreview	13	182	257	257	257	257	257	0
148	177	@entity31	Luke	Luke.	3	nopreview	13	183	209	209	209	209	209	0
	178	.	.		3	nopreview	13	184						
149	179	Together	Together	Together,	3	nopreview	13	185	794	794	794	304	794	0
	180	,	,		3	nopreview	13	186						
150	181	the	the	the	3	nopreview	13	187	0	0	0	0	0	0
151	182	canines	canines	canines	3	nopreview	13	188	647	647	647	240	647	0
152	183	have	have	have	3	nopreview	13	189	225	225	225	225	225	0
153	184	starred	starred	starred	3	nopreview	13	190	301	301	301	301	301	0
154	185	in	in	in	3	nopreview	13	191	0	0	0	0	0	0
155	186	numerous	numerous	numerous	3	nopreview	13	192	206	206	206	206	206	0
156	187	videos	videos	videos	3	nopreview	13	193	200	200	200	200	200	0
157	188	via	via	via	3	nopreview	13	194	952	854	1931	316	952	98
158	189	@entity23	Facebook	Facebook	3	nopreview	13	195	361	361	361	109	361	0
159	190	and	and	and	3	nopreview	13	196	0	0	0	0	0	0
160	191	@entity34	YouTube	YouTube.	3	nopreview	13	197	0	0	0	0	0	0
	192	.	.		3	nopreview	13	198						
161	193	They	They	They	3	nopreview	13	199	271	271	271	271	271	0
162	194	also	also	also	3	nopreview	13	200	0	0	0	0	0	0
163	195	have	have	have	3	nopreview	13	201	504	330	330	330	330	174
164	196	their	their	their	3	nopreview	13	202	314	314	488	314	314	0
165	197	own	own	own	3	nopreview	13	203	180	180	180	180	180	0
166	198	website	website	website,	3	nopreview	13	204	408	408	408	248	408	0
	199	,	,		3	nopreview	13	205						
167	200	www.luketheboxer.com	www.luketheboxer.com	www.luketheboxer.com,	3	nopreview	13	206	3156	3156	3156	226	3156	0
168	201	where	where	where	3	nopreview	13	207	136	136	136	136	136	0
169	202	fans	fans	fans	3	nopreview	13	208	301	301	301	301	301	0
170	203	can	can	can	3	nopreview	13	209	0	0	0	0	0	0
171	204	buy	buy	buy	3	nopreview	13	210	372	372	372	372	372	0
172	205	calendars	calendars	calendars	3	nopreview	13	211	467	467	6470	263	467	0
173	206	with	with	with	3	nopreview	13	212	0	0	0	0	0	0
174	207	their	their	their	3	nopreview	13	213	225	225	225	225	225	0
175	208	photographs	photographs	photographs	3	nopreview	13	214	542	542	542	204	542	0
176	209	on	on	on.	3	nopreview	13	215	241	241	241	241	241	0
	210	.	.		3	nopreview	13	216						
