HumanPosition	AnonymizedPosition	AnonymizedToken	OriginalToken	ExperimentToken	Participant	Condition	TextNo	JointPosition	tt	fp	rp	ff	rb	sp
1	0	(	(	In	3	nopreview	9	1	0	0	0	0	0	0
2	1	@entity0	CNN	cities	3	nopreview	9	2	1158	368	368	145	368	790
	2	)	)		3	nopreview	9	3						
	3	[	[		3	nopreview	9	4						
	4	Breaking	Breaking		3	nopreview	9	5						
	5	news	news		3	nopreview	9	6						
	6	update	update		3	nopreview	9	7						
	7	,	,		3	nopreview	9	8						
	8	posted	posted		3	nopreview	9	9						
	9	at	at		3	nopreview	9	10						
	10	11:52	11:52		3	nopreview	9	11						
	11	p.m.	p.m.		3	nopreview	9	12						
	12	ET	ET		3	nopreview	9	13						
	13	]	]		3	nopreview	9	14						
	14	@entity3	Denver		3	nopreview	9	15						
	15	police	police		3	nopreview	9	16						
	16	report	report		3	nopreview	9	17						
	17	nine	nine		3	nopreview	9	18						
	18	arrests	arrests		3	nopreview	9	19						
	19	in	in		3	nopreview	9	20						
	20	Wednesday	Wednesday		3	nopreview	9	21						
	21	-s	-s		3	nopreview	9	22						
	22	demonstrations	demonstrations		3	nopreview	9	23						
	23	.	.		3	nopreview	9	24						
	24	The	The		3	nopreview	9	25						
	25	charges	charges		3	nopreview	9	26						
	26	include	include		3	nopreview	9	27						
	27	assault	assault		3	nopreview	9	28						
	28	of	of		3	nopreview	9	29						
	29	a	a		3	nopreview	9	30						
	30	police	police		3	nopreview	9	31						
	31	officer	officer		3	nopreview	9	32						
	32	,	,		3	nopreview	9	33						
	33	robbery	robbery		3	nopreview	9	34						
	34	,	,		3	nopreview	9	35						
	35	resisting	resisting		3	nopreview	9	36						
	36	police	police		3	nopreview	9	37						
	37	,	,		3	nopreview	9	38						
	38	disobedience	disobedience		3	nopreview	9	39						
	39	to	to		3	nopreview	9	40						
	40	lawful	lawful		3	nopreview	9	41						
	41	orders	orders		3	nopreview	9	42						
	42	,	,		3	nopreview	9	43						
	43	obstructing	obstructing		3	nopreview	9	44						
	44	roadways	roadways		3	nopreview	9	45						
	45	,	,		3	nopreview	9	46						
	46	and	and		3	nopreview	9	47						
	47	interference	interference		3	nopreview	9	48						
	48	.	.		3	nopreview	9	49						
	49	[	[		3	nopreview	9	50						
	50	Previous	Previous		3	nopreview	9	51						
	51	story	story		3	nopreview	9	52						
	52	,	,		3	nopreview	9	53						
	53	posted	posted		3	nopreview	9	54						
	54	at	at		3	nopreview	9	55						
	55	10:54	10:54		3	nopreview	9	56						
	56	p.m.	p.m.		3	nopreview	9	57						
	57	ET	ET		3	nopreview	9	58						
	58	]	]		3	nopreview	9	59						
	59	(	(		3	nopreview	9	60						
	60	@entity0	CNN		3	nopreview	9	61						
	61	)	)		3	nopreview	9	62						
	62	--	--		3	nopreview	9	63						
	63	In	In		3	nopreview	9	64						
	64	cities	cities		3	nopreview	9	65						
3	65	across	across	across	3	nopreview	9	66	815	380	380	380	380	435
4	66	the	the	the	3	nopreview	9	67	364	0	0	0	0	364
5	67	@entity17	United	United	3	nopreview	9	68	235	235	235	235	235	0
6			States	States,	3	nopreview	9	69	408	0	0	0	0	408
	68	,	,		3	nopreview	9	70						
7	69	marchers	marchers	marchers	3	nopreview	9	71	2074	215	215	215	215	1859
8	70	took	took	took	3	nopreview	9	72	1552	229	2279	229	853	1323
9	71	to	to	to	3	nopreview	9	73	0	0	0	0	0	0
10	72	the	the	the	3	nopreview	9	74	0	0	0	0	0	0
11	73	streets	streets	streets	3	nopreview	9	75	388	388	388	202	388	0
12	74	to	to	to	3	nopreview	9	76	0	0	0	0	0	0
13	75	show	show	show	3	nopreview	9	77	288	288	288	288	288	0
14	76	support	support	support	3	nopreview	9	78	594	287	287	287	287	307
15	77	for	for	for	3	nopreview	9	79	0	0	0	0	0	0
16	78	protesters	protesters	protesters	3	nopreview	9	80	762	442	442	148	442	320
17	79	in	in	in	3	nopreview	9	81	0	0	0	0	0	0
18	80	@entity21	Baltimore	Baltimore	3	nopreview	9	82	904	468	468	160	468	436
19	81	and	and	and	3	nopreview	9	83	0	0	0	0	0	0
20	82	to	to	to	3	nopreview	9	84	208	208	208	208	208	0
21	83	complain	complain	complain	3	nopreview	9	85	528	195	195	195	195	333
22	84	about	about	about	3	nopreview	9	86	431	293	293	293	293	138
23	85	police	police	police	3	nopreview	9	87	437	250	250	250	250	187
24	86	violence	violence	violence	3	nopreview	9	88	735	400	400	400	400	335
25	87	in	in	in	3	nopreview	9	89	167	167	167	167	167	0
26	88	their	their	their	3	nopreview	9	90	468	283	283	283	283	185
27	89	own	own	own	3	nopreview	9	91	516	292	292	292	292	224
28	90	towns	towns	towns.	3	nopreview	9	92	708	554	3031	352	708	154
	91	.	.		3	nopreview	9	93						
29	92	On	On	On	3	nopreview	9	94	0	0	0	0	0	0
30	93	Wednesday	Wednesday	Wednesday	3	nopreview	9	95	504	280	280	280	280	224
31	94	night	night	night,	3	nopreview	9	96	684	299	299	299	299	385
	95	,	,		3	nopreview	9	97						
32	96	several	several	several	3	nopreview	9	98	208	208	11256	208	208	0
33	97	hundred	hundred	hundred	3	nopreview	9	99	228	228	228	228	228	0
34	98	people	people	people	3	nopreview	9	100	338	0	0	0	0	338
35	99	streamed	streamed	streamed	3	nopreview	9	101	488	242	663	242	488	246
36	100	into	into	into	3	nopreview	9	102	263	263	263	263	263	0
37	101	@entity25	Union	Union	3	nopreview	9	103	148	148	148	148	148	0
38			Square	Square	3	nopreview	9	104	419	419	419	110	419	0
39	102	for	for	for	3	nopreview	9	105	285	285	285	285	285	0
40	103	an	an	an	3	nopreview	9	106	0	0	0	0	0	0
41	104	-	-	-NYC	3	nopreview	9	107	287	287	287	287	287	0
	105	@entity26	NYC		3	nopreview	9	108						
42			Rise	Rise	3	nopreview	9	109	242	242	242	242	242	0
43			Up	Up	3	nopreview	9	110	343	0	0	0	0	343
44	106	&	&	&	3	nopreview	9	111	211	0	0	0	0	211
45	107	Shut	Shut	Shut	3	nopreview	9	112	366	0	0	0	0	366
46	108	It	It	It	3	nopreview	9	113	268	117	1037	117	117	151
47	109	Down	Down	Down	3	nopreview	9	114	270	270	421	270	270	0
48	110	With	With	With	3	nopreview	9	115	313	313	313	313	313	0
49	111	@entity21	Baltimore	Baltimore-	3	nopreview	9	116	404	404	404	184	404	0
	112	-	-		3	nopreview	9	117						
50	113	rally	rally	rally.	3	nopreview	9	118	346	189	189	189	189	157
	114	.	.		3	nopreview	9	119						
51	115	Protesters	Protesters	Protesters	3	nopreview	9	120	701	447	1467	447	701	254
52	116	headed	headed	headed	3	nopreview	9	121	250	250	250	250	250	0
53	117	west	west	west	3	nopreview	9	122	300	300	300	300	300	0
54	118	on	on	on	3	nopreview	9	123	270	270	270	270	270	0
55	119	17th	17th	17th	3	nopreview	9	124	271	271	271	271	271	0
56	120	Street	Street	Street	3	nopreview	9	125	431	431	431	431	431	0
57	121	and	and	and	3	nopreview	9	126	0	0	0	0	0	0
58	122	were	were	were	3	nopreview	9	127	443	0	0	0	0	443
59	123	met	met	met	3	nopreview	9	128	0	0	0	0	0	0
60	124	by	by	by	3	nopreview	9	129	292	109	735	109	292	183
61	125	@entity31	New	New	3	nopreview	9	130	0	0	0	0	0	0
62			York	York	3	nopreview	9	131	580	580	580	307	580	0
63			City	City	3	nopreview	9	132	171	171	171	171	171	0
64			Police	Police	3	nopreview	9	133	0	0	0	0	0	0
65	126	officers	officers	officers	3	nopreview	9	134	187	187	187	187	187	0
66	127	who	who	who	3	nopreview	9	135	235	235	235	235	235	0
67	128	pushed	pushed	pushed	3	nopreview	9	136	233	233	233	233	233	0
68	129	them	them	them	3	nopreview	9	137	242	242	242	242	242	0
69	130	back	back	back.	3	nopreview	9	138	156	156	156	156	156	0
	131	.	.		3	nopreview	9	139						
70	132	A	A	A	3	nopreview	9	140	0	0	0	0	0	0
71	133	small	small	small	3	nopreview	9	141	334	334	334	173	334	0
72	134	scuffle	scuffle	scuffle	3	nopreview	9	142	566	566	566	333	566	0
73	135	broke	broke	broke	3	nopreview	9	143	138	138	138	138	138	0
74	136	out	out	out	3	nopreview	9	144	0	0	0	0	0	0
75	137	between	between	between	3	nopreview	9	145	739	739	739	345	739	0
76	138	the	the	the	3	nopreview	9	146	0	0	0	0	0	0
77	139	two	two	two	3	nopreview	9	147	476	476	476	476	476	0
78	140	front	front	front	3	nopreview	9	148	835	835	835	333	835	0
79	141	lines	lines	lines	3	nopreview	9	149	229	229	229	140	229	0
80	142	and	and	and	3	nopreview	9	150	0	0	0	0	0	0
81	143	police	police	police	3	nopreview	9	151	823	823	823	531	823	0
82	144	placed	placed	placed	3	nopreview	9	152	490	256	256	256	256	234
83	145	at	at	at	3	nopreview	9	153	630	630	864	630	630	0
84	146	least	least	least	3	nopreview	9	154	447	447	447	197	447	0
85	147	20	20	20	3	nopreview	9	155	0	0	0	0	0	0
86	148	people	people	people	3	nopreview	9	156	851	851	851	350	851	0
87	149	in	in	in	3	nopreview	9	157	0	0	0	0	0	0
88	150	zip	zip	zip	3	nopreview	9	158	454	259	259	259	259	195
89	151	ties	ties	ties	3	nopreview	9	159	511	335	706	141	511	176
90	152	in	in	in	3	nopreview	9	160	0	0	0	0	0	0
91	153	the	the	the	3	nopreview	9	161	0	0	0	0	0	0
92	154	street	street	street.	3	nopreview	9	162	325	325	325	104	325	0
	155	.	.		3	nopreview	9	163						
93	156	The	The	The	3	nopreview	9	164	0	0	0	0	0	0
94	157	@entity31	NYPD	NYPD	3	nopreview	9	165	300	300	300	300	300	0
95	158	also	also	also	3	nopreview	9	166	530	530	530	419	530	0
96	159	handed	handed	handed	3	nopreview	9	167	249	249	249	249	249	0
97	160	out	out	out	3	nopreview	9	168	0	0	0	0	0	0
98	161	fliers	fliers	fliers	3	nopreview	9	169	456	456	456	223	456	0
99	162	and	and	and	3	nopreview	9	170	0	0	0	0	0	0
100	163	used	used	used	3	nopreview	9	171	227	227	227	227	227	0
101	164	loudspeakers	loudspeakers	loudspeakers	3	nopreview	9	172	533	533	533	99	533	0
102	165	to	to	to	3	nopreview	9	173	0	0	0	0	0	0
103	166	tell	tell	tell	3	nopreview	9	174	288	288	288	133	288	0
104	167	protesters	protesters	protesters	3	nopreview	9	175	0	0	0	0	0	0
105	168	and	and	and	3	nopreview	9	176	0	0	0	0	0	0
106	169	pedestrians	pedestrians	pedestrians	3	nopreview	9	177	538	538	538	143	538	0
107	170	to	to	to	3	nopreview	9	178	0	0	0	0	0	0
108	171	stay	stay	stay	3	nopreview	9	179	265	265	265	265	265	0
109	172	on	on	on	3	nopreview	9	180	0	0	0	0	0	0
110	173	the	the	the	3	nopreview	9	181	185	185	185	83	185	0
111	174	sidewalk	sidewalk	sidewalk.	3	nopreview	9	182	312	312	312	312	312	0
	175	.	.		3	nopreview	9	183						
112	176	One	One	One	3	nopreview	9	184	188	188	188	188	188	0
113	177	person	person	person	3	nopreview	9	185	175	175	175	175	175	0
114	178	was	was	was	3	nopreview	9	186	0	0	0	0	0	0
115	179	placed	placed	placed	3	nopreview	9	187	369	369	369	213	369	0
116	180	in	in	in	3	nopreview	9	188	0	0	0	0	0	0
117	181	ambulance	ambulance	ambulance	3	nopreview	9	189	412	412	412	234	412	0
118	182	and	and	and	3	nopreview	9	190	0	0	0	0	0	0
119	183	taken	taken	taken	3	nopreview	9	191	123	123	123	123	123	0
120	184	away	away	away.	3	nopreview	9	192	245	0	0	0	0	245
	185	.	.		3	nopreview	9	193						
121	186	The	The	The	3	nopreview	9	194	139	139	384	139	139	0
122	187	crowd	crowd	crowd	3	nopreview	9	195	216	216	216	216	216	0
123	188	headed	headed	headed	3	nopreview	9	196	330	330	330	330	330	0
124	189	toward	toward	toward	3	nopreview	9	197	196	196	196	111	196	0
125	190	@entity47	Times	Times	3	nopreview	9	198	198	0	0	0	0	198
126			Square	Square.	3	nopreview	9	199	317	168	515	168	317	149
	191	.	.		3	nopreview	9	200						
127	192	A	A	A	3	nopreview	9	201	0	0	0	0	0	0
128	193	law	law	law	3	nopreview	9	202	656	250	250	108	250	406
129	194	enforcement	enforcement	enforcement	3	nopreview	9	203	769	177	291	177	177	592
130	195	source	source	source	3	nopreview	9	204	1183	236	236	236	236	947
131	196	told	told	told	3	nopreview	9	205	891	312	2722	312	891	579
132	197	@entity0	CNN	CNN	3	nopreview	9	206	314	314	314	231	314	0
133	198	that	that	that	3	nopreview	9	207	0	0	0	0	0	0
134	199	more	more	more	3	nopreview	9	208	242	0	0	0	0	242
135	200	than	than	than	3	nopreview	9	209	471	133	713	133	471	338
136	201	60	60	60	3	nopreview	9	210	254	254	254	254	254	0
137	202	people	people	people	3	nopreview	9	211	0	0	0	0	0	0
138	203	were	were	were	3	nopreview	9	212	165	165	165	165	165	0
139	204	arrested	arrested	arrested	3	nopreview	9	213	211	211	211	211	211	0
140	205	during	during	during	3	nopreview	9	214	284	284	284	284	284	0
141	206	the	the	the	3	nopreview	9	215	0	0	0	0	0	0
142	207	demonstrations	demonstrations	demonstrations.	3	nopreview	9	216	212	212	212	212	212	0
	208	.	.		3	nopreview	9	217						
143	209	The	The	The	3	nopreview	9	218	289	289	289	289	289	0
144	210	rally	rally	rally	3	nopreview	9	219	106	106	106	106	106	0
145	211	was	was	was	3	nopreview	9	220	0	0	0	0	0	0
146	212	organized	organized	organized	3	nopreview	9	221	238	238	238	238	238	0
147	213	through	through	through	3	nopreview	9	222	249	0	0	0	0	249
148	214	social	social	social	3	nopreview	9	223	478	110	727	110	478	368
149	215	media	media	media,	3	nopreview	9	224	127	127	127	127	127	0
	216	,	,		3	nopreview	9	225						
150	217	much	much	much	3	nopreview	9	226	558	0	0	0	0	558
151	218	like	like	like	3	nopreview	9	227	306	306	441	306	306	0
152	219	protests	protests	protests	3	nopreview	9	228	950	185	1032	185	609	765
153	220	over	over	over	3	nopreview	9	229	581	375	922	375	581	206
154	221	the	the	the	3	nopreview	9	230	0	0	0	0	0	0
155	222	killing	killing	killing	3	nopreview	9	231	158	158	158	158	158	0
156	223	of	of	of	3	nopreview	9	232	0	0	0	0	0	0
157	224	@entity55	Eric	Eric	3	nopreview	9	233	81	81	81	81	81	0
158			Garner	Garner,	3	nopreview	9	234	491	324	324	324	324	167
	225	,	,		3	nopreview	9	235						
159	226	who	who	who	3	nopreview	9	236	377	377	3815	274	377	0
160	227	died	died	died	3	nopreview	9	237	359	359	522	359	359	0
161	228	while	while	while	3	nopreview	9	238	369	0	0	0	0	369
162	229	police	police	police	3	nopreview	9	239	525	142	511	142	142	383
163	230	held	held	held	3	nopreview	9	240	137	137	137	137	137	0
164	231	him	him	him	3	nopreview	9	241	554	237	237	237	237	317
165	232	in	in	in	3	nopreview	9	242	263	0	0	0	0	263
166	233	what	what	what	3	nopreview	9	243	280	280	543	280	280	0
167	234	appeared	appeared	appeared	3	nopreview	9	244	778	482	482	102	482	296
168	235	to	to	to	3	nopreview	9	245	166	0	0	0	0	166
169	236	be	be	be	3	nopreview	9	246	0	0	0	0	0	0
170	237	a	a	a	3	nopreview	9	247	0	0	0	0	0	0
171	238	chokehold	chokehold	chokehold.	3	nopreview	9	248	1240	631	631	155	631	609
	239	.	.		3	nopreview	9	249						
172	240	The	The	The	3	nopreview	9	250	175	0	0	0	0	175
173	241	demonstrators	demonstrators	demonstrators	3	nopreview	9	251	786	94	94	94	94	692
174	242	chanted	chanted	chanted	3	nopreview	9	252	338	211	211	211	211	127
175	243	-	-	-Black	3	nopreview	9	253	964	0	0	0	0	964
	244	@entity60	Black		3	nopreview	9	254						
176			Lives	Lives	3	nopreview	9	255	915	146	3859	146	776	769
177			Matter	Matter-	3	nopreview	9	256	615	290	460	290	290	325
	245	-	-		3	nopreview	9	257						
178	246	and	and	and	3	nopreview	9	258	0	0	0	0	0	0
179	247	-	-	-Justice	3	nopreview	9	259	1700	461	461	268	461	1239
	248	@entity61	Justice		3	nopreview	9	260						
180			for	for	3	nopreview	9	261	341	0	0	0	0	341
181			Freddie	Freddie	3	nopreview	9	262	1484	468	468	187	468	1016
182			Gray	Gray-	3	nopreview	9	263	449	449	449	290	449	0
	249	-	-		3	nopreview	9	264						
183	250	--	--	--	3	nopreview	9	265	421	0	0	0	0	421
184	251	the	the	the	3	nopreview	9	266	304	0	0	0	0	304
185	252	@entity21	Baltimore	Baltimore	3	nopreview	9	267	2109	498	498	322	498	1611
186	253	man	man	man	3	nopreview	9	268	666	254	254	254	254	412
187	254	whose	whose	whose	3	nopreview	9	269	482	173	173	173	173	309
188	255	death	death	death	3	nopreview	9	270	0	0	0	0	0	0
189	256	sparked	sparked	sparked	3	nopreview	9	271	919	0	0	0	0	919
190	257	street	street	street	3	nopreview	9	272	592	122	632	122	345	470
191	258	confrontations	confrontations	confrontations	3	nopreview	9	273	825	300	300	300	300	525
192	259	in	in	in	3	nopreview	9	274	231	0	0	0	0	231
193	260	@entity21	Baltimore	Baltimore.	3	nopreview	9	275	1620	1099	1713	250	1099	521
	261	.	.		3	nopreview	9	276						
194	262	@entity0	CNN	CNN	3	nopreview	9	277	1549	0	0	0	0	1549
195	263	affiliate	affiliate	affiliate	3	nopreview	9	278	2159	166	2683	166	1742	1993
196	264	@entity65	WCBS	WCBS	3	nopreview	9	279	324	324	324	324	324	0
197	265	reported	reported	reported	3	nopreview	9	280	1083	626	626	339	626	457
198	266	Mayor	Mayor	Mayor	3	nopreview	9	281	476	236	933	236	476	240
199	267	@entity66	Bill	Bill	3	nopreview	9	282	410	410	410	225	410	0
200			de	de	3	nopreview	9	283	0	0	0	0	0	0
201			Blasio	Blasio	3	nopreview	9	284	490	0	0	0	0	490
202	268	sent	sent	sent	3	nopreview	9	285	0	0	0	0	0	0
203	269	a	a	a	3	nopreview	9	286	375	0	0	0	0	375
204	270	message	message	message	3	nopreview	9	287	384	140	1249	140	384	244
205	271	to	to	to	3	nopreview	9	288	0	0	0	0	0	0
206	272	the	the	the	3	nopreview	9	289	0	0	0	0	0	0
207	273	protesters	protesters	protesters:	3	nopreview	9	290	551	551	551	227	551	0
208	274	:	:	-I-d	3	nopreview	9	291	298	0	0	0	0	298
	275	-	-		3	nopreview	9	292						
	276	I	I		3	nopreview	9	293						
	277	-d	-d		3	nopreview	9	294						
209	278	say	say	say	3	nopreview	9	295	251	251	251	251	251	0
210	279	that	that	that	3	nopreview	9	296	299	299	299	299	299	0
211	280	if	if	if	3	nopreview	9	297	231	231	231	231	231	0
212	281	you	you	you	3	nopreview	9	298	0	0	0	0	0	0
213	282	want	want	want	3	nopreview	9	299	200	200	200	200	200	0
214	283	to	to	to	3	nopreview	9	300	170	170	170	170	170	0
215	284	make	make	make	3	nopreview	9	301	225	225	225	225	225	0
216	285	change	change	change,	3	nopreview	9	302	87	87	87	87	87	0
	286	,	,		3	nopreview	9	303						
217	287	keep	keep	keep	3	nopreview	9	304	256	0	0	0	0	256
218	288	things	things	things	3	nopreview	9	305	875	132	744	132	488	743
219	289	peaceful	peaceful	peaceful.-	3	nopreview	9	306	237	237	624	237	237	0
	290	.	.		3	nopreview	9	307						
220	291	-	-	A	3	nopreview	9	308	0	0	0	0	0	0
221	292	A	A	smaller	3	nopreview	9	309	412	412	412	280	412	0
	293	smaller	smaller		3	nopreview	9	310						
222	294	rally	rally	rally	3	nopreview	9	311	217	217	217	217	217	0
223	295	was	was	was	3	nopreview	9	312	0	0	0	0	0	0
224	296	held	held	held	3	nopreview	9	313	250	250	250	250	250	0
225	297	Tuesday	Tuesday	Tuesday	3	nopreview	9	314	551	170	170	170	170	381
226	298	in	in	in	3	nopreview	9	315	253	253	634	253	253	0
227	299	@entity73	New	New	3	nopreview	9	316	245	245	245	245	245	0
228			York	York.	3	nopreview	9	317	157	157	157	157	157	0
	300	.	.		3	nopreview	9	318						
229	301	In	In	In	3	nopreview	9	319	0	0	0	0	0	0
230	302	@entity76	Washington	Washington,	3	nopreview	9	320	237	237	237	237	237	0
	303	,	,		3	nopreview	9	321						
231	304	about	about	about	3	nopreview	9	322	516	0	0	0	0	516
232	305	500	500	500	3	nopreview	9	323	127	127	643	127	127	0
233	306	protesters	protesters	protesters,	3	nopreview	9	324	836	836	836	386	836	0
	307	,	,		3	nopreview	9	325						
234	308	mostly	mostly	mostly	3	nopreview	9	326	281	281	281	281	281	0
235	309	in	in	in	3	nopreview	9	327	292	292	292	292	292	0
236	310	their	their	their	3	nopreview	9	328	173	173	173	173	173	0
237	311	20s	20s	20s,	3	nopreview	9	329	122	122	122	122	122	0
	312	,	,		3	nopreview	9	330						
238	313	gathered	gathered	gathered	3	nopreview	9	331	283	283	283	283	283	0
239	314	in	in	in	3	nopreview	9	332	464	464	464	464	464	0
240	315	the	the	the	3	nopreview	9	333	699	0	0	0	0	699
241	316	middle	middle	middle	3	nopreview	9	334	872	872	872	751	872	0
242	317	of	of	of	3	nopreview	9	335	0	0	0	0	0	0
243	318	@entity78	H	H	3	nopreview	9	336	187	0	0	0	0	187
244			Street	Street	3	nopreview	9	337	431	431	431	226	431	0
245	319	and	and	and	3	nopreview	9	338	0	0	0	0	0	0
246	320	7th	7th	7th	3	nopreview	9	339	99	99	99	99	99	0
247	321	and	and	and	3	nopreview	9	340	0	0	0	0	0	0
248	322	chanted	chanted	chanted,	3	nopreview	9	341	542	542	542	136	542	0
	323	,	,		3	nopreview	9	342						
249	324	-	-	-All	3	nopreview	9	343	0	0	0	0	0	0
	325	All	All		3	nopreview	9	344						
250	326	night	night	night,	3	nopreview	9	345	277	277	277	277	277	0
	327	,	,		3	nopreview	9	346						
251	328	all	all	all	3	nopreview	9	347	187	187	187	187	187	0
252	329	day	day	day,	3	nopreview	9	348	312	312	312	312	312	0
	330	,	,		3	nopreview	9	349						
253	331	we	we	we-re	3	nopreview	9	350	240	240	240	240	240	0
	332	-re	-re		3	nopreview	9	351						
254	333	gon	gon	gonna	3	nopreview	9	352	266	266	266	266	266	0
	334	na	na		3	nopreview	9	353						
255	335	fight	fight	fight	3	nopreview	9	354	148	148	148	148	148	0
256	336	for	for	for	3	nopreview	9	355	0	0	0	0	0	0
257	337	@entity79	Freddie	Freddie	3	nopreview	9	356	1908	482	482	192	482	1426
258			Gray	Gray.-	3	nopreview	9	357	875	520	4046	108	875	355
	338	.	.		3	nopreview	9	358						
259	339	-	-	The	3	nopreview	9	359	535	321	11980	321	535	214
260	340	The	The	mood	3	nopreview	9	360	0	0	0	0	0	0
	341	mood	mood		3	nopreview	9	361						
261	342	seemed	seemed	seemed	3	nopreview	9	362	216	0	0	0	0	216
262	343	more	more	more	3	nopreview	9	363	147	147	363	147	147	0
263	344	festive	festive	festive	3	nopreview	9	364	213	213	213	213	213	0
264	345	than	than	than	3	nopreview	9	365	290	290	290	290	290	0
265	346	confrontational	confrontational	confrontational,	3	nopreview	9	366	355	355	355	170	355	0
	347	,	,		3	nopreview	9	367						
266	348	with	with	with	3	nopreview	9	368	264	264	264	264	264	0
267	349	songs	songs	songs	3	nopreview	9	369	162	162	162	162	162	0
268	350	by	by	by	3	nopreview	9	370	196	0	0	0	0	196
269	351	@entity82	Public	Public	3	nopreview	9	371	0	0	0	0	0	0
270			Enemy	Enemy	3	nopreview	9	372	153	153	349	153	153	0
271	352	like	like	like	3	nopreview	9	373	212	212	212	212	212	0
272	353	-	-	-Fight	3	nopreview	9	374	159	159	159	159	159	0
	354	@entity86	Fight		3	nopreview	9	375						
273			the	the	3	nopreview	9	376	0	0	0	0	0	0
274			Power	Power-	3	nopreview	9	377	263	0	0	0	0	263
	355	-	-		3	nopreview	9	378						
275	356	playing	playing	playing	3	nopreview	9	379	388	147	651	147	388	241
276	357	and	and	and	3	nopreview	9	380	0	0	0	0	0	0
277	358	sign	sign	sign-language	3	nopreview	9	381	1046	1046	1046	275	1046	0
	359	-	-		3	nopreview	9	382						
	360	language	language		3	nopreview	9	383						
278	361	interpreters	interpreters	interpreters	3	nopreview	9	384	351	351	351	181	351	0
279	362	translating	translating	translating	3	nopreview	9	385	499	362	362	246	362	137
280	363	the	the	the	3	nopreview	9	386	0	0	0	0	0	0
281	364	music	music	music	3	nopreview	9	387	220	220	220	220	220	0
282	365	and	and	and	3	nopreview	9	388	88	88	88	88	88	0
283	366	chants	chants	chants.	3	nopreview	9	389	391	266	266	266	266	125
	367	.	.		3	nopreview	9	390						
284	368	The	The	The	3	nopreview	9	391	205	82	82	82	82	123
285	369	protest	protest	protest	3	nopreview	9	392	1082	363	363	363	363	719
286	370	moved	moved	moved	3	nopreview	9	393	646	261	261	261	261	385
287	371	to	to	to	3	nopreview	9	394	0	0	0	0	0	0
288	372	the	the	the	3	nopreview	9	395	165	165	165	165	165	0
289	373	@entity88	White	White	3	nopreview	9	396	578	263	263	263	263	315
290			House	House	3	nopreview	9	397	114	0	0	0	0	114
291	374	where	where	where	3	nopreview	9	398	523	388	388	166	388	135
292	375	most	most	most	3	nopreview	9	399	128	128	263	128	128	0
293	376	of	of	of	3	nopreview	9	400	191	191	191	191	191	0
294	377	the	the	the	3	nopreview	9	401	0	0	0	0	0	0
295	378	crowd	crowd	crowd	3	nopreview	9	402	279	279	279	279	279	0
296	379	dispersed	dispersed	dispersed.	3	nopreview	9	403	445	445	2226	445	445	0
	380	.	.		3	nopreview	9	404						
297	381	It	It	It	3	nopreview	9	405	281	0	0	0	0	281
298	382	started	started	started	3	nopreview	9	406	1175	0	0	0	0	1175
299	383	after	after	after	3	nopreview	9	407	0	0	0	0	0	0
300	384	most	most	most	3	nopreview	9	408	244	244	244	244	244	0
301	385	office	office	office	3	nopreview	9	409	218	0	0	0	0	218
302	386	workers	workers	workers	3	nopreview	9	410	204	204	422	204	204	0
303	387	had	had	had	3	nopreview	9	411	299	299	299	299	299	0
304	388	headed	headed	headed	3	nopreview	9	412	134	134	134	134	134	0
305	389	home	home	home	3	nopreview	9	413	275	275	275	275	275	0
306	390	and	and	and	3	nopreview	9	414	0	0	0	0	0	0
307	391	did	did	didn-t	3	nopreview	9	415	155	155	155	155	155	0
	392	n-t	n-t		3	nopreview	9	416						
308	393	disrupt	disrupt	disrupt	3	nopreview	9	417	214	214	214	214	214	0
309	394	the	the	the	3	nopreview	9	418	0	0	0	0	0	0
310	395	@entity76	Washington	Washington	3	nopreview	9	419	673	107	107	107	107	566
311	396	workforce	workforce	workforce	3	nopreview	9	420	289	289	2448	289	289	0
312	397	badly	badly	badly.	3	nopreview	9	421	1103	465	465	465	465	638
	398	.	.		3	nopreview	9	422						
313	399	One	One	One	3	nopreview	9	423	548	0	0	0	0	548
314	400	of	of	of	3	nopreview	9	424	338	213	213	213	213	125
315	401	the	the	the	3	nopreview	9	425	247	0	0	0	0	247
316	402	groups	groups	groups	3	nopreview	9	426	596	202	202	202	202	394
317	403	involved	involved	involved	3	nopreview	9	427	761	281	281	281	281	480
318	404	in	in	in	3	nopreview	9	428	0	0	0	0	0	0
319	405	the	the	the	3	nopreview	9	429	234	0	0	0	0	234
320	406	protest	protest	protest	3	nopreview	9	430	673	448	448	206	448	225
321	407	is	is	is	3	nopreview	9	431	221	0	0	0	0	221
322	408	the	the	the	3	nopreview	9	432	468	209	209	209	209	259
323	409	@entity95	DC	DC	3	nopreview	9	433	247	0	0	0	0	247
324			Ferguson	Ferguson	3	nopreview	9	434	2595	639	639	181	639	1956
325			Movement	Movement.	3	nopreview	9	435	640	545	6214	545	640	95
	410	.	.		3	nopreview	9	436						
326	411	Organizer	Organizer	Organizer	3	nopreview	9	437	356	356	356	356	356	0
327	412	@entity96	Eugene	Eugene	3	nopreview	9	438	448	275	275	275	275	173
328			Puryear	Puryear	3	nopreview	9	439	1102	213	213	213	213	889
329	413	said	said	said	3	nopreview	9	440	660	660	660	234	660	0
330	414	the	the	the	3	nopreview	9	441	201	0	0	0	0	201
331	415	march	march	march	3	nopreview	9	442	210	210	210	210	210	0
332	416	was	was	was	3	nopreview	9	443	474	248	248	248	248	226
333	417	called	called	called	3	nopreview	9	444	674	252	2163	252	674	422
334	418	to	to	to	3	nopreview	9	445	0	0	0	0	0	0
335	419	show	show	show	3	nopreview	9	446	335	335	335	335	335	0
336	420	solidarity	solidarity	solidarity	3	nopreview	9	447	430	430	430	193	430	0
337	421	with	with	with	3	nopreview	9	448	81	81	81	81	81	0
338	422	the	the	the	3	nopreview	9	449	0	0	0	0	0	0
339	423	residents	residents	residents	3	nopreview	9	450	413	413	413	150	413	0
340	424	in	in	in	3	nopreview	9	451	0	0	0	0	0	0
341	425	@entity21	Baltimore	Baltimore	3	nopreview	9	452	258	258	258	258	258	0
342	426	and	and	and	3	nopreview	9	453	203	203	203	203	203	0
343	427	to	to	to	3	nopreview	9	454	0	0	0	0	0	0
344	428	highlight	highlight	highlight	3	nopreview	9	455	628	628	628	321	628	0
345	429	that	that	that	3	nopreview	9	456	236	236	236	236	236	0
346	430	police	police	police	3	nopreview	9	457	244	244	244	244	244	0
347	431	brutality	brutality	brutality	3	nopreview	9	458	283	283	283	283	283	0
348	432	is	is	is	3	nopreview	9	459	113	113	113	113	113	0
349	433	a	a	a	3	nopreview	9	460	0	0	0	0	0	0
350	434	national	national	national	3	nopreview	9	461	208	208	208	208	208	0
351	435	issue	issue	issue.	3	nopreview	9	462	111	111	111	111	111	0
	436	.	.		3	nopreview	9	463						
352	437	Several	Several	Several	3	nopreview	9	464	519	0	0	0	0	519
353	438	hundred	hundred	hundred	3	nopreview	9	465	327	0	0	0	0	327
354	439	people	people	people	3	nopreview	9	466	408	144	1254	144	408	264
355	440	gathered	gathered	gathered	3	nopreview	9	467	237	237	237	237	237	0
356	441	in	in	in	3	nopreview	9	468	0	0	0	0	0	0
357	442	@entity103	Gold	Gold	3	nopreview	9	469	221	221	221	221	221	0
358			Medal	Medal	3	nopreview	9	470	533	533	533	259	533	0
359			Park	Park	3	nopreview	9	471	195	0	0	0	0	195
360	443	in	in	in	3	nopreview	9	472	0	0	0	0	0	0
361	444	@entity104	Minneapolis	Minneapolis	3	nopreview	9	473	859	355	355	355	355	504
362	445	for	for	for	3	nopreview	9	474	451	318	318	318	318	133
363	446	a	a	a	3	nopreview	9	475	221	221	221	221	221	0
364	447	rally	rally	rally	3	nopreview	9	476	432	432	432	318	432	0
365	448	organized	organized	organized	3	nopreview	9	477	319	319	319	122	319	0
366	449	by	by	by	3	nopreview	9	478	0	0	0	0	0	0
367	450	the	the	the	3	nopreview	9	479	232	232	232	232	232	0
368	451	group	group	group	3	nopreview	9	480	0	0	0	0	0	0
369	452	of	of	of	3	nopreview	9	481	346	346	346	346	346	0
370	453	#	#	#BlackLivesMatter.	3	nopreview	9	482	1456	1456	1456	191	1456	0
	454	@entity107	BlackLivesMatter		3	nopreview	9	483						
	455	.	.		3	nopreview	9	484						
371	456	The	The	The	3	nopreview	9	485	257	257	257	257	257	0
372	457	@entity104	Minneapolis	Minneapolis	3	nopreview	9	486	764	764	1277	288	764	0
373	458	group	group	group	3	nopreview	9	487	546	293	865	293	546	253
374	459	held	held	held	3	nopreview	9	488	197	197	197	197	197	0
375	460	similar	similar	similar	3	nopreview	9	489	0	0	0	0	0	0
376	461	events	events	events	3	nopreview	9	490	299	0	0	0	0	299
377	462	in	in	in	3	nopreview	9	491	0	0	0	0	0	0
378	463	the	the	the	3	nopreview	9	492	116	116	415	116	116	0
379	464	past	past	past	3	nopreview	9	493	210	210	210	210	210	0
380	465	in	in	in	3	nopreview	9	494	0	0	0	0	0	0
381	466	response	response	response	3	nopreview	9	495	443	226	226	226	226	217
382	467	to	to	to	3	nopreview	9	496	470	470	470	470	470	0
383	468	alleged	alleged	alleged	3	nopreview	9	497	381	184	598	184	381	197
384	469	police	police	police	3	nopreview	9	498	224	224	224	224	224	0
385	470	brutality	brutality	brutality	3	nopreview	9	499	308	308	308	308	308	0
386	471	across	across	across	3	nopreview	9	500	224	224	224	224	224	0
387	472	the	the	the	3	nopreview	9	501	0	0	0	0	0	0
388	473	country	country	country.	3	nopreview	9	502	91	91	91	91	91	0
	474	.	.		3	nopreview	9	503						
389	475	Protests	Protests	Protests	3	nopreview	9	504	621	365	365	365	365	256
390	476	also	also	also	3	nopreview	9	505	379	379	635	379	379	0
391	477	were	were	were	3	nopreview	9	506	242	242	242	242	242	0
392	478	held	held	held	3	nopreview	9	507	294	294	294	294	294	0
393	479	in	in	in	3	nopreview	9	508	232	232	232	232	232	0
394	480	@entity115	Boston	Boston	3	nopreview	9	509	403	170	170	170	170	233
395	481	and	and	and	3	nopreview	9	510	0	0	0	0	0	0
396	482	@entity116	Houston	Houston.	3	nopreview	9	511	530	224	763	224	530	306
	483	.	.		3	nopreview	9	512						
397	484	On	On	On	3	nopreview	9	513	230	230	230	109	230	0
398	485	Tuesday	Tuesday	Tuesday,	3	nopreview	9	514	441	441	441	194	441	0
	486	,	,		3	nopreview	9	515						
399	487	violent	violent	violent	3	nopreview	9	516	596	596	596	103	596	0
400	488	protests	protests	protests	3	nopreview	9	517	380	380	380	272	380	0
401	489	took	took	took	3	nopreview	9	518	0	0	0	0	0	0
402	490	place	place	place	3	nopreview	9	519	437	0	0	0	0	437
403	491	in	in	in	3	nopreview	9	520	115	115	379	115	115	0
404	492	@entity120	Ferguson	Ferguson,	3	nopreview	9	521	605	441	441	441	441	164
	493	,	,		3	nopreview	9	522						
405	494	@entity121	Missouri	Missouri,	3	nopreview	9	523	817	483	483	191	483	334
	495	,	,		3	nopreview	9	524						
406	496	where	where	where	3	nopreview	9	525	1071	398	1605	123	934	673
407	497	three	three	three	3	nopreview	9	526	467	467	604	272	467	0
408	498	people	people	people	3	nopreview	9	527	303	303	303	136	303	0
409	499	were	were	were	3	nopreview	9	528	0	0	0	0	0	0
410	500	shot	shot	shot,	3	nopreview	9	529	252	252	252	252	252	0
	501	,	,		3	nopreview	9	530						
411	502	the	the	the	3	nopreview	9	531	153	0	0	0	0	153
412	503	city	city	city	3	nopreview	9	532	465	324	324	165	324	141
413	504	police	police	police	3	nopreview	9	533	519	212	212	212	212	307
414	505	reported	reported	reported.	3	nopreview	9	534	338	239	939	239	338	99
	506	.	.		3	nopreview	9	535						
415	507	Police	Police	Police	3	nopreview	9	536	260	0	0	0	0	260
416	508	said	said	said	3	nopreview	9	537	322	133	582	133	322	189
417	509	they	they	they	3	nopreview	9	538	0	0	0	0	0	0
418	510	did	did	didn-t	3	nopreview	9	539	553	553	553	181	553	0
	511	n-t	n-t		3	nopreview	9	540						
419	512	do	do	do	3	nopreview	9	541	0	0	0	0	0	0
420	513	the	the	the	3	nopreview	9	542	169	169	169	169	169	0
421	514	shooting	shooting	shooting.	3	nopreview	9	543	276	276	276	276	276	0
	515	.	.		3	nopreview	9	544						
422	516	A	A	A	3	nopreview	9	545	0	0	0	0	0	0
423	517	20	20	20-year-old	3	nopreview	9	546	300	300	300	188	300	0
	518	-	-		3	nopreview	9	547						
	519	year	year		3	nopreview	9	548						
	520	-	-		3	nopreview	9	549						
	521	old	old		3	nopreview	9	550						
424	522	man	man	man	3	nopreview	9	551	0	0	0	0	0	0
425	523	was	was	was	3	nopreview	9	552	0	0	0	0	0	0
426	524	arrested	arrested	arrested	3	nopreview	9	553	286	286	286	182	286	0
427	525	and	and	and	3	nopreview	9	554	0	0	0	0	0	0
428	526	the	the	the	3	nopreview	9	555	173	173	173	173	173	0
429	527	three	three	three	3	nopreview	9	556	0	0	0	0	0	0
430	528	victims	victims	victims	3	nopreview	9	557	352	352	352	174	352	0
431	529	were	were	were	3	nopreview	9	558	0	0	0	0	0	0
432	530	in	in	in	3	nopreview	9	559	169	169	169	169	169	0
433	531	stable	stable	stable	3	nopreview	9	560	236	236	236	236	236	0
434	532	condition	condition	condition	3	nopreview	9	561	227	227	227	227	227	0
435	533	--	--	--	3	nopreview	9	562	0	0	0	0	0	0
436	534	two	two	two	3	nopreview	9	563	241	102	102	102	102	139
437	535	with	with	with	3	nopreview	9	564	796	631	631	160	631	165
438	536	wounds	wounds	wounds	3	nopreview	9	565	604	150	608	150	304	454
439	537	to	to	to	3	nopreview	9	566	144	144	144	144	144	0
440	538	the	the	the	3	nopreview	9	567	0	0	0	0	0	0
441	539	neck	neck	neck,	3	nopreview	9	568	348	211	211	211	211	137
	540	,	,		3	nopreview	9	569						
442	541	one	one	one	3	nopreview	9	570	0	0	0	0	0	0
443	542	in	in	in	3	nopreview	9	571	361	361	361	361	361	0
444	543	the	the	the	3	nopreview	9	572	503	193	193	193	193	310
445	544	leg	leg	leg,	3	nopreview	9	573	0	0	0	0	0	0
	545	,	,		3	nopreview	9	574						
446	546	police	police	police	3	nopreview	9	575	805	805	1552	805	805	0
447	547	said	said	said.	3	nopreview	9	576	0	0	0	0	0	0
	548	.	.		3	nopreview	9	577						
448	549	Police	Police	Police	3	nopreview	9	578	290	290	290	161	290	0
449	550	said	said	said	3	nopreview	9	579	266	266	266	266	266	0
450	551	about	about	about	3	nopreview	9	580	253	253	253	253	253	0
451	552	300	300	300	3	nopreview	9	581	126	0	0	0	0	126
452	553	people	people	people	3	nopreview	9	582	373	373	499	373	373	0
453	554	marched	marched	marched,	3	nopreview	9	583	305	305	305	305	305	0
	555	,	,		3	nopreview	9	584						
454	556	with	with	with	3	nopreview	9	585	250	250	250	250	250	0
455	557	protesters	protesters	protesters	3	nopreview	9	586	175	175	175	175	175	0
456	558	throwing	throwing	throwing	3	nopreview	9	587	181	181	181	97	181	0
457	559	rocks	rocks	rocks	3	nopreview	9	588	740	740	740	87	740	0
458	560	at	at	at	3	nopreview	9	589	0	0	0	0	0	0
459	561	police	police	police,	3	nopreview	9	590	296	0	0	0	0	296
	562	,	,		3	nopreview	9	591						
460	563	damaging	damaging	damaging	3	nopreview	9	592	492	0	0	0	0	492
461	564	four	four	four	3	nopreview	9	593	0	0	0	0	0	0
462	565	police	police	police	3	nopreview	9	594	652	0	0	0	0	652
463	566	cars	cars	cars	3	nopreview	9	595	194	0	0	0	0	194
464	567	and	and	and	3	nopreview	9	596	164	0	0	0	0	164
465	568	setting	setting	setting	3	nopreview	9	597	363	0	0	0	0	363
466	569	trash	trash	trash	3	nopreview	9	598	266	0	0	0	0	266
467	570	and	and	and	3	nopreview	9	599	428	0	0	0	0	428
468	571	debris	debris	debris	3	nopreview	9	600	262	0	0	0	0	262
469	572	on	on	on	3	nopreview	9	601	0	0	0	0	0	0
470	573	fire	fire	fire	3	nopreview	9	602	299	0	0	0	0	299
471	574	near	near	near	3	nopreview	9	603	541	0	0	0	0	541
472	575	@entity139	Northwinds	Northwinds	3	nopreview	9	604	1271	0	0	0	0	1271
473			Estates	Estates	3	nopreview	9	605	1770	0	0	0	0	1770
474	576	and	and	and	3	nopreview	9	606	202	0	0	0	0	202
475	577	@entity140	West	West	3	nopreview	9	607	293	0	0	0	0	293
476			Florissant	Florissant,	3	nopreview	9	608	991	0	0	0	0	991
	578	,	,		3	nopreview	9	609						
477	579	police	police	police	3	nopreview	9	610	580	0	0	0	0	580
478	580	said	said	said.	3	nopreview	9	611	179	0	0	0	0	179
	581	.	.		3	nopreview	9	612						
479	582	One	One	One	3	nopreview	9	613	457	0	0	0	0	457
480	583	business	business	business	3	nopreview	9	614	911	0	0	0	0	911
481	584	in	in	in	3	nopreview	9	615	190	0	0	0	0	190
482	585	@entity142	Dellwood	Dellwood	3	nopreview	9	616	637	0	0	0	0	637
483	586	was	was	was	3	nopreview	9	617	0	0	0	0	0	0
484	587	damaged	damaged	damaged,	3	nopreview	9	618	387	0	0	0	0	387
	588	,	,		3	nopreview	9	619						
485	589	police	police	police	3	nopreview	9	620	163	0	0	0	0	163
486	590	said	said	said.	3	nopreview	9	621	226	0	0	0	0	226
	591	.	.		3	nopreview	9	622						
487	592	No	No	No	3	nopreview	9	623	0	0	0	0	0	0
488	593	officers	officers	officers	3	nopreview	9	624	307	0	0	0	0	307
489	594	were	were	were	3	nopreview	9	625	158	0	0	0	0	158
490	595	injured	injured	injured	3	nopreview	9	626	233	0	0	0	0	233
491	596	as	as	as	3	nopreview	9	627	290	0	0	0	0	290
492	597	police	police	police	3	nopreview	9	628	191	0	0	0	0	191
493	598	conducted	conducted	conducted	3	nopreview	9	629	453	0	0	0	0	453
494	599	anti-riot	anti-riot	anti-riot	3	nopreview	9	630	177	0	0	0	0	177
495	600	activities	activities	activities	3	nopreview	9	631	461	0	0	0	0	461
496	601	until	until	until	3	nopreview	9	632	237	0	0	0	0	237
497	602	3	3	3	3	nopreview	9	633	178	0	0	0	0	178
498	603	a.m.	a.m.	a.m.	3	nopreview	9	634	1300	0	0	0	0	1300
499	604	In	In	In	3	nopreview	9	635	0	0	0	0	0	0
500	605	@entity147	Los	Los	3	nopreview	9	636	570	111	16769	111	570	459
501			Angeles	Angeles,	3	nopreview	9	637	987	987	987	315	987	0
	606	,	,		3	nopreview	9	638						
502	607	six	six	six	3	nopreview	9	639	395	395	395	395	395	0
503	608	people	people	people	3	nopreview	9	640	239	239	239	239	239	0
504	609	protesting	protesting	protesting	3	nopreview	9	641	243	243	243	243	243	0
505	610	against	against	against	3	nopreview	9	642	477	477	477	198	477	0
506	611	police	police	police	3	nopreview	9	643	357	357	357	357	357	0
507	612	brutality	brutality	brutality	3	nopreview	9	644	386	386	386	115	386	0
508	613	were	were	were	3	nopreview	9	645	392	392	392	392	392	0
509	614	arrested	arrested	arrested	3	nopreview	9	646	464	464	464	242	464	0
510	615	Monday	Monday	Monday	3	nopreview	9	647	248	248	248	248	248	0
511	616	night	night	night	3	nopreview	9	648	306	306	306	306	306	0
512	617	when	when	when	3	nopreview	9	649	258	258	258	258	258	0
513	618	they	they	they	3	nopreview	9	650	266	266	266	266	266	0
514	619	failed	failed	failed	3	nopreview	9	651	227	227	227	227	227	0
515	620	to	to	to	3	nopreview	9	652	0	0	0	0	0	0
516	621	disperse	disperse	disperse,	3	nopreview	9	653	831	467	467	253	467	364
	622	,	,		3	nopreview	9	654						
517	623	reported	reported	reported	3	nopreview	9	655	1168	374	1532	374	1168	794
518	624	@entity0	CNN	CNN	3	nopreview	9	656	0	0	0	0	0	0
519	625	affiliate	affiliate	affiliate	3	nopreview	9	657	494	300	300	300	300	194
520	626	@entity148	KABC	KABC.	3	nopreview	9	658	583	275	777	275	583	308
	627	.	.		3	nopreview	9	659						
521	628	About	About	About	3	nopreview	9	660	650	650	650	223	650	0
522	629	50	50	50	3	nopreview	9	661	0	0	0	0	0	0
523	630	people	people	people	3	nopreview	9	662	628	628	628	372	628	0
524	631	marched	marched	marched,	3	nopreview	9	663	287	287	287	287	287	0
	632	,	,		3	nopreview	9	664						
525	633	@entity148	KABC	KABC	3	nopreview	9	665	258	258	258	258	258	0
526	634	said	said	said.	3	nopreview	9	666	399	399	399	202	399	0
	635	.	.		3	nopreview	9	667						
527	636	On	On	On	3	nopreview	9	668	0	0	0	0	0	0
528	637	Tuesday	Tuesday	Tuesday,	3	nopreview	9	669	1173	1173	1173	81	1173	0
	638	,	,		3	nopreview	9	670						
529	639	protesters	protesters	protesters	3	nopreview	9	671	451	451	451	266	451	0
530	640	gathered	gathered	gathered	3	nopreview	9	672	155	155	155	155	155	0
531	641	outside	outside	outside	3	nopreview	9	673	272	0	0	0	0	272
532	642	the	the	the	3	nopreview	9	674	107	107	379	107	107	0
533	643	@entity152	Stapes	Stapes	3	nopreview	9	675	227	227	227	227	227	0
534			Center	Center,	3	nopreview	9	676	292	292	292	292	292	0
	644	,	,		3	nopreview	9	677						
535	645	where	where	where	3	nopreview	9	678	258	258	258	258	258	0
536	646	the	the	the	3	nopreview	9	679	149	149	149	149	149	0
537	647	@entity153	Los	Los	3	nopreview	9	680	0	0	0	0	0	0
538			Angeles	Angeles	3	nopreview	9	681	206	206	206	206	206	0
539			Clippers	Clippers	3	nopreview	9	682	243	243	243	243	243	0
540	648	and	and	and	3	nopreview	9	683	0	0	0	0	0	0
541	649	the	the	the	3	nopreview	9	684	0	0	0	0	0	0
542	650	@entity154	San	San	3	nopreview	9	685	219	219	219	219	219	0
543			Antonio	Antonio	3	nopreview	9	686	436	436	436	232	436	0
544			Spurs	Spurs	3	nopreview	9	687	81	81	81	81	81	0
545	651	were	were	were	3	nopreview	9	688	0	0	0	0	0	0
546	652	playing	playing	playing	3	nopreview	9	689	588	588	588	113	588	0
547	653	an	an	an	3	nopreview	9	690	0	0	0	0	0	0
548	654	@entity156	NBA	NBA	3	nopreview	9	691	285	285	285	285	285	0
549	655	playoff	playoff	playoff	3	nopreview	9	692	447	216	216	216	216	231
550	656	game	game	game.	3	nopreview	9	693	243	243	474	243	243	0
	657	.	.		3	nopreview	9	694						
551	658	They	They	They	3	nopreview	9	695	0	0	0	0	0	0
552	659	disrupted	disrupted	disrupted	3	nopreview	9	696	413	413	413	106	413	0
553	660	traffic	traffic	traffic	3	nopreview	9	697	428	428	428	290	428	0
554	661	and	and	and	3	nopreview	9	698	0	0	0	0	0	0
555	662	carried	carried	carried	3	nopreview	9	699	228	228	228	228	228	0
556	663	protest	protest	protest	3	nopreview	9	700	139	139	139	139	139	0
557	664	signs	signs	signs.	3	nopreview	9	701	121	121	121	121	121	0
	665	.	.		3	nopreview	9	702						
558	666	In	In	In	3	nopreview	9	703	0	0	0	0	0	0
559	667	@entity161	Chicago	Chicago,	3	nopreview	9	704	550	404	404	126	404	146
	668	,	,		3	nopreview	9	705						
560	669	hundreds	hundreds	hundreds	3	nopreview	9	706	585	421	421	221	421	164
561	670	of	of	of	3	nopreview	9	707	0	0	0	0	0	0
562	671	protesters	protesters	protesters	3	nopreview	9	708	147	147	147	147	147	0
563	672	marched	marched	marched	3	nopreview	9	709	295	143	143	143	143	152
564	673	Tuesday	Tuesday	Tuesday	3	nopreview	9	710	476	476	476	476	476	0
565	674	from	from	from	3	nopreview	9	711	0	0	0	0	0	0
566	675	police	police	police	3	nopreview	9	712	616	616	616	280	616	0
567	676	headquarters	headquarters	headquarters	3	nopreview	9	713	747	747	747	221	747	0
568	677	at	at	at	3	nopreview	9	714	0	0	0	0	0	0
569	678	35th	35th	35th	3	nopreview	9	715	186	186	186	186	186	0
570	679	and	and	and	3	nopreview	9	716	0	0	0	0	0	0
571	680	@entity163	Michigan	Michigan	3	nopreview	9	717	1023	1023	1023	99	1023	0
572	681	through	through	through	3	nopreview	9	718	128	0	0	0	0	128
573	682	the	the	the	3	nopreview	9	719	195	195	323	195	195	0
574	683	@entity164	Southside	Southside,	3	nopreview	9	720	133	133	133	133	133	0
	684	,	,		3	nopreview	9	721						
575	685	@entity0	CNN	CNN	3	nopreview	9	722	217	217	217	217	217	0
576	686	affiliate	affiliate	affiliate	3	nopreview	9	723	305	305	305	305	305	0
577	687	@entity159	WGN	WGN	3	nopreview	9	724	321	321	321	321	321	0
578	688	reported	reported	reported.	3	nopreview	9	725	623	623	623	419	623	0
	689	.	.		3	nopreview	9	726						
579	690	Police	Police	Police	3	nopreview	9	727	227	227	227	227	227	0
580	691	made	made	made	3	nopreview	9	728	135	135	135	135	135	0
581	692	one	one	one	3	nopreview	9	729	0	0	0	0	0	0
582	693	arrest	arrest	arrest,	3	nopreview	9	730	281	281	281	281	281	0
	694	,	,		3	nopreview	9	731						
583	695	for	for	for	3	nopreview	9	732	165	165	165	165	165	0
584	696	reckless	reckless	reckless	3	nopreview	9	733	299	299	299	299	299	0
585	697	conduct	conduct	conduct.	3	nopreview	9	734	466	466	466	151	466	0
	698	.	.		3	nopreview	9	735						
586	699	@entity159	WGN	WGN	3	nopreview	9	736	243	243	243	243	243	0
587	700	said	said	said	3	nopreview	9	737	447	243	243	243	243	204
588	701	protesters	protesters	protesters	3	nopreview	9	738	587	0	0	0	0	587
589	702	spoke	spoke	spoke	3	nopreview	9	739	240	240	240	240	240	0
590	703	about	about	about	3	nopreview	9	740	362	362	362	362	362	0
591	704	police	police	police	3	nopreview	9	741	0	0	0	0	0	0
592	705	violence	violence	violence	3	nopreview	9	742	641	311	1253	158	462	330
593	706	and	and	and	3	nopreview	9	743	0	0	0	0	0	0
594	707	the	the	the	3	nopreview	9	744	329	329	970	201	329	0
595	708	death	death	death	3	nopreview	9	745	457	0	0	0	0	457
596	709	of	of	of	3	nopreview	9	746	193	0	0	0	0	193
597	710	@entity171	Rekia	Rekia	3	nopreview	9	747	1490	0	0	0	0	1490
598			Boyd	Boyd,	3	nopreview	9	748	1979	0	0	0	0	1979
	711	,	,		3	nopreview	9	749						
599	712	who	who	who	3	nopreview	9	750	151	0	0	0	0	151
600	713	was	was	was	3	nopreview	9	751	636	0	0	0	0	636
601	714	killed	killed	killed	3	nopreview	9	752	501	0	0	0	0	501
602	715	by	by	by	3	nopreview	9	753	0	0	0	0	0	0
603	716	an	an	an	3	nopreview	9	754	244	0	0	0	0	244
604	717	off	off	off-duty	3	nopreview	9	755	569	0	0	0	0	569
	718	-	-		3	nopreview	9	756						
	719	duty	duty		3	nopreview	9	757						
605	720	officer	officer	officer	3	nopreview	9	758	333	0	0	0	0	333
606	721	in	in	in	3	nopreview	9	759	0	0	0	0	0	0
607	722	2012	2012	2012.	3	nopreview	9	760	272	0	0	0	0	272
	723	.	.		3	nopreview	9	761						
608	724	That	That	That	3	nopreview	9	762	321	0	0	0	0	321
609	725	officer	officer	officer	3	nopreview	9	763	220	0	0	0	0	220
610	726	was	was	was	3	nopreview	9	764	0	0	0	0	0	0
611	727	acquitted	acquitted	acquitted	3	nopreview	9	765	352	0	0	0	0	352
612	728	last	last	last	3	nopreview	9	766	199	0	0	0	0	199
613	729	week	week	week.	3	nopreview	9	767	187	0	0	0	0	187
	730	.	.		3	nopreview	9	768						
614	731	The	The	The	3	nopreview	9	769	0	0	0	0	0	0
615	732	group	group	group	3	nopreview	9	770	401	0	0	0	0	401
616	733	plans	plans	plans	3	nopreview	9	771	399	0	0	0	0	399
617	734	to	to	to	3	nopreview	9	772	0	0	0	0	0	0
618	735	gather	gather	gather	3	nopreview	9	773	229	0	0	0	0	229
619	736	Wednesday	Wednesday	Wednesday	3	nopreview	9	774	224	0	0	0	0	224
620	737	night	night	night	3	nopreview	9	775	240	0	0	0	0	240
621	738	at	at	at	3	nopreview	9	776	0	0	0	0	0	0
622	739	the	the	the	3	nopreview	9	777	150	0	0	0	0	150
623	740	@entity175	DePaul	DePaul	3	nopreview	9	778	482	0	0	0	0	482
624			Law	Law	3	nopreview	9	779	0	0	0	0	0	0
625			School	School.	3	nopreview	9	780	289	0	0	0	0	289
	741	.	.		3	nopreview	9	781						
626	742	About	About	About	3	nopreview	9	782	694	0	0	0	0	694
627	743	100	100	100	3	nopreview	9	783	0	0	0	0	0	0
628	744	people	people	people	3	nopreview	9	784	367	0	0	0	0	367
629	745	marched	marched	marched	3	nopreview	9	785	334	0	0	0	0	334
630	746	Monday	Monday	Monday	3	nopreview	9	786	793	0	0	0	0	793
631	747	night	night	night	3	nopreview	9	787	247	0	0	0	0	247
632	748	in	in	in	3	nopreview	9	788	0	0	0	0	0	0
633	749	@entity177	Oakland	Oakland	3	nopreview	9	789	445	0	0	0	0	445
634	750	in	in	in	3	nopreview	9	790	0	0	0	0	0	0
635	751	support	support	support	3	nopreview	9	791	445	0	0	0	0	445
636	752	of	of	of	3	nopreview	9	792	0	0	0	0	0	0
637	753	@entity21	Baltimore	Baltimore	3	nopreview	9	793	218	0	0	0	0	218
638	754	protesters	protesters	protesters,	3	nopreview	9	794	812	0	0	0	0	812
	755	,	,		3	nopreview	9	795						
639	756	reported	reported	reported	3	nopreview	9	796	1457	0	0	0	0	1457
640	757	@entity0	CNN	CNN	3	nopreview	9	797	588	0	0	0	0	588
641	758	affiliate	affiliate	affiliate	3	nopreview	9	798	754	0	0	0	0	754
642	759	@entity148	KABC	KABC.	3	nopreview	9	799	358	0	0	0	0	358
	760	.	.		3	nopreview	9	800						
643	761	A	A	A	3	nopreview	9	801	0	0	0	0	0	0
644	762	protest	protest	protest	3	nopreview	9	802	953	0	0	0	0	953
645	763	is	is	is	3	nopreview	9	803	0	0	0	0	0	0
646	764	planned	planned	planned	3	nopreview	9	804	369	0	0	0	0	369
647	765	for	for	for	3	nopreview	9	805	0	0	0	0	0	0
648	766	Thursday	Thursday	Thursday	3	nopreview	9	806	355	0	0	0	0	355
649	767	in	in	in	3	nopreview	9	807	0	0	0	0	0	0
650	768	@entity181	Cincinnati	Cincinnati,	3	nopreview	9	808	690	0	0	0	0	690
	769	,	,		3	nopreview	9	809						
651	770	reported	reported	reported	3	nopreview	9	810	537	0	0	0	0	537
652	771	@entity0	CNN	CNN	3	nopreview	9	811	412	0	0	0	0	412
653	772	affiliate	affiliate	affiliate	3	nopreview	9	812	1113	0	0	0	0	1113
654	773	@entity182	WXIX	WXIX.	3	nopreview	9	813	1178	205	23061	205	1178	973
	774	.	.		3	nopreview	9	814						
655	775	@entity183	Philly.com	Philly.com	3	nopreview	9	815	1174	1174	1174	319	1174	0
656	776	said	said	said	3	nopreview	9	816	631	631	631	404	631	0
657	777	a	a	a	3	nopreview	9	817	0	0	0	0	0	0
658	778	-	-	-Philly	3	nopreview	9	818	784	248	248	248	248	536
	779	@entity185	Philly		3	nopreview	9	819						
659	780	is	is	is	3	nopreview	9	820	486	160	160	160	160	326
660	781	@entity21	Baltimore	Baltimore-	3	nopreview	9	821	344	179	179	179	179	165
	782	-	-		3	nopreview	9	822						
661	783	protest	protest	protest	3	nopreview	9	823	371	0	0	0	0	371
662	784	will	will	will	3	nopreview	9	824	436	221	807	221	436	215
663	785	be	be	be	3	nopreview	9	825	232	232	232	232	232	0
664	786	held	held	held	3	nopreview	9	826	1019	726	726	726	726	293
665	787	Thursday	Thursday	Thursday	3	nopreview	9	827	1035	122	1687	122	367	913
666	788	at	at	at	3	nopreview	9	828	0	0	0	0	0	0
667	789	@entity186	Philadelphia	Philadelphia	3	nopreview	9	829	498	498	498	255	498	0
668			City	City	3	nopreview	9	830	249	249	1493	249	249	0
669			Hall	Hall.	3	nopreview	9	831	0	0	0	0	0	0
	790	.	.		3	nopreview	9	832						
