HumanPosition	AnonymizedPosition	AnonymizedToken	OriginalToken	ExperimentToken	Participant	Condition	TextNo	JointPosition	tt	fp	rp	ff	rb	sp
1	0	(	(	Two	2	preview	1	1	0	0	0	0	0	0
2	1	@entity1	CNN	passengers	2	preview	1	2	350	350	350	214	350	0
	2	)	)		2	preview	1	3						
	3	Two	Two		2	preview	1	4						
	4	passengers	passengers		2	preview	1	5						
3	5	found	found	found	2	preview	1	6	142	142	142	142	142	0
4	6	dead	dead	dead	2	preview	1	7	0	0	0	0	0	0
5	7	on	on	on	2	preview	1	8	0	0	0	0	0	0
6	8	a	a	a	2	preview	1	9	0	0	0	0	0	0
7	9	cruise	cruise	cruise	2	preview	1	10	170	170	170	170	170	0
8	10	ship	ship	ship	2	preview	1	11	110	110	110	110	110	0
9	11	in	in	in	2	preview	1	12	0	0	0	0	0	0
10	12	@entity4	Puerto	Puerto	2	preview	1	13	152	152	152	152	152	0
11			Rico	Rico	2	preview	1	14	0	0	0	0	0	0
12	13	appear	appear	appear	2	preview	1	15	194	194	194	194	194	0
13	14	to	to	to	2	preview	1	16	0	0	0	0	0	0
14	15	have	have	have	2	preview	1	17	0	0	0	0	0	0
15	16	died	died	died	2	preview	1	18	323	323	323	143	323	0
16	17	in	in	in	2	preview	1	19	0	0	0	0	0	0
17	18	a	a	a	2	preview	1	20	0	0	0	0	0	0
18	19	murder	murder	murder-suicide,	2	preview	1	21	347	347	347	115	347	0
	20	-	-		2	preview	1	22						
	21	suicide	suicide		2	preview	1	23						
	22	,	,		2	preview	1	24						
19	23	the	the	the	2	preview	1	25	0	0	1788	0	0	0
20	24	cruise	cruise	cruise	2	preview	1	26	242	242	242	242	242	0
21	25	line	line	line	2	preview	1	27	0	0	0	0	0	0
22	26	said	said	said.	2	preview	1	28	134	134	134	134	134	0
	27	.	.		2	preview	1	29						
23	28	@entity6	Holland	Holland	2	preview	1	30	207	207	207	207	207	0
24			America	America	2	preview	1	31	164	164	164	164	164	0
25			Line	Line	2	preview	1	32	145	145	145	145	145	0
26	29	said	said	said	2	preview	1	33	0	0	0	0	0	0
27	30	two	two	two	2	preview	1	34	166	0	0	0	0	166
28	31	guests	guests	guests	2	preview	1	35	235	116	401	116	235	119
29	32	were	were	were	2	preview	1	36	0	0	0	0	0	0
30	33	found	found	found	2	preview	1	37	115	115	115	115	115	0
31	34	dead	dead	dead	2	preview	1	38	0	0	0	0	0	0
32	35	inside	inside	inside	2	preview	1	39	225	225	225	225	225	0
33	36	their	their	their	2	preview	1	40	0	0	0	0	0	0
34	37	stateroom	stateroom	stateroom	2	preview	1	41	260	260	260	260	260	0
35	38	on	on	on	2	preview	1	42	0	0	0	0	0	0
36	39	the	the	the	2	preview	1	43	221	0	0	0	0	221
37	40	@entity9	ms	ms	2	preview	1	44	155	155	155	155	155	0
38			Ryndam	Ryndam	2	preview	1	45	521	98	437	98	216	423
39	41	at	at	at	2	preview	1	46	0	0	0	0	0	0
40	42	11:30	11:30	11:30	2	preview	1	47	380	211	685	211	380	169
41	43	a.m.	a.m.	a.m.	2	preview	1	48	0	0	474	0	0	0
42	44	Thursday	Thursday	Thursday.	2	preview	1	49	173	173	173	173	173	0
	45	.	.		2	preview	1	50						
43	46	-	-	-The	2	preview	1	51	141	141	141	141	141	0
	47	The	The		2	preview	1	52						
44	48	cabin	cabin	cabin	2	preview	1	53	83	83	83	83	83	0
45	49	was	was	was	2	preview	1	54	0	0	0	0	0	0
46	50	immediately	immediately	immediately	2	preview	1	55	197	197	197	197	197	0
47	51	secured	secured	secured,	2	preview	1	56	154	154	154	154	154	0
	52	,	,		2	preview	1	57						
48	53	and	and	and	2	preview	1	58	0	0	0	0	0	0
49	54	the	the	the	2	preview	1	59	0	0	0	0	0	0
50	55	authorities	authorities	authorities	2	preview	1	60	179	179	179	179	179	0
51	56	were	were	were	2	preview	1	61	0	0	0	0	0	0
52	57	notified	notified	notified,	2	preview	1	62	159	159	159	159	159	0
	58	,	,		2	preview	1	63						
53	59	including	including	including	2	preview	1	64	189	189	189	189	189	0
54	60	the	the	the	2	preview	1	65	0	0	0	0	0	0
55	61	@entity12	FBI	FBI,-	2	preview	1	66	112	112	112	112	112	0
	62	,	,		2	preview	1	67						
	63	-	-		2	preview	1	68						
56	64	@entity6	Holland	Holland	2	preview	1	69	102	102	102	102	102	0
57			America	America	2	preview	1	70	203	203	203	100	203	0
58	65	said	said	said.	2	preview	1	71	0	0	0	0	0	0
	66	.	.		2	preview	1	72						
59	67	-	-	-We	2	preview	1	73	0	0	0	0	0	0
	68	We	We		2	preview	1	74						
60	69	are	are	are	2	preview	1	75	155	155	155	155	155	0
61	70	cooperating	cooperating	cooperating	2	preview	1	76	312	312	312	197	312	0
62	71	fully	fully	fully	2	preview	1	77	148	148	148	148	148	0
63	72	with	with	with	2	preview	1	78	0	0	0	0	0	0
64	73	the	the	the	2	preview	1	79	0	0	0	0	0	0
65	74	investigation	investigation	investigation,	2	preview	1	80	247	247	247	166	247	0
	75	,	,		2	preview	1	81						
66	76	and	and	and	2	preview	1	82	0	0	0	0	0	0
67	77	the	the	the	2	preview	1	83	120	120	120	120	120	0
68	78	authorities	authorities	authorities	2	preview	1	84	338	338	338	338	338	0
69	79	will	will	will	2	preview	1	85	112	0	0	0	0	112
70	80	make	make	make	2	preview	1	86	106	106	218	106	106	0
71	81	the	the	the	2	preview	1	87	0	0	0	0	0	0
72	82	official	official	official	2	preview	1	88	172	172	172	172	172	0
73	83	determination	determination	determination	2	preview	1	89	208	208	208	208	208	0
74	84	on	on	on	2	preview	1	90	0	0	0	0	0	0
75	85	what	what	what	2	preview	1	91	157	0	0	0	0	157
76	86	occurred	occurred	occurred.-	2	preview	1	92	150	150	307	150	150	0
	87	.	.		2	preview	1	93						
77	88	-	-	FBI	2	preview	1	94	0	0	0	0	0	0
78	89	@entity12	FBI	spokesman	2	preview	1	95	496	496	496	198	496	0
	90	spokesman	spokesman		2	preview	1	96						
79	91	@entity17	Moises	Moises	2	preview	1	97	307	307	307	307	307	0
80			Quiñones	Quinones	2	preview	1	98	0	0	0	0	0	0
81	92	said	said	said	2	preview	1	99	178	0	0	0	0	178
82	93	authorities	authorities	authorities	2	preview	1	100	129	0	0	0	0	129
83	94	were	were	were	2	preview	1	101	0	0	0	0	0	0
84	95	on	on	on	2	preview	1	102	0	0	0	0	0	0
85	96	scene	scene	scene	2	preview	1	103	278	124	585	124	278	154
86	97	investigating	investigating	investigating.	2	preview	1	104	126	126	126	126	126	0
	98	.	.		2	preview	1	105						
87	99	The	The	The	2	preview	1	106	0	0	0	0	0	0
88	100	ship	ship	ship	2	preview	1	107	171	171	171	171	171	0
89	101	left	left	left	2	preview	1	108	0	0	0	0	0	0
90	102	@entity21	Tampa	Tampa,	2	preview	1	109	333	333	333	206	333	0
	103	,	,		2	preview	1	110						
91	104	@entity22	Florida	Florida,	2	preview	1	111	160	160	160	160	160	0
	105	,	,		2	preview	1	112						
92	106	on	on	on	2	preview	1	113	0	0	0	0	0	0
93	107	March	March	March	2	preview	1	114	123	123	123	123	123	0
94	108	29	29	29	2	preview	1	115	0	0	0	0	0	0
95	109	on	on	on	2	preview	1	116	196	196	196	196	196	0
96	110	a	a	a	2	preview	1	117	0	0	0	0	0	0
97	111	14	14	14-day	2	preview	1	118	0	0	0	0	0	0
	112	-	-		2	preview	1	119						
	113	day	day		2	preview	1	120						
98	114	@entity24	Southern	Southern	2	preview	1	121	204	204	204	204	204	0
99			Caribbean	Caribbean	2	preview	1	122	125	125	125	125	125	0
100	115	cruise	cruise	cruise.	2	preview	1	123	0	0	0	0	0	0
	116	.	.		2	preview	1	124						
101	117	It	It	It-s	2	preview	1	125	87	87	87	87	87	0
	118	-s	-s		2	preview	1	126						
102	119	currently	currently	currently	2	preview	1	127	177	177	177	177	177	0
103	120	in	in	in	2	preview	1	128	0	0	0	0	0	0
104	121	@entity26	San	San	2	preview	1	129	0	0	0	0	0	0
105			Juan	Juan,	2	preview	1	130	557	338	338	239	338	219
	122	,	,		2	preview	1	131						
106	123	@entity4	Puerto	Puerto	2	preview	1	132	143	143	362	143	143	0
107			Rico	Rico.	2	preview	1	133	0	0	0	0	0	0
	124	.	.		2	preview	1	134						
108	125	@entity28	Puerto	Puerto	2	preview	1	135	181	181	181	181	181	0
109			Rico	Rico	2	preview	1	136	0	0	0	0	0	0
110			Port	Port	2	preview	1	137	0	0	0	0	0	0
111			Authority	Authority	2	preview	1	138	0	0	0	0	0	0
112	126	spokesman	spokesman	spokesman	2	preview	1	139	264	264	264	264	264	0
113	127	@entity27	Efraín	Efrain	2	preview	1	140	143	143	143	143	143	0
114			Santiago	Santiago	2	preview	1	141	0	0	0	0	0	0
115	128	told	told	told	2	preview	1	142	0	0	0	0	0	0
116	129	@entity30	El	El	2	preview	1	143	195	195	195	195	195	0
117			Nuevo	Nuevo	2	preview	1	144	0	0	0	0	0	0
118			Dia	Dia	2	preview	1	145	0	0	0	0	0	0
119	130	newspaper	newspaper	newspaper	2	preview	1	146	166	166	166	166	166	0
120	131	that	that	that	2	preview	1	147	0	0	0	0	0	0
121	132	the	the	the	2	preview	1	148	0	0	0	0	0	0
122	133	cleaning	cleaning	cleaning	2	preview	1	149	198	198	198	198	198	0
123	134	staff	staff	staff	2	preview	1	150	118	118	118	118	118	0
124	135	on	on	on	2	preview	1	151	0	0	0	0	0	0
125	136	the	the	the	2	preview	1	152	0	0	0	0	0	0
126	137	ship	ship	ship	2	preview	1	153	158	158	158	158	158	0
127	138	had	had	had	2	preview	1	154	0	0	0	0	0	0
128	139	discovered	discovered	discovered	2	preview	1	155	163	163	163	163	163	0
129	140	the	the	the	2	preview	1	156	0	0	0	0	0	0
130	141	deceased	deceased	deceased	2	preview	1	157	171	171	171	171	171	0
131	142	passengers	passengers	passengers	2	preview	1	158	138	138	138	138	138	0
132	143	after	after	after	2	preview	1	159	0	0	0	0	0	0
133	144	knocking	knocking	knocking	2	preview	1	160	204	204	204	204	204	0
134	145	on	on	on	2	preview	1	161	0	0	0	0	0	0
135	146	the	the	the	2	preview	1	162	0	0	0	0	0	0
136	147	cabin	cabin	cabin-s	2	preview	1	163	0	0	0	0	0	0
	148	-s	-s		2	preview	1	164						
137	149	door	door	door.	2	preview	1	165	0	0	0	0	0	0
	150	.	.		2	preview	1	166						
