HumanPosition	AnonymizedPosition	AnonymizedToken	OriginalToken	ExperimentToken	Participant	Condition	TextNo	JointPosition	tt	fp	rp	ff	rb	sp
1	0	(	(	Good	2	preview	3	1	0	0	0	0	0	0
	1	The	The		2	preview	3	2						
	2	@entity0	Hollywood		2	preview	3	3						
			Reporter		2	preview	3	4						
	3	)	)		2	preview	3	5						
	4	Good	Good		2	preview	3	6						
2	5	news	news	news	2	preview	3	7	425	0	0	0	0	425
3	6	arrived	arrived	arrived	2	preview	3	8	445	0	0	0	0	445
4	7	Thursday	Thursday	Thursday	2	preview	3	9	404	0	0	0	0	404
5	8	for	for	for	2	preview	3	10	0	0	0	0	0	0
6	9	-	-	-Fifty	2	preview	3	11	166	0	0	0	0	166
	10	@entity3	Fifty		2	preview	3	12						
7			Shades	Shades	2	preview	3	13	92	0	0	0	0	92
8			of	of	2	preview	3	14	0	0	0	0	0	0
9			Grey	Grey-	2	preview	3	15	0	0	0	0	0	0
	11	-	-		2	preview	3	16						
10	12	fans	fans	fans.	2	preview	3	17	0	0	0	0	0	0
	13	.	.		2	preview	3	18						
11	14	@entity4	Universal	Universal	2	preview	3	19	318	0	0	0	0	318
12	15	announced	announced	announced	2	preview	3	20	0	0	0	0	0	0
13	16	Thursday	Thursday	Thursday	2	preview	3	21	228	0	0	0	0	228
14	17	that	that	that	2	preview	3	22	0	0	0	0	0	0
15	18	the	the	the	2	preview	3	23	150	0	0	0	0	150
16	19	sequel	sequel	sequel	2	preview	3	24	115	0	0	0	0	115
17	20	to	to	to	2	preview	3	25	0	0	0	0	0	0
18	21	the	the	the	2	preview	3	26	0	0	0	0	0	0
19	22	box	box	box	2	preview	3	27	161	0	0	0	0	161
20	23	office	office	office	2	preview	3	28	0	0	0	0	0	0
21	24	blockbuster	blockbuster	blockbuster	2	preview	3	29	207	0	0	0	0	207
22	25	will	will	will	2	preview	3	30	0	0	0	0	0	0
23	26	hit	hit	hit	2	preview	3	31	0	0	0	0	0	0
24	27	theaters	theaters	theaters	2	preview	3	32	163	0	0	0	0	163
25	28	on	on	on	2	preview	3	33	0	0	0	0	0	0
26	29	Feb.	Feb.	Feb.	2	preview	3	34	0	0	0	0	0	0
27	30	10	10	10,	2	preview	3	35	0	0	0	0	0	0
	31	,	,		2	preview	3	36						
28	32	2017	2017	2017.	2	preview	3	37	0	0	0	0	0	0
	33	.	.		2	preview	3	38						
29	34	The	The	The	2	preview	3	39	0	0	0	0	0	0
30	35	third	third	third	2	preview	3	40	0	0	0	0	0	0
31	36	film	film	film	2	preview	3	41	109	109	2983	109	109	0
32	37	in	in	in	2	preview	3	42	0	0	0	0	0	0
33	38	the	the	the	2	preview	3	43	248	248	248	93	248	0
34	39	series	series	series	2	preview	3	44	0	0	0	0	0	0
35	40	will	will	will	2	preview	3	45	0	0	0	0	0	0
36	41	debut	debut	debut	2	preview	3	46	177	177	177	177	177	0
37	42	Feb.	Feb.	Feb.	2	preview	3	47	0	0	0	0	0	0
38	43	9	9	9,	2	preview	3	48	0	0	0	0	0	0
	44	,	,		2	preview	3	49						
39	45	2018	2018	2018.	2	preview	3	50	0	0	0	0	0	0
	46	.	.		2	preview	3	51						
40	47	The	The	The	2	preview	3	52	0	0	0	0	0	0
41	48	news	news	news	2	preview	3	53	208	208	208	208	208	0
42	49	came	came	came	2	preview	3	54	0	0	0	0	0	0
43	50	one	one	one	2	preview	3	55	0	0	0	0	0	0
44	51	day	day	day	2	preview	3	56	112	112	112	112	112	0
45	52	after	after	after	2	preview	3	57	0	0	0	0	0	0
46	53	@entity0	The	The	2	preview	3	58	164	164	164	164	164	0
47			Hollywood	Hollywood	2	preview	3	59	147	147	147	147	147	0
48			Reporter	Reporter	2	preview	3	60	0	0	0	0	0	0
49	54	reported	reported	reported	2	preview	3	61	0	0	0	0	0	0
50	55	exclusively	exclusively	exclusively	2	preview	3	62	215	215	215	215	215	0
51	56	that	that	that	2	preview	3	63	0	0	0	0	0	0
52	57	the	the	the	2	preview	3	64	157	157	157	157	157	0
53	58	husband	husband	husband	2	preview	3	65	0	0	0	0	0	0
54	59	of	of	of	2	preview	3	66	0	0	0	0	0	0
55	60	@entity12	EL	EL	2	preview	3	67	0	0	0	0	0	0
56			James	James,	2	preview	3	68	0	0	0	0	0	0
	61	,	,		2	preview	3	69						
57	62	author	author	author	2	preview	3	70	112	0	0	0	0	112
58	63	of	of	of	2	preview	3	71	223	223	335	223	223	0
59	64	the	the	the	2	preview	3	72	0	0	0	0	0	0
60	65	-	-	-Fifty	2	preview	3	73	0	0	0	0	0	0
	66	@entity3	Fifty		2	preview	3	74						
61			Shades	Shades-	2	preview	3	75	122	122	122	122	122	0
	67	-	-		2	preview	3	76						
62	68	trilogy	trilogy	trilogy,	2	preview	3	77	0	0	0	0	0	0
	69	,	,		2	preview	3	78						
63	70	will	will	will	2	preview	3	79	131	131	131	131	131	0
64	71	write	write	write	2	preview	3	80	0	0	0	0	0	0
65	72	the	the	the	2	preview	3	81	158	158	158	158	158	0
66	73	script	script	script	2	preview	3	82	128	128	128	128	128	0
67	74	for	for	for	2	preview	3	83	0	0	0	0	0	0
68	75	the	the	the	2	preview	3	84	0	0	0	0	0	0
69	76	second	second	second	2	preview	3	85	245	245	245	134	245	0
70	77	film	film	film.	2	preview	3	86	0	0	0	0	0	0
	78	.	.		2	preview	3	87						
71	79	@entity16	Niall	Niall	2	preview	3	88	247	0	0	0	0	247
72			Leonard	Leonard,	2	preview	3	89	188	188	435	188	188	0
	80	,	,		2	preview	3	90						
73	81	who	who	who	2	preview	3	91	0	0	0	0	0	0
74	82	is	is	is	2	preview	3	92	0	0	0	0	0	0
75	83	married	married	married	2	preview	3	93	287	287	287	173	287	0
76	84	and	and	and	2	preview	3	94	0	0	0	0	0	0
77	85	has	has	has	2	preview	3	95	0	0	0	0	0	0
78	86	two	two	two	2	preview	3	96	152	152	152	152	152	0
79	87	sons	sons	sons	2	preview	3	97	0	0	0	0	0	0
80	88	with	with	with	2	preview	3	98	0	0	0	0	0	0
81	89	the	the	the	2	preview	3	99	131	131	131	131	131	0
82	90	@entity19	British	British	2	preview	3	100	0	0	0	0	0	0
83	91	author	author	author,	2	preview	3	101	0	0	0	0	0	0
	92	,	,		2	preview	3	102						
84	93	is	is	is	2	preview	3	103	0	0	0	0	0	0
85	94	an	an	an	2	preview	3	104	135	135	135	135	135	0
86	95	author	author	author	2	preview	3	105	0	0	0	0	0	0
87	96	himself	himself	himself,	2	preview	3	106	182	0	0	0	0	182
	97	,	,		2	preview	3	107						
88	98	in	in	in	2	preview	3	108	0	0	0	0	0	0
89	99	addition	addition	addition	2	preview	3	109	164	164	164	164	164	0
90	100	to	to	to	2	preview	3	110	0	0	0	0	0	0
91	101	being	being	being	2	preview	3	111	0	0	0	0	0	0
92	102	a	a	a	2	preview	3	112	142	142	142	142	142	0
93	103	screenwriter	screenwriter	screenwriter.	2	preview	3	113	81	81	81	81	81	0
	104	.	.		2	preview	3	114						
94	105	@entity12	James	James,	2	preview	3	115	151	151	151	151	151	0
	106	,	,		2	preview	3	116						
95	107	whose	whose	whose	2	preview	3	117	0	0	0	0	0	0
96	108	real	real	real	2	preview	3	118	194	194	194	194	194	0
97	109	name	name	name	2	preview	3	119	0	0	0	0	0	0
98	110	is	is	is	2	preview	3	120	0	0	0	0	0	0
99	111	@entity12	Erika	Erika	2	preview	3	121	104	104	286	104	104	0
100			Leonard	Leonard,	2	preview	3	122	0	0	0	0	0	0
	112	,	,		2	preview	3	123						
101	113	has	has	has	2	preview	3	124	0	0	0	0	0	0
102	114	been	been	been	2	preview	3	125	168	168	168	168	168	0
103	115	credited	credited	credited	2	preview	3	126	126	126	126	126	126	0
104	116	with	with	with	2	preview	3	127	0	0	0	0	0	0
105	117	keeping	keeping	keeping	2	preview	3	128	351	351	351	213	351	0
106	118	a	a	a	2	preview	3	129	0	0	0	0	0	0
107	119	strong	strong	strong	2	preview	3	130	0	0	0	0	0	0
108	120	amount	amount	amount	2	preview	3	131	378	378	378	175	378	0
109	121	of	of	of	2	preview	3	132	0	0	0	0	0	0
110	122	creative	creative	creative	2	preview	3	133	198	198	198	198	198	0
111	123	control	control	control	2	preview	3	134	0	0	0	0	0	0
112	124	when	when	when	2	preview	3	135	0	0	0	0	0	0
113	125	it	it	it	2	preview	3	136	85	85	85	85	85	0
114	126	comes	comes	comes	2	preview	3	137	0	0	0	0	0	0
115	127	to	to	to	2	preview	3	138	178	178	178	178	178	0
116	128	@entity4	Universal	Universal-s	2	preview	3	139	141	141	141	141	141	0
	129	-s	-s		2	preview	3	140						
117	130	adaptations	adaptations	adaptations	2	preview	3	141	128	128	128	128	128	0
118	131	of	of	of	2	preview	3	142	0	0	0	0	0	0
119	132	her	her	her	2	preview	3	143	0	0	0	0	0	0
120	133	books	books	books,	2	preview	3	144	110	110	110	110	110	0
	134	,	,		2	preview	3	145						
121	135	the	the	the	2	preview	3	146	0	0	0	0	0	0
122	136	second	second	second	2	preview	3	147	189	189	189	189	189	0
123	137	of	of	of	2	preview	3	148	0	0	0	0	0	0
124	138	which	which	which	2	preview	3	149	0	0	0	0	0	0
125	139	is	is	is	2	preview	3	150	147	147	147	147	147	0
126	140	titled	titled	titled	2	preview	3	151	0	0	0	0	0	0
127	141	-	-	-Fifty	2	preview	3	152	0	0	0	0	0	0
	142	@entity32	Fifty		2	preview	3	153						
128			Shades	Shades	2	preview	3	154	0	0	0	0	0	0
129			Darker	Darker.-	2	preview	3	155	0	0	0	0	0	0
	143	.	.		2	preview	3	156						
130	144	-	-	After	2	preview	3	157	0	0	0	0	0	0
	145	After	After		2	preview	3	158						
131	146	clashing	clashing	clashing	2	preview	3	159	185	185	185	185	185	0
132	147	with	with	with	2	preview	3	160	160	160	160	160	160	0
133	148	@entity12	James	James,	2	preview	3	161	0	0	0	0	0	0
	149	,	,		2	preview	3	162						
134	150	@entity33	Sam	Sam	2	preview	3	163	176	176	176	176	176	0
135			Taylor	Taylor-Johnson	2	preview	3	164	493	0	0	0	0	493
			-		2	preview	3	165						
			Johnson		2	preview	3	166						
136	151	is	is	isn-t	2	preview	3	167	0	0	0	0	0	0
	152	n-t	n-t		2	preview	3	168						
137	153	returning	returning	returning	2	preview	3	169	560	341	834	221	341	219
138	154	to	to	to	2	preview	3	170	0	0	0	0	0	0
139	155	direct	direct	direct	2	preview	3	171	0	0	0	0	0	0
140	156	the	the	the	2	preview	3	172	0	0	0	0	0	0
141	157	sequel	sequel	sequel.	2	preview	3	173	0	0	0	0	0	0
	158	.	.		2	preview	3	174						
142	159	Stars	Stars	Stars	2	preview	3	175	370	261	261	135	261	109
143	160	@entity35	Dakota	Dakota	2	preview	3	176	157	0	0	0	0	157
144			Johnson	Johnson	2	preview	3	177	131	0	0	0	0	131
145	161	and	and	and	2	preview	3	178	169	169	566	169	169	0
146	162	@entity36	Jamie	Jamie	2	preview	3	179	194	0	0	0	0	194
147			Dornan	Dornan	2	preview	3	180	146	146	340	146	146	0
148	163	are	are	are	2	preview	3	181	0	0	0	0	0	0
149	164	negotiating	negotiating	negotiating	2	preview	3	182	216	216	435	216	216	0
150	165	for	for	for	2	preview	3	183	0	0	0	0	0	0
151	166	more	more	more	2	preview	3	184	0	0	0	0	0	0
152	167	money	money	money	2	preview	3	185	0	0	0	0	0	0
153	168	for	for	for	2	preview	3	186	163	0	0	0	0	163
154	169	the	the	the	2	preview	3	187	0	0	0	0	0	0
155	170	sequel	sequel	sequel	2	preview	3	188	0	0	0	0	0	0
156	171	after	after	after	2	preview	3	189	0	0	0	0	0	0
157	172	the	the	the	2	preview	3	190	0	0	0	0	0	0
158	173	first	first	first	2	preview	3	191	135	0	0	0	0	135
159	174	film	film	film,	2	preview	3	192	0	0	0	0	0	0
	175	,	,		2	preview	3	193						
160	176	release	release	release	2	preview	3	194	0	0	0	0	0	0
161	177	over	over	over	2	preview	3	195	0	0	0	0	0	0
162	178	@entity40	Valentine	Valentine-s	2	preview	3	196	123	0	0	0	0	123
			-s		2	preview	3	197						
163			Day	Day	2	preview	3	198	0	0	0	0	0	0
164	179	weekend	weekend	weekend	2	preview	3	199	0	0	0	0	0	0
165	180	of	of	of	2	preview	3	200	0	0	0	0	0	0
166	181	this	this	this	2	preview	3	201	0	0	0	0	0	0
167	182	year	year	year,	2	preview	3	202	0	0	0	0	0	0
	183	,	,		2	preview	3	203						
168	184	earned	earned	earned	2	preview	3	204	194	194	615	194	194	0
169	185	a	a	a	2	preview	3	205	0	0	0	0	0	0
170	186	massive	massive	massive	2	preview	3	206	0	0	0	0	0	0
171	187	$	$	$568.8	2	preview	3	207	0	0	0	0	0	0
	188	568.8	568.8		2	preview	3	208						
172	189	million	million	million	2	preview	3	209	0	0	0	0	0	0
173	190	worldwide	worldwide	worldwide.	2	preview	3	210	131	131	131	131	131	0
	191	.	.		2	preview	3	211						
