HumanPosition	AnonymizedPosition	AnonymizedToken	OriginalToken	ExperimentToken	Participant	Condition	TextNo	JointPosition	tt	fp	rp	ff
1	0	One	One	One	12	nopreview	14	1	0	0	0	0
2	1	@entity1	Wall	Wall	12	nopreview	14	2	244	0	0	0
3			Street	Street	12	nopreview	14	3	708	136	822	136
4	2	trader	trader	trader	12	nopreview	14	4	1108	427	427	427
5	3	closed	closed	closed	12	nopreview	14	5	419	252	252	252
6	4	out	out	out	12	nopreview	14	6	0	0	0	0
7	5	his	his	his	12	nopreview	14	7	636	430	430	430
8	6	week	week	week	12	nopreview	14	8	173	173	173	173
9	7	a	a	a	12	nopreview	14	9	0	0	0	0
10	8	few	few	few	12	nopreview	14	10	635	334	334	334
11	9	million	million	million	12	nopreview	14	11	912	0	0	0
12	10	dollars	dollars	dollars	12	nopreview	14	12	847	317	317	211
13	11	richer	richer	richer	12	nopreview	14	13	264	264	264	264
14	12	last	last	last	12	nopreview	14	14	175	0	0	0
15	13	Friday	Friday	Friday	12	nopreview	14	15	258	258	388	82
16	14	-	-	-	12	nopreview	14	16	0	0	0	0
17	15	and	and	and	12	nopreview	14	17	0	0	0	0
18	16	it	it	it	12	nopreview	14	18	0	0	0	0
19	17	was	was	was	12	nopreview	14	19	0	0	0	0
20	18	all	all	all	12	nopreview	14	20	0	0	0	0
21	19	thanks	thanks	thanks	12	nopreview	14	21	224	224	224	224
22	20	to	to	to	12	nopreview	14	22	0	0	0	0
23	21	social	social	social	12	nopreview	14	23	195	195	195	195
24	22	media	media	media.	12	nopreview	14	24	214	214	1836	214
	23	.	.		12	nopreview	14	25				
25	24	The	The	The	12	nopreview	14	26	0	0	0	0
26	25	unnamed	unnamed	unnamed	12	nopreview	14	27	425	425	425	190
27	26	trader	trader	trader	12	nopreview	14	28	203	203	203	203
28	27	used	used	used	12	nopreview	14	29	219	219	219	219
29	28	perfect	perfect	perfect	12	nopreview	14	30	391	391	391	167
30	29	timing	timing	timing	12	nopreview	14	31	195	195	195	195
31	30	to	to	to	12	nopreview	14	32	0	0	0	0
32	31	capitalize	capitalize	capitalize	12	nopreview	14	33	298	298	298	298
33	32	on	on	on	12	nopreview	14	34	0	0	0	0
34	33	one	one	one	12	nopreview	14	35	350	350	350	214
35	34	of	of	of	12	nopreview	14	36	0	0	0	0
36	35	the	the	the	12	nopreview	14	37	0	0	0	0
37	36	biggest	biggest	biggest	12	nopreview	14	38	0	0	0	0
38	37	deals	deals	deals	12	nopreview	14	39	387	387	387	147
39	38	of	of	of	12	nopreview	14	40	0	0	0	0
40	39	the	the	the	12	nopreview	14	41	0	0	0	0
41	40	year	year	year	12	nopreview	14	42	221	221	221	221
42	41	when	when	when	12	nopreview	14	43	179	179	179	179
43	42	@entity10	Wall	Wall	12	nopreview	14	44	0	0	0	0
44			Street	Street	12	nopreview	14	45	248	248	248	248
45			Journal	Journal	12	nopreview	14	46	338	338	338	338
46	43	mergers	mergers	mergers	12	nopreview	14	47	146	146	146	146
47	44	and	and	and	12	nopreview	14	48	0	0	0	0
48	45	acquisitions	acquisitions	acquisitions	12	nopreview	14	49	309	309	309	136
49	46	reporter	reporter	reporter	12	nopreview	14	50	264	264	264	264
50	47	@entity9	Dana	Dana	12	nopreview	14	51	0	0	0	0
51			Mattioli	Mattioli	12	nopreview	14	52	233	233	233	233
52	48	took	took	took	12	nopreview	14	53	252	252	1602	252
53	49	to	to	to	12	nopreview	14	54	0	0	0	0
54	50	@entity11	Twitter	Twitter	12	nopreview	14	55	0	0	0	0
55	51	to	to	to	12	nopreview	14	56	631	631	631	426
56	52	announce	announce	announce	12	nopreview	14	57	201	201	201	201
57	53	that	that	that	12	nopreview	14	58	198	198	198	198
58	54	@entity12	Intel	Intel	12	nopreview	14	59	172	172	172	172
59	55	was	was	was	12	nopreview	14	60	135	135	135	135
60	56	in	in	in	12	nopreview	14	61	0	0	0	0
61	57	talks	talks	talks	12	nopreview	14	62	263	0	0	0
62	58	to	to	to	12	nopreview	14	63	127	127	390	127
63	59	buy	buy	buy	12	nopreview	14	64	0	0	0	0
64	60	one	one	one	12	nopreview	14	65	193	193	193	193
65	61	of	of	of	12	nopreview	14	66	0	0	0	0
66	62	its	its	its	12	nopreview	14	67	154	154	154	154
67	63	competitors	competitors	competitors,	12	nopreview	14	68	282	282	282	282
	64	,	,		12	nopreview	14	69				
68	65	chipmaker	chipmaker	chipmaker	12	nopreview	14	70	315	315	315	315
69	66	@entity16	Altera	Altera.	12	nopreview	14	71	519	519	519	235
	67	.	.		12	nopreview	14	72				
70	68	Seconds	Seconds	Seconds	12	nopreview	14	73	293	293	293	293
71	69	later	later	later,	12	nopreview	14	74	174	174	174	174
	70	,	,		12	nopreview	14	75				
72	71	the	the	the	12	nopreview	14	76	0	0	0	0
73	72	trader	trader	trader	12	nopreview	14	77	379	379	379	221
74	73	had	had	had	12	nopreview	14	78	0	0	0	0
75	74	snapped	snapped	snapped	12	nopreview	14	79	281	281	281	281
76	75	up	up	up	12	nopreview	14	80	0	0	0	0
77	76	3,158	3,158	3,158	12	nopreview	14	81	398	398	398	225
78	77	contracts	contracts	contracts	12	nopreview	14	82	163	163	163	163
79	78	of	of	of	12	nopreview	14	83	165	165	165	165
80	79	@entity16	Altera	Altera,	12	nopreview	14	84	240	240	240	240
	80	,	,		12	nopreview	14	85				
81	81	with	with	with	12	nopreview	14	86	0	0	0	0
82	82	each	each	each	12	nopreview	14	87	196	196	196	196
83	83	option	option	option	12	nopreview	14	88	184	184	184	184
84	84	contract	contract	contract	12	nopreview	14	89	255	255	255	255
85	85	giving	giving	giving	12	nopreview	14	90	187	187	187	187
86	86	them	them	them	12	nopreview	14	91	156	156	156	156
87	87	the	the	the	12	nopreview	14	92	168	168	168	168
88	88	right	right	right	12	nopreview	14	93	112	112	112	112
89	89	to	to	to	12	nopreview	14	94	0	0	0	0
90	90	purchase	purchase	purchase	12	nopreview	14	95	383	383	383	383
91	91	100	100	100	12	nopreview	14	96	0	0	0	0
92	92	shares	shares	shares.	12	nopreview	14	97	296	296	296	142
	93	.	.		12	nopreview	14	98				
93	94	Scroll	Scroll	CNBC	12	nopreview	14	99	0	0	0	0
	95	down	down		12	nopreview	14	100				
	96	for	for		12	nopreview	14	101				
	97	video	video		12	nopreview	14	102				
	98	An	An		12	nopreview	14	103				
	99	unnamed	unnamed		12	nopreview	14	104				
	100	@entity1	Wall		12	nopreview	14	105				
			Street		12	nopreview	14	106				
	101	trader	trader		12	nopreview	14	107				
	102	made	made		12	nopreview	14	108				
	103	a	a		12	nopreview	14	109				
	104	profit	profit		12	nopreview	14	110				
	105	of	of		12	nopreview	14	111				
	106	approximately	approximately		12	nopreview	14	112				
	107	$	$		12	nopreview	14	113				
	108	2.5million	2.5million		12	nopreview	14	114				
	109	on	on		12	nopreview	14	115				
	110	Friday	Friday		12	nopreview	14	116				
	111	thanks	thanks		12	nopreview	14	117				
	112	to	to		12	nopreview	14	118				
	113	a	a		12	nopreview	14	119				
	114	tweet	tweet		12	nopreview	14	120				
	115	from	from		12	nopreview	14	121				
	116	the	the		12	nopreview	14	122				
	117	@entity10	Wall		12	nopreview	14	123				
			Street		12	nopreview	14	124				
			Journal		12	nopreview	14	125				
	118	The	The		12	nopreview	14	126				
	119	trader	trader		12	nopreview	14	127				
	120	purchased	purchased		12	nopreview	14	128				
	121	315,800	315,800		12	nopreview	14	129				
	122	shares	shares		12	nopreview	14	130				
	123	of	of		12	nopreview	14	131				
	124	chipmaker	chipmaker		12	nopreview	14	132				
	125	@entity16	Altera		12	nopreview	14	133				
	126	one	one		12	nopreview	14	134				
	127	minute	minute		12	nopreview	14	135				
	128	after	after		12	nopreview	14	136				
	129	the	the		12	nopreview	14	137				
	130	@entity10	Journal		12	nopreview	14	138				
	131	reported	reported		12	nopreview	14	139				
	132	@entity12	Intel		12	nopreview	14	140				
	133	was	was		12	nopreview	14	141				
	134	in	in		12	nopreview	14	142				
	135	talks	talks		12	nopreview	14	143				
	136	to	to		12	nopreview	14	144				
	137	purchase	purchase		12	nopreview	14	145				
	138	them	them		12	nopreview	14	146				
	139	@entity32	CNBC		12	nopreview	14	147				
94	140	reports	reports	reports	12	nopreview	14	148	257	257	257	257
95	141	that	that	that	12	nopreview	14	149	0	0	0	0
96	142	the	the	the	12	nopreview	14	150	0	0	0	0
97	143	trader	trader	trader	12	nopreview	14	151	365	365	365	187
98	144	paid	paid	paid	12	nopreview	14	152	334	181	181	181
99	145	$	$	$36	12	nopreview	14	153	936	397	397	397
	146	36	36		12	nopreview	14	154				
100	147	a	a	a	12	nopreview	14	155	0	0	0	0
101	148	share	share	share,	12	nopreview	14	156	443	250	1135	250
	149	,	,		12	nopreview	14	157				
102	150	and	and	and	12	nopreview	14	158	0	0	0	0
103	151	the	the	the	12	nopreview	14	159	190	190	190	190
104	152	call	call	call	12	nopreview	14	160	141	141	141	141
105	153	option	option	option	12	nopreview	14	161	402	402	402	402
106	154	was	was	was	12	nopreview	14	162	0	0	0	0
107	155	a	a	a	12	nopreview	14	163	184	184	184	184
108	156	mere	mere	mere	12	nopreview	14	164	186	0	0	0
109	157	35	35	35	12	nopreview	14	165	195	195	381	195
110	158	cents	cents	cents	12	nopreview	14	166	301	301	301	301
111	159	as	as	as	12	nopreview	14	167	0	0	0	0
112	160	options	options	options	12	nopreview	14	168	349	349	349	188
113	161	on	on	on	12	nopreview	14	169	0	0	0	0
114	162	the	the	the	12	nopreview	14	170	0	0	0	0
115	163	stock	stock	stock,	12	nopreview	14	171	0	0	0	0
	164	,	,		12	nopreview	14	172				
116	165	at	at	at	12	nopreview	14	173	0	0	0	0
117	166	that	that	that	12	nopreview	14	174	174	174	174	174
118	167	point	point	point	12	nopreview	14	175	0	0	0	0
119	168	valued	valued	valued	12	nopreview	14	176	205	205	205	205
120	169	at	at	at	12	nopreview	14	177	0	0	0	0
121	170	$	$	$34.76	12	nopreview	14	178	319	319	319	134
	171	34.76	34.76		12	nopreview	14	179				
122	172	a	a	a	12	nopreview	14	180	112	112	112	112
123	173	share	share	share,	12	nopreview	14	181	133	0	0	0
	174	,	,		12	nopreview	14	182				
124	175	were	were	were	12	nopreview	14	183	161	161	294	161
125	176	set	set	set	12	nopreview	14	184	0	0	0	0
126	177	to	to	to	12	nopreview	14	185	0	0	0	0
127	178	expire	expire	expire	12	nopreview	14	186	209	209	209	209
128	179	in	in	in	12	nopreview	14	187	190	190	190	190
129	180	just	just	just	12	nopreview	14	188	174	174	174	174
130	181	a	a	a	12	nopreview	14	189	0	0	0	0
131	182	few	few	few	12	nopreview	14	190	0	0	0	0
132	183	weeks	weeks	weeks.	12	nopreview	14	191	0	0	0	0
	184	.	.		12	nopreview	14	192				
133	185	3:32pm	3:32pm	When	12	nopreview	14	193	0	0	0	0
	186	:	:		12	nopreview	14	194				
	187	The	The		12	nopreview	14	195				
134	188	@entity10	Wall	the	12	nopreview	14	196	0	0	0	0
			Street		12	nopreview	14	197				
			Journal		12	nopreview	14	198				
	189	reports	reports		12	nopreview	14	199				
	190	that	that		12	nopreview	14	200				
135	191	@entity12	Intel	market	12	nopreview	14	201	0	0	0	0
	192	is	is		12	nopreview	14	202				
	193	in	in		12	nopreview	14	203				
	194	talks	talks		12	nopreview	14	204				
	195	to	to		12	nopreview	14	205				
	196	buy	buy		12	nopreview	14	206				
	197	@entity16	Altera		12	nopreview	14	207				
	198	.	.		12	nopreview	14	208				
	199	3:33pm	3:33pm		12	nopreview	14	209				
	200	:	:		12	nopreview	14	210				
	201	Trader	Trader		12	nopreview	14	211				
	202	purchases	purchases		12	nopreview	14	212				
	203	315,800	315,800		12	nopreview	14	213				
	204	shares	shares		12	nopreview	14	214				
	205	of	of		12	nopreview	14	215				
	206	@entity16	Altera		12	nopreview	14	216				
	207	at	at		12	nopreview	14	217				
	208	$	$		12	nopreview	14	218				
	209	36	36		12	nopreview	14	219				
	210	a	a		12	nopreview	14	220				
	211	share	share		12	nopreview	14	221				
	212	for	for		12	nopreview	14	222				
	213	a	a		12	nopreview	14	223				
	214	total	total		12	nopreview	14	224				
	215	cost	cost		12	nopreview	14	225				
	216	of	of		12	nopreview	14	226				
	217	$	$		12	nopreview	14	227				
	218	11,368,000	11,368,000		12	nopreview	14	228				
	219	plus	plus		12	nopreview	14	229				
	220	$	$		12	nopreview	14	230				
	221	110,530	110,530		12	nopreview	14	231				
	222	for	for		12	nopreview	14	232				
	223	a	a		12	nopreview	14	233				
	224	$	$		12	nopreview	14	234				
	225	0.35	0.35		12	nopreview	14	235				
	226	call	call		12	nopreview	14	236				
	227	option	option		12	nopreview	14	237				
	228	.	.		12	nopreview	14	238				
	229	3:35pm	3:35pm		12	nopreview	14	239				
	230	:	:		12	nopreview	14	240				
	231	@entity46	Nasdaq		12	nopreview	14	241				
	232	suspends	suspends		12	nopreview	14	242				
	233	trading	trading		12	nopreview	14	243				
	234	of	of		12	nopreview	14	244				
	235	@entity16	Altera		12	nopreview	14	245				
	236	in	in		12	nopreview	14	246				
	237	the	the		12	nopreview	14	247				
	238	wake	wake		12	nopreview	14	248				
136	239	of	of	closed	12	nopreview	14	249	141	0	0	0
	240	the	the		12	nopreview	14	250				
	241	@entity10	Journal		12	nopreview	14	251				
	242	-s	-s		12	nopreview	14	252				
	243	tweet	tweet		12	nopreview	14	253				
	244	.	.		12	nopreview	14	254				
	245	4:00pm	4:00pm		12	nopreview	14	255				
	246	:	:		12	nopreview	14	256				
	247	Trader	Trader		12	nopreview	14	257				
	248	sells	sells		12	nopreview	14	258				
	249	@entity16	Altera		12	nopreview	14	259				
	250	at	at		12	nopreview	14	260				
	251	the	the		12	nopreview	14	261				
	252	new	new		12	nopreview	14	262				
	253	share	share		12	nopreview	14	263				
	254	price	price		12	nopreview	14	264				
	255	of	of		12	nopreview	14	265				
	256	$	$		12	nopreview	14	266				
	257	44.39	44.39		12	nopreview	14	267				
	258	for	for		12	nopreview	14	268				
	259	a	a		12	nopreview	14	269				
	260	total	total		12	nopreview	14	270				
	261	of	of		12	nopreview	14	271				
	262	$	$		12	nopreview	14	272				
	263	14,018,362	14,018,362		12	nopreview	14	273				
	264	.	.		12	nopreview	14	274				
	265	This	This		12	nopreview	14	275				
	266	,	,		12	nopreview	14	276				
	267	after	after		12	nopreview	14	277				
	268	factoring	factoring		12	nopreview	14	278				
	269	in	in		12	nopreview	14	279				
	270	the	the		12	nopreview	14	280				
	271	intital	intital		12	nopreview	14	281				
	272	share	share		12	nopreview	14	282				
	273	price	price		12	nopreview	14	283				
	274	and	and		12	nopreview	14	284				
	275	call	call		12	nopreview	14	285				
	276	option	option		12	nopreview	14	286				
	277	,	,		12	nopreview	14	287				
	278	leaves	leaves		12	nopreview	14	288				
	279	them	them		12	nopreview	14	289				
	280	with	with		12	nopreview	14	290				
	281	a	a		12	nopreview	14	291				
	282	profit	profit		12	nopreview	14	292				
	283	of	of		12	nopreview	14	293				
	284	approximately	approximately		12	nopreview	14	294				
	285	$	$		12	nopreview	14	295				
	286	2,539.832	2,539.832		12	nopreview	14	296				
	287	.	.		12	nopreview	14	297				
	288	This	This		12	nopreview	14	298				
	289	call	call		12	nopreview	14	299				
	290	option	option		12	nopreview	14	300				
	291	allowed	allowed		12	nopreview	14	301				
137	292	the	the	for	12	nopreview	14	302	204	204	204	204
138	293	trader	trader	the	12	nopreview	14	303	0	0	0	0
	294	the	the		12	nopreview	14	304				
139	295	right	right	day,	12	nopreview	14	305	164	164	305	164
	296	to	to		12	nopreview	14	306				
	297	purchase	purchase		12	nopreview	14	307				
	298	more	more		12	nopreview	14	308				
	299	shares	shares		12	nopreview	14	309				
	300	in	in		12	nopreview	14	310				
140	301	the	the	Altera	12	nopreview	14	311	0	0	0	0
	302	company	company		12	nopreview	14	312				
	303	,	,		12	nopreview	14	313				
	304	in	in		12	nopreview	14	314				
	305	this	this		12	nopreview	14	315				
	306	case	case		12	nopreview	14	316				
	307	315,800	315,800		12	nopreview	14	317				
	308	shares	shares		12	nopreview	14	318				
	309	,	,		12	nopreview	14	319				
	310	at	at		12	nopreview	14	320				
	311	the	the		12	nopreview	14	321				
	312	cost	cost		12	nopreview	14	322				
	313	of	of		12	nopreview	14	323				
	314	$	$		12	nopreview	14	324				
	315	36	36		12	nopreview	14	325				
	316	,	,		12	nopreview	14	326				
	317	even	even		12	nopreview	14	327				
	318	though	though		12	nopreview	14	328				
	319	the	the		12	nopreview	14	329				
	320	value	value		12	nopreview	14	330				
	321	of	of		12	nopreview	14	331				
	322	shares	shares		12	nopreview	14	332				
	323	quickly	quickly		12	nopreview	14	333				
	324	began	began		12	nopreview	14	334				
	325	to	to		12	nopreview	14	335				
	326	rise	rise		12	nopreview	14	336				
	327	.	.		12	nopreview	14	337				
	328	Just	Just		12	nopreview	14	338				
	329	28	28		12	nopreview	14	339				
	330	minutes	minutes		12	nopreview	14	340				
	331	later	later		12	nopreview	14	341				
141	332	,	,	was	12	nopreview	14	342	318	318	318	318
142	333	when	when	valued	12	nopreview	14	343	260	260	578	260
	334	the	the		12	nopreview	14	344				
	335	market	market		12	nopreview	14	345				
	336	closed	closed		12	nopreview	14	346				
	337	for	for		12	nopreview	14	347				
	338	the	the		12	nopreview	14	348				
	339	day	day		12	nopreview	14	349				
	340	,	,		12	nopreview	14	350				
	341	@entity16	Altera		12	nopreview	14	351				
	342	was	was		12	nopreview	14	352				
	343	valued	valued		12	nopreview	14	353				
143	344	at	at	at	12	nopreview	14	354	0	0	0	0
144	345	$	$	$44.39	12	nopreview	14	355	208	208	208	208
	346	44.39	44.39		12	nopreview	14	356				
145	347	per	per	per	12	nopreview	14	357	0	0	0	0
146	348	share	share	share.	12	nopreview	14	358	220	0	0	0
	349	.	.		12	nopreview	14	359				
147	350	That	That	That	12	nopreview	14	360	0	0	0	0
148	351	was	was	was	12	nopreview	14	361	178	0	0	0
149	352	an	an	an	12	nopreview	14	362	189	0	0	0
150	353	increase	increase	increase	12	nopreview	14	363	269	0	0	0
151	354	of	of	of	12	nopreview	14	364	0	0	0	0
152	355	28	28	28%,	12	nopreview	14	365	630	0	0	0
	356	%	%		12	nopreview	14	366				
	357	,	,		12	nopreview	14	367				
153	358	but	but	but	12	nopreview	14	368	168	0	0	0
154	359	because	because	because	12	nopreview	14	369	296	0	0	0
155	360	of	of	of	12	nopreview	14	370	0	0	0	0
156	361	the	the	the	12	nopreview	14	371	0	0	0	0
157	362	call	call	call	12	nopreview	14	372	222	0	0	0
158	363	option	option	option,	12	nopreview	14	373	308	0	0	0
	364	,	,		12	nopreview	14	374				
159	365	the	the	the	12	nopreview	14	375	0	0	0	0
160	366	trader	trader	trader	12	nopreview	14	376	141	0	0	0
161	367	was	was	was	12	nopreview	14	377	137	137	2758	137
162	368	able	able	able	12	nopreview	14	378	250	250	250	250
163	369	to	to	to	12	nopreview	14	379	0	0	0	0
164	370	sell	sell	sell	12	nopreview	14	380	195	195	195	195
165	371	their	their	their	12	nopreview	14	381	173	0	0	0
166	372	stocks	stocks	stocks	12	nopreview	14	382	212	212	385	212
167	373	at	at	at	12	nopreview	14	383	0	0	0	0
168	374	a	a	a	12	nopreview	14	384	0	0	0	0
169	375	far	far	far	12	nopreview	14	385	420	420	420	265
170	376	greater	greater	greater	12	nopreview	14	386	0	0	0	0
171	377	profit	profit	profit.	12	nopreview	14	387	270	270	270	270
	378	.	.		12	nopreview	14	388				
172	379	So	So	So	12	nopreview	14	389	0	0	0	0
173	380	instead	instead	instead	12	nopreview	14	390	203	203	203	203
174	381	of	of	of	12	nopreview	14	391	0	0	0	0
175	382	making	making	making	12	nopreview	14	392	396	396	396	211
176	383	a	a	a	12	nopreview	14	393	0	0	0	0
177	384	28	28	28%	12	nopreview	14	394	0	0	0	0
	385	%	%		12	nopreview	14	395				
178	386	profit	profit	profit,	12	nopreview	14	396	237	237	237	237
	387	,	,		12	nopreview	14	397				
179	388	the	the	the	12	nopreview	14	398	0	0	0	0
180	389	trader	trader	trader	12	nopreview	14	399	238	238	238	238
181	390	made	made	made	12	nopreview	14	400	158	158	158	158
182	391	a	a	a	12	nopreview	14	401	0	0	0	0
183	392	2,220	2,220	2,220%	12	nopreview	14	402	1227	1227	1227	246
	393	%	%		12	nopreview	14	403				
184	394	profit	profit	profit	12	nopreview	14	404	407	218	218	218
185	395	of	of	of	12	nopreview	14	405	0	0	0	0
186	396	roughly	roughly	roughly	12	nopreview	14	406	475	185	185	185
187	397	$	$	$2.5million	12	nopreview	14	407	544	544	544	544
	398	2.5million	2.5million		12	nopreview	14	408				
188	399	when	when	when	12	nopreview	14	409	608	394	873	146
189	400	they	they	they	12	nopreview	14	410	198	198	412	198
190	401	sold	sold	sold	12	nopreview	14	411	0	0	0	0
191	402	their	their	their	12	nopreview	14	412	562	169	169	169
192	403	shares	shares	shares.	12	nopreview	14	413	148	148	541	148
	404	.	.		12	nopreview	14	414				
193	405	Even	Even	Even	12	nopreview	14	415	0	0	0	0
194	406	more	more	more	12	nopreview	14	416	215	215	215	215
195	407	impressive	impressive	impressive	12	nopreview	14	417	248	248	248	248
196	408	is	is	is	12	nopreview	14	418	176	176	176	176
197	409	that	that	that	12	nopreview	14	419	0	0	0	0
198	410	the	the	the	12	nopreview	14	420	0	0	0	0
199	411	trader	trader	trader	12	nopreview	14	421	184	184	184	184
200	412	managed	managed	managed	12	nopreview	14	422	243	243	243	243
201	413	to	to	to	12	nopreview	14	423	119	0	0	0
202	414	make	make	make	12	nopreview	14	424	0	0	0	0
203	415	the	the	the	12	nopreview	14	425	298	298	298	298
204	416	purchase	purchase	purchase	12	nopreview	14	426	211	211	211	211
205	417	just	just	just	12	nopreview	14	427	239	239	239	239
206	418	minutes	minutes	minutes	12	nopreview	14	428	386	386	386	386
207	419	before	before	before	12	nopreview	14	429	194	194	194	194
208	420	@entity46	Nasdaq	Nasdaq	12	nopreview	14	430	197	197	197	197
209	421	suspended	suspended	suspended	12	nopreview	14	431	530	530	530	530
210	422	trading	trading	trading	12	nopreview	14	432	335	335	335	152
211	423	of	of	of	12	nopreview	14	433	0	0	0	0
212	424	@entity16	Altera	Altera	12	nopreview	14	434	224	224	343	224
213	425	because	because	because	12	nopreview	14	435	231	231	231	231
214	426	of	of	of	12	nopreview	14	436	0	0	0	0
215	427	the	the	the	12	nopreview	14	437	0	0	0	0
216	428	tweet	tweet	tweet	12	nopreview	14	438	202	202	202	202
217	429	from	from	from	12	nopreview	14	439	208	208	208	208
218	430	@entity9	Mattioli	Mattioli.	12	nopreview	14	440	362	362	362	362
	431	.	.		12	nopreview	14	441				
219	432	What	What	What-s	12	nopreview	14	442	221	221	221	221
	433	-s	-s		12	nopreview	14	443				
220	434	more	more	more,	12	nopreview	14	444	454	234	234	234
	435	,	,		12	nopreview	14	445				
221	436	call	call	call	12	nopreview	14	446	86	86	306	86
222	437	options	options	options	12	nopreview	14	447	465	465	465	260
223	438	for	for	for	12	nopreview	14	448	0	0	0	0
224	439	@entity16	Altera	Altera	12	nopreview	14	449	193	193	193	193
225	440	had	had	had	12	nopreview	14	450	253	253	253	253
226	441	at	at	at	12	nopreview	14	451	0	0	0	0
227	442	that	that	that	12	nopreview	14	452	117	117	117	117
228	443	point	point	point	12	nopreview	14	453	0	0	0	0
229	444	reached	reached	reached	12	nopreview	14	454	324	324	324	144
230	445	a	a	a	12	nopreview	14	455	0	0	0	0
231	446	price	price	price	12	nopreview	14	456	0	0	0	0
232	447	of	of	of	12	nopreview	14	457	179	179	179	179
233	448	$	$	$8.10	12	nopreview	14	458	243	243	243	243
	449	8.10	8.10		12	nopreview	14	459				
234	450	by	by	by	12	nopreview	14	460	0	0	0	0
235	451	the	the	the	12	nopreview	14	461	0	0	0	0
236	452	end	end	end	12	nopreview	14	462	261	261	261	261
237	453	of	of	of	12	nopreview	14	463	0	0	0	0
238	454	the	the	the	12	nopreview	14	464	0	0	0	0
239	455	day	day	day.	12	nopreview	14	465	0	0	0	0
	456	.	.		12	nopreview	14	466				
240	457	There	There	There	12	nopreview	14	467	218	218	218	218
241	458	is	is	is	12	nopreview	14	468	0	0	0	0
242	459	also	also	also	12	nopreview	14	469	180	180	180	180
243	460	a	a	a	12	nopreview	14	470	0	0	0	0
244	461	chance	chance	chance,	12	nopreview	14	471	202	202	202	202
	462	,	,		12	nopreview	14	472				
245	463	reports	reports	reports	12	nopreview	14	473	171	171	171	171
246	464	@entity90	Matt	Matt	12	nopreview	14	474	0	0	0	0
247			Khouw	Khouw,	12	nopreview	14	475	201	0	0	0
	465	,	,		12	nopreview	14	476				
248	466	that	that	that	12	nopreview	14	477	134	134	335	134
249	467	the	the	the	12	nopreview	14	478	152	152	152	152
250	468	trader	trader	trader	12	nopreview	14	479	147	147	147	147
251	469	could	could	could	12	nopreview	14	480	0	0	0	0
252	470	have	have	have	12	nopreview	14	481	188	188	188	188
253	471	been	been	been	12	nopreview	14	482	0	0	0	0
254	472	aware	aware	aware	12	nopreview	14	483	174	174	174	174
255	473	of	of	of	12	nopreview	14	484	0	0	0	0
256	474	@entity12	Intel	Intel-s	12	nopreview	14	485	224	224	224	224
	475	-s	-s		12	nopreview	14	486				
257	476	plan	plan	plan	12	nopreview	14	487	0	0	0	0
258	477	to	to	to	12	nopreview	14	488	0	0	0	0
259	478	buy	buy	buy	12	nopreview	14	489	201	201	201	201
260	479	@entity16	Altera	Altera	12	nopreview	14	490	164	164	164	164
261	480	early	early	early,	12	nopreview	14	491	0	0	0	0
	481	,	,		12	nopreview	14	492				
262	482	or	or	or	12	nopreview	14	493	0	0	0	0
263	483	that	that	that	12	nopreview	14	494	0	0	0	0
264	484	they	they	they	12	nopreview	14	495	0	0	0	0
265	485	used	used	used	12	nopreview	14	496	0	0	0	0
266	486	a	a	a	12	nopreview	14	497	0	0	0	0
267	487	bot	bot	bot	12	nopreview	14	498	0	0	0	0
268	488	to	to	to	12	nopreview	14	499	0	0	0	0
269	489	quickly	quickly	quickly	12	nopreview	14	500	0	0	0	0
270	490	buy	buy	buy	12	nopreview	14	501	0	0	0	0
271	491	the	the	the	12	nopreview	14	502	0	0	0	0
272	492	shares	shares	shares.	12	nopreview	14	503	0	0	0	0
	493	.	.		12	nopreview	14	504				
273	494	-	-	-A	12	nopreview	14	505	0	0	0	0
	495	A	A		12	nopreview	14	506				
274	496	bot	bot	bot	12	nopreview	14	507	0	0	0	0
275	497	is	is	is	12	nopreview	14	508	203	0	0	0
276	498	not	not	not	12	nopreview	14	509	154	154	357	154
277	499	as	as	as	12	nopreview	14	510	143	143	143	143
278	500	outlandish	outlandish	outlandish	12	nopreview	14	511	264	264	264	264
279	501	as	as	as	12	nopreview	14	512	0	0	0	0
280	502	it	it	it	12	nopreview	14	513	0	0	0	0
281	503	sounds	sounds	sounds,-	12	nopreview	14	514	317	317	317	317
	504	,	,		12	nopreview	14	515				
282	505	-	-	Khouw	12	nopreview	14	516	344	344	344	344
	506	@entity90	Khouw		12	nopreview	14	517				
283	507	said	said	said.	12	nopreview	14	518	0	0	0	0
	508	.	.		12	nopreview	14	519				
284	509	-	-	-Traders	12	nopreview	14	520	213	213	213	213
	510	Traders	Traders		12	nopreview	14	521				
285	511	need	need	need	12	nopreview	14	522	169	169	169	169
286	512	to	to	to	12	nopreview	14	523	0	0	0	0
287	513	aggregate	aggregate	aggregate	12	nopreview	14	524	405	405	405	221
288	514	and	and	and	12	nopreview	14	525	0	0	0	0
289	515	filter	filter	filter	12	nopreview	14	526	279	279	279	279
290	516	through	through	through	12	nopreview	14	527	229	229	229	229
291	517	tremendous	tremendous	tremendous	12	nopreview	14	528	168	168	168	168
292	518	amounts	amounts	amounts	12	nopreview	14	529	340	340	340	340
293	519	of	of	of	12	nopreview	14	530	0	0	0	0
294	520	data	data	data	12	nopreview	14	531	327	327	327	327
295	521	quickly	quickly	quickly	12	nopreview	14	532	0	0	0	0
296	522	and	and	and	12	nopreview	14	533	198	198	198	198
297	523	will	will	will	12	nopreview	14	534	0	0	0	0
298	524	rely	rely	rely	12	nopreview	14	535	236	236	236	236
299	525	on	on	on	12	nopreview	14	536	0	0	0	0
300	526	technology	technology	technology	12	nopreview	14	537	267	267	267	267
301	527	to	to	to	12	nopreview	14	538	0	0	0	0
302	528	help	help	help	12	nopreview	14	539	0	0	0	0
303	529	if	if	if	12	nopreview	14	540	234	234	234	234
304	530	it	it	it	12	nopreview	14	541	0	0	0	0
305	531	is	is	is	12	nopreview	14	542	0	0	0	0
306	532	available	available	available.-	12	nopreview	14	543	160	160	160	160
	533	.	.		12	nopreview	14	544				
307	534	-	-	As	12	nopreview	14	545	103	103	103	103
308	535	As	As	for	12	nopreview	14	546	0	0	0	0
309	536	for	for	Intel-s	12	nopreview	14	547	463	463	463	259
	537	@entity12	Intel		12	nopreview	14	548				
	538	-s	-s		12	nopreview	14	549				
310	539	reported	reported	reported	12	nopreview	14	550	365	365	365	163
311	540	purchase	purchase	purchase	12	nopreview	14	551	270	270	270	270
312	541	of	of	of	12	nopreview	14	552	0	0	0	0
313	542	@entity16	Altera	Altera,	12	nopreview	14	553	217	217	217	217
	543	,	,		12	nopreview	14	554				
314	544	that	that	that	12	nopreview	14	555	0	0	0	0
315	545	still	still	still	12	nopreview	14	556	220	0	0	0
316	546	has	has	has	12	nopreview	14	557	163	163	383	163
317	547	yet	yet	yet	12	nopreview	14	558	0	0	0	0
318	548	to	to	to	12	nopreview	14	559	0	0	0	0
319	549	happen	happen	happen.	12	nopreview	14	560	250	250	250	250
	550	.	.		12	nopreview	14	561				
320	551	Meanwhile	Meanwhile	Meanwhile,	12	nopreview	14	562	225	225	225	225
	552	,	,		12	nopreview	14	563				
321	553	@entity12	Intel	Intel	12	nopreview	14	564	215	0	0	0
322	554	share	share	share	12	nopreview	14	565	348	133	563	133
323	555	prices	prices	prices	12	nopreview	14	566	491	111	111	111
324	556	fell	fell	fell	12	nopreview	14	567	178	0	0	0
325	557	earlier	earlier	earlier	12	nopreview	14	568	984	828	1542	693
326	558	this	this	this	12	nopreview	14	569	0	0	0	0
327	559	week	week	week	12	nopreview	14	570	176	176	176	176
328	560	in	in	in	12	nopreview	14	571	0	0	0	0
329	561	response	response	response	12	nopreview	14	572	234	234	234	234
330	562	to	to	to	12	nopreview	14	573	0	0	0	0
331	563	the	the	the	12	nopreview	14	574	217	217	217	217
332	564	news	news	news	12	nopreview	14	575	0	0	0	0
333	565	that	that	that	12	nopreview	14	576	181	181	181	181
334	566	they	they	they	12	nopreview	14	577	184	184	184	184
335	567	might	might	might	12	nopreview	14	578	0	0	0	0
336	568	purchase	purchase	purchase	12	nopreview	14	579	0	0	0	0
337	569	@entity16	Altera	Altera.	12	nopreview	14	580	0	0	0	0
	570	.	.		12	nopreview	14	581				
