HumanPosition	AnonymizedPosition	AnonymizedToken	OriginalToken	ExperimentToken	Participant	Condition	TextNo	JointPosition	tt	fp	rp	ff
1	0	This	This	This	12	nopreview	16	1	123	123	123	123
2	1	is	is	is	12	nopreview	16	2	0	0	0	0
3	2	the	the	the	12	nopreview	16	3	0	0	0	0
4	3	shocking	shocking	shocking	12	nopreview	16	4	223	223	223	223
5	4	moment	moment	moment	12	nopreview	16	5	437	270	270	270
6	5	a	a	a	12	nopreview	16	6	0	0	0	0
7	6	pit	pit	pit	12	nopreview	16	7	537	537	537	537
8	7	crew	crew	crew	12	nopreview	16	8	260	260	260	260
9	8	member	member	member	12	nopreview	16	9	148	148	148	148
10	9	was	was	was	12	nopreview	16	10	0	0	0	0
11	10	hit	hit	hit	12	nopreview	16	11	346	346	346	178
12	11	by	by	by	12	nopreview	16	12	0	0	0	0
13	12	a	a	a	12	nopreview	16	13	0	0	0	0
14	13	car	car	car	12	nopreview	16	14	230	230	230	230
15	14	on	on	on	12	nopreview	16	15	0	0	0	0
16	15	Sunday	Sunday	Sunday	12	nopreview	16	16	239	239	239	239
17	16	during	during	during	12	nopreview	16	17	336	336	336	253
18	17	the	the	the	12	nopreview	16	18	0	0	0	0
19	18	inaugural	inaugural	inaugural	12	nopreview	16	19	646	335	335	149
20	19	@entity4	IndyCar	IndyCar	12	nopreview	16	20	538	187	849	187
21	20	@entity3	Grand	Grand	12	nopreview	16	21	127	127	127	127
22			Prix	Prix	12	nopreview	16	22	196	196	196	196
23	21	of	of	of	12	nopreview	16	23	0	0	0	0
24	22	@entity5	Louisiana	Louisiana.	12	nopreview	16	24	272	272	272	272
	23	.	.		12	nopreview	16	25				
25	24	@entity6	Todd	Todd	12	nopreview	16	26	347	0	0	0
26			Phillips	Phillips,	12	nopreview	16	27	765	326	690	326
	25	,	,		12	nopreview	16	28				
27	26	a	a	a	12	nopreview	16	29	0	0	0	0
28	27	front	front	front-outside	12	nopreview	16	30	912	400	400	259
	28	-	-		12	nopreview	16	31				
	29	outside	outside		12	nopreview	16	32				
29	30	tire	tire	tire	12	nopreview	16	33	326	326	326	191
30	31	changer	changer	changer	12	nopreview	16	34	676	347	347	120
31	32	for	for	for	12	nopreview	16	35	0	0	0	0
32	33	@entity8	Dayle	Dayle	12	nopreview	16	36	675	405	1938	405
33			Coyne	Coyne	12	nopreview	16	37	0	0	0	0
34			Racing	Racing,	12	nopreview	16	38	176	176	176	176
	34	,	,		12	nopreview	16	39				
35	35	was	was	was	12	nopreview	16	40	0	0	0	0
36	36	injured	injured	injured	12	nopreview	16	41	271	271	271	271
37	37	when	when	when	12	nopreview	16	42	0	0	0	0
38	38	he	he	he	12	nopreview	16	43	206	206	206	206
39	39	was	was	was	12	nopreview	16	44	0	0	0	0
40	40	struck	struck	struck	12	nopreview	16	45	173	173	173	173
41	41	by	by	by	12	nopreview	16	46	289	167	167	167
42	42	the	the	the	12	nopreview	16	47	0	0	0	0
43	43	car	car	car	12	nopreview	16	48	118	118	240	118
44	44	of	of	of	12	nopreview	16	49	0	0	0	0
45	45	@entity10	Francesco	Francesco	12	nopreview	16	50	359	359	359	131
46			Dracone	Dracone,	12	nopreview	16	51	0	0	0	0
	46	,	,		12	nopreview	16	52				
47	47	who	who	who	12	nopreview	16	53	300	300	300	300
48	48	had	had	had	12	nopreview	16	54	0	0	0	0
49	49	come	come	come	12	nopreview	16	55	209	209	209	209
50	50	in	in	in	12	nopreview	16	56	0	0	0	0
51	51	on	on	on	12	nopreview	16	57	462	462	462	462
52	52	Lap	Lap	Lap	12	nopreview	16	58	0	0	0	0
53	53	25	25	25	12	nopreview	16	59	127	127	127	127
54	54	for	for	for	12	nopreview	16	60	235	235	235	235
55	55	tyres	tyres	tyres	12	nopreview	16	61	353	353	353	353
56	56	and	and	and	12	nopreview	16	62	0	0	0	0
57	57	fuel	fuel	fuel.	12	nopreview	16	63	133	133	133	133
	58	.	.		12	nopreview	16	64				
58	59	@entity10	Dracone	Dracone	12	nopreview	16	65	0	0	0	0
59	60	spun	spun	spun	12	nopreview	16	66	88	88	88	88
60	61	while	while	while	12	nopreview	16	67	207	207	207	207
61	62	exiting	exiting	exiting	12	nopreview	16	68	500	500	500	500
62	63	his	his	his	12	nopreview	16	69	158	158	158	158
63	64	put	put	put	12	nopreview	16	70	231	231	231	231
64	65	box	box	box,	12	nopreview	16	71	354	354	354	194
	66	,	,		12	nopreview	16	72				
65	67	clipping	clipping	clipping	12	nopreview	16	73	176	176	176	176
66	68	@entity15	Phillips	Phillips-	12	nopreview	16	74	188	188	188	188
	69	-	-		12	nopreview	16	75				
67	70	leg	leg	leg.	12	nopreview	16	76	0	0	0	0
	71	.	.		12	nopreview	16	77				
68	72	@entity6	Todd	Phillips	12	nopreview	16	78	371	371	371	187
			Phillips		12	nopreview	16	79				
69	73	waits	waits	was	12	nopreview	16	80	0	0	0	0
70	74	in	in	taken	12	nopreview	16	81	246	246	246	246
	75	the	the		12	nopreview	16	82				
71	76	pit	pit	to	12	nopreview	16	83	146	146	146	146
72	77	lane	lane	the	12	nopreview	16	84	0	0	0	0
73	78	as	as	infield	12	nopreview	16	85	226	226	226	226
	79	the	the		12	nopreview	16	86				
	80	car	car		12	nopreview	16	87				
	81	makes	makes		12	nopreview	16	88				
	82	a	a		12	nopreview	16	89				
	83	stop	stop		12	nopreview	16	90				
	84	during	during		12	nopreview	16	91				
	85	the	the		12	nopreview	16	92				
	86	race	race		12	nopreview	16	93				
	87	in	in		12	nopreview	16	94				
	88	@entity5	Louisiana		12	nopreview	16	95				
	89	The	The		12	nopreview	16	96				
	90	car	car		12	nopreview	16	97				
	91	of	of		12	nopreview	16	98				
	92	@entity10	Francesco		12	nopreview	16	99				
			Dracone		12	nopreview	16	100				
	93	spun	spun		12	nopreview	16	101				
	94	out	out		12	nopreview	16	102				
	95	of	of		12	nopreview	16	103				
	96	control	control		12	nopreview	16	104				
	97	in	in		12	nopreview	16	105				
	98	the	the		12	nopreview	16	106				
	99	wet	wet		12	nopreview	16	107				
	100	conditions	conditions		12	nopreview	16	108				
	101	as	as		12	nopreview	16	109				
	102	@entity6	Phillips		12	nopreview	16	110				
	103	tried	tried		12	nopreview	16	111				
	104	to	to		12	nopreview	16	112				
	105	get	get		12	nopreview	16	113				
	106	out	out		12	nopreview	16	114				
	107	the	the		12	nopreview	16	115				
	108	way	way		12	nopreview	16	116				
	109	The	The		12	nopreview	16	117				
	110	rear	rear		12	nopreview	16	118				
	111	end	end		12	nopreview	16	119				
	112	of	of		12	nopreview	16	120				
	113	the	the		12	nopreview	16	121				
	114	car	car		12	nopreview	16	122				
	115	made	made		12	nopreview	16	123				
	116	contact	contact		12	nopreview	16	124				
	117	with	with		12	nopreview	16	125				
	118	the	the		12	nopreview	16	126				
	119	pit	pit		12	nopreview	16	127				
	120	crew	crew		12	nopreview	16	128				
	121	worker	worker		12	nopreview	16	129				
	122	sweeping	sweeping		12	nopreview	16	130				
	123	his	his		12	nopreview	16	131				
	124	legs	legs		12	nopreview	16	132				
	125	from	from		12	nopreview	16	133				
	126	underneath	underneath		12	nopreview	16	134				
	127	him	him		12	nopreview	16	135				
	128	@entity6	Phillips		12	nopreview	16	136				
	129	was	was		12	nopreview	16	137				
	130	flipped	flipped		12	nopreview	16	138				
	131	upside	upside		12	nopreview	16	139				
	132	down	down		12	nopreview	16	140				
	133	by	by		12	nopreview	16	141				
	134	the	the		12	nopreview	16	142				
	135	force	force		12	nopreview	16	143				
	136	of	of		12	nopreview	16	144				
	137	the	the		12	nopreview	16	145				
	138	car	car		12	nopreview	16	146				
	139	but	but		12	nopreview	16	147				
	140	escaped	escaped		12	nopreview	16	148				
	141	only	only		12	nopreview	16	149				
	142	with	with		12	nopreview	16	150				
	143	minor	minor		12	nopreview	16	151				
	144	injuries	injuries		12	nopreview	16	152				
	145	@entity6	Phillips		12	nopreview	16	153				
	146	was	was		12	nopreview	16	154				
	147	taken	taken		12	nopreview	16	155				
	148	to	to		12	nopreview	16	156				
	149	the	the		12	nopreview	16	157				
	150	infield	infield		12	nopreview	16	158				
74	151	care	care	care	12	nopreview	16	159	426	426	426	426
75	152	center	center	center	12	nopreview	16	160	227	227	227	227
76	153	for	for	for	12	nopreview	16	161	0	0	0	0
77	154	treatment	treatment	treatment	12	nopreview	16	162	254	254	254	254
78	155	where	where	where	12	nopreview	16	163	203	203	203	203
79	156	he	he	he	12	nopreview	16	164	0	0	0	0
80	157	has	has	has	12	nopreview	16	165	0	0	0	0
81	158	received	received	received	12	nopreview	16	166	258	258	258	258
82	159	stitches	stitches	stitches	12	nopreview	16	167	272	272	272	272
83	160	for	for	for	12	nopreview	16	168	223	0	0	0
84	161	a	a	a	12	nopreview	16	169	0	0	0	0
85	162	cut	cut	cut	12	nopreview	16	170	456	310	310	310
86	163	on	on	on	12	nopreview	16	171	251	251	620	251
87	164	his	his	his	12	nopreview	16	172	112	112	112	112
88	165	leg	leg	leg	12	nopreview	16	173	0	0	0	0
89	166	and	and	and	12	nopreview	16	174	0	0	0	0
90	167	has	has	has	12	nopreview	16	175	270	270	270	270
91	168	been	been	been	12	nopreview	16	176	0	0	0	0
92	169	released	released	released.	12	nopreview	16	177	351	351	351	160
	170	.	.		12	nopreview	16	178				
93	171	Many	Many	Many	12	nopreview	16	179	0	0	0	0
94	172	cars	cars	cars	12	nopreview	16	180	346	346	346	141
95	173	struggled	struggled	struggled	12	nopreview	16	181	245	245	245	245
96	174	with	with	with	12	nopreview	16	182	0	0	0	0
97	175	traction	traction	traction	12	nopreview	16	183	475	475	475	475
98	176	during	during	during	12	nopreview	16	184	283	283	283	283
99	177	the	the	the	12	nopreview	16	185	0	0	0	0
100	178	race	race	race	12	nopreview	16	186	183	183	183	183
101	179	after	after	after	12	nopreview	16	187	249	249	249	249
102	180	rain	rain	rain	12	nopreview	16	188	221	221	221	221
103	181	had	had	had	12	nopreview	16	189	0	0	0	0
104	182	fallen	fallen	fallen	12	nopreview	16	190	393	393	393	229
105	183	for	for	for	12	nopreview	16	191	0	0	0	0
106	184	hours	hours	hours	12	nopreview	16	192	139	0	0	0
107	185	leading	leading	leading	12	nopreview	16	193	386	128	525	128
108	186	up	up	up	12	nopreview	16	194	0	0	0	0
109	187	to	to	to	12	nopreview	16	195	0	0	0	0
110	188	the	the	the	12	nopreview	16	196	245	245	245	245
111	189	green	green	green	12	nopreview	16	197	0	0	0	0
112	190	flag	flag	flag.	12	nopreview	16	198	196	196	196	196
	191	.	.		12	nopreview	16	199				
113	192	@entity10	Dracone	Dracone	12	nopreview	16	200	0	0	0	0
114	193	did	did	did	12	nopreview	16	201	367	367	367	367
115	194	not	not	not	12	nopreview	16	202	224	224	224	224
116	195	finish	finish	finish	12	nopreview	16	203	206	206	206	206
117	196	the	the	the	12	nopreview	16	204	0	0	0	0
118	197	race	race	race	12	nopreview	16	205	309	309	309	164
119	198	and	and	and	12	nopreview	16	206	0	0	0	0
120	199	wound	wound	wound	12	nopreview	16	207	157	157	157	157
121	200	up	up	up	12	nopreview	16	208	136	136	303	136
122	201	23rd	23rd	23rd.	12	nopreview	16	209	0	0	167	0
	202	.	.		12	nopreview	16	210				
