HumanPosition	AnonymizedPosition	AnonymizedToken	OriginalToken	ExperimentToken	Participant	Condition	TextNo	JointPosition	tt	fp	rp	ff
1	0	A	A	A	12	nopreview	17	1	0	0	0	0
2	1	boxing	boxing	boxing	12	nopreview	17	2	546	249	249	112
3	2	fight	fight	fight	12	nopreview	17	3	152	0	0	0
4	3	had	had	had	12	nopreview	17	4	584	584	584	412
5	4	to	to	to	12	nopreview	17	5	171	0	0	0
6	5	be	be	be	12	nopreview	17	6	0	0	0	0
7	6	halted	halted	halted	12	nopreview	17	7	540	337	711	248
8	7	after	after	after	12	nopreview	17	8	236	0	0	0
9	8	a	a	a	12	nopreview	17	9	0	0	0	0
10	9	fighter	fighter	fighter-s	12	nopreview	17	10	660	197	433	197
	10	-s	-s		12	nopreview	17	11				
11	11	cell	cell	cell	12	nopreview	17	12	352	352	352	170
12	12	phone	phone	phone	12	nopreview	17	13	189	189	189	189
13	13	fell	fell	fell	12	nopreview	17	14	0	0	0	0
14	14	out	out	out	12	nopreview	17	15	240	240	240	240
15	15	of	of	of	12	nopreview	17	16	0	0	0	0
16	16	his	his	his	12	nopreview	17	17	344	190	190	190
17	17	trunks	trunks	trunks.	12	nopreview	17	18	367	217	984	217
	18	.	.		12	nopreview	17	19				
18	19	@entity4	Marvin	Marvin	12	nopreview	17	20	307	0	0	0
19			-	-Papi	12	nopreview	17	21	882	331	331	158
			Papi		12	nopreview	17	22				
20			Gallo	Gallo-	12	nopreview	17	23	463	222	1321	222
			-		12	nopreview	17	24				
21			Jones	Jones	12	nopreview	17	25	410	159	159	159
22	20	and	and	and	12	nopreview	17	26	0	0	0	0
23	21	@entity5	Ramon	Ramon	12	nopreview	17	27	307	307	307	307
24			Luis	Luis	12	nopreview	17	28	0	0	0	0
25			Nicolas	Nicolas	12	nopreview	17	29	270	270	270	270
26	22	were	were	were	12	nopreview	17	30	0	0	0	0
27	23	in	in	in	12	nopreview	17	31	197	197	197	197
28	24	the	the	the	12	nopreview	17	32	162	162	162	162
29	25	middle	middle	middle	12	nopreview	17	33	0	0	0	0
30	26	of	of	of	12	nopreview	17	34	0	0	0	0
31	27	a	a	a	12	nopreview	17	35	0	0	0	0
32	28	bout	bout	bout	12	nopreview	17	36	245	245	245	245
33	29	when	when	when	12	nopreview	17	37	129	129	129	129
34	30	the	the	the	12	nopreview	17	38	0	0	0	0
35	31	black	black	black	12	nopreview	17	39	190	190	190	190
36	32	phone	phone	phone	12	nopreview	17	40	280	280	280	280
37	33	slipped	slipped	slipped	12	nopreview	17	41	174	174	174	174
38	34	out	out	out	12	nopreview	17	42	0	0	0	0
39	35	from	from	from	12	nopreview	17	43	224	224	224	224
40	36	@entity4	Jones	Jones-	12	nopreview	17	44	0	0	0	0
	37	-	-		12	nopreview	17	45				
41	38	black	black	black	12	nopreview	17	46	237	237	237	237
42	39	and	and	and	12	nopreview	17	47	0	0	0	0
43	40	red	red	red	12	nopreview	17	48	314	314	314	314
44	41	shorts	shorts	shorts	12	nopreview	17	49	0	0	0	0
45	42	at	at	at	12	nopreview	17	50	0	0	0	0
46	43	the	the	the	12	nopreview	17	51	99	99	99	99
47	44	ring	ring	ring	12	nopreview	17	52	192	192	192	192
48	45	in	in	in	12	nopreview	17	53	0	0	0	0
49	46	@entity11	Arcadia	Arcadia,	12	nopreview	17	54	149	149	149	149
	47	,	,		12	nopreview	17	55				
50	48	@entity12	Florida	Florida.	12	nopreview	17	56	307	307	307	307
	49	.	.		12	nopreview	17	57				
51	50	Referee	Referee	Referee	12	nopreview	17	58	86	0	0	0
52	51	@entity13	Frankie	Frankie	12	nopreview	17	59	377	166	463	166
53			Santore	Santore	12	nopreview	17	60	0	0	0	0
54			Jr.	Jr.	12	nopreview	17	61	0	0	0	0
55	52	went	went	went	12	nopreview	17	62	0	0	0	0
56	53	over	over	over	12	nopreview	17	63	0	0	0	0
57	54	to	to	to	12	nopreview	17	64	0	0	0	0
58	55	pick	pick	pick	12	nopreview	17	65	0	0	0	0
59	56	up	up	up	12	nopreview	17	66	0	0	0	0
60	57	the	the	the	12	nopreview	17	67	0	0	0	0
61	58	@entity14	Samsung	Samsung	12	nopreview	17	68	226	226	226	226
62			Galaxy	Galaxy	12	nopreview	17	69	218	218	218	218
63	59	and	and	and	12	nopreview	17	70	0	0	0	0
64	60	looked	looked	looked	12	nopreview	17	71	421	0	0	0
65	61	like	like	like	12	nopreview	17	72	146	146	316	146
66	62	he	he	he	12	nopreview	17	73	669	0	0	0
67	63	was	was	was	12	nopreview	17	74	361	169	169	169
68	64	chastising	chastising	chastising	12	nopreview	17	75	950	147	147	147
69	65	@entity4	Jones	Jones,	12	nopreview	17	76	414	189	1290	189
	66	,	,		12	nopreview	17	77				
70	67	who	who	who	12	nopreview	17	78	196	0	0	0
71	68	seemed	seemed	seemed	12	nopreview	17	79	578	361	361	361
72	69	confused	confused	confused.	12	nopreview	17	80	286	286	1738	124
	70	.	.		12	nopreview	17	81				
73	71	Scroll	Scroll	Jones,	12	nopreview	17	82	364	364	364	192
	72	down	down		12	nopreview	17	83				
	73	for	for		12	nopreview	17	84				
	74	video	video		12	nopreview	17	85				
	75	@entity4	Marvin		12	nopreview	17	86				
			-		12	nopreview	17	87				
			Papi		12	nopreview	17	88				
			Gallo		12	nopreview	17	89				
			-		12	nopreview	17	90				
			Jones		12	nopreview	17	91				
	76	(	(		12	nopreview	17	92				
74	77	right	right	32,	12	nopreview	17	93	0	0	0	0
	78	)	)		12	nopreview	17	94				
	79	and	and		12	nopreview	17	95				
75	80	@entity5	Ramon	held	12	nopreview	17	96	242	242	242	242
			Luis		12	nopreview	17	97				
			Nicolas		12	nopreview	17	98				
	81	(	(		12	nopreview	17	99				
	82	left	left		12	nopreview	17	100				
76	83	)	)	his	12	nopreview	17	101	269	269	269	269
77	84	were	were	hands	12	nopreview	17	102	126	126	126	126
	85	in	in		12	nopreview	17	103				
	86	the	the		12	nopreview	17	104				
	87	middle	middle		12	nopreview	17	105				
	88	of	of		12	nopreview	17	106				
	89	a	a		12	nopreview	17	107				
	90	bout	bout		12	nopreview	17	108				
	91	when	when		12	nopreview	17	109				
	92	the	the		12	nopreview	17	110				
	93	black	black		12	nopreview	17	111				
	94	phone	phone		12	nopreview	17	112				
	95	slipped	slipped		12	nopreview	17	113				
	96	out	out		12	nopreview	17	114				
	97	from	from		12	nopreview	17	115				
	98	@entity4	Jones		12	nopreview	17	116				
78	99	-	-	up	12	nopreview	17	117	0	0	0	0
79	100	black	black	as	12	nopreview	17	118	92	0	0	0
	101	and	and		12	nopreview	17	119				
80	102	red	red	the	12	nopreview	17	120	136	136	228	136
81	103	shorts	shorts	referee	12	nopreview	17	121	241	241	241	241
	104	at	at		12	nopreview	17	122				
	105	the	the		12	nopreview	17	123				
	106	ring	ring		12	nopreview	17	124				
	107	in	in		12	nopreview	17	125				
	108	@entity11	Arcadia		12	nopreview	17	126				
	109	,	,		12	nopreview	17	127				
	110	@entity12	Florida		12	nopreview	17	128				
	111	@entity4	Jones		12	nopreview	17	129				
	112	,	,		12	nopreview	17	130				
	113	32	32		12	nopreview	17	131				
	114	,	,		12	nopreview	17	132				
	115	held	held		12	nopreview	17	133				
	116	his	his		12	nopreview	17	134				
	117	hands	hands		12	nopreview	17	135				
	118	up	up		12	nopreview	17	136				
	119	as	as		12	nopreview	17	137				
	120	the	the		12	nopreview	17	138				
	121	referee	referee		12	nopreview	17	139				
82	122	took	took	took	12	nopreview	17	140	0	0	0	0
83	123	the	the	the	12	nopreview	17	141	416	178	178	178
84	124	phone	phone	phone	12	nopreview	17	142	235	235	473	235
85	125	over	over	over	12	nopreview	17	143	210	210	210	210
86	126	to	to	to	12	nopreview	17	144	0	0	0	0
87	127	the	the	the	12	nopreview	17	145	160	160	160	160
88	128	side	side	side	12	nopreview	17	146	0	0	0	0
89	129	of	of	of	12	nopreview	17	147	0	0	0	0
90	130	the	the	the	12	nopreview	17	148	155	155	155	155
91	131	ring	ring	ring.	12	nopreview	17	149	0	0	0	0
	132	.	.		12	nopreview	17	150				
92	133	The	The	The	12	nopreview	17	151	0	0	0	0
93	134	audience	audience	audience	12	nopreview	17	152	289	289	289	289
94	135	and	and	and	12	nopreview	17	153	0	0	0	0
95	136	viewers	viewers	viewers	12	nopreview	17	154	340	340	340	146
96	137	were	were	were	12	nopreview	17	155	0	0	0	0
97	138	baffled	baffled	baffled	12	nopreview	17	156	310	310	310	310
98	139	as	as	as	12	nopreview	17	157	0	0	0	0
99	140	to	to	to	12	nopreview	17	158	629	271	271	271
100	141	why	why	why	12	nopreview	17	159	323	0	0	0
101	142	@entity4	Jones	Jones	12	nopreview	17	160	152	152	833	152
102	143	had	had	had	12	nopreview	17	161	219	0	0	0
103	144	his	his	his	12	nopreview	17	162	326	326	545	326
104	145	phone	phone	phone	12	nopreview	17	163	0	0	0	0
105	146	in	in	in	12	nopreview	17	164	0	0	0	0
106	147	his	his	his	12	nopreview	17	165	418	418	418	226
107	148	shorts	shorts	shorts.	12	nopreview	17	166	94	94	94	94
	149	.	.		12	nopreview	17	167				
108	150	But	But	But	12	nopreview	17	168	0	0	0	0
109	151	@entity4	Jones	Jones	12	nopreview	17	169	283	283	283	283
110	152	later	later	later	12	nopreview	17	170	117	117	117	117
111	153	told	told	told	12	nopreview	17	171	140	0	0	0
112	154	@entity26	TMZ	TMZ	12	nopreview	17	172	156	156	296	156
113			Sports	Sports	12	nopreview	17	173	0	0	0	0
114	155	that	that	that	12	nopreview	17	174	0	0	0	0
115	156	he	he	he	12	nopreview	17	175	0	0	0	0
116	157	was	was	was	12	nopreview	17	176	206	206	206	206
117	158	listening	listening	listening	12	nopreview	17	177	146	146	146	146
118	159	to	to	to	12	nopreview	17	178	0	0	0	0
119	160	music	music	music	12	nopreview	17	179	263	263	263	263
120	161	before	before	before	12	nopreview	17	180	227	227	227	227
121	162	the	the	the	12	nopreview	17	181	0	0	0	0
122	163	fight	fight	fight	12	nopreview	17	182	263	263	263	263
123	164	on	on	on	12	nopreview	17	183	0	0	0	0
124	165	Friday	Friday	Friday	12	nopreview	17	184	281	281	281	281
125	166	and	and	and	12	nopreview	17	185	0	0	0	0
126	167	put	put	put	12	nopreview	17	186	252	252	252	252
127	168	his	his	his	12	nopreview	17	187	122	122	122	122
128	169	phone	phone	phone	12	nopreview	17	188	166	0	0	0
129	170	in	in	in	12	nopreview	17	189	122	122	288	122
130	171	his	his	his	12	nopreview	17	190	0	0	0	0
131	172	shorts	shorts	shorts.	12	nopreview	17	191	218	218	218	218
	173	.	.		12	nopreview	17	192				
132	174	When	When	When	12	nopreview	17	193	0	0	0	0
133	175	he	he	he	12	nopreview	17	194	226	226	226	226
134	176	got	got	got	12	nopreview	17	195	0	0	0	0
135	177	to	to	to	12	nopreview	17	196	145	145	145	145
136	178	the	the	the	12	nopreview	17	197	144	144	144	144
137	179	ring	ring	ring,	12	nopreview	17	198	0	0	13688	0
	180	,	,		12	nopreview	17	199				
138	181	he	he	he	12	nopreview	17	200	246	246	246	246
139	182	pulled	pulled	pulled	12	nopreview	17	201	188	188	14122	188
140	183	out	out	out	12	nopreview	17	202	0	0	0	0
141	184	his	his	his	12	nopreview	17	203	140	0	0	0
142	185	headphones	headphones	headphones,	12	nopreview	17	204	230	230	370	230
	186	,	,		12	nopreview	17	205				
143	187	but	but	but	12	nopreview	17	206	200	200	200	200
144	188	missed	missed	missed	12	nopreview	17	207	216	216	216	216
145	189	his	his	his	12	nopreview	17	208	0	0	0	0
146	190	phone	phone	phone.	12	nopreview	17	209	648	648	648	648
	191	.	.		12	nopreview	17	210				
147	192	@entity4	Jones	Jones	12	nopreview	17	211	170	170	170	170
148	193	believes	believes	believes	12	nopreview	17	212	211	211	211	211
149	194	the	the	the	12	nopreview	17	213	0	0	0	0
150	195	mishap	mishap	mishap	12	nopreview	17	214	280	280	280	280
151	196	cost	cost	cost	12	nopreview	17	215	106	106	106	106
152	197	him	him	him	12	nopreview	17	216	126	126	126	126
153	198	the	the	the	12	nopreview	17	217	195	0	0	0
154	199	fight	fight	fight	12	nopreview	17	218	205	205	400	205
155	200	as	as	as	12	nopreview	17	219	0	0	0	0
156	201	he	he	he	12	nopreview	17	220	221	0	0	0
157	202	kept	kept	kept	12	nopreview	17	221	222	222	443	222
158	203	thinking	thinking	thinking,	12	nopreview	17	222	213	213	213	213
	204	,	,		12	nopreview	17	223				
159	205	-	-	-Man,	12	nopreview	17	224	272	0	0	0
	206	Man	Man		12	nopreview	17	225				
	207	,	,		12	nopreview	17	226				
160	208	my	my	my	12	nopreview	17	227	144	144	416	144
161	209	cell	cell	cell	12	nopreview	17	228	224	224	224	224
162	210	phone	phone	phone	12	nopreview	17	229	0	0	0	0
163	211	just	just	just	12	nopreview	17	230	226	226	226	226
164	212	fell	fell	fell	12	nopreview	17	231	0	0	0	0
165	213	out	out	out	12	nopreview	17	232	169	169	169	169
166	214	in	in	in	12	nopreview	17	233	0	0	0	0
167	215	the	the	the	12	nopreview	17	234	289	289	289	289
168	216	ring	ring	ring	12	nopreview	17	235	0	0	0	0
169	217	–	–	-	12	nopreview	17	236	0	0	0	0
170	218	and	and	and	12	nopreview	17	237	231	0	0	0
171	219	on	on	on	12	nopreview	17	238	0	0	0	0
172	220	TV	TV	TV!-	12	nopreview	17	239	293	293	524	293
	221	!	!		12	nopreview	17	240				
	222	-	-		12	nopreview	17	241				
173	223	He	He	He	12	nopreview	17	242	0	0	0	0
174	224	has	has	has	12	nopreview	17	243	176	0	0	0
175	225	decided	decided	decided	12	nopreview	17	244	201	201	377	201
176	226	that	that	that	12	nopreview	17	245	130	130	130	130
177	227	for	for	for	12	nopreview	17	246	120	120	820	120
178	228	his	his	his	12	nopreview	17	247	0	0	0	0
179	229	next	next	next	12	nopreview	17	248	0	0	0	0
180	230	fight	fight	fight	12	nopreview	17	249	0	0	0	0
181	231	he	he	he	12	nopreview	17	250	0	0	0	0
182	232	will	will	will	12	nopreview	17	251	0	0	0	0
183	233	make	make	make	12	nopreview	17	252	0	0	0	0
184	234	sure	sure	sure	12	nopreview	17	253	0	0	0	0
185	235	someone	someone	someone	12	nopreview	17	254	0	0	0	0
186	236	pats	pats	pats	12	nopreview	17	255	0	0	0	0
187	237	him	him	him	12	nopreview	17	256	0	0	0	0
188	238	down	down	down.	12	nopreview	17	257	0	0	0	0
	239	.	.		12	nopreview	17	258				
