HumanPosition	AnonymizedPosition	AnonymizedToken	OriginalToken	ExperimentToken	Participant	Condition	TextNo	JointPosition	tt	fp	rp	ff
1	0	A	A	A	12	nopreview	18	1	0	0	0	0
2	1	man	man	man	12	nopreview	18	2	174	0	0	0
3	2	was	was	was	12	nopreview	18	3	382	0	0	0
4	3	horrified	horrified	horrified	12	nopreview	18	4	405	117	575	117
5	4	after	after	after	12	nopreview	18	5	214	214	214	214
6	5	finding	finding	finding	12	nopreview	18	6	162	162	162	162
7	6	a	a	a	12	nopreview	18	7	0	0	0	0
8	7	five	five	five	12	nopreview	18	8	413	229	229	229
9	8	inch	inch	inch	12	nopreview	18	9	0	0	0	0
10	9	piece	piece	piece	12	nopreview	18	10	0	0	0	0
11	10	of	of	of	12	nopreview	18	11	138	0	0	0
12	11	TIMBER	TIMBER	TIMBER	12	nopreview	18	12	883	210	210	210
13	12	in	in	in	12	nopreview	18	13	0	0	0	0
14	13	his	his	his	12	nopreview	18	14	345	345	345	183
15	14	frozen	frozen	frozen	12	nopreview	18	15	699	205	205	205
16	15	curry	curry	curry.	12	nopreview	18	16	303	303	639	303
	16	.	.		12	nopreview	18	17				
17	17	@entity5	John	John	12	nopreview	18	18	0	0	0	0
18			Foran	Foran-s	12	nopreview	18	19	974	364	364	148
	18	’s	’s		12	nopreview	18	20				
19	19	wife	wife	wife	12	nopreview	18	21	936	264	1098	264
20	20	@entity4	Nita	Nita	12	nopreview	18	22	134	0	0	0
21	21	was	was	was	12	nopreview	18	23	778	370	370	370
22	22	preparing	preparing	preparing	12	nopreview	18	24	664	205	205	205
23	23	a	a	a	12	nopreview	18	25	0	0	0	0
24	24	chicken	chicken	chicken	12	nopreview	18	26	665	330	330	330
25	25	tikka	tikka	tikka	12	nopreview	18	27	523	165	165	165
26	26	biryani	biryani	biryani	12	nopreview	18	28	665	208	208	208
27	27	stir	stir	stir-fry	12	nopreview	18	29	736	387	387	387
	28	-	-		12	nopreview	18	30				
	29	fry	fry		12	nopreview	18	31				
28	30	on	on	on	12	nopreview	18	32	0	0	0	0
29	31	Tuesday	Tuesday	Tuesday	12	nopreview	18	33	476	248	248	248
30	32	April	April	April	12	nopreview	18	34	176	0	0	0
31	33	7	7	7	12	nopreview	18	35	348	176	352	176
32	34	when	when	when	12	nopreview	18	36	203	203	203	203
33	35	he	he	he	12	nopreview	18	37	242	0	0	0
34	36	found	found	found	12	nopreview	18	38	413	222	222	222
35	37	the	the	the	12	nopreview	18	39	0	0	0	0
36	38	splinter	splinter	splinter-covered	12	nopreview	18	40	1278	209	1091	209
	39	-	-		12	nopreview	18	41				
	40	covered	covered		12	nopreview	18	42				
37	41	shard	shard	shard.	12	nopreview	18	43	675	675	675	392
	42	.	.		12	nopreview	18	44				
38	43	The	The	The	12	nopreview	18	45	0	0	0	0
39	44	£	£	£2	12	nopreview	18	46	774	0	0	0
	45	2	2		12	nopreview	18	47				
40	46	ready	ready	ready	12	nopreview	18	48	207	207	207	207
41	47	meal	meal	meal	12	nopreview	18	49	417	417	417	265
42	48	was	was	was	12	nopreview	18	50	0	0	0	0
43	49	bought	bought	bought	12	nopreview	18	51	179	179	179	179
44	50	from	from	from	12	nopreview	18	52	154	154	154	154
45	51	an	an	an	12	nopreview	18	53	0	0	0	0
46	52	@entity11	Iceland	Iceland	12	nopreview	18	54	235	235	235	235
47			Foods	Foods	12	nopreview	18	55	0	0	0	0
48	53	store	store	store	12	nopreview	18	56	474	474	474	163
49	54	in	in	in	12	nopreview	18	57	262	262	262	262
50	55	@entity12	Spytty	Spytty	12	nopreview	18	58	506	0	0	0
51			Retail	Retail	12	nopreview	18	59	844	215	457	215
52			Park	Park	12	nopreview	18	60	169	169	1062	169
53	56	near	near	near	12	nopreview	18	61	168	168	168	168
54	57	the	the	the	12	nopreview	18	62	0	0	0	0
55	58	couple	couple	couple-s	12	nopreview	18	63	198	198	198	198
	59	’s	’s		12	nopreview	18	64				
56	60	home	home	home	12	nopreview	18	65	140	0	0	0
57	61	in	in	in	12	nopreview	18	66	157	157	297	157
58	62	@entity15	Newport	Newport,	12	nopreview	18	67	258	258	258	258
	63	,	,		12	nopreview	18	68				
59	64	@entity16	South	South	12	nopreview	18	69	148	148	148	148
60			Wales	Wales,	12	nopreview	18	70	0	0	0	0
	65	,	,		12	nopreview	18	71				
61	66	within	within	within	12	nopreview	18	72	0	0	0	0
62	67	the	the	the	12	nopreview	18	73	185	185	185	185
63	68	last	last	last	12	nopreview	18	74	0	0	0	0
64	69	two	two	two	12	nopreview	18	75	0	0	0	0
65	70	weeks	weeks	weeks.	12	nopreview	18	76	176	176	176	176
	71	.	.		12	nopreview	18	77				
66	72	@entity5	John	John,	12	nopreview	18	78	257	257	257	257
			Foran		12	nopreview	18	79				
	73	was	was		12	nopreview	18	80				
67	74	horrified	horrified	59,	12	nopreview	18	81	624	228	228	228
	75	to	to		12	nopreview	18	82				
	76	find	find		12	nopreview	18	83				
	77	a	a		12	nopreview	18	84				
68	78	five	five	said:	12	nopreview	18	85	0	0	0	0
	79	inch	inch		12	nopreview	18	86				
	80	piece	piece		12	nopreview	18	87				
	81	of	of		12	nopreview	18	88				
	82	timber	timber		12	nopreview	18	89				
	83	in	in		12	nopreview	18	90				
	84	his	his		12	nopreview	18	91				
	85	@entity11	Iceland		12	nopreview	18	92				
	86	chicken	chicken		12	nopreview	18	93				
	87	tikka	tikka		12	nopreview	18	94				
	88	biryani	biryani		12	nopreview	18	95				
	89	curry	curry		12	nopreview	18	96				
	90	@entity5	John		12	nopreview	18	97				
	91	,	,		12	nopreview	18	98				
	92	59	59		12	nopreview	18	99				
	93	,	,		12	nopreview	18	100				
	94	said	said		12	nopreview	18	101				
69	95	:	:	-When	12	nopreview	18	102	399	215	215	215
	96	-	-		12	nopreview	18	103				
	97	When	When		12	nopreview	18	104				
70	98	it	it	it	12	nopreview	18	105	212	0	0	0
71	99	fell	fell	fell	12	nopreview	18	106	196	196	196	196
72	100	out	out	out	12	nopreview	18	107	0	0	0	0
73	101	of	of	of	12	nopreview	18	108	0	0	0	0
74	102	the	the	the	12	nopreview	18	109	206	206	206	206
75	103	bag	bag	bag	12	nopreview	18	110	156	156	156	156
76	104	I	I	I	12	nopreview	18	111	0	0	0	0
77	105	could	could	couldn-t	12	nopreview	18	112	173	0	0	0
	106	n’t	n’t		12	nopreview	18	113				
78	107	believe	believe	believe	12	nopreview	18	114	138	138	311	138
79	108	it	it	it.	12	nopreview	18	115	0	0	0	0
	109	.	.		12	nopreview	18	116				
80	110	-	-	-As	12	nopreview	18	117	0	0	0	0
	111	As	As		12	nopreview	18	118				
81	112	@entity4	Nita	Nita	12	nopreview	18	119	142	142	142	142
82	113	was	was	was	12	nopreview	18	120	615	298	298	298
83	114	putting	putting	putting	12	nopreview	18	121	461	250	250	250
84	115	it	it	it	12	nopreview	18	122	0	0	0	0
85	116	in	in	in	12	nopreview	18	123	113	0	0	0
86	117	the	the	the	12	nopreview	18	124	168	0	0	0
87	118	stir	stir	stir	12	nopreview	18	125	125	125	934	125
88	119	fry	fry	fry	12	nopreview	18	126	186	186	186	186
89	120	dish	dish	dish,	12	nopreview	18	127	414	414	414	224
	121	,	,		12	nopreview	18	128				
90	122	she	she	she	12	nopreview	18	129	0	0	0	0
91	123	thought	thought	thought	12	nopreview	18	130	229	229	229	229
92	124	it	it	it	12	nopreview	18	131	155	155	155	155
93	125	was	was	was	12	nopreview	18	132	90	90	90	90
94	126	just	just	just	12	nopreview	18	133	0	0	0	0
95	127	a	a	a	12	nopreview	18	134	153	0	0	0
96	128	big	big	big	12	nopreview	18	135	145	145	298	145
97	129	bit	bit	bit	12	nopreview	18	136	416	416	416	416
98	130	of	of	of	12	nopreview	18	137	126	126	126	126
99	131	veg	veg	veg.	12	nopreview	18	138	0	0	0	0
	132	.	.		12	nopreview	18	139				
100	133	-	-	-It	12	nopreview	18	140	0	0	0	0
	134	It	It		12	nopreview	18	141				
101	135	was	was	was	12	nopreview	18	142	200	200	200	200
102	136	a	a	a	12	nopreview	18	143	0	0	0	0
103	137	piece	piece	piece	12	nopreview	18	144	351	184	184	184
104	138	of	of	of	12	nopreview	18	145	0	0	0	0
105	139	wood	wood	wood	12	nopreview	18	146	250	250	250	250
106	140	with	with	with	12	nopreview	18	147	210	210	210	210
107	141	splinters	splinters	splinters	12	nopreview	18	148	148	148	148	148
108	142	coming	coming	coming	12	nopreview	18	149	310	310	310	310
109	143	off	off	off	12	nopreview	18	150	0	0	0	0
110	144	it	it	it.	12	nopreview	18	151	156	156	156	156
	145	.	.		12	nopreview	18	152				
111	146	-	-	-I	12	nopreview	18	153	0	0	0	0
	147	I	I		12	nopreview	18	154				
112	148	just	just	just	12	nopreview	18	155	147	147	147	147
113	149	do	do	don-t	12	nopreview	18	156	187	0	0	0
	150	n’t	n’t		12	nopreview	18	157				
114	151	understand	understand	understand	12	nopreview	18	158	115	115	302	115
115	152	how	how	how	12	nopreview	18	159	0	0	0	0
116	153	it	it	it	12	nopreview	18	160	169	169	169	169
117	154	got	got	got	12	nopreview	18	161	348	0	0	0
118	155	inside	inside	inside.-	12	nopreview	18	162	232	232	580	232
	156	.	.		12	nopreview	18	163				
119	157	-	-	Shocked	12	nopreview	18	164	171	171	171	171
	158	@entity11	Iceland		12	nopreview	18	165				
	159	said	said		12	nopreview	18	166				
	160	they	they		12	nopreview	18	167				
	161	are	are		12	nopreview	18	168				
	162	carrying	carrying		12	nopreview	18	169				
	163	out	out		12	nopreview	18	170				
	164	a	a		12	nopreview	18	171				
	165	thorough	thorough		12	nopreview	18	172				
	166	investigation	investigation		12	nopreview	18	173				
	167	into	into		12	nopreview	18	174				
	168	how	how		12	nopreview	18	175				
	169	the	the		12	nopreview	18	176				
	170	timber	timber		12	nopreview	18	177				
	171	shard	shard		12	nopreview	18	178				
	172	came	came		12	nopreview	18	179				
	173	to	to		12	nopreview	18	180				
	174	be	be		12	nopreview	18	181				
	175	in	in		12	nopreview	18	182				
	176	the	the		12	nopreview	18	183				
	177	curry	curry		12	nopreview	18	184				
	178	Shocked	Shocked		12	nopreview	18	185				
120	179	@entity5	John	John	12	nopreview	18	186	0	0	0	0
121	180	immediately	immediately	immediately	12	nopreview	18	187	276	276	276	190
122	181	contacted	contacted	contacted	12	nopreview	18	188	294	294	294	294
123	182	@entity11	Iceland	Iceland	12	nopreview	18	189	164	164	164	164
124	183	who	who	who	12	nopreview	18	190	127	127	127	127
125	184	are	are	are	12	nopreview	18	191	0	0	0	0
126	185	currently	currently	currently	12	nopreview	18	192	272	272	272	272
127	186	investigating	investigating	investigating	12	nopreview	18	193	222	222	222	222
128	187	the	the	the	12	nopreview	18	194	0	0	0	0
129	188	matter	matter	matter.	12	nopreview	18	195	257	257	257	257
	189	.	.		12	nopreview	18	196				
130	190	He	He	He	12	nopreview	18	197	0	0	0	0
131	191	said	said	said:	12	nopreview	18	198	214	214	214	214
132	192	:	:	-It	12	nopreview	18	199	0	0	0	0
	193	“	“		12	nopreview	18	200				
133	194	It	It	may	12	nopreview	18	201	156	0	0	0
134	195	may	may	only	12	nopreview	18	202	440	157	313	157
135	196	only	only	have	12	nopreview	18	203	345	156	156	156
	197	have	have		12	nopreview	18	204				
136	198	been	been	been	12	nopreview	18	205	377	229	849	229
137	199	£	£	£2	12	nopreview	18	206	0	0	0	0
	200	2	2		12	nopreview	18	207				
138	201	but	but	but	12	nopreview	18	208	144	144	144	144
139	202	that	that	that-s	12	nopreview	18	209	0	0	0	0
	203	’s	’s		12	nopreview	18	210				
140	204	beside	beside	beside	12	nopreview	18	211	389	185	185	185
141	205	the	the	the	12	nopreview	18	212	0	0	0	0
142	206	point	point	point.	12	nopreview	18	213	126	126	330	126
	207	.	.		12	nopreview	18	214				
143	208	-	-	-Things	12	nopreview	18	215	219	219	219	219
	209	Things	Things		12	nopreview	18	216				
144	210	like	like	like	12	nopreview	18	217	0	0	0	0
145	211	this	this	this	12	nopreview	18	218	218	218	218	218
146	212	should	should	should	12	nopreview	18	219	178	178	178	178
147	213	not	not	not	12	nopreview	18	220	0	0	0	0
148	214	be	be	be	12	nopreview	18	221	0	0	0	0
149	215	in	in	in	12	nopreview	18	222	0	0	0	0
150	216	your	your	your	12	nopreview	18	223	190	190	190	190
151	217	food	food	food.	12	nopreview	18	224	229	229	229	229
	218	.	.		12	nopreview	18	225				
152	219	-	-	-I	12	nopreview	18	226	0	0	0	0
	220	I	I		12	nopreview	18	227				
153	221	contacted	contacted	contacted	12	nopreview	18	228	171	171	171	171
154	222	@entity11	Iceland	Iceland	12	nopreview	18	229	152	0	0	0
155	223	and	and	and	12	nopreview	18	230	137	137	289	137
156	224	all	all	all	12	nopreview	18	231	0	0	0	0
157	225	they	they	they	12	nopreview	18	232	175	175	175	175
158	226	said	said	said	12	nopreview	18	233	0	0	0	0
159	227	was	was	was	12	nopreview	18	234	194	194	194	194
160	228	take	take	take	12	nopreview	18	235	0	0	0	0
161	229	it	it	it	12	nopreview	18	236	0	0	0	0
162	230	back	back	back	12	nopreview	18	237	234	234	234	234
163	231	to	to	to	12	nopreview	18	238	0	0	0	0
164	232	the	the	the	12	nopreview	18	239	0	0	0	0
165	233	shop	shop	shop	12	nopreview	18	240	205	205	205	205
166	234	and	and	and	12	nopreview	18	241	233	0	0	0
167	235	that	that	that	12	nopreview	18	242	0	0	0	0
168	236	they	they	they-ll	12	nopreview	18	243	554	554	554	332
	237	’ll	’ll		12	nopreview	18	244				
169	238	be	be	be	12	nopreview	18	245	184	0	0	0
170	239	in	in	in	12	nopreview	18	246	91	91	7154	91
171	240	touch	touch	touch.	12	nopreview	18	247	200	200	794	200
	241	.	.		12	nopreview	18	248				
172	242	-	-	-But	12	nopreview	18	249	0	0	0	0
	243	But	But		12	nopreview	18	250				
173	244	I	I	I	12	nopreview	18	251	168	0	0	0
174	245	want	want	want	12	nopreview	18	252	146	146	314	146
175	246	people	people	people	12	nopreview	18	253	380	192	192	192
176	247	to	to	to	12	nopreview	18	254	0	0	0	0
177	248	know	know	know	12	nopreview	18	255	537	537	725	160
178	249	what	what	what	12	nopreview	18	256	167	167	167	167
179	250	could	could	could	12	nopreview	18	257	205	205	205	205
180	251	be	be	be	12	nopreview	18	258	0	0	0	0
181	252	hiding	hiding	hiding	12	nopreview	18	259	371	371	371	371
182	253	in	in	in	12	nopreview	18	260	0	0	0	0
183	254	their	their	their	12	nopreview	18	261	506	506	506	269
184	255	meal	meal	meal.-	12	nopreview	18	262	0	0	0	0
	256	.	.		12	nopreview	18	263				
185	257	”	”	An	12	nopreview	18	264	330	330	330	330
186	258	An	An	Iceland	12	nopreview	18	265	0	0	0	0
	259	@entity11	Iceland		12	nopreview	18	266				
187	260	spokeswoman	spokeswoman	spokeswoman	12	nopreview	18	267	246	246	246	246
188	261	said	said	said:	12	nopreview	18	268	0	0	0	0
189	262	:	:	-Please	12	nopreview	18	269	164	164	164	164
	263	’	’		12	nopreview	18	270				
	264	Please	Please		12	nopreview	18	271				
190	265	be	be	be	12	nopreview	18	272	0	0	0	0
191	266	assured	assured	assured	12	nopreview	18	273	177	0	0	0
192	267	that	that	that	12	nopreview	18	274	188	188	365	188
193	268	we	we	we	12	nopreview	18	275	0	0	0	0
194	269	take	take	take	12	nopreview	18	276	116	116	116	116
195	270	all	all	all	12	nopreview	18	277	157	157	157	157
196	271	complaints	complaints	complaints	12	nopreview	18	278	268	268	268	268
197	272	extremely	extremely	extremely	12	nopreview	18	279	456	456	456	239
198	273	seriously	seriously	seriously.	12	nopreview	18	280	263	263	263	263
	274	.	.		12	nopreview	18	281				
199	275	We	We	We	12	nopreview	18	282	0	0	0	0
200	276	can	can	can	12	nopreview	18	283	0	0	0	0
201	277	confirm	confirm	confirm	12	nopreview	18	284	315	315	315	315
202	278	that	that	that	12	nopreview	18	285	158	158	158	158
203	279	Mr	Mr	Mr	12	nopreview	18	286	0	0	0	0
204	280	@entity5	Foran	Foran	12	nopreview	18	287	379	379	379	217
205	281	has	has	has	12	nopreview	18	288	0	0	0	0
206	282	now	now	now	12	nopreview	18	289	337	337	337	337
207	283	been	been	been	12	nopreview	18	290	0	0	0	0
208	284	in	in	in	12	nopreview	18	291	172	172	172	172
209	285	touch	touch	touch	12	nopreview	18	292	201	201	201	201
210	286	with	with	with	12	nopreview	18	293	157	0	0	0
211	287	our	our	our	12	nopreview	18	294	539	0	0	0
212	288	customer	customer	customer	12	nopreview	18	295	320	208	1016	208
213	289	care	care	care	12	nopreview	18	296	469	469	469	469
214	290	department	department	department	12	nopreview	18	297	674	674	674	674
215	291	regarding	regarding	regarding	12	nopreview	18	298	229	0	0	0
216	292	the	the	the	12	nopreview	18	299	139	139	368	139
217	293	foreign	foreign	foreign	12	nopreview	18	300	255	255	255	124
218	294	body	body	body	12	nopreview	18	301	535	535	535	535
219	295	found	found	found	12	nopreview	18	302	214	214	214	214
220	296	in	in	in	12	nopreview	18	303	0	0	0	0
221	297	his	his	his	12	nopreview	18	304	0	0	0	0
222	298	ready	ready	ready	12	nopreview	18	305	187	187	187	187
223	299	meal	meal	meal.	12	nopreview	18	306	184	184	184	184
	300	.	.		12	nopreview	18	307				
224	301	-	-	-Mr	12	nopreview	18	308	0	0	0	0
	302	Mr	Mr		12	nopreview	18	309				
225	303	@entity5	Foran	Foran	12	nopreview	18	310	244	244	244	244
226	304	is	is	is	12	nopreview	18	311	194	194	194	194
227	305	returning	returning	returning	12	nopreview	18	312	195	195	195	195
228	306	the	the	the	12	nopreview	18	313	242	242	242	242
229	307	item	item	item	12	nopreview	18	314	0	0	0	0
230	308	to	to	to	12	nopreview	18	315	0	0	0	0
231	309	the	the	the	12	nopreview	18	316	265	0	0	0
232	310	store	store	store	12	nopreview	18	317	129	129	394	129
233	311	and	and	and	12	nopreview	18	318	0	0	0	0
234	312	the	the	the	12	nopreview	18	319	0	0	0	0
235	313	foreign	foreign	foreign	12	nopreview	18	320	266	266	266	266
236	314	body	body	body	12	nopreview	18	321	289	289	289	178
237	315	will	will	will	12	nopreview	18	322	0	0	0	0
238	316	be	be	be	12	nopreview	18	323	0	0	0	0
239	317	collected	collected	collected	12	nopreview	18	324	321	321	321	159
240	318	by	by	by	12	nopreview	18	325	0	0	0	0
241	319	our	our	our	12	nopreview	18	326	147	0	0	0
242	320	supplier	supplier	supplier	12	nopreview	18	327	279	279	426	142
243	321	in	in	in	12	nopreview	18	328	0	0	0	0
244	322	order	order	order	12	nopreview	18	329	301	301	301	301
245	323	for	for	for	12	nopreview	18	330	0	0	0	0
246	324	them	them	them	12	nopreview	18	331	129	129	129	129
247	325	to	to	to	12	nopreview	18	332	0	0	0	0
248	326	carry	carry	carry	12	nopreview	18	333	197	197	197	197
249	327	out	out	out	12	nopreview	18	334	0	0	0	0
250	328	a	a	a	12	nopreview	18	335	0	0	0	0
251	329	thorough	thorough	thorough	12	nopreview	18	336	0	0	0	0
252	330	investigation	investigation	investigation.	12	nopreview	18	337	171	171	171	171
	331	.	.		12	nopreview	18	338				
253	332	As	As	As	12	nopreview	18	339	0	0	0	0
254	333	soon	soon	soon	12	nopreview	18	340	120	0	0	0
255	334	as	as	as	12	nopreview	18	341	358	0	0	0
256	335	we	we	we	12	nopreview	18	342	0	0	0	0
257	336	have	have	have	12	nopreview	18	343	154	154	512	154
258	337	the	the	the	12	nopreview	18	344	0	0	0	0
259	338	results	results	results	12	nopreview	18	345	256	256	256	256
260	339	of	of	of	12	nopreview	18	346	0	0	0	0
261	340	this	this	this	12	nopreview	18	347	0	0	0	0
262	341	investigation	investigation	investigation	12	nopreview	18	348	268	268	268	268
263	342	we	we	we	12	nopreview	18	349	0	0	0	0
264	343	will	will	will	12	nopreview	18	350	0	0	0	0
265	344	get	get	get	12	nopreview	18	351	159	159	159	159
266	345	back	back	back	12	nopreview	18	352	158	158	158	158
267	346	in	in	in	12	nopreview	18	353	0	0	0	0
268	347	touch	touch	touch	12	nopreview	18	354	169	169	289	169
269	348	with	with	with	12	nopreview	18	355	0	0	0	0
270	349	Mr	Mr	Mr	12	nopreview	18	356	0	0	0	0
271	350	@entity5	Foran	Foran.-	12	nopreview	18	357	0	0	0	0
	351	.	.		12	nopreview	18	358				
