HumanPosition	AnonymizedPosition	AnonymizedToken	OriginalToken	ExperimentToken	Participant	Condition	TextNo	JointPosition	tt	fp	rp	ff
1	0	Per	Per	Per	1	preview	15	1	0	0	0	0
2	1	@entity0	Mertesacker	Mertesacker	1	preview	15	2	2588	146	146	146
3	2	looks	looks	looks	1	preview	15	3	324	169	169	169
4	3	set	set	set	1	preview	15	4	249	0	0	0
5	4	to	to	to	1	preview	15	5	0	0	0	0
6	5	be	be	be	1	preview	15	6	0	0	0	0
7	6	ruled	ruled	ruled	1	preview	15	7	288	154	154	154
8	7	out	out	out	1	preview	15	8	170	0	0	0
9	8	of	of	of	1	preview	15	9	0	0	0	0
10	9	@entity2	Arsenal	Arsenal-s	1	preview	15	10	471	143	143	143
	10	’s	’s		1	preview	15	11				
11	11	derby	derby	derby	1	preview	15	12	0	0	0	0
12	12	against	against	against	1	preview	15	13	342	136	136	136
13	13	@entity3	Chelsea	Chelsea	1	preview	15	14	383	137	137	137
14	14	although	although	although	1	preview	15	15	259	0	0	0
15	15	the	the	the	1	preview	15	16	120	0	0	0
16	16	defender	defender	defender	1	preview	15	17	347	128	387	128
17	17	has	has	has	1	preview	15	18	0	0	0	0
18	18	escaped	escaped	escaped	1	preview	15	19	569	182	182	182
19	19	any	any	any	1	preview	15	20	0	0	0	0
20	20	serious	serious	serious	1	preview	15	21	143	0	0	0
21	21	ankle	ankle	ankle	1	preview	15	22	308	165	165	165
22	22	ligament	ligament	ligament	1	preview	15	23	447	168	549	168
23	23	damage	damage	damage.	1	preview	15	24	258	117	117	117
	24	.	.		1	preview	15	25				
24	25	@entity0	Mertesacker	Mertesacker,	1	preview	15	26	582	409	409	289
	26	,	,		1	preview	15	27				
25	27	captain	captain	captain	1	preview	15	28	592	0	0	0
26	28	during	during	during	1	preview	15	29	267	126	526	126
27	29	the	the	the	1	preview	15	30	107	0	0	0
28	30	long	long	long	1	preview	15	31	354	207	3924	207
29	31	absence	absence	absence	1	preview	15	32	0	0	0	0
30	32	of	of	of	1	preview	15	33	119	119	119	119
31	33	@entity8	Mikel	Mikel	1	preview	15	34	0	0	0	0
32			Arteta	Arteta,	1	preview	15	35	286	286	286	147
	34	,	,		1	preview	15	36				
33	35	limped	limped	limped	1	preview	15	37	0	0	0	0
34	36	off	off	off	1	preview	15	38	234	234	234	234
35	37	during	during	during	1	preview	15	39	0	0	0	0
36	38	the	the	the	1	preview	15	40	0	0	0	0
37	39	second	second	second	1	preview	15	41	167	167	167	167
38	40	half	half	half	1	preview	15	42	143	143	143	143
39	41	of	of	of	1	preview	15	43	0	0	0	0
40	42	the	the	the	1	preview	15	44	0	0	0	0
41	43	@entity10	FA	FA	1	preview	15	45	0	0	0	0
42			Cup	Cup	1	preview	15	46	207	0	0	0
43	44	semi-final	semi-final	semi-final	1	preview	15	47	298	127	505	127
44	45	against	against	against	1	preview	15	48	0	0	0	0
45	46	@entity12	Reading	Reading	1	preview	15	49	165	165	165	165
46	47	at	at	at	1	preview	15	50	0	0	0	0
47	48	@entity13	Wembley	Wembley	1	preview	15	51	505	252	252	252
48	49	on	on	on	1	preview	15	52	0	0	0	0
49	50	Saturday	Saturday	Saturday.	1	preview	15	53	0	0	0	0
	51	.	.		1	preview	15	54				
50	52	There	There	There	1	preview	15	55	155	155	155	155
51	53	were	were	were	1	preview	15	56	193	193	193	193
52	54	fears	fears	fears	1	preview	15	57	167	167	167	167
53	55	of	of	of	1	preview	15	58	0	0	0	0
54	56	a	a	a	1	preview	15	59	0	0	0	0
55	57	serious	serious	serious	1	preview	15	60	0	0	0	0
56	58	injury	injury	injury	1	preview	15	61	284	0	0	0
57	59	for	for	for	1	preview	15	62	0	0	0	0
58	60	the	the	the	1	preview	15	63	373	107	391	107
59	61	6ft	6ft	6ft	1	preview	15	64	156	156	156	156
60	62	6in	6in	6in	1	preview	15	65	405	0	0	0
61	63	@entity17	German	German	1	preview	15	66	902	310	981	310
62	64	after	after	after	1	preview	15	67	228	228	1073	228
63	65	he	he	he	1	preview	15	68	0	0	0	0
64	66	twisted	twisted	twisted	1	preview	15	69	316	316	316	316
65	67	the	the	the	1	preview	15	70	0	0	0	0
66	68	joint	joint	joint	1	preview	15	71	170	170	170	170
67	69	but	but	but	1	preview	15	72	0	0	0	0
68	70	subsequent	subsequent	subsequent	1	preview	15	73	648	462	462	462
69	71	scans	scans	scans	1	preview	15	74	387	387	573	387
70	72	have	have	have	1	preview	15	75	153	0	0	0
71	73	shown	shown	shown	1	preview	15	76	413	0	0	0
72	74	it	it	it	1	preview	15	77	0	0	0	0
73	75	is	is	is	1	preview	15	78	182	0	0	0
74	76	a	a	a	1	preview	15	79	0	0	0	0
75	77	minor	minor	minor	1	preview	15	80	218	120	542	120
76	78	sprain	sprain	sprain.	1	preview	15	81	143	143	567	143
	79	.	.		1	preview	15	82				
77	80	Per	Per	He	1	preview	15	83	0	0	0	0
78	81	@entity0	Mertesacker	is	1	preview	15	84	256	148	148	148
	82	will	will		1	preview	15	85				
79	83	miss	miss	not	1	preview	15	86	282	0	0	0
	84	@entity2	Arsenal		1	preview	15	87				
	85	-s	-s		1	preview	15	88				
80	86	visit	visit	expected	1	preview	15	89	325	190	190	190
	87	by	by		1	preview	15	90				
	88	@entity3	Chelsea		1	preview	15	91				
	89	on	on		1	preview	15	92				
	90	Sunday	Sunday		1	preview	15	93				
	91	due	due		1	preview	15	94				
	92	to	to		1	preview	15	95				
	93	an	an		1	preview	15	96				
	94	ankle	ankle		1	preview	15	97				
	95	injury	injury		1	preview	15	98				
	96	The	The		1	preview	15	99				
	97	stand	stand		1	preview	15	100				
	98	-	-		1	preview	15	101				
	99	in	in		1	preview	15	102				
	100	Gunners	Gunners		1	preview	15	103				
	101	captain	captain		1	preview	15	104				
	102	went	went		1	preview	15	105				
	103	down	down		1	preview	15	106				
	104	in	in		1	preview	15	107				
	105	@entity2	Arsenal		1	preview	15	108				
	106	-s	-s		1	preview	15	109				
	107	@entity10	FA		1	preview	15	110				
			Cup		1	preview	15	111				
	108	semi-final	semi-final		1	preview	15	112				
	109	win	win		1	preview	15	113				
	110	over	over		1	preview	15	114				
	111	@entity12	Reading		1	preview	15	115				
	112	on	on		1	preview	15	116				
	113	Saturday	Saturday		1	preview	15	117				
	114	He	He		1	preview	15	118				
	115	is	is		1	preview	15	119				
	116	not	not		1	preview	15	120				
	117	expected	expected		1	preview	15	121				
81	118	to	to	to	1	preview	15	122	0	0	0	0
82	119	be	be	be	1	preview	15	123	0	0	0	0
83	120	fit	fit	fit	1	preview	15	124	223	223	223	223
84	121	in	in	in	1	preview	15	125	0	0	0	0
85	122	time	time	time	1	preview	15	126	0	0	0	0
86	123	for	for	for	1	preview	15	127	456	214	981	214
87	124	Sunday	Sunday	Sunday,	1	preview	15	128	0	0	0	0
	125	,	,		1	preview	15	129				
88	126	however	however	however,	1	preview	15	130	256	0	0	0
	127	,	,		1	preview	15	131				
89	128	and	and	and	1	preview	15	132	0	0	0	0
90	129	likely	likely	likely	1	preview	15	133	264	121	520	121
91	130	to	to	to	1	preview	15	134	0	0	0	0
92	131	be	be	be	1	preview	15	135	0	0	0	0
93	132	replaced	replaced	replaced	1	preview	15	136	0	0	0	0
94	133	at	at	at	1	preview	15	137	162	162	162	162
95	134	centre	centre	centre-half	1	preview	15	138	131	131	131	131
	135	-	-		1	preview	15	139				
	136	half	half		1	preview	15	140				
96	137	by	by	by	1	preview	15	141	0	0	0	0
97	138	@entity26	Gabriel	Gabriel	1	preview	15	142	0	0	0	0
98			Paulista	Paulista,	1	preview	15	143	323	323	323	168
	139	,	,		1	preview	15	144				
99	140	who	who	who	1	preview	15	145	0	0	0	0
100	141	has	has	has	1	preview	15	146	134	134	134	134
101	142	started	started	started	1	preview	15	147	255	0	0	0
102	143	three	three	three	1	preview	15	148	0	0	0	0
103	144	times	times	times	1	preview	15	149	270	128	525	128
104	145	in	in	in	1	preview	15	150	0	0	0	0
105	146	the	the	the	1	preview	15	151	159	159	159	159
106	147	@entity28	Barclays	Barclays	1	preview	15	152	142	142	142	142
107			Premier	Premier	1	preview	15	153	0	0	0	0
108			League	League	1	preview	15	154	159	159	159	159
109	148	since	since	since	1	preview	15	155	176	176	176	176
110	149	he	he	he	1	preview	15	156	0	0	0	0
111	150	was	was	was	1	preview	15	157	0	0	0	0
112	151	signed	signed	signed	1	preview	15	158	386	191	191	191
113	152	in	in	in	1	preview	15	159	0	0	0	0
114	153	January	January	January	1	preview	15	160	341	228	536	228
115	154	from	from	from	1	preview	15	161	0	0	0	0
116	155	@entity29	Villarreal	Villarreal.	1	preview	15	162	257	0	0	0
	156	.	.		1	preview	15	163				
117	157	@entity3	Chelsea	Chelsea	1	preview	15	164	330	104	587	104
118	158	come	come	come	1	preview	15	165	0	0	0	0
119	159	into	into	into	1	preview	15	166	133	133	133	133
120	160	the	the	the	1	preview	15	167	0	0	0	0
121	161	match	match	match	1	preview	15	168	0	0	0	0
122	162	with	with	with	1	preview	15	169	144	144	144	144
123	163	a	a	a	1	preview	15	170	0	0	0	0
124	164	10	10	10-point	1	preview	15	171	0	0	0	0
	165	-	-		1	preview	15	172				
	166	point	point		1	preview	15	173				
125	167	lead	lead	lead	1	preview	15	174	0	0	0	0
126	168	over	over	over	1	preview	15	175	0	0	0	0
127	169	their	their	their	1	preview	15	176	150	150	150	150
128	170	@entity33	London	London	1	preview	15	177	128	128	128	128
129	171	rivals	rivals	rivals	1	preview	15	178	0	0	0	0
130	172	and	and	and	1	preview	15	179	169	0	0	0
131	173	will	will	will	1	preview	15	180	0	0	0	0
132	174	need	need	need	1	preview	15	181	0	0	0	0
133	175	to	to	to	1	preview	15	182	126	126	295	126
134	176	capitulate	capitulate	capitulate	1	preview	15	183	521	177	177	177
135	177	in	in	in	1	preview	15	184	0	0	0	0
136	178	spectacular	spectacular	spectacular	1	preview	15	185	543	351	887	351
137	179	fashion	fashion	fashion	1	preview	15	186	0	0	0	0
138	180	to	to	to	1	preview	15	187	0	0	0	0
139	181	not	not	not	1	preview	15	188	136	136	136	136
140	182	take	take	take	1	preview	15	189	0	0	0	0
141	183	the	the	the	1	preview	15	190	0	0	0	0
142	184	@entity28	Premier	Premier	1	preview	15	191	258	258	258	258
143			League	League	1	preview	15	192	158	0	0	0
144	185	title	title	title.	1	preview	15	193	0	0	0	0
	186	.	.		1	preview	15	194				
145	187	Second	Second	Second-placed	1	preview	15	195	249	107	407	107
	188	-	-		1	preview	15	196				
	189	placed	placed		1	preview	15	197				
146	190	@entity2	Arsenal	Arsenal,	1	preview	15	198	0	0	0	0
	191	,	,		1	preview	15	199				
147	192	on	on	on	1	preview	15	200	128	128	128	128
148	193	66	66	66	1	preview	15	201	0	0	0	0
149	194	points	points	points,	1	preview	15	202	122	122	122	122
	195	,	,		1	preview	15	203				
150	196	lead	lead	lead	1	preview	15	204	0	0	0	0
151	197	@entity38	Manchester	Manchester	1	preview	15	205	209	209	209	209
152			United	United	1	preview	15	206	87	87	87	87
153	198	on	on	on	1	preview	15	207	0	0	0	0
154	199	65	65	65	1	preview	15	208	0	0	0	0
155	200	and	and	and	1	preview	15	209	87	87	2111	87
156	201	@entity39	Manchester	Manchester	1	preview	15	210	0	0	0	0
157			City	City	1	preview	15	211	0	0	0	0
158	202	on	on	on	1	preview	15	212	0	0	0	0
159	203	64	64	64.	1	preview	15	213	0	0	0	0
	204	.	.		1	preview	15	214				
