HumanPosition	AnonymizedPosition	AnonymizedToken	OriginalToken	ExperimentToken	Participant	Condition	TextNo	JointPosition	tt	fp	rp	ff	rb	sp
0	0	@entity0	Raheem	Raheem	11	preview	10	1	0	0	0	0	0	0
2			Sterling	Sterling	11	preview	10	2	0	0	0	0	0	0
3	1	has	has	has	11	preview	10	3	0	0	0	0	0	0
4	2	admitted	admitted	admitted	11	preview	10	4	0	0	0	0	0	0
5	3	he	he	he	11	preview	10	5	0	0	0	0	0	0
6	4	is	is	is	11	preview	10	6	0	0	0	0	0	0
7	5	not	not	not	11	preview	10	7	0	0	0	0	0	0
8	6	ready	ready	ready	11	preview	10	8	0	0	0	0	0	0
9	7	to	to	to	11	preview	10	9	0	0	0	0	0	0
10	8	sign	sign	sign	11	preview	10	10	0	0	0	0	0	0
11	9	a	a	a	11	preview	10	11	0	0	0	0	0	0
12	10	new	new	new	11	preview	10	12	0	0	0	0	0	0
13	11	contract	contract	contract	11	preview	10	13	0	0	0	0	0	0
14	12	at	at	at	11	preview	10	14	0	0	0	0	0	0
15	13	@entity3	Liverpool	Liverpool	11	preview	10	15	0	0	0	0	0	0
16	14	deal	deal	deal	11	preview	10	16	0	0	0	0	0	0
17	15	despite	despite	despite	11	preview	10	17	637	0	0	0	0	637
18	16	being	being	being	11	preview	10	18	476	0	0	0	0	476
19	17	offered	offered	offered	11	preview	10	19	0	0	0	0	0	0
20	18	a	a	a	11	preview	10	20	174	0	0	0	0	174
21	19	£	£	£100,000-a-week	11	preview	10	21	514	0	0	0	0	514
	20	100,000	100,000		11	preview	10	22						
	21	-	-		11	preview	10	23						
	22	a	a		11	preview	10	24						
	23	-	-		11	preview	10	25						
	24	week	week		11	preview	10	26						
22	25	deal	deal	deal	11	preview	10	27	0	0	0	0	0	0
23	26	to	to	to	11	preview	10	28	0	0	0	0	0	0
24	27	stay	stay	stay	11	preview	10	29	241	0	0	0	0	241
25	28	with	with	with	11	preview	10	30	209	0	0	0	0	209
26	29	the	the	the	11	preview	10	31	0	0	0	0	0	0
27	30	@entity6	Merseyside	Merseyside	11	preview	10	32	440	0	0	0	0	440
28	31	club	club	club.	11	preview	10	33	0	0	0	0	0	0
	32	.	.		11	preview	10	34						
29	33	The	The	The	11	preview	10	35	0	0	0	0	0	0
30	34	20	20	20-year-old	11	preview	10	36	1127	0	0	0	0	1127
	35	-	-		11	preview	10	37						
	36	year	year		11	preview	10	38						
	37	-	-		11	preview	10	39						
	38	old	old		11	preview	10	40						
31	39	wideman	wideman	wideman	11	preview	10	41	544	0	0	0	0	544
32	40	edged	edged	edged	11	preview	10	42	508	0	0	0	0	508
33	41	closer	closer	closer	11	preview	10	43	548	0	0	0	0	548
34	42	towards	towards	towards	11	preview	10	44	792	0	0	0	0	792
35	43	an	an	an	11	preview	10	45	148	0	0	0	0	148
36	44	@entity9	Anfield	Anfield	11	preview	10	46	1107	0	0	0	0	1107
37	45	exit	exit	exit	11	preview	10	47	693	0	0	0	0	693
38	46	after	after	after	11	preview	10	48	0	0	0	0	0	0
39	47	revealing	revealing	revealing	11	preview	10	49	205	0	0	0	0	205
40	48	in	in	in	11	preview	10	50	0	0	0	0	0	0
41	49	an	an	an	11	preview	10	51	178	0	0	0	0	178
42	50	interview	interview	interview	11	preview	10	52	178	0	0	0	0	178
43	51	with	with	with	11	preview	10	53	127	0	0	0	0	127
44	52	the	the	the	11	preview	10	54	204	204	8503	204	204	0
45	53	@entity11	BBC	BBC	11	preview	10	55	214	0	0	0	0	214
46	54	on	on	on	11	preview	10	56	203	0	0	0	0	203
47	55	Wednesday	Wednesday	Wednesday	11	preview	10	57	189	0	0	0	0	189
48	56	that	that	that	11	preview	10	58	0	0	0	0	0	0
49	57	he	he	he	11	preview	10	59	0	0	0	0	0	0
50	58	would	would	would	11	preview	10	60	349	0	0	0	0	349
51	59	have	have	have	11	preview	10	61	0	0	0	0	0	0
52	60	signed	signed	signed	11	preview	10	62	229	0	0	0	0	229
53	61	for	for	for	11	preview	10	63	144	0	0	0	0	144
54	62	a	a	a	11	preview	10	64	187	0	0	0	0	187
55	63	lot	lot	lot	11	preview	10	65	0	0	0	0	0	0
56	64	less	less	less	11	preview	10	66	538	192	192	192	192	346
57	65	a	a	a	11	preview	10	67	0	0	0	0	0	0
58	66	year	year	year	11	preview	10	68	449	181	2615	181	449	268
59	67	ago	ago	ago.	11	preview	10	69	147	0	0	0	0	147
	68	.	.		11	preview	10	70						
60	69	However	However	However,	11	preview	10	71	341	168	488	168	341	173
	70	,	,		11	preview	10	72						
61	71	despite	despite	despite	11	preview	10	73	0	0	0	0	0	0
62	72	being	being	being	11	preview	10	74	204	204	204	204	204	0
63	73	one	one	one	11	preview	10	75	257	257	257	257	257	0
64	74	of	of	of	11	preview	10	76	0	0	0	0	0	0
65	75	@entity3	Liverpool	Liverpool-s	11	preview	10	77	0	0	0	0	0	0
	76	-s	-s		11	preview	10	78						
66	77	star	star	star	11	preview	10	79	211	211	211	211	211	0
67	78	men	men	men,	11	preview	10	80	229	229	229	229	229	0
	79	,	,		11	preview	10	81						
68	80	@entity0	Sterling	Sterling	11	preview	10	82	189	189	189	189	189	0
69	81	has	has	has	11	preview	10	83	0	0	0	0	0	0
70	82	struggled	struggled	struggled	11	preview	10	84	365	365	365	200	365	0
71	83	to	to	to	11	preview	10	85	0	0	0	0	0	0
72	84	repeat	repeat	repeat	11	preview	10	86	196	0	0	0	0	196
73	85	the	the	the	11	preview	10	87	240	240	436	240	240	0
74	86	impressive	impressive	impressive	11	preview	10	88	276	276	276	276	276	0
75	87	form	form	form	11	preview	10	89	281	281	281	281	281	0
76	88	he	he	he	11	preview	10	90	0	0	0	0	0	0
77	89	showed	showed	showed	11	preview	10	91	150	150	150	150	150	0
78	90	for	for	for	11	preview	10	92	0	0	0	0	0	0
79	91	the	the	the	11	preview	10	93	0	0	0	0	0	0
80	92	@entity18	Reds	Reds	11	preview	10	94	249	249	249	249	249	0
81	93	last	last	last	11	preview	10	95	269	269	269	269	269	0
82	94	season	season	season.	11	preview	10	96	0	0	0	0	0	0
	95	.	.		11	preview	10	97						
83	96	The	The	The	11	preview	10	98	0	0	0	0	0	0
84	97	@entity19	England	England	11	preview	10	99	335	335	335	179	335	0
85	98	international	international	international	11	preview	10	100	653	420	420	123	420	233
86	99	has	has	has	11	preview	10	101	153	153	386	153	153	0
87	100	managed	managed	managed	11	preview	10	102	778	518	518	518	518	260
88	101	just	just	just	11	preview	10	103	388	161	648	161	388	227
89	102	six	six	six	11	preview	10	104	0	0	0	0	0	0
90	103	goals	goals	goals	11	preview	10	105	207	207	207	207	207	0
91	104	this	this	this	11	preview	10	106	0	0	0	0	0	0
92	105	season	season	season	11	preview	10	107	246	246	246	246	246	0
93	106	-	-	-	11	preview	10	108	0	0	0	0	0	0
94	107	one	one	one	11	preview	10	109	0	0	0	0	0	0
95	108	less	less	less	11	preview	10	110	403	263	263	263	263	140
96	109	than	than	than	11	preview	10	111	0	0	0	0	0	0
97	110	@entity23	Stoke	Stoke	11	preview	10	112	378	168	518	168	378	210
98	111	frontman	frontman	frontman	11	preview	10	113	221	221	221	221	221	0
99	112	@entity22	Jon	Jon	11	preview	10	114	202	0	0	0	0	202
100			Walters	Walters	11	preview	10	115	130	130	332	130	130	0
101	113	-	-	-	11	preview	10	116	0	0	0	0	0	0
102	114	while	while	while	11	preview	10	117	245	245	245	245	245	0
103	115	his	his	his	11	preview	10	118	0	0	0	0	0	0
104	116	conversion	conversion	conversion	11	preview	10	119	188	188	188	188	188	0
105	117	rate	rate	rate	11	preview	10	120	168	0	0	0	0	168
106	118	and	and	and	11	preview	10	121	178	178	346	178	178	0
107	119	minutes	minutes	minutes	11	preview	10	122	0	0	0	0	0	0
108	120	per	per	per	11	preview	10	123	0	0	0	0	0	0
109	121	goal	goal	goal	11	preview	10	124	0	0	0	0	0	0
110	122	ratio	ratio	ratio	11	preview	10	125	143	143	143	143	143	0
111	123	have	have	have	11	preview	10	126	0	0	0	0	0	0
112	124	worsened	worsened	worsened.	11	preview	10	127	331	331	331	331	331	0
	125	as	as		11	preview	10	128						
113	126	the	the	Raheem	11	preview	10	129	362	0	0	0	0	362
	127	graphic	graphic		11	preview	10	130						
	128	below	below		11	preview	10	131						
	129	shows	shows		11	preview	10	132						
	130	.	.		11	preview	10	133						
	131	@entity0	Raheem		11	preview	10	134						
114			Sterling	Sterling	11	preview	10	135	310	126	311	126	126	184
115	132	has	has	has	11	preview	10	136	245	245	245	245	245	0
116	133	managed	managed	managed	11	preview	10	137	390	165	574	165	390	225
117	134	just	just	just	11	preview	10	138	193	193	193	193	193	0
118	135	six	six	six	11	preview	10	139	0	0	0	0	0	0
119	136	goals	goals	goals	11	preview	10	140	169	169	169	169	169	0
120	137	this	this	this	11	preview	10	141	0	0	0	0	0	0
121	138	season	season	season	11	preview	10	142	277	277	277	277	277	0
122	139	-	-	-	11	preview	10	143	0	0	0	0	0	0
123	140	one	one	one	11	preview	10	144	0	0	0	0	0	0
124	141	less	less	less	11	preview	10	145	0	0	0	0	0	0
125	142	than	than	than	11	preview	10	146	250	250	250	250	250	0
126	143	@entity23	Stoke	Stoke	11	preview	10	147	279	149	326	149	149	130
127	144	forward	forward	forward	11	preview	10	148	203	0	177	0	0	203
128	145	@entity22	Jon	Jon	11	preview	10	149	405	0	0	0	0	405
129			Walters	Walters.	11	preview	10	150	917	735	1897	735	917	182
	146	(	(		11	preview	10	151						
