HumanPosition	AnonymizedPosition	AnonymizedToken	OriginalToken	ExperimentToken	Participant	Condition	TextNo	JointPosition	tt	fp	rp	ff	rb	sp
1	0	Per	Per	Per	11	preview	15	1	216	216	216	216	216	0
2	1	@entity0	Mertesacker	Mertesacker	11	preview	15	2	255	0	0	0	0	255
3	2	looks	looks	looks	11	preview	15	3	379	0	0	0	0	379
4	3	set	set	set	11	preview	15	4	0	0	0	0	0	0
5	4	to	to	to	11	preview	15	5	336	0	0	0	0	336
6	5	be	be	be	11	preview	15	6	0	0	0	0	0	0
7	6	ruled	ruled	ruled	11	preview	15	7	0	0	0	0	0	0
8	7	out	out	out	11	preview	15	8	162	162	739	162	162	0
9	8	of	of	of	11	preview	15	9	0	0	0	0	0	0
10	9	@entity2	Arsenal	Arsenal-s	11	preview	15	10	405	270	270	270	270	135
	10	’s	’s		11	preview	15	11						
11	11	derby	derby	derby	11	preview	15	12	0	0	0	0	0	0
12	12	against	against	against	11	preview	15	13	153	153	288	153	153	0
13	13	@entity3	Chelsea	Chelsea	11	preview	15	14	117	117	117	117	117	0
14	14	although	although	although	11	preview	15	15	157	0	0	0	0	157
15	15	the	the	the	11	preview	15	16	119	119	276	119	119	0
16	16	defender	defender	defender	11	preview	15	17	0	0	0	0	0	0
17	17	has	has	has	11	preview	15	18	167	0	0	0	0	167
18	18	escaped	escaped	escaped	11	preview	15	19	167	0	0	0	0	167
19	19	any	any	any	11	preview	15	20	175	0	0	0	0	175
20	20	serious	serious	serious	11	preview	15	21	259	259	259	259	259	0
21	21	ankle	ankle	ankle	11	preview	15	22	0	0	0	0	0	0
22	22	ligament	ligament	ligament	11	preview	15	23	203	203	203	203	203	0
23	23	damage	damage	damage.	11	preview	15	24	273	131	640	131	131	142
	24	.	.		11	preview	15	25						
24	25	@entity0	Mertesacker	Mertesacker,	11	preview	15	26	1261	302	1796	172	1261	959
	26	,	,		11	preview	15	27						
25	27	captain	captain	captain	11	preview	15	28	719	719	719	123	719	0
26	28	during	during	during	11	preview	15	29	266	266	266	266	266	0
27	29	the	the	the	11	preview	15	30	0	0	0	0	0	0
28	30	long	long	long	11	preview	15	31	242	242	242	242	242	0
29	31	absence	absence	absence	11	preview	15	32	161	161	161	161	161	0
30	32	of	of	of	11	preview	15	33	0	0	0	0	0	0
31	33	@entity8	Mikel	Mikel	11	preview	15	34	210	210	210	210	210	0
32			Arteta	Arteta,	11	preview	15	35	285	285	285	285	285	0
	34	,	,		11	preview	15	36						
33	35	limped	limped	limped	11	preview	15	37	0	0	0	0	0	0
34	36	off	off	off	11	preview	15	38	170	170	170	170	170	0
35	37	during	during	during	11	preview	15	39	0	0	0	0	0	0
36	38	the	the	the	11	preview	15	40	176	176	176	176	176	0
37	39	second	second	second	11	preview	15	41	0	0	0	0	0	0
38	40	half	half	half	11	preview	15	42	224	224	224	224	224	0
39	41	of	of	of	11	preview	15	43	0	0	0	0	0	0
40	42	the	the	the	11	preview	15	44	0	0	0	0	0	0
41	43	@entity10	FA	FA	11	preview	15	45	162	0	0	0	0	162
42			Cup	Cup	11	preview	15	46	140	140	302	140	140	0
43	44	semi-final	semi-final	semi-final	11	preview	15	47	0	0	0	0	0	0
44	45	against	against	against	11	preview	15	48	0	0	7559	0	0	0
45	46	@entity12	Reading	Reading	11	preview	15	49	0	0	0	0	0	0
46	47	at	at	at	11	preview	15	50	181	181	181	181	181	0
47	48	@entity13	Wembley	Wembley	11	preview	15	51	147	147	147	147	147	0
48	49	on	on	on	11	preview	15	52	0	0	0	0	0	0
49	50	Saturday	Saturday	Saturday.	11	preview	15	53	0	0	0	0	0	0
	51	.	.		11	preview	15	54						
50	52	There	There	There	11	preview	15	55	158	158	158	158	158	0
51	53	were	were	were	11	preview	15	56	0	0	0	0	0	0
52	54	fears	fears	fears	11	preview	15	57	198	198	198	198	198	0
53	55	of	of	of	11	preview	15	58	0	0	0	0	0	0
54	56	a	a	a	11	preview	15	59	0	0	0	0	0	0
55	57	serious	serious	serious	11	preview	15	60	229	0	0	0	0	229
56	58	injury	injury	injury	11	preview	15	61	118	118	347	118	118	0
57	59	for	for	for	11	preview	15	62	189	0	0	0	0	189
58	60	the	the	the	11	preview	15	63	263	263	452	263	263	0
59	61	6ft	6ft	6ft	11	preview	15	64	0	0	0	0	0	0
60	62	6in	6in	6in	11	preview	15	65	226	226	226	226	226	0
61	63	@entity17	German	German	11	preview	15	66	173	173	173	173	173	0
62	64	after	after	after	11	preview	15	67	167	0	0	0	0	167
63	65	he	he	he	11	preview	15	68	0	0	0	0	0	0
64	66	twisted	twisted	twisted	11	preview	15	69	411	153	578	153	411	258
65	67	the	the	the	11	preview	15	70	0	0	0	0	0	0
66	68	joint	joint	joint	11	preview	15	71	392	392	392	207	392	0
67	69	but	but	but	11	preview	15	72	0	0	0	0	0	0
68	70	subsequent	subsequent	subsequent	11	preview	15	73	396	396	396	204	396	0
69	71	scans	scans	scans	11	preview	15	74	0	0	0	0	0	0
70	72	have	have	have	11	preview	15	75	154	0	0	0	0	154
71	73	shown	shown	shown	11	preview	15	76	131	131	285	131	131	0
72	74	it	it	it	11	preview	15	77	0	0	0	0	0	0
73	75	is	is	is	11	preview	15	78	0	0	0	0	0	0
74	76	a	a	a	11	preview	15	79	203	203	203	203	203	0
75	77	minor	minor	minor	11	preview	15	80	0	0	0	0	0	0
76	78	sprain	sprain	sprain.	11	preview	15	81	235	235	235	235	235	0
	79	.	.		11	preview	15	82						
77	80	Per	Per	He	11	preview	15	83	196	196	196	196	196	0
78	81	@entity0	Mertesacker	is	11	preview	15	84	0	0	0	0	0	0
	82	will	will		11	preview	15	85						
79	83	miss	miss	not	11	preview	15	86	0	0	0	0	0	0
	84	@entity2	Arsenal		11	preview	15	87						
	85	-s	-s		11	preview	15	88						
80	86	visit	visit	expected	11	preview	15	89	452	452	452	216	452	0
	87	by	by		11	preview	15	90						
	88	@entity3	Chelsea		11	preview	15	91						
	89	on	on		11	preview	15	92						
	90	Sunday	Sunday		11	preview	15	93						
	91	due	due		11	preview	15	94						
	92	to	to		11	preview	15	95						
	93	an	an		11	preview	15	96						
	94	ankle	ankle		11	preview	15	97						
	95	injury	injury		11	preview	15	98						
	96	The	The		11	preview	15	99						
	97	stand	stand		11	preview	15	100						
	98	-	-		11	preview	15	101						
	99	in	in		11	preview	15	102						
	100	Gunners	Gunners		11	preview	15	103						
	101	captain	captain		11	preview	15	104						
	102	went	went		11	preview	15	105						
	103	down	down		11	preview	15	106						
	104	in	in		11	preview	15	107						
	105	@entity2	Arsenal		11	preview	15	108						
	106	-s	-s		11	preview	15	109						
	107	@entity10	FA		11	preview	15	110						
			Cup		11	preview	15	111						
	108	semi-final	semi-final		11	preview	15	112						
	109	win	win		11	preview	15	113						
	110	over	over		11	preview	15	114						
	111	@entity12	Reading		11	preview	15	115						
	112	on	on		11	preview	15	116						
	113	Saturday	Saturday		11	preview	15	117						
	114	He	He		11	preview	15	118						
	115	is	is		11	preview	15	119						
	116	not	not		11	preview	15	120						
	117	expected	expected		11	preview	15	121						
81	118	to	to	to	11	preview	15	122	0	0	0	0	0	0
82	119	be	be	be	11	preview	15	123	0	0	0	0	0	0
83	120	fit	fit	fit	11	preview	15	124	201	201	201	201	201	0
84	121	in	in	in	11	preview	15	125	0	0	0	0	0	0
85	122	time	time	time	11	preview	15	126	0	0	0	0	0	0
86	123	for	for	for	11	preview	15	127	184	184	184	184	184	0
87	124	Sunday	Sunday	Sunday,	11	preview	15	128	138	138	138	138	138	0
	125	,	,		11	preview	15	129						
88	126	however	however	however,	11	preview	15	130	267	267	267	267	267	0
	127	,	,		11	preview	15	131						
89	128	and	and	and	11	preview	15	132	0	0	0	0	0	0
90	129	likely	likely	likely	11	preview	15	133	162	162	162	162	162	0
91	130	to	to	to	11	preview	15	134	0	0	0	0	0	0
92	131	be	be	be	11	preview	15	135	0	0	0	0	0	0
93	132	replaced	replaced	replaced	11	preview	15	136	249	249	249	249	249	0
94	133	at	at	at	11	preview	15	137	0	0	0	0	0	0
95	134	centre	centre	centre-half	11	preview	15	138	468	468	468	316	468	0
	135	-	-		11	preview	15	139						
	136	half	half		11	preview	15	140						
96	137	by	by	by	11	preview	15	141	0	0	0	0	0	0
97	138	@entity26	Gabriel	Gabriel	11	preview	15	142	283	283	283	283	283	0
98			Paulista	Paulista,	11	preview	15	143	0	0	0	0	0	0
	139	,	,		11	preview	15	144						
99	140	who	who	who	11	preview	15	145	149	149	149	149	149	0
100	141	has	has	has	11	preview	15	146	189	189	189	189	189	0
101	142	started	started	started	11	preview	15	147	286	0	0	0	0	286
102	143	three	three	three	11	preview	15	148	247	122	533	122	247	125
103	144	times	times	times	11	preview	15	149	166	166	166	166	166	0
104	145	in	in	in	11	preview	15	150	0	0	0	0	0	0
105	146	the	the	the	11	preview	15	151	0	0	0	0	0	0
106	147	@entity28	Barclays	Barclays	11	preview	15	152	194	194	194	194	194	0
107			Premier	Premier	11	preview	15	153	305	305	305	305	305	0
108			League	League	11	preview	15	154	0	0	0	0	0	0
109	148	since	since	since	11	preview	15	155	0	0	0	0	0	0
110	149	he	he	he	11	preview	15	156	194	194	194	194	194	0
111	150	was	was	was	11	preview	15	157	0	0	0	0	0	0
112	151	signed	signed	signed	11	preview	15	158	195	195	195	195	195	0
113	152	in	in	in	11	preview	15	159	0	0	0	0	0	0
114	153	January	January	January	11	preview	15	160	341	341	341	182	341	0
115	154	from	from	from	11	preview	15	161	200	200	200	200	200	0
116	155	@entity29	Villarreal	Villarreal.	11	preview	15	162	219	219	219	219	219	0
	156	.	.		11	preview	15	163						
117	157	@entity3	Chelsea	Chelsea	11	preview	15	164	527	527	527	527	527	0
118	158	come	come	come	11	preview	15	165	240	240	240	240	240	0
119	159	into	into	into	11	preview	15	166	0	0	0	0	0	0
120	160	the	the	the	11	preview	15	167	215	215	215	215	215	0
121	161	match	match	match	11	preview	15	168	175	175	175	175	175	0
122	162	with	with	with	11	preview	15	169	0	0	0	0	0	0
123	163	a	a	a	11	preview	15	170	0	0	0	0	0	0
124	164	10	10	10-point	11	preview	15	171	425	425	425	214	425	0
	165	-	-		11	preview	15	172						
	166	point	point		11	preview	15	173						
125	167	lead	lead	lead	11	preview	15	174	154	154	154	154	154	0
126	168	over	over	over	11	preview	15	175	0	0	0	0	0	0
127	169	their	their	their	11	preview	15	176	0	0	0	0	0	0
128	170	@entity33	London	London	11	preview	15	177	317	317	317	158	317	0
129	171	rivals	rivals	rivals	11	preview	15	178	0	0	0	0	0	0
130	172	and	and	and	11	preview	15	179	190	0	0	0	0	190
131	173	will	will	will	11	preview	15	180	0	0	0	0	0	0
132	174	need	need	need	11	preview	15	181	205	0	0	0	0	205
133	175	to	to	to	11	preview	15	182	0	0	0	0	0	0
134	176	capitulate	capitulate	capitulate	11	preview	15	183	877	0	0	0	0	877
135	177	in	in	in	11	preview	15	184	0	0	0	0	0	0
136	178	spectacular	spectacular	spectacular	11	preview	15	185	226	0	0	0	0	226
137	179	fashion	fashion	fashion	11	preview	15	186	0	0	0	0	0	0
138	180	to	to	to	11	preview	15	187	0	0	0	0	0	0
139	181	not	not	not	11	preview	15	188	0	0	0	0	0	0
140	182	take	take	take	11	preview	15	189	243	243	1741	243	243	0
141	183	the	the	the	11	preview	15	190	0	0	0	0	0	0
142	184	@entity28	Premier	Premier	11	preview	15	191	0	0	0	0	0	0
143			League	League	11	preview	15	192	143	0	0	0	0	143
144	185	title	title	title.	11	preview	15	193	137	0	0	0	0	137
	186	.	.		11	preview	15	194						
145	187	Second	Second	Second-placed	11	preview	15	195	662	0	0	0	0	662
	188	-	-		11	preview	15	196						
	189	placed	placed		11	preview	15	197						
146	190	@entity2	Arsenal	Arsenal,	11	preview	15	198	0	0	0	0	0	0
	191	,	,		11	preview	15	199						
147	192	on	on	on	11	preview	15	200	158	0	0	0	0	158
148	193	66	66	66	11	preview	15	201	0	0	0	0	0	0
149	194	points	points	points,	11	preview	15	202	318	0	0	0	0	318
	195	,	,		11	preview	15	203						
150	196	lead	lead	lead	11	preview	15	204	422	422	576	264	422	0
151	197	@entity38	Manchester	Manchester	11	preview	15	205	245	245	245	245	245	0
152			United	United	11	preview	15	206	155	155	155	155	155	0
153	198	on	on	on	11	preview	15	207	0	0	0	0	0	0
154	199	65	65	65	11	preview	15	208	236	236	1500	236	236	0
155	200	and	and	and	11	preview	15	209	0	0	0	0	0	0
156	201	@entity39	Manchester	Manchester	11	preview	15	210	0	0	0	0	0	0
157			City	City	11	preview	15	211	0	0	0	0	0	0
158	202	on	on	on	11	preview	15	212	0	0	0	0	0	0
159	203	64	64	64.	11	preview	15	213	0	0	0	0	0	0
	204	.	.		11	preview	15	214						
