HumanPosition	AnonymizedPosition	AnonymizedToken	OriginalToken	ExperimentToken	JointPosition	ExperimentTokenLength	IsNamedEntity	OccursInQuestion	IsCorrectAnswer	POS.PTB	POS.Universal	PositionInHumanSentence	OccurrencesOfCorrectAnswerSoFar	IsFirstInLine	WordFreq
1	0	Per	Per	Per	1	3	FALSE	FALSE	FALSE	NNP	NOUN	1	0	FALSE	29171
2	1	@entity0	Mertesacker	Mertesacker	2	11	TRUE	FALSE	TRUE	NNP	NOUN	2	1	FALSE	883763
3	2	looks	looks	looks	3	5	FALSE	FALSE	FALSE	VBZ	VERB	3	1	FALSE	22171
4	3	set	set	set	4	3	FALSE	FALSE	FALSE	VBN	VERB	4	1	FALSE	115482
5	4	to	to	to	5	2	FALSE	FALSE	FALSE	TO	PRT	5	1	FALSE	7098918
6	5	be	be	be	6	2	FALSE	FALSE	FALSE	VB	VERB	6	1	FALSE	1098369
7	6	ruled	ruled	ruled	7	5	FALSE	FALSE	FALSE	VBN	VERB	7	1	FALSE	19360
8	7	out	out	out	8	3	FALSE	FALSE	FALSE	IN	ADP	8	1	FALSE	471115
9	8	of	of	of	9	2	FALSE	FALSE	FALSE	IN	ADP	9	1	FALSE	6085230
10	9	@entity2	Arsenal	Arsenal-s	10	8	TRUE	FALSE	FALSE	NNP	NOUN	10	1	FALSE	964115
	10	’s	’s		11		FALSE	FALSE	FALSE	NNP	NOUN		1		
11	11	derby	derby	derby	12	5	FALSE	FALSE	FALSE	NN	NOUN	11	1	FALSE	2249
12	12	against	against	against	13	7	FALSE	FALSE	FALSE	IN	ADP	12	1	FALSE	250508
13	13	@entity3	Chelsea	Chelsea	14	7	TRUE	FALSE	FALSE	NNP	NOUN	13	1	FALSE	864358
14	14	although	although	although	15	8	FALSE	FALSE	FALSE	IN	ADP	14	1	TRUE	46266
15	15	the	the	the	16	3	FALSE	FALSE	FALSE	DT	DET	15	1	FALSE	15221601
16	16	defender	defender	defender	17	8	FALSE	FALSE	FALSE	NN	NOUN	16	1	FALSE	15433
17	17	has	has	has	18	3	FALSE	FALSE	FALSE	VBZ	VERB	17	1	FALSE	1077804
18	18	escaped	escaped	escaped	19	7	FALSE	FALSE	FALSE	VBN	VERB	18	1	FALSE	6409
19	19	any	any	any	20	3	FALSE	FALSE	FALSE	DT	DET	19	1	FALSE	215758
20	20	serious	serious	serious	21	7	FALSE	FALSE	FALSE	JJ	ADJ	20	1	FALSE	37220
21	21	ankle	ankle	ankle	22	5	FALSE	TRUE	FALSE	NN	NOUN	21	1	FALSE	2699
22	22	ligament	ligament	ligament	23	8	FALSE	FALSE	FALSE	NN	NOUN	22	1	FALSE	535
23	23	damage	damage	damage.	24	6	FALSE	FALSE	FALSE	NN	NOUN	23	1	FALSE	23408
	24	.	.		25		FALSE	FALSE	FALSE	.	.		1		11777614
24	25	@entity0	Mertesacker	Mertesacker,	26	11	TRUE	FALSE	TRUE	NNP	NOUN	1	2	FALSE	883763
	26	,	,		27		FALSE	FALSE	FALSE	,	.		2		13601952
25	27	captain	captain	captain	28	7	FALSE	FALSE	FALSE	NN	NOUN	2	2	TRUE	21915
26	28	during	during	during	29	6	FALSE	FALSE	FALSE	IN	ADP	3	2	FALSE	188532
27	29	the	the	the	30	3	FALSE	FALSE	FALSE	DT	DET	4	2	FALSE	15221601
28	30	long	long	long	31	4	FALSE	FALSE	FALSE	JJ	ADJ	5	2	FALSE	147691
29	31	absence	absence	absence	32	7	FALSE	FALSE	FALSE	NN	NOUN	6	2	FALSE	7443
30	32	of	of	of	33	2	FALSE	FALSE	FALSE	IN	ADP	7	2	FALSE	6085230
31	33	@entity8	Mikel	Mikel	34	5	TRUE	FALSE	FALSE	NNP	NOUN	8	2	FALSE	446730
32			Arteta	Arteta,	35	6	TRUE	FALSE	FALSE	NNP	NOUN	9	2	FALSE	
	34	,	,		36		FALSE	FALSE	FALSE	,	.		2		13601952
33	35	limped	limped	limped	37	6	FALSE	FALSE	FALSE	VBD	VERB	10	2	FALSE	481
34	36	off	off	off	38	3	FALSE	FALSE	FALSE	RP	PRT	11	2	FALSE	185868
35	37	during	during	during	39	6	FALSE	FALSE	FALSE	IN	ADP	12	2	FALSE	188532
36	38	the	the	the	40	3	FALSE	FALSE	FALSE	DT	DET	13	2	FALSE	15221601
37	39	second	second	second	41	6	FALSE	FALSE	FALSE	JJ	ADJ	14	2	FALSE	155444
38	40	half	half	half	42	4	FALSE	FALSE	FALSE	NN	NOUN	15	2	FALSE	77320
39	41	of	of	of	43	2	FALSE	FALSE	FALSE	IN	ADP	16	2	FALSE	6085230
40	42	the	the	the	44	3	FALSE	FALSE	FALSE	DT	DET	17	2	TRUE	15221601
41	43	@entity10	FA	FA	45	2	TRUE	TRUE	FALSE	NNP	NOUN	18	2	FALSE	386283
42			Cup	Cup	46	3	TRUE	TRUE	FALSE	NNP	NOUN	19	2	FALSE	
43	44	semi-final	semi-final	semi-final	47	9	FALSE	TRUE	FALSE	JJ	ADJ	20	2	FALSE	407
44	45	against	against	against	48	7	FALSE	FALSE	FALSE	IN	ADP	21	2	FALSE	250508
45	46	@entity12	Reading	Reading	49	7	TRUE	FALSE	FALSE	VBG	VERB	22	2	FALSE	320043
46	47	at	at	at	50	2	FALSE	TRUE	FALSE	IN	ADP	23	2	FALSE	1249542
47	48	@entity13	Wembley	Wembley	51	7	TRUE	TRUE	FALSE	NNP	NOUN	24	2	FALSE	299921
48	49	on	on	on	52	2	FALSE	FALSE	FALSE	IN	ADP	25	2	FALSE	2085421
49	50	Saturday	Saturday	Saturday.	53	8	FALSE	FALSE	FALSE	NNP	NOUN	26	2	FALSE	95219
	51	.	.		54		FALSE	FALSE	FALSE	.	.		2		11777614
50	52	There	There	There	55	5	FALSE	FALSE	FALSE	EX	DET	1	2	FALSE	559132
51	53	were	were	were	56	4	FALSE	FALSE	FALSE	VBD	VERB	2	2	FALSE	692942
52	54	fears	fears	fears	57	5	FALSE	FALSE	FALSE	NNS	NOUN	3	2	FALSE	12226
53	55	of	of	of	58	2	FALSE	FALSE	FALSE	IN	ADP	4	2	FALSE	6085230
54	56	a	a	a	59	1	FALSE	FALSE	FALSE	DT	DET	5	2	FALSE	6026258
55	57	serious	serious	serious	60	7	FALSE	FALSE	FALSE	JJ	ADJ	6	2	TRUE	37220
56	58	injury	injury	injury	61	6	FALSE	FALSE	FALSE	NN	NOUN	7	2	FALSE	26259
57	59	for	for	for	62	3	FALSE	FALSE	FALSE	IN	ADP	8	2	FALSE	2332393
58	60	the	the	the	63	3	FALSE	FALSE	FALSE	DT	DET	9	2	FALSE	15221601
59	61	6ft	6ft	6ft	64	3	FALSE	FALSE	FALSE	CD	NUM	10	2	FALSE	52
60	62	6in	6in	6in	65	3	FALSE	FALSE	FALSE	CD	NUM	11	2	FALSE	10
61	63	@entity17	German	German	66	6	TRUE	FALSE	FALSE	JJ	ADJ	12	2	FALSE	217120
62	64	after	after	after	67	5	FALSE	FALSE	FALSE	IN	ADP	13	2	FALSE	594391
63	65	he	he	he	68	2	FALSE	FALSE	FALSE	PRP	PRON	14	2	FALSE	1891515
64	66	twisted	twisted	twisted	69	7	FALSE	TRUE	FALSE	VBD	VERB	15	2	FALSE	1577
65	67	the	the	the	70	3	FALSE	FALSE	FALSE	DT	DET	16	2	FALSE	15221601
66	68	joint	joint	joint	71	5	FALSE	FALSE	FALSE	JJ	ADJ	17	2	FALSE	14095
67	69	but	but	but	72	3	FALSE	FALSE	FALSE	CC	CONJ	18	2	FALSE	1122520
68	70	subsequent	subsequent	subsequent	73	10	FALSE	FALSE	FALSE	JJ	ADJ	19	2	FALSE	5884
69	71	scans	scans	scans	74	5	FALSE	FALSE	FALSE	NNS	NOUN	20	2	FALSE	965
70	72	have	have	have	75	4	FALSE	FALSE	FALSE	VBP	VERB	21	2	TRUE	1210008
71	73	shown	shown	shown	76	5	FALSE	FALSE	FALSE	VBN	VERB	22	2	FALSE	17015
72	74	it	it	it	77	2	FALSE	FALSE	FALSE	PRP	PRON	23	2	FALSE	2035994
73	75	is	is	is	78	2	FALSE	FALSE	FALSE	VBZ	VERB	24	2	FALSE	2253480
74	76	a	a	a	79	1	FALSE	FALSE	FALSE	DT	DET	25	2	FALSE	6026258
75	77	minor	minor	minor	80	5	FALSE	FALSE	FALSE	JJ	ADJ	26	2	FALSE	8050
76	78	sprain	sprain	sprain.	81	6	FALSE	FALSE	FALSE	NN	NOUN	27	2	FALSE	78
	79	.	.		82		FALSE	FALSE	FALSE	.	.		2		11777614
77	80	Per	Per	He	83	2	FALSE	FALSE	FALSE	NNP	NOUN	1	2	FALSE	29171
78	81	@entity0	Mertesacker	is	84	2	TRUE	FALSE	TRUE	NNP	NOUN	2	3	FALSE	883763
	82	will	will		85		FALSE	FALSE	FALSE	MD	VERB		3		744145
79	83	miss	miss	not	86	3	FALSE	FALSE	FALSE	VB	VERB	3	3	FALSE	13574
	84	@entity2	Arsenal		87		TRUE	FALSE	FALSE	NNP	NOUN		3		964115
	85	-s	-s		88		FALSE	FALSE	FALSE	POS	PRT		3		3249897
80	86	visit	visit	expected	89	8	FALSE	FALSE	FALSE	NN	NOUN	4	3	FALSE	45759
	87	by	by		90		FALSE	FALSE	FALSE	IN	ADP		3		1058023
	88	@entity3	Chelsea		91		TRUE	FALSE	FALSE	NNP	NOUN		3		864358
	89	on	on		92		FALSE	FALSE	FALSE	IN	ADP		3		2085421
	90	Sunday	Sunday		93		FALSE	FALSE	FALSE	NNP	NOUN		3		117252
	91	due	due		94		FALSE	FALSE	FALSE	JJ	ADJ		3		37274
	92	to	to		95		FALSE	FALSE	FALSE	TO	PRT		3		7098918
	93	an	an		96		FALSE	FALSE	FALSE	DT	DET		3		963468
	94	ankle	ankle		97		FALSE	TRUE	FALSE	JJ	ADJ		3		2699
	95	injury	injury		98		FALSE	FALSE	FALSE	NN	NOUN		3		26259
	96	The	The		99		FALSE	FALSE	FALSE	DT	DET		3		15221601
	97	stand	stand		100		FALSE	FALSE	FALSE	NN	NOUN		3		35531
	98	-	-		101		FALSE	FALSE	FALSE	:	.		3		2168741
	99	in	in		102		FALSE	TRUE	FALSE	IN	ADP		3		5656514
	100	Gunners	Gunners		103		FALSE	FALSE	FALSE	NNP	NOUN		3		78
	101	captain	captain		104		FALSE	FALSE	FALSE	VBP	VERB		3		21915
	102	went	went		105		FALSE	FALSE	FALSE	VBD	VERB		3		90958
	103	down	down		106		FALSE	FALSE	FALSE	RB	ADV		3		177572
	104	in	in		107		FALSE	TRUE	FALSE	IN	ADP		3		5656514
	105	@entity2	Arsenal		108		TRUE	FALSE	FALSE	NNP	NOUN		3		964115
	106	-s	-s		109		FALSE	FALSE	FALSE	POS	PRT		3		3249897
	107	@entity10	FA		110		TRUE	TRUE	FALSE	NNP	NOUN		3		386283
			Cup		111		TRUE	TRUE	FALSE	NNP	NOUN		3		
	108	semi-final	semi-final		112		FALSE	TRUE	FALSE	JJ	ADJ		3		407
	109	win	win		113		FALSE	FALSE	FALSE	NN	NOUN		3		115355
	110	over	over		114		FALSE	FALSE	FALSE	IN	ADP		3		355380
	111	@entity12	Reading		115		TRUE	FALSE	FALSE	VBG	VERB		3		320043
	112	on	on		116		FALSE	FALSE	FALSE	IN	ADP		3		2085421
	113	Saturday	Saturday		117		FALSE	FALSE	FALSE	NNP	NOUN		3		95219
	114	He	He		118		FALSE	FALSE	FALSE	PRP	PRON		3		1891515
	115	is	is		119		FALSE	FALSE	FALSE	VBZ	VERB		3		2253480
	116	not	not		120		FALSE	FALSE	FALSE	RB	ADV		3		995841
	117	expected	expected		121		FALSE	FALSE	FALSE	VBN	VERB		3		56495
81	118	to	to	to	122	2	FALSE	FALSE	FALSE	TO	PRT	5	3	FALSE	7098918
82	119	be	be	be	123	2	FALSE	FALSE	FALSE	VB	VERB	6	3	FALSE	1098369
83	120	fit	fit	fit	124	3	FALSE	FALSE	FALSE	VBN	VERB	7	3	FALSE	12068
84	121	in	in	in	125	2	FALSE	TRUE	FALSE	IN	ADP	8	3	FALSE	5656514
85	122	time	time	time	126	4	FALSE	FALSE	FALSE	NN	NOUN	9	3	FALSE	413319
86	123	for	for	for	127	3	FALSE	FALSE	FALSE	IN	ADP	10	3	FALSE	2332393
87	124	Sunday	Sunday	Sunday,	128	6	FALSE	FALSE	FALSE	NNP	NOUN	11	3	FALSE	117252
	125	,	,		129		FALSE	FALSE	FALSE	,	.		3		13601952
88	126	however	however	however,	130	7	FALSE	FALSE	FALSE	RB	ADV	12	3	TRUE	82463
	127	,	,		131		FALSE	FALSE	FALSE	,	.		3		13601952
89	128	and	and	and	132	3	FALSE	FALSE	FALSE	CC	CONJ	13	3	FALSE	6091732
90	129	likely	likely	likely	133	6	FALSE	FALSE	FALSE	JJ	ADJ	14	3	FALSE	56031
91	130	to	to	to	134	2	FALSE	FALSE	FALSE	TO	PRT	15	3	FALSE	7098918
92	131	be	be	be	135	2	FALSE	FALSE	FALSE	VB	VERB	16	3	FALSE	1098369
93	132	replaced	replaced	replaced	136	8	FALSE	FALSE	FALSE	VBN	VERB	17	3	FALSE	8958
94	133	at	at	at	137	2	FALSE	TRUE	FALSE	IN	ADP	18	3	FALSE	1249542
95	134	centre	centre	centre-half	138	10	FALSE	FALSE	FALSE	SYM	X	19	3	FALSE	549
	135	-	-		139		FALSE	FALSE	FALSE	:	.		3		2168741
	136	half	half		140		FALSE	FALSE	FALSE	NN	NOUN		3		77320
96	137	by	by	by	141	2	FALSE	FALSE	FALSE	IN	ADP	20	3	FALSE	1058023
97	138	@entity26	Gabriel	Gabriel	142	7	TRUE	FALSE	FALSE	NNP	NOUN	21	3	FALSE	149261
98			Paulista	Paulista,	143	8	TRUE	FALSE	FALSE	NNP	NOUN	22	3	FALSE	
	139	,	,		144		FALSE	FALSE	FALSE	,	.		3		13601952
99	140	who	who	who	145	3	FALSE	FALSE	FALSE	WP	PRON	23	3	FALSE	867812
100	141	has	has	has	146	3	FALSE	FALSE	FALSE	VBZ	VERB	24	3	FALSE	1077804
101	142	started	started	started	147	7	FALSE	FALSE	FALSE	VBN	VERB	25	3	TRUE	66078
102	143	three	three	three	148	5	FALSE	FALSE	FALSE	CD	NUM	26	3	FALSE	227398
103	144	times	times	times	149	5	FALSE	FALSE	FALSE	NNS	NOUN	27	3	FALSE	71231
104	145	in	in	in	150	2	FALSE	TRUE	FALSE	IN	ADP	28	3	FALSE	5656514
105	146	the	the	the	151	3	FALSE	FALSE	FALSE	DT	DET	29	3	FALSE	15221601
106	147	@entity28	Barclays	Barclays	152	8	TRUE	FALSE	FALSE	NNP	NOUN	30	3	FALSE	140878
107			Premier	Premier	153	7	TRUE	FALSE	FALSE	NNP	NOUN	31	3	FALSE	
108			League	League	154	6	TRUE	FALSE	FALSE	NNP	NOUN	32	3	FALSE	
109	148	since	since	since	155	5	FALSE	FALSE	FALSE	IN	ADP	33	3	FALSE	199866
110	149	he	he	he	156	2	FALSE	FALSE	FALSE	PRP	PRON	34	3	FALSE	1891515
111	150	was	was	was	157	3	FALSE	FALSE	FALSE	VBD	VERB	35	3	FALSE	1968273
112	151	signed	signed	signed	158	6	FALSE	FALSE	FALSE	VBN	VERB	36	3	FALSE	28234
113	152	in	in	in	159	2	FALSE	TRUE	FALSE	IN	ADP	37	3	FALSE	5656514
114	153	January	January	January	160	7	FALSE	FALSE	FALSE	NNP	NOUN	38	3	FALSE	46695
115	154	from	from	from	161	4	FALSE	FALSE	FALSE	IN	ADP	39	3	TRUE	1158086
116	155	@entity29	Villarreal	Villarreal.	162	10	TRUE	FALSE	FALSE	NNP	NOUN	40	3	FALSE	135477
	156	.	.		163		FALSE	FALSE	FALSE	.	.		3		11777614
117	157	@entity3	Chelsea	Chelsea	164	7	TRUE	FALSE	FALSE	NNP	NOUN	1	3	FALSE	864358
118	158	come	come	come	165	4	FALSE	FALSE	FALSE	VBP	VERB	2	3	FALSE	126254
119	159	into	into	into	166	4	FALSE	FALSE	FALSE	IN	ADP	3	3	FALSE	350851
120	160	the	the	the	167	3	FALSE	FALSE	FALSE	DT	DET	4	3	FALSE	15221601
121	161	match	match	match	168	5	FALSE	FALSE	FALSE	NN	NOUN	5	3	FALSE	74110
122	162	with	with	with	169	4	FALSE	FALSE	FALSE	IN	ADP	6	3	FALSE	1730692
123	163	a	a	a	170	1	FALSE	FALSE	FALSE	DT	DET	7	3	FALSE	6026258
124	164	10	10	10-point	171	7	FALSE	FALSE	FALSE	CD	NUM	8	3	FALSE	109006
	165	-	-		172		FALSE	FALSE	FALSE	:	.		3		2168741
	166	point	point		173		FALSE	FALSE	FALSE	NN	NOUN		3		85453
125	167	lead	lead	lead	174	4	FALSE	FALSE	FALSE	NN	NOUN	9	3	FALSE	67670
126	168	over	over	over	175	4	FALSE	FALSE	FALSE	IN	ADP	10	3	FALSE	355380
127	169	their	their	their	176	5	FALSE	FALSE	FALSE	PRP$	PRON	11	3	FALSE	683887
128	170	@entity33	London	London	177	6	TRUE	FALSE	FALSE	NNP	NOUN	12	3	FALSE	122864
129	171	rivals	rivals	rivals	178	6	FALSE	FALSE	FALSE	NNS	NOUN	13	3	TRUE	15823
130	172	and	and	and	179	3	FALSE	FALSE	FALSE	CC	CONJ	14	3	FALSE	6091732
131	173	will	will	will	180	4	FALSE	FALSE	FALSE	MD	VERB	15	3	FALSE	744145
132	174	need	need	need	181	4	FALSE	FALSE	FALSE	VB	VERB	16	3	FALSE	116367
133	175	to	to	to	182	2	FALSE	FALSE	FALSE	TO	PRT	17	3	FALSE	7098918
134	176	capitulate	capitulate	capitulate	183	10	FALSE	FALSE	FALSE	VB	VERB	18	3	FALSE	76
135	177	in	in	in	184	2	FALSE	TRUE	FALSE	IN	ADP	19	3	FALSE	5656514
136	178	spectacular	spectacular	spectacular	185	11	FALSE	FALSE	FALSE	JJ	ADJ	20	3	FALSE	6322
137	179	fashion	fashion	fashion	186	7	FALSE	FALSE	FALSE	NN	NOUN	21	3	FALSE	15783
138	180	to	to	to	187	2	FALSE	FALSE	FALSE	TO	PRT	22	3	FALSE	7098918
139	181	not	not	not	188	3	FALSE	FALSE	FALSE	RB	ADV	23	3	FALSE	995841
140	182	take	take	take	189	4	FALSE	FALSE	FALSE	VB	VERB	24	3	FALSE	179341
141	183	the	the	the	190	3	FALSE	FALSE	FALSE	DT	DET	25	3	FALSE	15221601
142	184	@entity28	Premier	Premier	191	7	TRUE	FALSE	FALSE	NNP	NOUN	26	3	FALSE	140878
143			League	League	192	6	TRUE	FALSE	FALSE	NNP	NOUN	27	3	TRUE	
144	185	title	title	title.	193	5	FALSE	FALSE	FALSE	NN	NOUN	28	3	FALSE	49789
	186	.	.		194		FALSE	FALSE	FALSE	.	.		3		11777614
145	187	Second	Second	Second-placed	195	12	FALSE	FALSE	FALSE	JJ	ADJ	1	3	FALSE	155444
	188	-	-		196		FALSE	FALSE	FALSE	:	.		3		2168741
	189	placed	placed		197		FALSE	FALSE	FALSE	VBN	VERB		3		25779
146	190	@entity2	Arsenal	Arsenal,	198	7	TRUE	FALSE	FALSE	NNP	NOUN	2	3	FALSE	964115
	191	,	,		199		FALSE	FALSE	FALSE	,	.		3		13601952
147	192	on	on	on	200	2	FALSE	FALSE	FALSE	IN	ADP	3	3	FALSE	2085421
148	193	66	66	66	201	2	FALSE	FALSE	FALSE	CD	NUM	4	3	FALSE	4321
149	194	points	points	points,	202	6	FALSE	FALSE	FALSE	NNS	NOUN	5	3	FALSE	63458
	195	,	,		203		FALSE	FALSE	FALSE	,	.		3		13601952
150	196	lead	lead	lead	204	4	FALSE	FALSE	FALSE	JJ	ADJ	6	3	FALSE	67670
151	197	@entity38	Manchester	Manchester	205	10	TRUE	FALSE	FALSE	NNP	NOUN	7	3	FALSE	112703
152			United	United	206	6	TRUE	FALSE	FALSE	NNP	NOUN	8	3	FALSE	
153	198	on	on	on	207	2	FALSE	FALSE	FALSE	IN	ADP	9	3	FALSE	2085421
154	199	65	65	65	208	2	FALSE	FALSE	FALSE	CD	NUM	10	3	FALSE	7244
155	200	and	and	and	209	3	FALSE	FALSE	FALSE	CC	CONJ	11	3	FALSE	6091732
156	201	@entity39	Manchester	Manchester	210	10	TRUE	FALSE	FALSE	NNP	NOUN	12	3	TRUE	108893
157			City	City	211	4	TRUE	FALSE	FALSE	NNP	NOUN	13	3	FALSE	
158	202	on	on	on	212	2	FALSE	FALSE	FALSE	IN	ADP	14	3	FALSE	2085421
159	203	64	64	64.	213	2	FALSE	FALSE	FALSE	CD	NUM	15	3	FALSE	4912
	204	.	.		214		FALSE	FALSE	FALSE	.	.		3		11777614
