HumanPosition	AnonymizedPosition	AnonymizedToken	OriginalToken	ExperimentToken	JointPosition	ExperimentTokenLength	IsNamedEntity	OccursInQuestion	IsCorrectAnswer	POS.PTB	POS.Universal	PositionInHumanSentence	OccurrencesOfCorrectAnswerSoFar	IsFirstInLine	WordFreq
	0	@entity0	Paris		1		TRUE	TRUE	FALSE	NNP	NOUN		0		883763
	1	(	(		2		FALSE	FALSE	FALSE	(	.		0		725404
	2	@entity1	CNN		3		TRUE	FALSE	FALSE	NNP	NOUN		0		1235320
	3	)	)		4		FALSE	FALSE	FALSE	)	.		0		732258
0	4	Six	Six	Six	5	3	FALSE	FALSE	FALSE	NNP	NOUN	1	0	FALSE	83285
2	5	survivors	survivors	survivors	6	9	FALSE	FALSE	FALSE	NNS	NOUN	2	0	FALSE	8186
3	6	of	of	of	7	2	FALSE	FALSE	FALSE	IN	ADP	3	0	FALSE	6085230
4	7	the	the	the	8	3	FALSE	TRUE	FALSE	DT	DET	4	0	FALSE	15221601
5	8	@entity0	Paris	Paris	9	5	TRUE	TRUE	FALSE	NNP	NOUN	5	0	FALSE	883763
6	9	kosher	kosher	kosher	10	6	FALSE	FALSE	FALSE	NN	NOUN	6	0	FALSE	606
7	10	supermarket	supermarket	supermarket	11	11	FALSE	FALSE	FALSE	NN	NOUN	7	0	FALSE	1817
8	11	siege	siege	siege	12	5	FALSE	FALSE	FALSE	NN	NOUN	8	0	FALSE	4203
9	12	in	in	in	13	2	FALSE	TRUE	FALSE	IN	ADP	9	0	FALSE	5656514
10	13	January	January	January	14	7	FALSE	FALSE	FALSE	NNP	NOUN	10	0	FALSE	46695
11	14	are	are	are	15	3	FALSE	FALSE	FALSE	VBP	VERB	11	0	FALSE	1097020
12	15	suing	suing	suing	16	5	FALSE	FALSE	FALSE	VBG	VERB	12	0	FALSE	1922
13	16	a	a	a	17	1	FALSE	TRUE	FALSE	DT	DET	13	0	FALSE	6026258
14	17	@entity5	French	French	18	6	TRUE	FALSE	FALSE	JJ	ADJ	14	0	FALSE	626119
15	18	media	media	media	19	5	FALSE	FALSE	FALSE	NNS	NOUN	15	0	TRUE	93520
16	19	outlet	outlet	outlet	20	6	FALSE	FALSE	FALSE	NN	NOUN	16	0	FALSE	2406
17	20	for	for	for	21	3	FALSE	FALSE	FALSE	IN	ADP	17	0	FALSE	2332393
18	21	what	what	what	22	4	FALSE	FALSE	FALSE	WP	PRON	18	0	FALSE	490965
19	22	they	they	they	23	4	FALSE	TRUE	FALSE	PRP	PRON	19	0	FALSE	913621
20	23	call	call	call	24	4	FALSE	FALSE	FALSE	VBP	VERB	20	0	FALSE	67049
21	24	dangerous	dangerous	dangerous	25	9	FALSE	FALSE	FALSE	JJ	ADJ	21	0	FALSE	23538
22	25	live	live	live	26	4	FALSE	FALSE	FALSE	JJ	ADJ	22	0	FALSE	57031
23	26	broadcasting	broadcasting	broadcasting	27	12	FALSE	FALSE	FALSE	NN	NOUN	23	0	FALSE	1781
24	27	during	during	during	28	6	FALSE	TRUE	FALSE	IN	ADP	24	0	FALSE	188532
25	28	the	the	the	29	3	FALSE	TRUE	FALSE	DT	DET	25	0	FALSE	15221601
26	29	hostage	hostage	hostage-taking.	30	13	FALSE	FALSE	FALSE	NN	NOUN	26	0	TRUE	7156
	30	-	-		31		FALSE	FALSE	FALSE	:	.		0		2168741
	31	taking	taking		32		FALSE	FALSE	FALSE	NN	NOUN		0		70324
	32	.	.		33		FALSE	FALSE	FALSE	.	.		0		11777614
27	33	According	According	According	34	9	FALSE	FALSE	FALSE	VBG	VERB	1	0	FALSE	258747
28	34	to	to	to	35	2	FALSE	FALSE	FALSE	TO	PRT	2	0	FALSE	7098918
29	35	@entity0	Paris	Paris	36	5	TRUE	TRUE	FALSE	NNP	NOUN	3	0	FALSE	883763
30	36	prosecutor	prosecutor	prosecutor-s	37	11	FALSE	FALSE	FALSE	NN	NOUN	4	0	FALSE	16065
	37	-s	-s		38		FALSE	FALSE	FALSE	POS	PRT		0		3249897
31	38	spokeswoman	spokeswoman	spokeswoman	39	11	FALSE	FALSE	FALSE	NN	NOUN	5	0	FALSE	28496
32	39	@entity10	Agnes	Agnes	40	5	TRUE	FALSE	FALSE	NNPS	NOUN	6	0	FALSE	386283
33			Thibault	Thibault-Lecuivre,	41	16	TRUE	FALSE	FALSE	NNP	NOUN	7	0	FALSE	
			-		42		TRUE	FALSE	FALSE	:	.		0		
			Lecuivre		43		TRUE	FALSE	FALSE	NNP	NOUN		0		
	40	,	,		44		FALSE	FALSE	FALSE	,	.		0		13601952
34	41	the	the	the	45	3	FALSE	TRUE	FALSE	DT	DET	8	0	TRUE	15221601
35	42	lawsuit	lawsuit	lawsuit	46	7	FALSE	FALSE	FALSE	NN	NOUN	9	0	FALSE	16119
36	43	was	was	was	47	3	FALSE	FALSE	FALSE	VBD	VERB	10	0	FALSE	1968273
37	44	filed	filed	filed	48	5	FALSE	FALSE	FALSE	VBN	VERB	11	0	FALSE	22036
38	45	March	March	March	49	5	FALSE	FALSE	FALSE	NNP	NOUN	12	0	FALSE	47354
39	46	27	27	27	50	2	FALSE	FALSE	FALSE	CD	NUM	13	0	FALSE	20451
40	47	and	and	and	51	3	FALSE	FALSE	FALSE	CC	CONJ	14	0	FALSE	6091732
41	48	a	a	a	52	1	FALSE	TRUE	FALSE	DT	DET	15	0	FALSE	6026258
42	49	preliminary	preliminary	preliminary	53	11	FALSE	FALSE	FALSE	JJ	ADJ	16	0	FALSE	6447
43	50	investigation	investigation	investigation	54	13	FALSE	FALSE	FALSE	NN	NOUN	17	0	FALSE	59888
44	51	was	was	was	55	3	FALSE	FALSE	FALSE	VBD	VERB	18	0	FALSE	1968273
45	52	opened	opened	opened	56	6	FALSE	FALSE	FALSE	VBN	VERB	19	0	FALSE	26973
46	53	by	by	by	57	2	FALSE	TRUE	FALSE	IN	ADP	20	0	FALSE	1058023
47	54	the	the	the	58	3	FALSE	TRUE	FALSE	DT	DET	21	0	FALSE	15221601
48	55	prosecutor	prosecutor	prosecutor-s	59	11	FALSE	FALSE	FALSE	NN	NOUN	22	0	TRUE	16065
	56	-s	-s		60		FALSE	FALSE	FALSE	POS	PRT		0		3249897
49	57	office	office	office	61	6	FALSE	FALSE	FALSE	NN	NOUN	23	0	FALSE	81835
50	58	Wednesday	Wednesday	Wednesday.	62	9	FALSE	FALSE	FALSE	NNP	NOUN	24	0	FALSE	125383
	59	.	.		63		FALSE	FALSE	FALSE	.	.		0		11777614
51	60	The	The	The	64	3	FALSE	FALSE	FALSE	DT	DET	1	0	FALSE	15221601
52	61	media	media	media	65	5	FALSE	FALSE	FALSE	NNS	NOUN	2	0	FALSE	93520
53	62	outlet	outlet	outlet,	66	6	FALSE	FALSE	FALSE	NN	NOUN	3	0	FALSE	2406
	63	,	,		67		FALSE	FALSE	FALSE	,	.		0		13601952
54	64	@entity1	CNN	CNN	68	3	TRUE	FALSE	FALSE	NNP	NOUN	4	0	FALSE	1235320
55	65	affiliate	affiliate	affiliate	69	9	FALSE	FALSE	FALSE	NN	NOUN	5	0	FALSE	19566
56	66	@entity16	BFMTV	BFMTV,	70	5	TRUE	FALSE	FALSE	NNP	NOUN	6	0	FALSE	232179
	67	,	,		71		FALSE	FALSE	FALSE	,	.		0		13601952
57	68	is	is	is	72	2	FALSE	FALSE	FALSE	VBZ	VERB	7	0	FALSE	2253480
58	69	accused	accused	accused	73	7	FALSE	FALSE	FALSE	VBN	VERB	8	0	FALSE	45047
59	70	of	of	of	74	2	FALSE	FALSE	FALSE	IN	ADP	9	0	FALSE	6085230
60	71	endangering	endangering	endangering	75	11	FALSE	FALSE	FALSE	VBG	VERB	10	0	TRUE	805
61	72	the	the	the	76	3	FALSE	TRUE	FALSE	DT	DET	11	0	FALSE	15221601
62	73	lives	lives	lives	77	5	FALSE	FALSE	FALSE	NNS	NOUN	12	0	FALSE	53536
63	74	of	of	of	78	2	FALSE	FALSE	FALSE	IN	ADP	13	0	FALSE	6085230
64	75	the	the	the	79	3	FALSE	TRUE	FALSE	DT	DET	14	0	FALSE	15221601
65	76	hostages	hostages	hostages,	80	8	FALSE	FALSE	FALSE	NNS	NOUN	15	0	FALSE	7123
	77	,	,		81		FALSE	FALSE	FALSE	,	.		0		13601952
66	78	who	who	who	82	3	FALSE	FALSE	FALSE	WP	PRON	16	0	FALSE	867812
67	79	were	were	were	83	4	FALSE	FALSE	FALSE	VBD	VERB	17	0	FALSE	692942
68	80	hiding	hiding	hiding	84	6	FALSE	FALSE	FALSE	VBG	VERB	18	0	FALSE	6361
69	81	in	in	in	85	2	FALSE	TRUE	FALSE	IN	ADP	19	0	FALSE	5656514
70	82	a	a	a	86	1	FALSE	TRUE	FALSE	DT	DET	20	0	FALSE	6026258
71	83	cold	cold	cold	87	4	FALSE	TRUE	FALSE	JJ	ADJ	21	0	FALSE	12999
72	84	room	room	room	88	4	FALSE	TRUE	FALSE	NN	NOUN	22	0	FALSE	41844
73	85	during	during	during	89	6	FALSE	TRUE	FALSE	IN	ADP	23	0	FALSE	188532
74	86	the	the	the	90	3	FALSE	TRUE	FALSE	DT	DET	24	0	FALSE	15221601
75	87	attack	attack	attack,	91	6	FALSE	TRUE	FALSE	NN	NOUN	25	0	TRUE	89384
	88	,	,		92		FALSE	FALSE	FALSE	,	.		0		13601952
76	89	by	by	by	93	2	FALSE	TRUE	FALSE	IN	ADP	26	0	FALSE	1058023
77	90	broadcasting	broadcasting	broadcasting	94	12	FALSE	FALSE	FALSE	VBG	VERB	27	0	FALSE	1781
78	91	their	their	their	95	5	FALSE	FALSE	FALSE	PRP$	PRON	28	0	FALSE	683887
79	92	location	location	location	96	8	FALSE	FALSE	FALSE	NN	NOUN	29	0	FALSE	14747
80	93	live	live	live	97	4	FALSE	FALSE	FALSE	VBP	VERB	30	0	FALSE	57031
81	94	during	during	during	98	6	FALSE	TRUE	FALSE	IN	ADP	31	0	FALSE	188532
82	95	the	the	the	99	3	FALSE	TRUE	FALSE	DT	DET	32	0	FALSE	15221601
83	96	siege	siege	siege.	100	5	FALSE	FALSE	FALSE	NN	NOUN	33	0	FALSE	4203
	97	.	.		101		FALSE	FALSE	FALSE	.	.		0		11777614
84	98	@entity23	BFM	BFM	102	3	TRUE	FALSE	FALSE	NNP	NOUN	1	0	FALSE	162171
85	99	in	in	in	103	2	FALSE	TRUE	FALSE	IN	ADP	2	0	FALSE	5656514
86	100	a	a	a	104	1	FALSE	TRUE	FALSE	DT	DET	3	0	FALSE	6026258
87	101	statement	statement	statement	105	9	FALSE	FALSE	FALSE	NN	NOUN	4	0	FALSE	152319
88	102	Friday	Friday	Friday	106	6	FALSE	FALSE	FALSE	NNP	NOUN	5	0	TRUE	119030
89	103	said	said	said	107	4	FALSE	FALSE	FALSE	VBD	VERB	6	0	FALSE	2037128
90	104	one	one	one	108	3	FALSE	FALSE	FALSE	CD	NUM	7	0	FALSE	616806
91	105	of	of	of	109	2	FALSE	FALSE	FALSE	IN	ADP	8	0	FALSE	6085230
92	106	its	its	its	110	3	FALSE	FALSE	FALSE	PRP$	PRON	9	0	FALSE	460839
93	107	journalists	journalists	journalists	111	11	FALSE	FALSE	FALSE	NNS	NOUN	10	0	FALSE	22279
94	108	-	-	-mentioned	112	9	FALSE	FALSE	FALSE	VBP	VERB	11	0	FALSE	6863757
	109	mentioned	mentioned		113		FALSE	FALSE	FALSE	VBN	VERB		0		7601
95	110	only	only	only	114	4	FALSE	FALSE	FALSE	RB	ADV	12	0	FALSE	255321
96	111	once	once	once	115	4	FALSE	FALSE	FALSE	RB	ADV	13	0	FALSE	78853
97	112	the	the	the	116	3	FALSE	TRUE	FALSE	DT	DET	14	0	FALSE	15221601
98	113	presence	presence	presence	117	8	FALSE	FALSE	FALSE	NN	NOUN	15	0	FALSE	20428
99	114	of	of	of	118	2	FALSE	FALSE	FALSE	IN	ADP	16	0	FALSE	6085230
100	115	a	a	a	119	1	FALSE	TRUE	FALSE	DT	DET	17	0	FALSE	6026258
101	116	woman	woman	woman	120	5	FALSE	FALSE	FALSE	NN	NOUN	18	0	FALSE	63480
102	117	hidden	hidden	hidden	121	6	FALSE	FALSE	FALSE	VBN	VERB	19	0	TRUE	5889
103	118	inside	inside	inside	122	6	FALSE	FALSE	FALSE	IN	ADP	20	0	FALSE	48425
104	119	the	the	the	123	3	FALSE	TRUE	FALSE	DT	DET	21	0	FALSE	15221601
105	120	@entity27	Hyper	Hyper	124	5	TRUE	FALSE	FALSE	NNP	NOUN	22	0	FALSE	140128
106			Cacher	Cacher,	125	6	TRUE	FALSE	FALSE	NNP	NOUN	23	0	FALSE	
	121	,	,		126		FALSE	FALSE	FALSE	,	.		0		13601952
107	122	on	on	on	127	2	FALSE	FALSE	FALSE	IN	ADP	24	0	FALSE	2085421
108	123	the	the	the	128	3	FALSE	TRUE	FALSE	DT	DET	25	0	FALSE	15221601
109	124	basis	basis	basis	129	5	FALSE	FALSE	FALSE	NN	NOUN	26	0	FALSE	11704
110	125	of	of	of	130	2	FALSE	FALSE	FALSE	IN	ADP	27	0	FALSE	6085230
111	126	police	police	police	131	6	FALSE	FALSE	FALSE	NN	NOUN	28	0	FALSE	202825
112	127	sources	sources	sources	132	7	FALSE	FALSE	FALSE	NNS	NOUN	29	0	FALSE	23402
113	128	on	on	on	133	2	FALSE	FALSE	FALSE	IN	ADP	30	0	FALSE	2085421
114	129	the	the	the	134	3	FALSE	TRUE	FALSE	DT	DET	31	0	FALSE	15221601
115	130	ground	ground	ground.-	135	6	FALSE	FALSE	FALSE	NN	NOUN	32	0	FALSE	47677
	131	.	.		136		FALSE	FALSE	FALSE	.	.		0		11777614
116	132	-	-	-Immediately,	137	11	FALSE	FALSE	FALSE	CC	CONJ	1	0	TRUE	6863757
	133	-	-		138		FALSE	FALSE	FALSE	NNP	NOUN		0		6863757
	134	Immediately	Immediately		139		FALSE	FALSE	FALSE	NNP	NOUN		0		35182
	135	,	,		140		FALSE	FALSE	FALSE	,	.		0		13601952
117	136	the	the	the	141	3	FALSE	TRUE	FALSE	DT	DET	2	0	FALSE	15221601
118	137	chief	chief	chief	142	5	FALSE	FALSE	FALSE	JJ	ADJ	3	0	FALSE	58827
119	138	editor	editor	editor	143	6	FALSE	FALSE	FALSE	NN	NOUN	4	0	FALSE	15705
120	139	felt	felt	felt	144	4	FALSE	FALSE	FALSE	VBD	VERB	5	0	FALSE	37720
121	140	that	that	that	145	4	FALSE	FALSE	FALSE	IN	ADP	6	0	FALSE	2943020
122	141	this	this	this	146	4	FALSE	FALSE	FALSE	DT	DET	7	0	FALSE	1022321
123	142	information	information	information	147	11	FALSE	FALSE	FALSE	NN	NOUN	8	0	FALSE	72487
124	143	should	should	should	148	6	FALSE	FALSE	FALSE	MD	VERB	9	0	FALSE	173075
125	144	not	not	not	149	3	FALSE	FALSE	FALSE	RB	ADV	10	0	FALSE	995841
126	145	be	be	be	150	2	FALSE	FALSE	FALSE	VB	VERB	11	0	FALSE	1098369
127	146	released	released	released.	151	8	FALSE	FALSE	FALSE	VBN	VERB	12	0	FALSE	70708
	147	.	.		152		FALSE	FALSE	FALSE	.	.		0		11777614
128	148	It	It	It	153	2	FALSE	FALSE	FALSE	PRP	PRON	1	0	FALSE	2035994
129	149	therefore	therefore	therefore	154	9	FALSE	FALSE	FALSE	RB	ADV	2	0	TRUE	9119
130	150	has	has	has	155	3	FALSE	FALSE	FALSE	VBZ	VERB	3	0	FALSE	1077804
131	151	subsequently	subsequently	subsequently	156	12	FALSE	FALSE	FALSE	RB	ADV	4	0	FALSE	4514
132	152	never	never	never	157	5	FALSE	FALSE	FALSE	RB	ADV	5	0	FALSE	126762
133	153	been	been	been	158	4	FALSE	FALSE	FALSE	VBN	VERB	6	0	FALSE	632201
134	154	repeated	repeated	repeated	159	8	FALSE	FALSE	FALSE	VBN	VERB	7	0	FALSE	9144
135	155	on	on	on	160	2	FALSE	FALSE	FALSE	IN	ADP	8	0	FALSE	2085421
136	156	air	air	air	161	3	FALSE	FALSE	FALSE	NN	NOUN	9	0	FALSE	50884
137	157	or	or	or	162	2	FALSE	FALSE	FALSE	CC	CONJ	10	0	FALSE	559759
138	158	posted	posted	posted	163	6	FALSE	FALSE	FALSE	VBN	VERB	11	0	FALSE	27853
139	159	on	on	on-screen.	164	8	FALSE	FALSE	FALSE	IN	ADP	12	0	FALSE	2085421
	160	-	-		165		FALSE	FALSE	FALSE	:	.		0		2168741
	161	screen	screen		166		FALSE	FALSE	FALSE	NN	NOUN		0		15055
	162	.	.		167		FALSE	FALSE	FALSE	.	.		0		11777614
140	163	@entity16	BFMTV	BFMTV	168	5	TRUE	FALSE	FALSE	NNP	NOUN	1	0	FALSE	232179
141	164	regrets	regrets	regrets	169	7	FALSE	FALSE	FALSE	VBZ	VERB	2	0	TRUE	2422
142	165	that	that	that	170	4	FALSE	FALSE	FALSE	IN	ADP	3	0	FALSE	2943020
143	166	the	the	the	171	3	FALSE	TRUE	FALSE	DT	DET	4	0	FALSE	15221601
144	167	mention	mention	mention	172	7	FALSE	FALSE	FALSE	NN	NOUN	5	0	FALSE	9600
145	168	of	of	of	173	2	FALSE	FALSE	FALSE	IN	ADP	6	0	FALSE	6085230
146	169	this	this	this	174	4	FALSE	FALSE	FALSE	DT	DET	7	0	FALSE	1022321
147	170	information	information	information	175	11	FALSE	FALSE	FALSE	NN	NOUN	8	0	FALSE	72487
148	171	could	could	could	176	5	FALSE	FALSE	FALSE	MD	VERB	9	0	FALSE	319289
149	172	cause	cause	cause	177	5	FALSE	FALSE	FALSE	VB	VERB	10	0	FALSE	33565
150	173	concern	concern	concern	178	7	FALSE	FALSE	FALSE	NN	NOUN	11	0	FALSE	24944
151	174	to	to	to	179	2	FALSE	FALSE	FALSE	TO	PRT	12	0	FALSE	7098918
152	175	the	the	the	180	3	FALSE	TRUE	FALSE	DT	DET	13	0	FALSE	15221601
153	176	hostages	hostages	hostages,	181	8	FALSE	FALSE	FALSE	NNS	NOUN	14	0	FALSE	7123
	177	,	,		182		FALSE	FALSE	FALSE	,	.		0		13601952
154	178	as	as	as	183	2	FALSE	FALSE	FALSE	RB	ADV	15	0	FALSE	1472972
155	179	well	well	well	184	4	FALSE	FALSE	FALSE	RB	ADV	16	0	TRUE	189550
156	180	as	as	as	185	2	FALSE	FALSE	FALSE	IN	ADP	17	0	FALSE	1472972
157	181	their	their	their	186	5	FALSE	FALSE	FALSE	PRP$	PRON	18	0	FALSE	683887
158	182	relatives	relatives	relatives,	187	9	FALSE	FALSE	FALSE	NNS	NOUN	19	0	FALSE	11164
	183	,	,		188		FALSE	FALSE	FALSE	,	.		0		13601952
159	184	that	that	that	189	4	FALSE	FALSE	FALSE	IN	ADP	20	0	FALSE	2943020
160	185	their	their	their	190	5	FALSE	FALSE	FALSE	PRP$	PRON	21	0	FALSE	683887
161	186	lives	lives	lives	191	5	FALSE	FALSE	FALSE	NNS	NOUN	22	0	FALSE	53536
162	187	were	were	were	192	4	FALSE	FALSE	FALSE	VBD	VERB	23	0	FALSE	692942
163	188	in	in	in	193	2	FALSE	TRUE	FALSE	IN	ADP	24	0	FALSE	5656514
164	189	danger	danger	danger,-	194	6	FALSE	FALSE	FALSE	NN	NOUN	25	0	FALSE	12507
	190	,	,		195		FALSE	FALSE	FALSE	,	.		0		13601952
	191	-	-		196		FALSE	FALSE	FALSE	VBP	VERB		0		6863757
165	192	the	the	the	197	3	FALSE	TRUE	FALSE	DT	DET	26	0	FALSE	15221601
166	193	statement	statement	statement	198	9	FALSE	FALSE	FALSE	NN	NOUN	27	0	FALSE	152319
167	194	said	said	said.	199	4	FALSE	FALSE	FALSE	VBD	VERB	28	0	FALSE	2037128
	195	.	.		200		FALSE	FALSE	FALSE	.	.		0		11777614
168	196	Gunman	Gunman	Gunman	201	6	FALSE	FALSE	FALSE	NNP	NOUN	1	0	FALSE	5603
169	197	@entity47	Amedy	Amedy	202	5	TRUE	FALSE	TRUE	NNP	NOUN	2	1	TRUE	96916
170			Coulibaly	Coulibaly,	203	9	TRUE	FALSE	TRUE	NNP	NOUN	3	1	FALSE	
	198	,	,		204		FALSE	FALSE	FALSE	,	.		1		13601952
171	199	also	also	also	205	4	FALSE	FALSE	FALSE	RB	ADV	4	1	FALSE	460309
172	200	suspected	suspected	suspected	206	9	FALSE	FALSE	FALSE	VBN	VERB	5	1	FALSE	18247
173	201	in	in	in	207	2	FALSE	TRUE	FALSE	IN	ADP	6	1	FALSE	5656514
174	202	the	the	the	208	3	FALSE	TRUE	FALSE	DT	DET	7	1	FALSE	15221601
175	203	slaying	slaying	slaying	209	7	FALSE	FALSE	FALSE	NN	NOUN	8	1	FALSE	2429
176	204	of	of	of	210	2	FALSE	FALSE	FALSE	IN	ADP	9	1	FALSE	6085230
177	205	a	a	a	211	1	FALSE	TRUE	FALSE	DT	DET	10	1	FALSE	6026258
178	206	police	police	police	212	6	FALSE	FALSE	FALSE	NN	NOUN	11	1	FALSE	202825
179	207	officer	officer	officer,	213	7	FALSE	FALSE	FALSE	NN	NOUN	12	1	FALSE	39645
	208	,	,		214		FALSE	FALSE	FALSE	,	.		1		13601952
180	209	stormed	stormed	stormed	215	7	FALSE	FALSE	FALSE	VBD	VERB	13	1	FALSE	3379
181	210	the	the	the	216	3	FALSE	TRUE	FALSE	DT	DET	14	1	FALSE	15221601
182	211	@entity27	Hyper	Hyper	217	5	TRUE	FALSE	FALSE	NNP	NOUN	15	1	FALSE	140128
183	212	@entity51	Cacher	Cacher	218	6	TRUE	FALSE	FALSE	NNP	NOUN	16	1	TRUE	90929
184			Jewish	Jewish	219	6	TRUE	FALSE	FALSE	NNP	NOUN	17	1	FALSE	
185	213	supermarket	supermarket	supermarket	220	11	FALSE	FALSE	FALSE	NN	NOUN	18	1	FALSE	1817
186	214	on	on	on	221	2	FALSE	FALSE	FALSE	IN	ADP	19	1	FALSE	2085421
187	215	January	January	January	222	7	FALSE	FALSE	FALSE	NNP	NOUN	20	1	FALSE	46695
188	216	9	9	9,	223	1	FALSE	FALSE	FALSE	CD	NUM	21	1	FALSE	26226
	217	,	,		224		FALSE	FALSE	FALSE	,	.		1		13601952
189	218	killing	killing	killing	225	7	FALSE	FALSE	FALSE	VBG	VERB	22	1	FALSE	42339
190	219	four	four	four	226	4	FALSE	FALSE	FALSE	CD	NUM	23	1	FALSE	141659
191	220	people	people	people	227	6	FALSE	FALSE	FALSE	NNS	NOUN	24	1	FALSE	545800
192	221	and	and	and	228	3	FALSE	FALSE	FALSE	CC	CONJ	25	1	FALSE	6091732
193	222	taking	taking	taking	229	6	FALSE	FALSE	FALSE	VBG	VERB	26	1	FALSE	70324
194	223	others	others	others	230	6	FALSE	FALSE	FALSE	NNS	NOUN	27	1	FALSE	83439
195	224	hostage	hostage	hostage.	231	7	FALSE	FALSE	FALSE	NN	NOUN	28	1	TRUE	7156
	225	.	.		232		FALSE	FALSE	FALSE	.	.		1		11777614
196	226	He	He	He	233	2	FALSE	FALSE	FALSE	PRP	PRON	1	1	FALSE	1891515
197	227	was	was	was	234	3	FALSE	FALSE	FALSE	VBD	VERB	2	1	FALSE	1968273
198	228	killed	killed	killed	235	6	FALSE	FALSE	FALSE	VBN	VERB	3	1	FALSE	118275
199	229	in	in	in	236	2	FALSE	TRUE	FALSE	IN	ADP	4	1	FALSE	5656514
200	230	the	the	the	237	3	FALSE	TRUE	FALSE	DT	DET	5	1	FALSE	15221601
201	231	police	police	police	238	6	FALSE	FALSE	FALSE	NN	NOUN	6	1	FALSE	202825
202	232	operation	operation	operation	239	9	FALSE	FALSE	FALSE	NN	NOUN	7	1	FALSE	25686
203	233	to	to	to	240	2	FALSE	FALSE	FALSE	TO	PRT	8	1	FALSE	7098918
204	234	end	end	end	241	3	FALSE	FALSE	FALSE	VB	VERB	9	1	FALSE	122677
205	235	the	the	the	242	3	FALSE	TRUE	FALSE	DT	DET	10	1	FALSE	15221601
206	236	siege	siege	siege.	243	5	FALSE	FALSE	FALSE	NN	NOUN	11	1	FALSE	4203
	237	.	.		244		FALSE	FALSE	FALSE	.	.		1		11777614
207	238	A	A	A	245	1	FALSE	FALSE	FALSE	DT	DET	1	1	FALSE	6026258
208	239	24	24	24-year-old	246	9	FALSE	FALSE	FALSE	CD	NUM	2	1	FALSE	31162
	240	-	-		247		FALSE	FALSE	FALSE	:	.		1		2168741
	241	year	year		248		FALSE	FALSE	FALSE	NN	NOUN		1		446268
	242	-	-		249		FALSE	FALSE	FALSE	:	.		1		2168741
	243	old	old		250		FALSE	FALSE	FALSE	JJ	ADJ		1		180618
209	244	supermarket	supermarket	supermarket	251	11	FALSE	FALSE	FALSE	NN	NOUN	3	1	TRUE	1817
210	245	employee	employee	employee,	252	8	FALSE	FALSE	FALSE	NN	NOUN	4	1	FALSE	9671
	246	,	,		253		FALSE	FALSE	FALSE	,	.		1		13601952
211	247	@entity57	Malian	Malian-born	254	10	TRUE	FALSE	FALSE	NNP	NOUN	5	1	FALSE	87908
	248	-	-		255		FALSE	FALSE	FALSE	:	.		1		2168741
	249	born	born		256		FALSE	FALSE	FALSE	NN	NOUN		1		36378
212	250	@entity56	Lassana	Lassana	257	7	TRUE	FALSE	FALSE	NNP	NOUN	6	1	FALSE	88372
213			Bathily	Bathily,	258	7	TRUE	FALSE	FALSE	NNP	NOUN	7	1	FALSE	
	251	,	,		259		FALSE	FALSE	FALSE	,	.		1		13601952
214	252	was	was	was	260	3	FALSE	FALSE	FALSE	VBD	VERB	8	1	FALSE	1968273
215	253	hailed	hailed	hailed	261	6	FALSE	FALSE	FALSE	VBN	VERB	9	1	FALSE	3899
216	254	as	as	as	262	2	FALSE	FALSE	FALSE	IN	ADP	10	1	FALSE	1472972
217	255	a	a	a	263	1	FALSE	TRUE	FALSE	DT	DET	11	1	FALSE	6026258
218	256	hero	hero	hero	264	4	FALSE	FALSE	FALSE	NN	NOUN	12	1	FALSE	12773
219	257	afterward	afterward	afterward	265	9	FALSE	FALSE	FALSE	RB	ADV	13	1	FALSE	5226
220	258	when	when	when	266	4	FALSE	FALSE	FALSE	WRB	ADV	14	1	TRUE	551072
221	259	it	it	it	267	2	FALSE	FALSE	FALSE	PRP	PRON	15	1	FALSE	2035994
222	260	emerged	emerged	emerged	268	7	FALSE	FALSE	FALSE	VBD	VERB	16	1	FALSE	11172
223	261	that	that	that	269	4	FALSE	FALSE	FALSE	IN	ADP	17	1	FALSE	2943020
224	262	he	he	he	270	2	FALSE	FALSE	FALSE	PRP	PRON	18	1	FALSE	1891515
225	263	had	had	had	271	3	FALSE	FALSE	FALSE	VBD	VERB	19	1	FALSE	670091
226	264	risked	risked	risked	272	6	FALSE	FALSE	FALSE	VBN	VERB	20	1	FALSE	1109
227	265	his	his	his	273	3	FALSE	FALSE	FALSE	PRP$	PRON	21	1	FALSE	1339996
228	266	life	life	life	274	4	FALSE	FALSE	FALSE	NN	NOUN	22	1	FALSE	153482
229	267	to	to	to	275	2	FALSE	FALSE	FALSE	TO	PRT	23	1	FALSE	7098918
230	268	hide	hide	hide	276	4	FALSE	FALSE	FALSE	VB	VERB	24	1	FALSE	5595
231	269	15	15	15	277	2	FALSE	FALSE	FALSE	CD	NUM	25	1	FALSE	53015
232	270	customers	customers	customers	278	9	FALSE	FALSE	FALSE	NNS	NOUN	26	1	FALSE	15670
233	271	from	from	from	279	4	FALSE	FALSE	FALSE	IN	ADP	27	1	FALSE	1158086
234	272	@entity47	Coulibaly	Coulibaly	280	9	TRUE	FALSE	TRUE	NNP	NOUN	28	2	FALSE	96916
235	273	in	in	in	281	2	FALSE	TRUE	FALSE	IN	ADP	29	2	FALSE	5656514
236	274	the	the	the	282	3	FALSE	TRUE	FALSE	DT	DET	30	2	TRUE	15221601
237	275	cold	cold	cold	283	4	FALSE	TRUE	FALSE	JJ	ADJ	31	2	FALSE	12999
238	276	room	room	room.	284	4	FALSE	TRUE	FALSE	NN	NOUN	32	2	FALSE	41844
	277	.	.		285		FALSE	FALSE	FALSE	.	.		2		11777614
239	278	The	The	The	286	3	FALSE	FALSE	FALSE	DT	DET	1	2	FALSE	15221601
240	279	hostage	hostage	hostage-taking	287	13	FALSE	FALSE	FALSE	NN	NOUN	2	2	FALSE	7156
	280	-	-		288		FALSE	FALSE	FALSE	:	.		2		2168741
	281	taking	taking		289		FALSE	FALSE	FALSE	NN	NOUN		2		70324
241	282	was	was	was	290	3	FALSE	FALSE	FALSE	VBD	VERB	3	2	FALSE	1968273
242	283	the	the	the	291	3	FALSE	TRUE	FALSE	DT	DET	4	2	FALSE	15221601
243	284	culmination	culmination	culmination	292	11	FALSE	FALSE	FALSE	NN	NOUN	5	2	FALSE	989
244	285	of	of	of	293	2	FALSE	FALSE	FALSE	IN	ADP	6	2	FALSE	6085230
245	286	three	three	three	294	5	FALSE	FALSE	FALSE	CD	NUM	7	2	FALSE	227398
246	287	days	days	days	295	4	FALSE	FALSE	FALSE	NNS	NOUN	8	2	FALSE	125513
247	288	of	of	of	296	2	FALSE	FALSE	FALSE	IN	ADP	9	2	FALSE	6085230
248	289	terror	terror	terror	297	6	FALSE	FALSE	FALSE	NN	NOUN	10	2	FALSE	21852
249	290	in	in	in	298	2	FALSE	TRUE	FALSE	IN	ADP	11	2	FALSE	5656514
250	291	@entity0	Paris	Paris	299	5	TRUE	TRUE	FALSE	NNP	NOUN	12	2	TRUE	883763
251	292	that	that	that	300	4	FALSE	FALSE	FALSE	WDT	DET	13	2	FALSE	2943020
252	293	began	began	began	301	5	FALSE	FALSE	FALSE	VBD	VERB	14	2	FALSE	66638
253	294	with	with	with	302	4	FALSE	FALSE	FALSE	IN	ADP	15	2	FALSE	1730692
254	295	the	the	the	303	3	FALSE	TRUE	FALSE	DT	DET	16	2	FALSE	15221601
255	296	January	January	January	304	7	FALSE	FALSE	FALSE	NNP	NOUN	17	2	FALSE	46695
256	297	7	7	7	305	1	FALSE	FALSE	FALSE	CD	NUM	18	2	FALSE	49482
257	298	shooting	shooting	shooting	306	8	FALSE	FALSE	FALSE	NN	NOUN	19	2	FALSE	36032
258	299	of	of	of	307	2	FALSE	FALSE	FALSE	IN	ADP	20	2	FALSE	6085230
259	300	12	12	12	308	2	FALSE	FALSE	FALSE	CD	NUM	21	2	FALSE	50565
260	301	people	people	people	309	6	FALSE	FALSE	FALSE	NNS	NOUN	22	2	FALSE	545800
261	302	at	at	at	310	2	FALSE	FALSE	FALSE	IN	ADP	23	2	FALSE	1249542
262	303	the	the	the	311	3	FALSE	TRUE	FALSE	DT	DET	24	2	FALSE	15221601
263	304	offices	offices	offices	312	7	FALSE	FALSE	FALSE	NNS	NOUN	25	2	FALSE	7681
264	305	of	of	of	313	2	FALSE	FALSE	FALSE	IN	ADP	26	2	FALSE	6085230
265	306	@entity5	French	French	314	6	TRUE	FALSE	FALSE	NNP	NOUN	27	2	FALSE	626119
266	307	satirical	satirical	satirical	315	9	FALSE	FALSE	FALSE	JJ	ADJ	28	2	TRUE	1074
267	308	magazine	magazine	magazine	316	8	FALSE	FALSE	FALSE	NN	NOUN	29	2	FALSE	13362
268	309	@entity69	Charlie	Charlie	317	7	TRUE	FALSE	FALSE	NNP	NOUN	30	2	FALSE	76968
269			Hebdo	Hebdo.	318	5	TRUE	FALSE	FALSE	NNP	NOUN	31	2	FALSE	
	310	.	.		319		FALSE	FALSE	FALSE	.	.		2		11777614
270	311	The	The	The	320	3	FALSE	FALSE	FALSE	DT	DET	1	2	FALSE	15221601
271	312	two	two	two	321	3	FALSE	FALSE	FALSE	CD	NUM	2	2	FALSE	427153
272	313	brothers	brothers	brothers	322	8	FALSE	FALSE	FALSE	NNS	NOUN	3	2	FALSE	11980
273	314	blamed	blamed	blamed	323	6	FALSE	FALSE	FALSE	VBD	VERB	4	2	FALSE	12406
274	315	for	for	for	324	3	FALSE	FALSE	FALSE	IN	ADP	5	2	FALSE	2332393
275	316	that	that	that	325	4	FALSE	FALSE	FALSE	DT	DET	6	2	FALSE	2943020
276	317	attack	attack	attack,	326	6	FALSE	TRUE	FALSE	NN	NOUN	7	2	FALSE	89384
	318	,	,		327		FALSE	FALSE	FALSE	,	.		2		13601952
277	319	@entity72	Cherif	Cherif	328	6	TRUE	FALSE	FALSE	NNP	NOUN	8	2	FALSE	73065
278	320	and	and	and	329	3	FALSE	FALSE	FALSE	CC	CONJ	9	2	FALSE	6091732
279	321	@entity73	Said	Said	330	4	TRUE	FALSE	FALSE	NNP	NOUN	10	2	TRUE	71104
280			Kouachi	Kouachi,	331	7	TRUE	FALSE	FALSE	NNP	NOUN	11	2	FALSE	
	322	,	,		332		FALSE	FALSE	FALSE	,	.		2		13601952
281	323	were	were	were	333	4	FALSE	FALSE	FALSE	VBD	VERB	12	2	FALSE	692942
282	324	killed	killed	killed	334	6	FALSE	FALSE	FALSE	VBN	VERB	13	2	FALSE	118275
283	325	on	on	on	335	2	FALSE	FALSE	FALSE	IN	ADP	14	2	FALSE	2085421
284	326	January	January	January	336	7	FALSE	FALSE	FALSE	NNP	NOUN	15	2	FALSE	46695
285	327	9	9	9	337	1	FALSE	FALSE	FALSE	CD	NUM	16	2	FALSE	26226
286	328	after	after	after	338	5	FALSE	FALSE	FALSE	IN	ADP	17	2	FALSE	594391
287	329	a	a	a	339	1	FALSE	TRUE	FALSE	DT	DET	18	2	FALSE	6026258
288	330	violent	violent	violent	340	7	FALSE	FALSE	FALSE	JJ	ADJ	19	2	FALSE	19555
289	331	standoff	standoff	standoff	341	8	FALSE	FALSE	FALSE	NN	NOUN	20	2	FALSE	3395
290	332	at	at	at	342	2	FALSE	FALSE	FALSE	IN	ADP	21	2	FALSE	1249542
291	333	an	an	an	343	2	FALSE	FALSE	FALSE	DT	DET	22	2	FALSE	963468
292	334	industrial	industrial	industrial	344	10	FALSE	FALSE	FALSE	JJ	ADJ	23	2	FALSE	5465
293	335	site	site	site.	345	4	FALSE	FALSE	FALSE	NN	NOUN	24	2	TRUE	62650
	336	.	.		346		FALSE	FALSE	FALSE	.	.		2		11777614
294	337	The	The	The	347	3	FALSE	FALSE	FALSE	DT	DET	1	2	FALSE	15221601
295	338	terror	terror	terror	348	6	FALSE	FALSE	FALSE	NN	NOUN	2	2	FALSE	21852
296	339	attacks	attacks	attacks	349	7	FALSE	FALSE	FALSE	NNS	NOUN	3	2	FALSE	70705
297	340	claimed	claimed	claimed	350	7	FALSE	FALSE	FALSE	VBD	VERB	4	2	FALSE	33361
298	341	the	the	the	351	3	FALSE	TRUE	FALSE	DT	DET	5	2	FALSE	15221601
299	342	lives	lives	lives	352	5	FALSE	FALSE	FALSE	NNS	NOUN	6	2	FALSE	53536
300	343	of	of	of	353	2	FALSE	FALSE	FALSE	IN	ADP	7	2	FALSE	6085230
301	344	17	17	17	354	2	FALSE	FALSE	FALSE	CD	NUM	8	2	FALSE	32478
302	345	people	people	people	355	6	FALSE	FALSE	FALSE	NNS	NOUN	9	2	FALSE	545800
303	346	and	and	and	356	3	FALSE	FALSE	FALSE	CC	CONJ	10	2	FALSE	6091732
304	347	put	put	put	357	3	FALSE	FALSE	FALSE	VBN	VERB	11	2	FALSE	106291
305	348	@entity5	France	France	358	6	TRUE	FALSE	FALSE	NNP	NOUN	12	2	FALSE	626119
306	349	on	on	on	359	2	FALSE	FALSE	FALSE	IN	ADP	13	2	FALSE	2085421
307	350	a	a	a	360	1	FALSE	TRUE	FALSE	DT	DET	14	2	FALSE	6026258
308	351	heightened	heightened	heightened	361	10	FALSE	FALSE	FALSE	JJ	ADJ	15	2	TRUE	3426
309	352	state	state	state	362	5	FALSE	FALSE	FALSE	NN	NOUN	16	2	FALSE	201683
310	353	of	of	of	363	2	FALSE	FALSE	FALSE	IN	ADP	17	2	FALSE	6085230
311	354	alert	alert	alert.	364	5	FALSE	FALSE	FALSE	NN	NOUN	18	2	FALSE	7246
	355	.	.		365		FALSE	FALSE	FALSE	.	.		2		11777614
