HumanPosition	AnonymizedPosition	AnonymizedToken	OriginalToken	ExperimentToken	JointPosition	ExperimentTokenLength	IsNamedEntity	OccursInQuestion	IsCorrectAnswer	POS.PTB	POS.Universal	PositionInHumanSentence	OccurrencesOfCorrectAnswerSoFar	IsFirstInLine	WordFreq
1	0	(	(	In	1	2	FALSE	FALSE	FALSE	(	.	1	0	FALSE	725404
2	1	@entity0	CNN	cities	2	6	TRUE	FALSE	FALSE	NNP	NOUN	2	0	FALSE	883763
	2	)	)		3		FALSE	FALSE	FALSE	)	.		0		732258
	3	[	[		4		FALSE	FALSE	FALSE	VBD	VERB		0		52064
	4	Breaking	Breaking		5		FALSE	FALSE	FALSE	NNP	NOUN		0		13619
	5	news	news		6		FALSE	FALSE	FALSE	NN	NOUN		0		106658
	6	update	update		7		FALSE	FALSE	FALSE	NN	NOUN		0		4655
	7	,	,		8		FALSE	TRUE	FALSE	,	.		0		13601952
	8	posted	posted		9		FALSE	FALSE	FALSE	VBD	VERB		0		27853
	9	at	at		10		FALSE	FALSE	FALSE	IN	ADP		0		1249542
	10	11:52	11:52		11		FALSE	FALSE	FALSE	CD	NUM		0		2
	11	p.m.	p.m.		12		FALSE	FALSE	FALSE	NN	NOUN		0		28861
	12	ET	ET		13		FALSE	FALSE	FALSE	NNP	NOUN		0		9795
	13	]	]		14		FALSE	FALSE	FALSE	NNP	NOUN		0		51781
	14	@entity3	Denver		15		TRUE	FALSE	FALSE	NNP	NOUN		0		864358
	15	police	police		16		FALSE	FALSE	FALSE	NNS	NOUN		0		202825
	16	report	report		17		FALSE	FALSE	FALSE	NN	NOUN		0		177209
	17	nine	nine		18		FALSE	FALSE	FALSE	CD	NUM		0		35436
	18	arrests	arrests		19		FALSE	FALSE	FALSE	NNS	NOUN		0		9091
	19	in	in		20		FALSE	TRUE	FALSE	IN	ADP		0		5656514
	20	Wednesday	Wednesday		21		FALSE	FALSE	FALSE	NNP	NOUN		0		125383
	21	-s	-s		22		FALSE	FALSE	FALSE	POS	PRT		0		3249897
	22	demonstrations	demonstrations		23		FALSE	FALSE	FALSE	NNS	NOUN		0		10331
	23	.	.		24		FALSE	FALSE	FALSE	.	.		0		11777614
	24	The	The		25		FALSE	FALSE	FALSE	DT	DET		0		15221601
	25	charges	charges		26		FALSE	FALSE	FALSE	NNS	NOUN		0		50462
	26	include	include		27		FALSE	FALSE	FALSE	VBP	VERB		0		38675
	27	assault	assault		28		FALSE	FALSE	FALSE	NN	NOUN		0		20432
	28	of	of		29		FALSE	FALSE	FALSE	IN	ADP		0		6085230
	29	a	a		30		FALSE	FALSE	FALSE	DT	DET		0		6026258
	30	police	police		31		FALSE	FALSE	FALSE	NN	NOUN		0		202825
	31	officer	officer		32		FALSE	FALSE	FALSE	NN	NOUN		0		39645
	32	,	,		33		FALSE	TRUE	FALSE	,	.		0		13601952
	33	robbery	robbery		34		FALSE	FALSE	FALSE	NN	NOUN		0		4159
	34	,	,		35		FALSE	TRUE	FALSE	,	.		0		13601952
	35	resisting	resisting		36		FALSE	FALSE	FALSE	VBG	VERB		0		1283
	36	police	police		37		FALSE	FALSE	FALSE	NNS	NOUN		0		202825
	37	,	,		38		FALSE	TRUE	FALSE	,	.		0		13601952
	38	disobedience	disobedience		39		FALSE	FALSE	FALSE	NN	NOUN		0		621
	39	to	to		40		FALSE	FALSE	FALSE	TO	PRT		0		7098918
	40	lawful	lawful		41		FALSE	FALSE	FALSE	JJ	ADJ		0		1533
	41	orders	orders		42		FALSE	FALSE	FALSE	NNS	NOUN		0		9194
	42	,	,		43		FALSE	TRUE	FALSE	,	.		0		13601952
	43	obstructing	obstructing		44		FALSE	FALSE	FALSE	VBG	VERB		0		701
	44	roadways	roadways		45		FALSE	FALSE	FALSE	NNS	NOUN		0		576
	45	,	,		46		FALSE	TRUE	FALSE	,	.		0		13601952
	46	and	and		47		FALSE	TRUE	FALSE	CC	CONJ		0		6091732
	47	interference	interference		48		FALSE	FALSE	FALSE	NN	NOUN		0		2708
	48	.	.		49		FALSE	FALSE	FALSE	.	.		0		11777614
	49	[	[		50		FALSE	FALSE	FALSE	CC	CONJ		0		52064
	50	Previous	Previous		51		FALSE	FALSE	FALSE	JJ	ADJ		0		29795
	51	story	story		52		FALSE	FALSE	FALSE	NN	NOUN		0		74555
	52	,	,		53		FALSE	TRUE	FALSE	,	.		0		13601952
	53	posted	posted		54		FALSE	FALSE	FALSE	VBD	VERB		0		27853
	54	at	at		55		FALSE	FALSE	FALSE	IN	ADP		0		1249542
	55	10:54	10:54		56		FALSE	FALSE	FALSE	CD	NUM		0		8
	56	p.m.	p.m.		57		FALSE	FALSE	FALSE	NN	NOUN		0		28861
	57	ET	ET		58		FALSE	FALSE	FALSE	NNP	NOUN		0		9795
	58	]	]		59		FALSE	FALSE	FALSE	NNP	NOUN		0		51781
	59	(	(		60		FALSE	FALSE	FALSE	(	.		0		725404
	60	@entity0	CNN		61		TRUE	FALSE	FALSE	NNP	NOUN		0		883763
	61	)	)		62		FALSE	FALSE	FALSE	)	.		0		732258
	62	--	--		63		FALSE	FALSE	FALSE	:	.		0		1295186
	63	In	In		64		FALSE	FALSE	FALSE	IN	ADP		0		5656514
	64	cities	cities		65		FALSE	FALSE	FALSE	NNS	NOUN		0		27285
3	65	across	across	across	66	6	FALSE	FALSE	FALSE	IN	ADP	1	0	FALSE	79839
4	66	the	the	the	67	3	FALSE	FALSE	FALSE	DT	DET	2	0	FALSE	15221601
5	67	@entity17	United	United	68	6	TRUE	FALSE	FALSE	NNP	NOUN	3	0	FALSE	217120
6			States	States,	69	6	TRUE	FALSE	FALSE	NNPS	NOUN	4	0	FALSE	
	68	,	,		70		FALSE	TRUE	FALSE	,	.		0		13601952
7	69	marchers	marchers	marchers	71	8	FALSE	FALSE	FALSE	NNS	NOUN	5	0	FALSE	696
8	70	took	took	took	72	4	FALSE	FALSE	FALSE	VBD	VERB	6	0	FALSE	119244
9	71	to	to	to	73	2	FALSE	FALSE	FALSE	TO	PRT	7	0	FALSE	7098918
10	72	the	the	the	74	3	FALSE	FALSE	FALSE	DT	DET	8	0	FALSE	15221601
11	73	streets	streets	streets	75	7	FALSE	FALSE	FALSE	NNS	NOUN	9	0	FALSE	28314
12	74	to	to	to	76	2	FALSE	FALSE	FALSE	TO	PRT	10	0	FALSE	7098918
13	75	show	show	show	77	4	FALSE	FALSE	FALSE	VB	VERB	11	0	FALSE	114591
14	76	support	support	support	78	7	FALSE	FALSE	FALSE	NN	NOUN	12	0	FALSE	115454
15	77	for	for	for	79	3	FALSE	FALSE	FALSE	IN	ADP	13	0	FALSE	2332393
16	78	protesters	protesters	protesters	80	10	FALSE	FALSE	FALSE	NNS	NOUN	14	0	TRUE	32287
17	79	in	in	in	81	2	FALSE	TRUE	FALSE	IN	ADP	15	0	FALSE	5656514
18	80	@entity21	Baltimore	Baltimore	82	9	TRUE	FALSE	FALSE	NNP	NOUN	16	0	FALSE	177671
19	81	and	and	and	83	3	FALSE	TRUE	FALSE	CC	CONJ	17	0	FALSE	6091732
20	82	to	to	to	84	2	FALSE	FALSE	FALSE	TO	PRT	18	0	FALSE	7098918
21	83	complain	complain	complain	85	8	FALSE	FALSE	FALSE	VB	VERB	19	0	FALSE	3119
22	84	about	about	about	86	5	FALSE	FALSE	FALSE	IN	ADP	20	0	FALSE	626437
23	85	police	police	police	87	6	FALSE	FALSE	FALSE	NN	NOUN	21	0	FALSE	202825
24	86	violence	violence	violence	88	8	FALSE	FALSE	FALSE	NN	NOUN	22	0	FALSE	74233
25	87	in	in	in	89	2	FALSE	TRUE	FALSE	IN	ADP	23	0	FALSE	5656514
26	88	their	their	their	90	5	FALSE	FALSE	FALSE	PRP$	PRON	24	0	FALSE	683887
27	89	own	own	own	91	3	FALSE	FALSE	FALSE	JJ	ADJ	25	0	FALSE	127532
28	90	towns	towns	towns.	92	5	FALSE	FALSE	FALSE	NNS	NOUN	26	0	FALSE	9232
	91	.	.		93		FALSE	FALSE	FALSE	.	.		0		11777614
29	92	On	On	On	94	2	FALSE	FALSE	FALSE	IN	ADP	1	0	FALSE	2085421
30	93	Wednesday	Wednesday	Wednesday	95	9	FALSE	FALSE	FALSE	NNP	NOUN	2	0	TRUE	125383
31	94	night	night	night,	96	5	FALSE	FALSE	FALSE	NN	NOUN	3	0	FALSE	94960
	95	,	,		97		FALSE	TRUE	FALSE	,	.		0		13601952
32	96	several	several	several	98	7	FALSE	FALSE	FALSE	JJ	ADJ	4	0	FALSE	92947
33	97	hundred	hundred	hundred	99	7	FALSE	FALSE	FALSE	CD	NUM	5	0	FALSE	7143
34	98	people	people	people	100	6	FALSE	FALSE	FALSE	NNS	NOUN	6	0	FALSE	545800
35	99	streamed	streamed	streamed	101	8	FALSE	FALSE	FALSE	VBD	VERB	7	0	FALSE	870
36	100	into	into	into	102	4	FALSE	FALSE	FALSE	IN	ADP	8	0	FALSE	350851
37	101	@entity25	Union	Union	103	5	TRUE	FALSE	FALSE	NNP	NOUN	9	0	FALSE	149500
38			Square	Square	104	6	TRUE	FALSE	FALSE	NNP	NOUN	10	0	FALSE	
39	102	for	for	for	105	3	FALSE	FALSE	FALSE	IN	ADP	11	0	FALSE	2332393
40	103	an	an	an	106	2	FALSE	FALSE	FALSE	DT	DET	12	0	FALSE	963468
41	104	-	-	-NYC	107	3	FALSE	FALSE	FALSE	NN	NOUN	13	0	FALSE	6863757
	105	@entity26	NYC		108		TRUE	FALSE	FALSE	NNP	NOUN		0		149261
42			Rise	Rise	109	4	TRUE	FALSE	FALSE	NNP	NOUN	14	0	FALSE	
43			Up	Up	110	2	TRUE	FALSE	FALSE	NNP	NOUN	15	0	TRUE	
44	106	&	&	&	111	0	FALSE	FALSE	FALSE	CC	CONJ	16	0	FALSE	5265
45	107	Shut	Shut	Shut	112	4	FALSE	FALSE	FALSE	NNP	NOUN	17	0	FALSE	12296
46	108	It	It	It	113	2	FALSE	FALSE	FALSE	PRP	PRON	18	0	FALSE	2035994
47	109	Down	Down	Down	114	4	FALSE	FALSE	FALSE	RP	PRT	19	0	FALSE	177572
48	110	With	With	With	115	4	FALSE	FALSE	FALSE	IN	ADP	20	0	FALSE	1730692
49	111	@entity21	Baltimore	Baltimore-	116	9	TRUE	FALSE	FALSE	NNP	NOUN	21	0	FALSE	177671
	112	-	-		117		FALSE	FALSE	FALSE	NNP	NOUN		0		6863757
50	113	rally	rally	rally.	118	5	FALSE	FALSE	FALSE	NN	NOUN	22	0	FALSE	10841
	114	.	.		119		FALSE	FALSE	FALSE	.	.		0		11777614
51	115	Protesters	Protesters	Protesters	120	10	FALSE	FALSE	FALSE	NNS	NOUN	1	0	FALSE	32287
52	116	headed	headed	headed	121	6	FALSE	FALSE	FALSE	VBD	VERB	2	0	FALSE	17651
53	117	west	west	west	122	4	FALSE	FALSE	FALSE	NN	NOUN	3	0	FALSE	12954
54	118	on	on	on	123	2	FALSE	FALSE	FALSE	IN	ADP	4	0	FALSE	2085421
55	119	17th	17th	17th	124	4	FALSE	FALSE	FALSE	CD	NUM	5	0	FALSE	3734
56	120	Street	Street	Street	125	6	FALSE	FALSE	FALSE	NNP	NOUN	6	0	FALSE	24723
57	121	and	and	and	126	3	FALSE	TRUE	FALSE	CC	CONJ	7	0	FALSE	6091732
58	122	were	were	were	127	4	FALSE	FALSE	FALSE	VBD	VERB	8	0	TRUE	692942
59	123	met	met	met	128	3	FALSE	FALSE	FALSE	VBN	VERB	9	0	FALSE	42793
60	124	by	by	by	129	2	FALSE	FALSE	FALSE	IN	ADP	10	0	FALSE	1058023
61	125	@entity31	New	New	130	3	TRUE	FALSE	FALSE	NNP	NOUN	11	0	FALSE	132047
62			York	York	131	4	TRUE	FALSE	FALSE	NNP	NOUN	12	0	FALSE	
63			City	City	132	4	TRUE	FALSE	FALSE	NNP	NOUN	13	0	FALSE	
64			Police	Police	133	6	TRUE	FALSE	FALSE	NNP	NOUN	14	0	FALSE	
65	126	officers	officers	officers	134	8	FALSE	FALSE	FALSE	NNS	NOUN	15	0	FALSE	36944
66	127	who	who	who	135	3	FALSE	FALSE	FALSE	WP	PRON	16	0	FALSE	867812
67	128	pushed	pushed	pushed	136	6	FALSE	FALSE	FALSE	VBD	VERB	17	0	FALSE	14288
68	129	them	them	them	137	4	FALSE	FALSE	FALSE	PRP	PRON	18	0	FALSE	314701
69	130	back	back	back.	138	4	FALSE	FALSE	FALSE	RP	PRT	19	0	FALSE	227596
	131	.	.		139		FALSE	FALSE	FALSE	.	.		0		11777614
70	132	A	A	A	140	1	FALSE	FALSE	FALSE	DT	DET	1	0	FALSE	6026258
71	133	small	small	small	141	5	FALSE	FALSE	FALSE	JJ	ADJ	2	0	FALSE	60225
72	134	scuffle	scuffle	scuffle	142	7	FALSE	FALSE	FALSE	NN	NOUN	3	0	FALSE	620
73	135	broke	broke	broke	143	5	FALSE	FALSE	FALSE	VBD	VERB	4	0	FALSE	22961
74	136	out	out	out	144	3	FALSE	FALSE	FALSE	RP	PRT	5	0	TRUE	471115
75	137	between	between	between	145	7	FALSE	FALSE	FALSE	IN	ADP	6	0	FALSE	169472
76	138	the	the	the	146	3	FALSE	FALSE	FALSE	DT	DET	7	0	FALSE	15221601
77	139	two	two	two	147	3	FALSE	FALSE	FALSE	CD	NUM	8	0	FALSE	427153
78	140	front	front	front	148	5	FALSE	FALSE	FALSE	JJ	ADJ	9	0	FALSE	46308
79	141	lines	lines	lines	149	5	FALSE	FALSE	FALSE	NNS	NOUN	10	0	FALSE	19937
80	142	and	and	and	150	3	FALSE	TRUE	FALSE	CC	CONJ	11	0	FALSE	6091732
81	143	police	police	police	151	6	FALSE	FALSE	FALSE	NNS	NOUN	12	0	FALSE	202825
82	144	placed	placed	placed	152	6	FALSE	FALSE	FALSE	VBD	VERB	13	0	FALSE	25779
83	145	at	at	at	153	2	FALSE	FALSE	FALSE	IN	ADP	14	0	FALSE	1249542
84	146	least	least	least	154	5	FALSE	FALSE	FALSE	JJS	ADJ	15	0	FALSE	88256
85	147	20	20	20	155	2	FALSE	FALSE	FALSE	CD	NUM	16	0	FALSE	70506
86	148	people	people	people	156	6	FALSE	FALSE	FALSE	NNS	NOUN	17	0	FALSE	545800
87	149	in	in	in	157	2	FALSE	TRUE	FALSE	IN	ADP	18	0	FALSE	5656514
88	150	zip	zip	zip	158	3	FALSE	FALSE	FALSE	NN	NOUN	19	0	FALSE	1048
89	151	ties	ties	ties	159	4	FALSE	FALSE	FALSE	NNS	NOUN	20	0	FALSE	16571
90	152	in	in	in	160	2	FALSE	TRUE	FALSE	IN	ADP	21	0	FALSE	5656514
91	153	the	the	the	161	3	FALSE	FALSE	FALSE	DT	DET	22	0	TRUE	15221601
92	154	street	street	street.	162	6	FALSE	FALSE	FALSE	NN	NOUN	23	0	FALSE	24723
	155	.	.		163		FALSE	FALSE	FALSE	.	.		0		11777614
93	156	The	The	The	164	3	FALSE	FALSE	FALSE	DT	DET	1	0	FALSE	15221601
94	157	@entity31	NYPD	NYPD	165	4	TRUE	FALSE	FALSE	NNP	NOUN	2	0	FALSE	132047
95	158	also	also	also	166	4	FALSE	TRUE	FALSE	RB	ADV	3	0	FALSE	460309
96	159	handed	handed	handed	167	6	FALSE	FALSE	FALSE	VBD	VERB	4	0	FALSE	13637
97	160	out	out	out	168	3	FALSE	FALSE	FALSE	RP	PRT	5	0	FALSE	471115
98	161	fliers	fliers	fliers	169	6	FALSE	FALSE	FALSE	NNS	NOUN	6	0	FALSE	1134
99	162	and	and	and	170	3	FALSE	TRUE	FALSE	CC	CONJ	7	0	FALSE	6091732
100	163	used	used	used	171	4	FALSE	FALSE	FALSE	VBD	VERB	8	0	FALSE	107218
101	164	loudspeakers	loudspeakers	loudspeakers	172	12	FALSE	FALSE	FALSE	NNS	NOUN	9	0	FALSE	305
102	165	to	to	to	173	2	FALSE	FALSE	FALSE	TO	PRT	10	0	FALSE	7098918
103	166	tell	tell	tell	174	4	FALSE	FALSE	FALSE	VB	VERB	11	0	FALSE	48254
104	167	protesters	protesters	protesters	175	10	FALSE	FALSE	FALSE	NNS	NOUN	12	0	FALSE	32287
105	168	and	and	and	176	3	FALSE	TRUE	FALSE	CC	CONJ	13	0	TRUE	6091732
106	169	pedestrians	pedestrians	pedestrians	177	11	FALSE	FALSE	FALSE	NNS	NOUN	14	0	FALSE	758
107	170	to	to	to	178	2	FALSE	FALSE	FALSE	TO	PRT	15	0	FALSE	7098918
108	171	stay	stay	stay	179	4	FALSE	FALSE	FALSE	VB	VERB	16	0	FALSE	41642
109	172	on	on	on	180	2	FALSE	FALSE	FALSE	IN	ADP	17	0	FALSE	2085421
110	173	the	the	the	181	3	FALSE	FALSE	FALSE	DT	DET	18	0	FALSE	15221601
111	174	sidewalk	sidewalk	sidewalk.	182	8	FALSE	FALSE	FALSE	NN	NOUN	19	0	FALSE	1922
	175	.	.		183		FALSE	FALSE	FALSE	.	.		0		11777614
112	176	One	One	One	184	3	FALSE	FALSE	FALSE	CD	NUM	1	0	FALSE	616806
113	177	person	person	person	185	6	FALSE	FALSE	FALSE	NN	NOUN	2	0	FALSE	67039
114	178	was	was	was	186	3	FALSE	FALSE	FALSE	VBD	VERB	3	0	FALSE	1968273
115	179	placed	placed	placed	187	6	FALSE	FALSE	FALSE	VBN	VERB	4	0	FALSE	25779
116	180	in	in	in	188	2	FALSE	TRUE	FALSE	IN	ADP	5	0	FALSE	5656514
117	181	ambulance	ambulance	ambulance	189	9	FALSE	FALSE	FALSE	NN	NOUN	6	0	FALSE	3030
118	182	and	and	and	190	3	FALSE	TRUE	FALSE	CC	CONJ	7	0	FALSE	6091732
119	183	taken	taken	taken	191	5	FALSE	FALSE	FALSE	VBN	VERB	8	0	FALSE	73944
120	184	away	away	away.	192	4	FALSE	FALSE	FALSE	RB	ADV	9	0	TRUE	95794
	185	.	.		193		FALSE	FALSE	FALSE	.	.		0		11777614
121	186	The	The	The	194	3	FALSE	FALSE	FALSE	DT	DET	1	0	FALSE	15221601
122	187	crowd	crowd	crowd	195	5	FALSE	FALSE	FALSE	NN	NOUN	2	0	FALSE	26376
123	188	headed	headed	headed	196	6	FALSE	FALSE	FALSE	VBD	VERB	3	0	FALSE	17651
124	189	toward	toward	toward	197	6	FALSE	FALSE	FALSE	IN	ADP	4	0	FALSE	35860
125	190	@entity47	Times	Times	198	5	TRUE	FALSE	FALSE	NNP	NOUN	5	0	FALSE	96916
126			Square	Square.	199	6	TRUE	FALSE	FALSE	NNP	NOUN	6	0	FALSE	
	191	.	.		200		FALSE	FALSE	FALSE	.	.		0		11777614
127	192	A	A	A	201	1	FALSE	FALSE	FALSE	NNP	NOUN	1	0	FALSE	6026258
128	193	law	law	law	202	3	FALSE	FALSE	FALSE	NN	NOUN	2	0	FALSE	118137
129	194	enforcement	enforcement	enforcement	203	11	FALSE	FALSE	FALSE	NN	NOUN	3	0	FALSE	26771
130	195	source	source	source	204	6	FALSE	FALSE	FALSE	NN	NOUN	4	0	FALSE	35574
131	196	told	told	told	205	4	FALSE	FALSE	FALSE	VBD	VERB	5	0	FALSE	355885
132	197	@entity0	CNN	CNN	206	3	TRUE	FALSE	FALSE	NNP	NOUN	6	0	FALSE	883763
133	198	that	that	that	207	4	FALSE	FALSE	FALSE	IN	ADP	7	0	FALSE	2943020
134	199	more	more	more	208	4	FALSE	FALSE	FALSE	JJR	ADJ	8	0	TRUE	603546
135	200	than	than	than	209	4	FALSE	FALSE	FALSE	IN	ADP	9	0	FALSE	386331
136	201	60	60	60	210	2	FALSE	FALSE	FALSE	CD	NUM	10	0	FALSE	23952
137	202	people	people	people	211	6	FALSE	FALSE	FALSE	NNS	NOUN	11	0	FALSE	545800
138	203	were	were	were	212	4	FALSE	FALSE	FALSE	VBD	VERB	12	0	FALSE	692942
139	204	arrested	arrested	arrested	213	8	FALSE	FALSE	FALSE	VBN	VERB	13	0	FALSE	46528
140	205	during	during	during	214	6	FALSE	FALSE	FALSE	IN	ADP	14	0	FALSE	188532
141	206	the	the	the	215	3	FALSE	FALSE	FALSE	DT	DET	15	0	FALSE	15221601
142	207	demonstrations	demonstrations	demonstrations.	216	14	FALSE	FALSE	FALSE	NNS	NOUN	16	0	FALSE	10331
	208	.	.		217		FALSE	FALSE	FALSE	.	.		0		11777614
143	209	The	The	The	218	3	FALSE	FALSE	FALSE	DT	DET	1	0	FALSE	15221601
144	210	rally	rally	rally	219	5	FALSE	FALSE	FALSE	NN	NOUN	2	0	FALSE	10841
145	211	was	was	was	220	3	FALSE	FALSE	FALSE	VBD	VERB	3	0	FALSE	1968273
146	212	organized	organized	organized	221	9	FALSE	FALSE	FALSE	VBN	VERB	4	0	FALSE	11946
147	213	through	through	through	222	7	FALSE	FALSE	FALSE	IN	ADP	5	0	TRUE	189457
148	214	social	social	social	223	6	FALSE	FALSE	FALSE	JJ	ADJ	6	0	FALSE	56031
149	215	media	media	media,	224	5	FALSE	FALSE	FALSE	NNS	NOUN	7	0	FALSE	93520
	216	,	,		225		FALSE	TRUE	FALSE	,	.		0		13601952
150	217	much	much	much	226	4	FALSE	FALSE	FALSE	JJ	ADJ	8	0	FALSE	172611
151	218	like	like	like	227	4	FALSE	FALSE	FALSE	IN	ADP	9	0	FALSE	332681
152	219	protests	protests	protests	228	8	FALSE	TRUE	FALSE	NNS	NOUN	10	0	FALSE	30895
153	220	over	over	over	229	4	FALSE	FALSE	FALSE	IN	ADP	11	0	FALSE	355380
154	221	the	the	the	230	3	FALSE	FALSE	FALSE	DT	DET	12	0	FALSE	15221601
155	222	killing	killing	killing	231	7	FALSE	FALSE	FALSE	NN	NOUN	13	0	FALSE	42339
156	223	of	of	of	232	2	FALSE	FALSE	FALSE	IN	ADP	14	0	FALSE	6085230
157	224	@entity55	Eric	Eric	233	4	TRUE	FALSE	FALSE	NNP	NOUN	15	0	FALSE	87525
158			Garner	Garner,	234	6	TRUE	FALSE	FALSE	NNP	NOUN	16	0	FALSE	
	225	,	,		235		FALSE	TRUE	FALSE	,	.		0		13601952
159	226	who	who	who	236	3	FALSE	FALSE	FALSE	WP	PRON	17	0	FALSE	867812
160	227	died	died	died	237	4	FALSE	FALSE	FALSE	VBD	VERB	18	0	FALSE	74299
161	228	while	while	while	238	5	FALSE	FALSE	FALSE	IN	ADP	19	0	TRUE	246587
162	229	police	police	police	239	6	FALSE	FALSE	FALSE	NNS	NOUN	20	0	FALSE	202825
163	230	held	held	held	240	4	FALSE	TRUE	FALSE	VBD	VERB	21	0	FALSE	72854
164	231	him	him	him	241	3	FALSE	FALSE	FALSE	PRP	PRON	22	0	FALSE	325074
165	232	in	in	in	242	2	FALSE	TRUE	FALSE	IN	ADP	23	0	FALSE	5656514
166	233	what	what	what	243	4	FALSE	FALSE	FALSE	WP	PRON	24	0	FALSE	490965
167	234	appeared	appeared	appeared	244	8	FALSE	FALSE	FALSE	VBD	VERB	25	0	FALSE	37812
168	235	to	to	to	245	2	FALSE	FALSE	FALSE	TO	PRT	26	0	FALSE	7098918
169	236	be	be	be	246	2	FALSE	FALSE	FALSE	VB	VERB	27	0	FALSE	1098369
170	237	a	a	a	247	1	FALSE	FALSE	FALSE	DT	DET	28	0	FALSE	6026258
171	238	chokehold	chokehold	chokehold.	248	9	FALSE	FALSE	FALSE	NN	NOUN	29	0	FALSE	522
	239	.	.		249		FALSE	FALSE	FALSE	.	.		0		11777614
172	240	The	The	The	250	3	FALSE	FALSE	FALSE	DT	DET	1	0	FALSE	15221601
173	241	demonstrators	demonstrators	demonstrators	251	13	FALSE	FALSE	FALSE	NNS	NOUN	2	0	FALSE	11638
174	242	chanted	chanted	chanted	252	7	FALSE	FALSE	FALSE	VBD	VERB	3	0	FALSE	2618
175	243	-	-	-Black	253	5	FALSE	FALSE	FALSE	JJ	ADJ	4	0	TRUE	6863757
	244	@entity60	Black		254		TRUE	FALSE	FALSE	NNP	NOUN		0		83986
176			Lives	Lives	255	5	TRUE	FALSE	FALSE	VBZ	VERB	5	0	FALSE	
177			Matter	Matter-	256	6	TRUE	FALSE	FALSE	NNP	NOUN	6	0	FALSE	
	245	-	-		257		FALSE	FALSE	FALSE	NNP	NOUN		0		6863757
178	246	and	and	and	258	3	FALSE	TRUE	FALSE	CC	CONJ	7	0	FALSE	6091732
179	247	-	-	-Justice	259	7	FALSE	FALSE	FALSE	NNP	NOUN	8	0	FALSE	6863757
	248	@entity61	Justice		260		TRUE	FALSE	FALSE	NNP	NOUN		0		83879
180			for	for	261	3	TRUE	FALSE	FALSE	IN	ADP	9	0	FALSE	
181			Freddie	Freddie	262	7	TRUE	FALSE	FALSE	NNP	NOUN	10	0	FALSE	
182			Gray	Gray-	263	4	TRUE	FALSE	FALSE	NNP	NOUN	11	0	FALSE	
	249	-	-		264		FALSE	FALSE	FALSE	NNP	NOUN		0		6863757
183	250	--	--	--	265	0	FALSE	FALSE	FALSE	:	.	12	0	FALSE	1295186
184	251	the	the	the	266	3	FALSE	FALSE	FALSE	DT	DET	13	0	FALSE	15221601
185	252	@entity21	Baltimore	Baltimore	267	9	TRUE	FALSE	FALSE	NNP	NOUN	14	0	FALSE	177671
186	253	man	man	man	268	3	FALSE	FALSE	FALSE	NN	NOUN	15	0	FALSE	127033
187	254	whose	whose	whose	269	5	FALSE	FALSE	FALSE	WP$	PRON	16	0	FALSE	49954
188	255	death	death	death	270	5	FALSE	FALSE	FALSE	NN	NOUN	17	0	FALSE	109368
189	256	sparked	sparked	sparked	271	7	FALSE	FALSE	FALSE	VBD	VERB	18	0	TRUE	9388
190	257	street	street	street	272	6	FALSE	FALSE	FALSE	NN	NOUN	19	0	FALSE	24723
191	258	confrontations	confrontations	confrontations	273	14	FALSE	FALSE	FALSE	NNS	NOUN	20	0	FALSE	1047
192	259	in	in	in	274	2	FALSE	TRUE	FALSE	IN	ADP	21	0	FALSE	5656514
193	260	@entity21	Baltimore	Baltimore.	275	9	TRUE	FALSE	FALSE	NNP	NOUN	22	0	FALSE	177671
	261	.	.		276		FALSE	FALSE	FALSE	.	.		0		11777614
194	262	@entity0	CNN	CNN	277	3	TRUE	FALSE	FALSE	NNP	NOUN	1	0	FALSE	883763
195	263	affiliate	affiliate	affiliate	278	9	FALSE	FALSE	FALSE	NN	NOUN	2	0	FALSE	19566
196	264	@entity65	WCBS	WCBS	279	4	TRUE	FALSE	FALSE	NNP	NOUN	3	0	FALSE	77792
197	265	reported	reported	reported	280	8	FALSE	FALSE	FALSE	VBD	VERB	4	0	FALSE	111517
198	266	Mayor	Mayor	Mayor	281	5	FALSE	FALSE	FALSE	NNP	NOUN	5	0	FALSE	23284
199	267	@entity66	Bill	Bill	282	4	TRUE	FALSE	FALSE	NNP	NOUN	6	0	FALSE	76595
200			de	de	283	2	TRUE	FALSE	FALSE	IN	ADP	7	0	FALSE	
201			Blasio	Blasio	284	6	TRUE	FALSE	FALSE	NNP	NOUN	8	0	TRUE	
202	268	sent	sent	sent	285	4	FALSE	FALSE	FALSE	VBD	VERB	9	0	FALSE	50538
203	269	a	a	a	286	1	FALSE	FALSE	FALSE	DT	DET	10	0	FALSE	6026258
204	270	message	message	message	287	7	FALSE	FALSE	FALSE	NN	NOUN	11	0	FALSE	43284
205	271	to	to	to	288	2	FALSE	FALSE	FALSE	TO	PRT	12	0	FALSE	7098918
206	272	the	the	the	289	3	FALSE	FALSE	FALSE	DT	DET	13	0	FALSE	15221601
207	273	protesters	protesters	protesters:	290	10	FALSE	FALSE	FALSE	NNS	NOUN	14	0	FALSE	32287
208	274	:	:	-I-d	291	2	FALSE	FALSE	FALSE	:	.	15	0	FALSE	660636
	275	-	-		292		FALSE	FALSE	FALSE	NN	NOUN		0		6863757
	276	I	I		293		FALSE	FALSE	FALSE	PRP	PRON		0		1388824
	277	-d	-d		294		FALSE	FALSE	FALSE	MD	VERB		0		56646
209	278	say	say	say	295	3	FALSE	FALSE	FALSE	VB	VERB	16	0	FALSE	181976
210	279	that	that	that	296	4	FALSE	FALSE	FALSE	IN	ADP	17	0	FALSE	2943020
211	280	if	if	if	297	2	FALSE	FALSE	FALSE	IN	ADP	18	0	FALSE	408499
212	281	you	you	you	298	3	FALSE	FALSE	FALSE	PRP	PRON	19	0	FALSE	706568
213	282	want	want	want	299	4	FALSE	FALSE	FALSE	VBP	VERB	20	0	FALSE	154678
214	283	to	to	to	300	2	FALSE	FALSE	FALSE	TO	PRT	21	0	FALSE	7098918
215	284	make	make	make	301	4	FALSE	FALSE	FALSE	VB	VERB	22	0	FALSE	196170
216	285	change	change	change,	302	6	FALSE	FALSE	FALSE	NN	NOUN	23	0	FALSE	79446
	286	,	,		303		FALSE	TRUE	FALSE	,	.		0		13601952
217	287	keep	keep	keep	304	4	FALSE	FALSE	FALSE	VB	VERB	24	0	TRUE	67490
218	288	things	things	things	305	6	FALSE	FALSE	FALSE	NNS	NOUN	25	0	FALSE	92658
219	289	peaceful	peaceful	peaceful.-	306	8	FALSE	FALSE	FALSE	JJ	ADJ	26	0	FALSE	15171
	290	.	.		307		FALSE	FALSE	FALSE	.	.		0		11777614
220	291	-	-	A	308	1	FALSE	FALSE	FALSE	VB	VERB	1	0	FALSE	6863757
221	292	A	A	smaller	309	7	FALSE	FALSE	FALSE	DT	DET	2	0	FALSE	6026258
	293	smaller	smaller		310		FALSE	FALSE	FALSE	JJR	ADJ		0		11127
222	294	rally	rally	rally	311	5	FALSE	FALSE	FALSE	NN	NOUN	3	0	FALSE	10841
223	295	was	was	was	312	3	FALSE	FALSE	FALSE	VBD	VERB	4	0	FALSE	1968273
224	296	held	held	held	313	4	FALSE	TRUE	FALSE	VBN	VERB	5	0	FALSE	72854
225	297	Tuesday	Tuesday	Tuesday	314	7	FALSE	FALSE	FALSE	NNP	NOUN	6	0	FALSE	137004
226	298	in	in	in	315	2	FALSE	TRUE	FALSE	IN	ADP	7	0	FALSE	5656514
227	299	@entity73	New	New	316	3	TRUE	FALSE	FALSE	NNP	NOUN	8	0	FALSE	71104
228			York	York.	317	4	TRUE	FALSE	FALSE	NNP	NOUN	9	0	FALSE	
	300	.	.		318		FALSE	FALSE	FALSE	.	.		0		11777614
229	301	In	In	In	319	2	FALSE	FALSE	FALSE	IN	ADP	1	0	FALSE	5656514
230	302	@entity76	Washington	Washington,	320	10	TRUE	TRUE	FALSE	NNP	NOUN	2	0	FALSE	72529
	303	,	,		321		FALSE	TRUE	FALSE	,	.		0		13601952
231	304	about	about	about	322	5	FALSE	FALSE	FALSE	RB	ADV	3	0	TRUE	626437
232	305	500	500	500	323	3	FALSE	FALSE	FALSE	CD	NUM	4	0	FALSE	12947
233	306	protesters	protesters	protesters,	324	10	FALSE	FALSE	FALSE	NNS	NOUN	5	0	FALSE	32287
	307	,	,		325		FALSE	TRUE	FALSE	,	.		0		13601952
234	308	mostly	mostly	mostly	326	6	FALSE	FALSE	FALSE	RB	ADV	6	0	FALSE	16949
235	309	in	in	in	327	2	FALSE	TRUE	FALSE	IN	ADP	7	0	FALSE	5656514
236	310	their	their	their	328	5	FALSE	FALSE	FALSE	PRP$	PRON	8	0	FALSE	683887
237	311	20s	20s	20s,	329	3	FALSE	FALSE	FALSE	CD	NUM	9	0	FALSE	2496
	312	,	,		330		FALSE	TRUE	FALSE	,	.		0		13601952
238	313	gathered	gathered	gathered	331	8	FALSE	FALSE	FALSE	VBN	VERB	10	0	FALSE	12951
239	314	in	in	in	332	2	FALSE	TRUE	FALSE	IN	ADP	11	0	FALSE	5656514
240	315	the	the	the	333	3	FALSE	FALSE	FALSE	DT	DET	12	0	FALSE	15221601
241	316	middle	middle	middle	334	6	FALSE	FALSE	FALSE	NN	NOUN	13	0	FALSE	25200
242	317	of	of	of	335	2	FALSE	FALSE	FALSE	IN	ADP	14	0	FALSE	6085230
243	318	@entity78	H	H	336	1	TRUE	FALSE	FALSE	NNP	NOUN	15	0	FALSE	67541
244			Street	Street	337	6	TRUE	FALSE	FALSE	NNP	NOUN	16	0	FALSE	
245	319	and	and	and	338	3	FALSE	TRUE	FALSE	CC	CONJ	17	0	FALSE	6091732
246	320	7th	7th	7th	339	3	FALSE	FALSE	FALSE	CD	NUM	18	0	FALSE	854
247	321	and	and	and	340	3	FALSE	TRUE	FALSE	CC	CONJ	19	0	TRUE	6091732
248	322	chanted	chanted	chanted,	341	7	FALSE	FALSE	FALSE	VBD	VERB	20	0	FALSE	2618
	323	,	,		342		FALSE	TRUE	FALSE	,	.		0		13601952
249	324	-	-	-All	343	3	FALSE	FALSE	FALSE	NNP	NOUN	21	0	FALSE	6863757
	325	All	All		344		FALSE	FALSE	FALSE	NNP	NOUN		0		492104
250	326	night	night	night,	345	5	FALSE	FALSE	FALSE	NN	NOUN	22	0	FALSE	94960
	327	,	,		346		FALSE	TRUE	FALSE	,	.		0		13601952
251	328	all	all	all	347	3	FALSE	FALSE	FALSE	DT	DET	23	0	FALSE	492104
252	329	day	day	day,	348	3	FALSE	FALSE	FALSE	NN	NOUN	24	0	FALSE	200768
	330	,	,		349		FALSE	TRUE	FALSE	,	.		0		13601952
253	331	we	we	we-re	350	4	FALSE	FALSE	FALSE	PRP	PRON	25	0	FALSE	960629
	332	-re	-re		351		FALSE	FALSE	FALSE	VBP	VERB		0		191260
254	333	gon	gon	gonna	352	5	FALSE	FALSE	FALSE	VBG	VERB	26	0	FALSE	4753
	334	na	na		353		FALSE	FALSE	FALSE	TO	PRT		0		5506
255	335	fight	fight	fight	354	5	FALSE	FALSE	FALSE	NN	NOUN	27	0	FALSE	56548
256	336	for	for	for	355	3	FALSE	FALSE	FALSE	IN	ADP	28	0	FALSE	2332393
257	337	@entity79	Freddie	Freddie	356	7	TRUE	FALSE	FALSE	NNP	NOUN	29	0	FALSE	70136
258			Gray	Gray.-	357	4	TRUE	FALSE	FALSE	NNP	NOUN	30	0	FALSE	
	338	.	.		358		FALSE	FALSE	FALSE	.	.		0		11777614
259	339	-	-	The	359	3	FALSE	FALSE	FALSE	VB	VERB	1	0	FALSE	6863757
260	340	The	The	mood	360	4	FALSE	FALSE	FALSE	DT	DET	2	0	FALSE	15221601
	341	mood	mood		361		FALSE	FALSE	FALSE	NN	NOUN		0		4923
261	342	seemed	seemed	seemed	362	6	FALSE	FALSE	FALSE	VBD	VERB	3	0	TRUE	21942
262	343	more	more	more	363	4	FALSE	FALSE	FALSE	RBR	ADV	4	0	FALSE	603546
263	344	festive	festive	festive	364	7	FALSE	FALSE	FALSE	JJ	ADJ	5	0	FALSE	879
264	345	than	than	than	365	4	FALSE	FALSE	FALSE	IN	ADP	6	0	FALSE	386331
265	346	confrontational	confrontational	confrontational,	366	15	FALSE	FALSE	FALSE	JJ	ADJ	7	0	FALSE	635
	347	,	,		367		FALSE	TRUE	FALSE	,	.		0		13601952
266	348	with	with	with	368	4	FALSE	FALSE	FALSE	IN	ADP	8	0	FALSE	1730692
267	349	songs	songs	songs	369	5	FALSE	FALSE	FALSE	NNS	NOUN	9	0	FALSE	11749
268	350	by	by	by	370	2	FALSE	FALSE	FALSE	IN	ADP	10	0	FALSE	1058023
269	351	@entity82	Public	Public	371	6	TRUE	FALSE	FALSE	NNP	NOUN	11	0	FALSE	63690
270			Enemy	Enemy	372	5	TRUE	FALSE	FALSE	NNP	NOUN	12	0	FALSE	
271	352	like	like	like	373	4	FALSE	FALSE	FALSE	IN	ADP	13	0	FALSE	332681
272	353	-	-	-Fight	374	5	FALSE	FALSE	FALSE	NNP	NOUN	14	0	FALSE	6863757
	354	@entity86	Fight		375		TRUE	FALSE	FALSE	NNP	NOUN		0		61997
273			the	the	376	3	TRUE	FALSE	FALSE	DT	DET	15	0	FALSE	
274			Power	Power-	377	5	TRUE	FALSE	FALSE	NNP	NOUN	16	0	TRUE	
	355	-	-		378		FALSE	FALSE	FALSE	NNP	NOUN		0		6863757
275	356	playing	playing	playing	379	7	FALSE	FALSE	FALSE	NN	NOUN	17	0	FALSE	45839
276	357	and	and	and	380	3	FALSE	TRUE	FALSE	CC	CONJ	18	0	FALSE	6091732
277	358	sign	sign	sign-language	381	12	FALSE	FALSE	FALSE	NN	NOUN	19	0	FALSE	27979
	359	-	-		382		FALSE	FALSE	FALSE	:	.		0		2168741
	360	language	language		383		FALSE	FALSE	FALSE	NN	NOUN		0		20479
278	361	interpreters	interpreters	interpreters	384	12	FALSE	FALSE	FALSE	NNS	NOUN	20	0	FALSE	250
279	362	translating	translating	translating	385	11	FALSE	FALSE	FALSE	VBG	VERB	21	0	FALSE	465
280	363	the	the	the	386	3	FALSE	FALSE	FALSE	DT	DET	22	0	FALSE	15221601
281	364	music	music	music	387	5	FALSE	FALSE	FALSE	NN	NOUN	23	0	FALSE	45548
282	365	and	and	and	388	3	FALSE	TRUE	FALSE	CC	CONJ	24	0	FALSE	6091732
283	366	chants	chants	chants.	389	6	FALSE	FALSE	FALSE	NNS	NOUN	25	0	FALSE	1840
	367	.	.		390		FALSE	FALSE	FALSE	.	.		0		11777614
284	368	The	The	The	391	3	FALSE	FALSE	FALSE	DT	DET	1	0	FALSE	15221601
285	369	protest	protest	protest	392	7	FALSE	FALSE	FALSE	NN	NOUN	2	0	TRUE	20891
286	370	moved	moved	moved	393	5	FALSE	FALSE	FALSE	VBD	VERB	3	0	FALSE	39528
287	371	to	to	to	394	2	FALSE	FALSE	FALSE	TO	PRT	4	0	FALSE	7098918
288	372	the	the	the	395	3	FALSE	FALSE	FALSE	DT	DET	5	0	FALSE	15221601
289	373	@entity88	White	White	396	5	TRUE	FALSE	FALSE	NNP	NOUN	6	0	FALSE	60477
290			House	House	397	5	TRUE	FALSE	FALSE	NNP	NOUN	7	0	FALSE	
291	374	where	where	where	398	5	FALSE	FALSE	FALSE	WRB	ADV	8	0	FALSE	255870
292	375	most	most	most	399	4	FALSE	FALSE	FALSE	JJS	ADJ	9	0	FALSE	257598
293	376	of	of	of	400	2	FALSE	FALSE	FALSE	IN	ADP	10	0	FALSE	6085230
294	377	the	the	the	401	3	FALSE	FALSE	FALSE	DT	DET	11	0	FALSE	15221601
295	378	crowd	crowd	crowd	402	5	FALSE	FALSE	FALSE	NN	NOUN	12	0	FALSE	26376
296	379	dispersed	dispersed	dispersed.	403	9	FALSE	FALSE	FALSE	VBD	VERB	13	0	FALSE	953
	380	.	.		404		FALSE	FALSE	FALSE	.	.		0		11777614
297	381	It	It	It	405	2	FALSE	FALSE	FALSE	PRP	PRON	1	0	FALSE	2035994
298	382	started	started	started	406	7	FALSE	FALSE	FALSE	VBD	VERB	2	0	FALSE	66078
299	383	after	after	after	407	5	FALSE	FALSE	FALSE	IN	ADP	3	0	FALSE	594391
300	384	most	most	most	408	4	FALSE	FALSE	FALSE	JJS	ADJ	4	0	TRUE	257598
301	385	office	office	office	409	6	FALSE	FALSE	FALSE	NN	NOUN	5	0	FALSE	81835
302	386	workers	workers	workers	410	7	FALSE	FALSE	FALSE	NNS	NOUN	6	0	FALSE	38066
303	387	had	had	had	411	3	FALSE	FALSE	FALSE	VBD	VERB	7	0	FALSE	670091
304	388	headed	headed	headed	412	6	FALSE	FALSE	FALSE	VBN	VERB	8	0	FALSE	17651
305	389	home	home	home	413	4	FALSE	FALSE	FALSE	NN	NOUN	9	0	FALSE	190784
306	390	and	and	and	414	3	FALSE	TRUE	FALSE	CC	CONJ	10	0	FALSE	6091732
307	391	did	did	didn-t	415	5	FALSE	FALSE	FALSE	VBD	VERB	11	0	FALSE	307350
	392	n-t	n-t		416		FALSE	FALSE	FALSE	RB	ADV		0		698980
308	393	disrupt	disrupt	disrupt	417	7	FALSE	FALSE	FALSE	VB	VERB	12	0	FALSE	2394
309	394	the	the	the	418	3	FALSE	FALSE	FALSE	DT	DET	13	0	FALSE	15221601
310	395	@entity76	Washington	Washington	419	10	TRUE	TRUE	FALSE	NNP	NOUN	14	0	FALSE	72529
311	396	workforce	workforce	workforce	420	9	FALSE	FALSE	FALSE	NN	NOUN	15	0	FALSE	1910
312	397	badly	badly	badly.	421	5	FALSE	FALSE	FALSE	RB	ADV	16	0	TRUE	6290
	398	.	.		422		FALSE	FALSE	FALSE	.	.		0		11777614
313	399	One	One	One	423	3	FALSE	FALSE	FALSE	CD	NUM	1	0	FALSE	616806
314	400	of	of	of	424	2	FALSE	FALSE	FALSE	IN	ADP	2	0	FALSE	6085230
315	401	the	the	the	425	3	FALSE	FALSE	FALSE	DT	DET	3	0	FALSE	15221601
316	402	groups	groups	groups	426	6	FALSE	FALSE	FALSE	NNS	NOUN	4	0	FALSE	64365
317	403	involved	involved	involved	427	8	FALSE	FALSE	FALSE	VBN	VERB	5	0	FALSE	52122
318	404	in	in	in	428	2	FALSE	TRUE	FALSE	IN	ADP	6	0	FALSE	5656514
319	405	the	the	the	429	3	FALSE	FALSE	FALSE	DT	DET	7	0	FALSE	15221601
320	406	protest	protest	protest	430	7	FALSE	FALSE	FALSE	NN	NOUN	8	0	FALSE	20891
321	407	is	is	is	431	2	FALSE	FALSE	FALSE	VBZ	VERB	9	0	FALSE	2253480
322	408	the	the	the	432	3	FALSE	FALSE	FALSE	DT	DET	10	0	FALSE	15221601
323	409	@entity95	DC	DC	433	2	TRUE	FALSE	FALSE	NNP	NOUN	11	0	FALSE	56498
324			Ferguson	Ferguson	434	8	TRUE	FALSE	FALSE	NNP	NOUN	12	0	FALSE	
325			Movement	Movement.	435	8	TRUE	FALSE	FALSE	NNP	NOUN	13	0	FALSE	
	410	.	.		436		FALSE	FALSE	FALSE	.	.		0		11777614
326	411	Organizer	Organizer	Organizer	437	9	FALSE	FALSE	FALSE	NNP	NOUN	1	0	TRUE	1840
327	412	@entity96	Eugene	Eugene	438	6	TRUE	FALSE	FALSE	NNP	NOUN	2	0	FALSE	55543
328			Puryear	Puryear	439	7	TRUE	FALSE	FALSE	NNP	NOUN	3	0	FALSE	
329	413	said	said	said	440	4	FALSE	FALSE	FALSE	VBD	VERB	4	0	FALSE	2037128
330	414	the	the	the	441	3	FALSE	FALSE	FALSE	DT	DET	5	0	FALSE	15221601
331	415	march	march	march	442	5	FALSE	FALSE	FALSE	NN	NOUN	6	0	FALSE	47354
332	416	was	was	was	443	3	FALSE	FALSE	FALSE	VBD	VERB	7	0	FALSE	1968273
333	417	called	called	called	444	6	FALSE	FALSE	FALSE	VBN	VERB	8	0	FALSE	147460
334	418	to	to	to	445	2	FALSE	FALSE	FALSE	TO	PRT	9	0	FALSE	7098918
335	419	show	show	show	446	4	FALSE	FALSE	FALSE	VB	VERB	10	0	FALSE	114591
336	420	solidarity	solidarity	solidarity	447	10	FALSE	FALSE	FALSE	NN	NOUN	11	0	FALSE	3528
337	421	with	with	with	448	4	FALSE	FALSE	FALSE	IN	ADP	12	0	FALSE	1730692
338	422	the	the	the	449	3	FALSE	FALSE	FALSE	DT	DET	13	0	FALSE	15221601
339	423	residents	residents	residents	450	9	FALSE	FALSE	FALSE	NNS	NOUN	14	0	TRUE	34081
340	424	in	in	in	451	2	FALSE	TRUE	FALSE	IN	ADP	15	0	FALSE	5656514
341	425	@entity21	Baltimore	Baltimore	452	9	TRUE	FALSE	FALSE	NNP	NOUN	16	0	FALSE	177671
342	426	and	and	and	453	3	FALSE	TRUE	FALSE	CC	CONJ	17	0	FALSE	6091732
343	427	to	to	to	454	2	FALSE	FALSE	FALSE	TO	PRT	18	0	FALSE	7098918
344	428	highlight	highlight	highlight	455	9	FALSE	FALSE	FALSE	VB	VERB	19	0	FALSE	5378
345	429	that	that	that	456	4	FALSE	FALSE	FALSE	DT	DET	20	0	FALSE	2943020
346	430	police	police	police	457	6	FALSE	FALSE	FALSE	NN	NOUN	21	0	FALSE	202825
347	431	brutality	brutality	brutality	458	9	FALSE	FALSE	FALSE	NN	NOUN	22	0	FALSE	3084
348	432	is	is	is	459	2	FALSE	FALSE	FALSE	VBZ	VERB	23	0	FALSE	2253480
349	433	a	a	a	460	1	FALSE	FALSE	FALSE	DT	DET	24	0	FALSE	6026258
350	434	national	national	national	461	8	FALSE	FALSE	FALSE	JJ	ADJ	25	0	FALSE	84986
351	435	issue	issue	issue.	462	5	FALSE	FALSE	FALSE	NN	NOUN	26	0	FALSE	70598
	436	.	.		463		FALSE	FALSE	FALSE	.	.		0		11777614
352	437	Several	Several	Several	464	7	FALSE	FALSE	FALSE	JJ	ADJ	1	0	TRUE	92947
353	438	hundred	hundred	hundred	465	7	FALSE	FALSE	FALSE	CD	NUM	2	0	FALSE	7143
354	439	people	people	people	466	6	FALSE	FALSE	FALSE	NNS	NOUN	3	0	FALSE	545800
355	440	gathered	gathered	gathered	467	8	FALSE	FALSE	FALSE	VBN	VERB	4	0	FALSE	12951
356	441	in	in	in	468	2	FALSE	TRUE	FALSE	IN	ADP	5	0	FALSE	5656514
357	442	@entity103	Gold	Gold	469	4	TRUE	FALSE	FALSE	NNP	NOUN	6	0	FALSE	52323
358			Medal	Medal	470	5	TRUE	FALSE	FALSE	NNP	NOUN	7	0	FALSE	
359			Park	Park	471	4	TRUE	FALSE	FALSE	NNP	NOUN	8	0	FALSE	
360	443	in	in	in	472	2	FALSE	TRUE	FALSE	IN	ADP	9	0	FALSE	5656514
361	444	@entity104	Minneapolis	Minneapolis	473	11	TRUE	TRUE	FALSE	NNP	NOUN	10	0	FALSE	50687
362	445	for	for	for	474	3	FALSE	FALSE	FALSE	IN	ADP	11	0	FALSE	2332393
363	446	a	a	a	475	1	FALSE	FALSE	FALSE	DT	DET	12	0	FALSE	6026258
364	447	rally	rally	rally	476	5	FALSE	FALSE	FALSE	NN	NOUN	13	0	FALSE	10841
365	448	organized	organized	organized	477	9	FALSE	FALSE	FALSE	VBN	VERB	14	0	TRUE	11946
366	449	by	by	by	478	2	FALSE	FALSE	FALSE	IN	ADP	15	0	FALSE	1058023
367	450	the	the	the	479	3	FALSE	FALSE	FALSE	DT	DET	16	0	FALSE	15221601
368	451	group	group	group	480	5	FALSE	FALSE	FALSE	NN	NOUN	17	0	FALSE	157188
369	452	of	of	of	481	2	FALSE	FALSE	FALSE	IN	ADP	18	0	FALSE	6085230
370	453	#	#	#BlackLivesMatter.	482	16	FALSE	FALSE	FALSE	#	.	19	0	FALSE	10302
	454	@entity107	BlackLivesMatter		483		TRUE	FALSE	FALSE	NNP	NOUN		0		49994
	455	.	.		484		FALSE	FALSE	FALSE	.	.		0		11777614
371	456	The	The	The	485	3	FALSE	FALSE	FALSE	DT	DET	1	0	FALSE	15221601
372	457	@entity104	Minneapolis	Minneapolis	486	11	TRUE	TRUE	FALSE	NNP	NOUN	2	0	FALSE	50687
373	458	group	group	group	487	5	FALSE	FALSE	FALSE	NN	NOUN	3	0	FALSE	157188
374	459	held	held	held	488	4	FALSE	TRUE	FALSE	VBD	VERB	4	0	FALSE	72854
375	460	similar	similar	similar	489	7	FALSE	FALSE	FALSE	JJ	ADJ	5	0	FALSE	37455
376	461	events	events	events	490	6	FALSE	FALSE	FALSE	NNS	NOUN	6	0	TRUE	37394
377	462	in	in	in	491	2	FALSE	TRUE	FALSE	IN	ADP	7	0	FALSE	5656514
378	463	the	the	the	492	3	FALSE	FALSE	FALSE	DT	DET	8	0	FALSE	15221601
379	464	past	past	past	493	4	FALSE	FALSE	FALSE	NN	NOUN	9	0	FALSE	97115
380	465	in	in	in	494	2	FALSE	TRUE	FALSE	IN	ADP	10	0	FALSE	5656514
381	466	response	response	response	495	8	FALSE	FALSE	FALSE	NN	NOUN	11	0	FALSE	43799
382	467	to	to	to	496	2	FALSE	FALSE	FALSE	TO	PRT	12	0	FALSE	7098918
383	468	alleged	alleged	alleged	497	7	FALSE	FALSE	FALSE	VB	VERB	13	0	FALSE	31895
384	469	police	police	police	498	6	FALSE	FALSE	FALSE	NN	NOUN	14	0	FALSE	202825
385	470	brutality	brutality	brutality	499	9	FALSE	FALSE	FALSE	NN	NOUN	15	0	FALSE	3084
386	471	across	across	across	500	6	FALSE	FALSE	FALSE	IN	ADP	16	0	FALSE	79839
387	472	the	the	the	501	3	FALSE	FALSE	FALSE	DT	DET	17	0	FALSE	15221601
388	473	country	country	country.	502	7	FALSE	FALSE	FALSE	NN	NOUN	18	0	FALSE	240669
	474	.	.		503		FALSE	FALSE	FALSE	.	.		0		11777614
389	475	Protests	Protests	Protests	504	8	FALSE	FALSE	FALSE	NNS	NOUN	1	0	TRUE	30895
390	476	also	also	also	505	4	FALSE	TRUE	FALSE	RB	ADV	2	0	FALSE	460309
391	477	were	were	were	506	4	FALSE	FALSE	FALSE	VBD	VERB	3	0	FALSE	692942
392	478	held	held	held	507	4	FALSE	TRUE	FALSE	VBN	VERB	4	0	FALSE	72854
393	479	in	in	in	508	2	FALSE	TRUE	FALSE	IN	ADP	5	0	FALSE	5656514
394	480	@entity115	Boston	Boston	509	6	TRUE	FALSE	TRUE	NNP	NOUN	6	1	FALSE	44837
395	481	and	and	and	510	3	FALSE	TRUE	FALSE	CC	CONJ	7	1	FALSE	6091732
396	482	@entity116	Houston	Houston.	511	7	TRUE	FALSE	FALSE	NNP	NOUN	8	1	FALSE	41842
	483	.	.		512		FALSE	FALSE	FALSE	.	.		1		11777614
397	484	On	On	On	513	2	FALSE	FALSE	FALSE	IN	ADP	1	1	FALSE	2085421
398	485	Tuesday	Tuesday	Tuesday,	514	7	FALSE	FALSE	FALSE	NNP	NOUN	2	1	FALSE	137004
	486	,	,		515		FALSE	TRUE	FALSE	,	.		1		13601952
399	487	violent	violent	violent	516	7	FALSE	FALSE	FALSE	JJ	ADJ	3	1	FALSE	19555
400	488	protests	protests	protests	517	8	FALSE	TRUE	FALSE	NNS	NOUN	4	1	FALSE	30895
401	489	took	took	took	518	4	FALSE	FALSE	FALSE	VBD	VERB	5	1	FALSE	119244
402	490	place	place	place	519	5	FALSE	FALSE	FALSE	NN	NOUN	6	1	TRUE	130813
403	491	in	in	in	520	2	FALSE	TRUE	FALSE	IN	ADP	7	1	FALSE	5656514
404	492	@entity120	Ferguson	Ferguson,	521	8	TRUE	FALSE	FALSE	NNP	NOUN	8	1	FALSE	41248
	493	,	,		522		FALSE	TRUE	FALSE	,	.		1		13601952
405	494	@entity121	Missouri	Missouri,	523	8	TRUE	FALSE	FALSE	NNP	NOUN	9	1	FALSE	41108
	495	,	,		524		FALSE	TRUE	FALSE	,	.		1		13601952
406	496	where	where	where	525	5	FALSE	FALSE	FALSE	WRB	ADV	10	1	FALSE	255870
407	497	three	three	three	526	5	FALSE	FALSE	FALSE	CD	NUM	11	1	FALSE	227398
408	498	people	people	people	527	6	FALSE	FALSE	FALSE	NNS	NOUN	12	1	FALSE	545800
409	499	were	were	were	528	4	FALSE	FALSE	FALSE	VBD	VERB	13	1	FALSE	692942
410	500	shot	shot	shot,	529	4	FALSE	FALSE	FALSE	VBN	VERB	14	1	FALSE	66383
	501	,	,		530		FALSE	TRUE	FALSE	,	.		1		13601952
411	502	the	the	the	531	3	FALSE	FALSE	FALSE	DT	DET	15	1	FALSE	15221601
412	503	city	city	city	532	4	FALSE	FALSE	FALSE	NN	NOUN	16	1	FALSE	121864
413	504	police	police	police	533	6	FALSE	FALSE	FALSE	NN	NOUN	17	1	FALSE	202825
414	505	reported	reported	reported.	534	8	FALSE	FALSE	FALSE	VBD	VERB	18	1	FALSE	111517
	506	.	.		535		FALSE	FALSE	FALSE	.	.		1		11777614
415	507	Police	Police	Police	536	6	FALSE	FALSE	FALSE	NNP	NOUN	1	1	TRUE	202825
416	508	said	said	said	537	4	FALSE	FALSE	FALSE	VBD	VERB	2	1	FALSE	2037128
417	509	they	they	they	538	4	FALSE	FALSE	FALSE	PRP	PRON	3	1	FALSE	913621
418	510	did	did	didn-t	539	5	FALSE	FALSE	FALSE	VBD	VERB	4	1	FALSE	307350
	511	n-t	n-t		540		FALSE	FALSE	FALSE	RB	ADV		1		698980
419	512	do	do	do	541	2	FALSE	FALSE	FALSE	VB	VERB	5	1	FALSE	496818
420	513	the	the	the	542	3	FALSE	FALSE	FALSE	DT	DET	6	1	FALSE	15221601
421	514	shooting	shooting	shooting.	543	8	FALSE	FALSE	FALSE	NN	NOUN	7	1	FALSE	36032
	515	.	.		544		FALSE	FALSE	FALSE	.	.		1		11777614
422	516	A	A	A	545	1	FALSE	FALSE	FALSE	DT	DET	1	1	FALSE	6026258
423	517	20	20	20-year-old	546	9	FALSE	FALSE	FALSE	CD	NUM	2	1	FALSE	70506
	518	-	-		547		FALSE	FALSE	FALSE	:	.		1		2168741
	519	year	year		548		FALSE	FALSE	FALSE	NN	NOUN		1		446268
	520	-	-		549		FALSE	FALSE	FALSE	:	.		1		2168741
	521	old	old		550		FALSE	FALSE	FALSE	JJ	ADJ		1		180618
424	522	man	man	man	551	3	FALSE	FALSE	FALSE	NN	NOUN	3	1	FALSE	127033
425	523	was	was	was	552	3	FALSE	FALSE	FALSE	VBD	VERB	4	1	FALSE	1968273
426	524	arrested	arrested	arrested	553	8	FALSE	FALSE	FALSE	VBN	VERB	5	1	FALSE	46528
427	525	and	and	and	554	3	FALSE	TRUE	FALSE	CC	CONJ	6	1	FALSE	6091732
428	526	the	the	the	555	3	FALSE	FALSE	FALSE	DT	DET	7	1	FALSE	15221601
429	527	three	three	three	556	5	FALSE	FALSE	FALSE	CD	NUM	8	1	FALSE	227398
430	528	victims	victims	victims	557	7	FALSE	FALSE	FALSE	NNS	NOUN	9	1	TRUE	38664
431	529	were	were	were	558	4	FALSE	FALSE	FALSE	VBD	VERB	10	1	FALSE	692942
432	530	in	in	in	559	2	FALSE	TRUE	FALSE	IN	ADP	11	1	FALSE	5656514
433	531	stable	stable	stable	560	6	FALSE	FALSE	FALSE	JJ	ADJ	12	1	FALSE	7293
434	532	condition	condition	condition	561	9	FALSE	FALSE	FALSE	NN	NOUN	13	1	FALSE	21693
435	533	--	--	--	562	0	FALSE	FALSE	FALSE	:	.	14	1	FALSE	1295186
436	534	two	two	two	563	3	FALSE	FALSE	FALSE	CD	NUM	15	1	FALSE	427153
437	535	with	with	with	564	4	FALSE	FALSE	FALSE	IN	ADP	16	1	FALSE	1730692
438	536	wounds	wounds	wounds	565	6	FALSE	FALSE	FALSE	NNS	NOUN	17	1	FALSE	6216
439	537	to	to	to	566	2	FALSE	FALSE	FALSE	TO	PRT	18	1	FALSE	7098918
440	538	the	the	the	567	3	FALSE	FALSE	FALSE	DT	DET	19	1	FALSE	15221601
441	539	neck	neck	neck,	568	4	FALSE	FALSE	FALSE	NN	NOUN	20	1	FALSE	6708
	540	,	,		569		FALSE	TRUE	FALSE	,	.		1		13601952
442	541	one	one	one	570	3	FALSE	FALSE	FALSE	CD	NUM	21	1	FALSE	616806
443	542	in	in	in	571	2	FALSE	TRUE	FALSE	IN	ADP	22	1	FALSE	5656514
444	543	the	the	the	572	3	FALSE	FALSE	FALSE	DT	DET	23	1	FALSE	15221601
445	544	leg	leg	leg,	573	3	FALSE	FALSE	FALSE	NN	NOUN	24	1	FALSE	16580
	545	,	,		574		FALSE	TRUE	FALSE	,	.		1		13601952
446	546	police	police	police	575	6	FALSE	FALSE	FALSE	NN	NOUN	25	1	TRUE	202825
447	547	said	said	said.	576	4	FALSE	FALSE	FALSE	VBD	VERB	26	1	FALSE	2037128
	548	.	.		577		FALSE	FALSE	FALSE	.	.		1		11777614
448	549	Police	Police	Police	578	6	FALSE	FALSE	FALSE	NNP	NOUN	1	1	FALSE	202825
449	550	said	said	said	579	4	FALSE	FALSE	FALSE	VBD	VERB	2	1	FALSE	2037128
450	551	about	about	about	580	5	FALSE	FALSE	FALSE	IN	ADP	3	1	FALSE	626437
451	552	300	300	300	581	3	FALSE	FALSE	FALSE	CD	NUM	4	1	FALSE	12406
452	553	people	people	people	582	6	FALSE	FALSE	FALSE	NNS	NOUN	5	1	FALSE	545800
453	554	marched	marched	marched,	583	7	FALSE	FALSE	FALSE	VBD	VERB	6	1	FALSE	3017
	555	,	,		584		FALSE	TRUE	FALSE	,	.		1		13601952
454	556	with	with	with	585	4	FALSE	FALSE	FALSE	IN	ADP	7	1	FALSE	1730692
455	557	protesters	protesters	protesters	586	10	FALSE	FALSE	FALSE	NNS	NOUN	8	1	FALSE	32287
456	558	throwing	throwing	throwing	587	8	FALSE	FALSE	FALSE	VBG	VERB	9	1	FALSE	5809
457	559	rocks	rocks	rocks	588	5	FALSE	FALSE	FALSE	NNS	NOUN	10	1	FALSE	4142
458	560	at	at	at	589	2	FALSE	FALSE	FALSE	IN	ADP	11	1	FALSE	1249542
459	561	police	police	police,	590	6	FALSE	FALSE	FALSE	NN	NOUN	12	1	TRUE	202825
	562	,	,		591		FALSE	TRUE	FALSE	,	.		1		13601952
460	563	damaging	damaging	damaging	592	8	FALSE	FALSE	FALSE	VBG	VERB	13	1	FALSE	3940
461	564	four	four	four	593	4	FALSE	FALSE	FALSE	CD	NUM	14	1	FALSE	141659
462	565	police	police	police	594	6	FALSE	FALSE	FALSE	NN	NOUN	15	1	FALSE	202825
463	566	cars	cars	cars	595	4	FALSE	FALSE	FALSE	NNS	NOUN	16	1	FALSE	20236
464	567	and	and	and	596	3	FALSE	TRUE	FALSE	CC	CONJ	17	1	FALSE	6091732
465	568	setting	setting	setting	597	7	FALSE	FALSE	FALSE	VBG	VERB	18	1	FALSE	14422
466	569	trash	trash	trash	598	5	FALSE	FALSE	FALSE	NN	NOUN	19	1	FALSE	3426
467	570	and	and	and	599	3	FALSE	TRUE	FALSE	CC	CONJ	20	1	FALSE	6091732
468	571	debris	debris	debris	600	6	FALSE	FALSE	FALSE	NN	NOUN	21	1	FALSE	6016
469	572	on	on	on	601	2	FALSE	FALSE	FALSE	IN	ADP	22	1	FALSE	2085421
470	573	fire	fire	fire	602	4	FALSE	FALSE	FALSE	NN	NOUN	23	1	FALSE	57496
471	574	near	near	near	603	4	FALSE	FALSE	FALSE	IN	ADP	24	1	FALSE	64268
472	575	@entity139	Northwinds	Northwinds	604	10	TRUE	FALSE	FALSE	NNP	NOUN	25	1	TRUE	33475
473			Estates	Estates	605	7	TRUE	FALSE	FALSE	NNP	NOUN	26	1	FALSE	
474	576	and	and	and	606	3	FALSE	TRUE	FALSE	CC	CONJ	27	1	FALSE	6091732
475	577	@entity140	West	West	607	4	TRUE	FALSE	FALSE	NNP	NOUN	28	1	FALSE	32535
476			Florissant	Florissant,	608	10	TRUE	FALSE	FALSE	NNP	NOUN	29	1	FALSE	
	578	,	,		609		FALSE	TRUE	FALSE	,	.		1		13601952
477	579	police	police	police	610	6	FALSE	FALSE	FALSE	NN	NOUN	30	1	FALSE	202825
478	580	said	said	said.	611	4	FALSE	FALSE	FALSE	VBD	VERB	31	1	FALSE	2037128
	581	.	.		612		FALSE	FALSE	FALSE	.	.		1		11777614
479	582	One	One	One	613	3	FALSE	FALSE	FALSE	CD	NUM	1	1	FALSE	616806
480	583	business	business	business	614	8	FALSE	FALSE	FALSE	NN	NOUN	2	1	FALSE	64770
481	584	in	in	in	615	2	FALSE	TRUE	FALSE	IN	ADP	3	1	FALSE	5656514
482	585	@entity142	Dellwood	Dellwood	616	8	TRUE	FALSE	FALSE	NNP	NOUN	4	1	FALSE	32115
483	586	was	was	was	617	3	FALSE	FALSE	FALSE	VBD	VERB	5	1	FALSE	1968273
484	587	damaged	damaged	damaged,	618	7	FALSE	FALSE	FALSE	VBN	VERB	6	1	TRUE	10960
	588	,	,		619		FALSE	TRUE	FALSE	,	.		1		13601952
485	589	police	police	police	620	6	FALSE	FALSE	FALSE	NN	NOUN	7	1	FALSE	202825
486	590	said	said	said.	621	4	FALSE	FALSE	FALSE	VBD	VERB	8	1	FALSE	2037128
	591	.	.		622		FALSE	FALSE	FALSE	.	.		1		11777614
487	592	No	No	No	623	2	FALSE	FALSE	FALSE	DT	DET	1	1	FALSE	353317
488	593	officers	officers	officers	624	8	FALSE	FALSE	FALSE	NNS	NOUN	2	1	FALSE	36944
489	594	were	were	were	625	4	FALSE	FALSE	FALSE	VBD	VERB	3	1	FALSE	692942
490	595	injured	injured	injured	626	7	FALSE	FALSE	FALSE	VBN	VERB	4	1	FALSE	28631
491	596	as	as	as	627	2	FALSE	FALSE	FALSE	IN	ADP	5	1	FALSE	1472972
492	597	police	police	police	628	6	FALSE	FALSE	FALSE	NN	NOUN	6	1	FALSE	202825
493	598	conducted	conducted	conducted	629	9	FALSE	FALSE	FALSE	VBD	VERB	7	1	FALSE	15930
494	599	anti-riot	anti-riot	anti-riot	630	8	FALSE	FALSE	FALSE	JJ	ADJ	8	1	FALSE	146
495	600	activities	activities	activities	631	10	FALSE	FALSE	FALSE	NNS	NOUN	9	1	TRUE	18441
496	601	until	until	until	632	5	FALSE	FALSE	FALSE	IN	ADP	10	1	FALSE	89695
497	602	3	3	3	633	1	FALSE	FALSE	FALSE	CD	NUM	11	1	FALSE	84318
498	603	a.m.	a.m.	a.m.	634	2	FALSE	FALSE	FALSE	RB	ADV	12	1	FALSE	22636
499	604	In	In	In	635	2	FALSE	FALSE	FALSE	IN	ADP	13	1	FALSE	5656514
500	605	@entity147	Los	Los	636	3	TRUE	FALSE	FALSE	NNP	NOUN	14	1	FALSE	29915
501			Angeles	Angeles,	637	7	TRUE	FALSE	FALSE	NNP	NOUN	15	1	FALSE	
	606	,	,		638		FALSE	TRUE	FALSE	,	.		1		13601952
502	607	six	six	six	639	3	FALSE	FALSE	FALSE	CD	NUM	16	1	FALSE	83285
503	608	people	people	people	640	6	FALSE	FALSE	FALSE	NNS	NOUN	17	1	FALSE	545800
504	609	protesting	protesting	protesting	641	10	FALSE	FALSE	FALSE	VBG	VERB	18	1	FALSE	3370
505	610	against	against	against	642	7	FALSE	FALSE	FALSE	IN	ADP	19	1	FALSE	250508
506	611	police	police	police	643	6	FALSE	FALSE	FALSE	NN	NOUN	20	1	FALSE	202825
507	612	brutality	brutality	brutality	644	9	FALSE	FALSE	FALSE	NN	NOUN	21	1	TRUE	3084
508	613	were	were	were	645	4	FALSE	FALSE	FALSE	VBD	VERB	22	1	FALSE	692942
509	614	arrested	arrested	arrested	646	8	FALSE	FALSE	FALSE	VBN	VERB	23	1	FALSE	46528
510	615	Monday	Monday	Monday	647	6	FALSE	FALSE	FALSE	NNP	NOUN	24	1	FALSE	128641
511	616	night	night	night	648	5	FALSE	FALSE	FALSE	NN	NOUN	25	1	FALSE	94960
512	617	when	when	when	649	4	FALSE	FALSE	FALSE	WRB	ADV	26	1	FALSE	551072
513	618	they	they	they	650	4	FALSE	FALSE	FALSE	PRP	PRON	27	1	FALSE	913621
514	619	failed	failed	failed	651	6	FALSE	FALSE	FALSE	VBD	VERB	28	1	FALSE	36929
515	620	to	to	to	652	2	FALSE	FALSE	FALSE	TO	PRT	29	1	FALSE	7098918
516	621	disperse	disperse	disperse,	653	8	FALSE	FALSE	FALSE	VB	VERB	30	1	FALSE	1297
	622	,	,		654		FALSE	TRUE	FALSE	,	.		1		13601952
517	623	reported	reported	reported	655	8	FALSE	FALSE	FALSE	VBD	VERB	31	1	FALSE	111517
518	624	@entity0	CNN	CNN	656	3	TRUE	FALSE	FALSE	NNP	NOUN	32	1	FALSE	883763
519	625	affiliate	affiliate	affiliate	657	9	FALSE	FALSE	FALSE	NN	NOUN	33	1	TRUE	19566
520	626	@entity148	KABC	KABC.	658	4	TRUE	FALSE	FALSE	NNP	NOUN	34	1	FALSE	30154
	627	.	.		659		FALSE	FALSE	FALSE	.	.		1		11777614
521	628	About	About	About	660	5	FALSE	FALSE	FALSE	IN	ADP	1	1	FALSE	626437
522	629	50	50	50	661	2	FALSE	FALSE	FALSE	CD	NUM	2	1	FALSE	39720
523	630	people	people	people	662	6	FALSE	FALSE	FALSE	NNS	NOUN	3	1	FALSE	545800
524	631	marched	marched	marched,	663	7	FALSE	FALSE	FALSE	VBD	VERB	4	1	FALSE	3017
	632	,	,		664		FALSE	TRUE	FALSE	,	.		1		13601952
525	633	@entity148	KABC	KABC	665	4	TRUE	FALSE	FALSE	NNP	NOUN	5	1	FALSE	30154
526	634	said	said	said.	666	4	FALSE	FALSE	FALSE	VBD	VERB	6	1	FALSE	2037128
	635	.	.		667		FALSE	FALSE	FALSE	.	.		1		11777614
527	636	On	On	On	668	2	FALSE	FALSE	FALSE	IN	ADP	1	1	FALSE	2085421
528	637	Tuesday	Tuesday	Tuesday,	669	7	FALSE	FALSE	FALSE	NNP	NOUN	2	1	FALSE	137004
	638	,	,		670		FALSE	TRUE	FALSE	,	.		1		13601952
529	639	protesters	protesters	protesters	671	10	FALSE	FALSE	FALSE	NNS	NOUN	3	1	FALSE	32287
530	640	gathered	gathered	gathered	672	8	FALSE	FALSE	FALSE	VBD	VERB	4	1	FALSE	12951
531	641	outside	outside	outside	673	7	FALSE	FALSE	FALSE	IN	ADP	5	1	TRUE	64686
532	642	the	the	the	674	3	FALSE	FALSE	FALSE	DT	DET	6	1	FALSE	15221601
533	643	@entity152	Stapes	Stapes	675	6	TRUE	FALSE	FALSE	NNP	NOUN	7	1	FALSE	28850
534			Center	Center,	676	6	TRUE	FALSE	FALSE	NNP	NOUN	8	1	FALSE	
	644	,	,		677		FALSE	TRUE	FALSE	,	.		1		13601952
535	645	where	where	where	678	5	FALSE	FALSE	FALSE	WRB	ADV	9	1	FALSE	255870
536	646	the	the	the	679	3	FALSE	FALSE	FALSE	DT	DET	10	1	FALSE	15221601
537	647	@entity153	Los	Los	680	3	TRUE	FALSE	FALSE	NNP	NOUN	11	1	FALSE	27754
538			Angeles	Angeles	681	7	TRUE	FALSE	FALSE	NNP	NOUN	12	1	FALSE	
539			Clippers	Clippers	682	8	TRUE	FALSE	FALSE	NNP	NOUN	13	1	FALSE	
540	648	and	and	and	683	3	FALSE	TRUE	FALSE	CC	CONJ	14	1	FALSE	6091732
541	649	the	the	the	684	3	FALSE	FALSE	FALSE	DT	DET	15	1	FALSE	15221601
542	650	@entity154	San	San	685	3	TRUE	FALSE	FALSE	NNP	NOUN	16	1	FALSE	28206
543			Antonio	Antonio	686	7	TRUE	FALSE	FALSE	NNP	NOUN	17	1	FALSE	
544			Spurs	Spurs	687	5	TRUE	FALSE	FALSE	NNP	NOUN	18	1	FALSE	
545	651	were	were	were	688	4	FALSE	FALSE	FALSE	VBD	VERB	19	1	TRUE	692942
546	652	playing	playing	playing	689	7	FALSE	FALSE	FALSE	VBG	VERB	20	1	FALSE	45839
547	653	an	an	an	690	2	FALSE	FALSE	FALSE	DT	DET	21	1	FALSE	963468
548	654	@entity156	NBA	NBA	691	3	TRUE	FALSE	FALSE	NNP	NOUN	22	1	FALSE	27301
549	655	playoff	playoff	playoff	692	7	FALSE	FALSE	FALSE	NN	NOUN	23	1	FALSE	4082
550	656	game	game	game.	693	4	FALSE	FALSE	FALSE	NN	NOUN	24	1	FALSE	102000
	657	.	.		694		FALSE	FALSE	FALSE	.	.		1		11777614
551	658	They	They	They	695	4	FALSE	FALSE	FALSE	PRP	PRON	1	1	FALSE	913621
552	659	disrupted	disrupted	disrupted	696	9	FALSE	FALSE	FALSE	VBD	VERB	2	1	FALSE	2039
553	660	traffic	traffic	traffic	697	7	FALSE	FALSE	FALSE	NN	NOUN	3	1	FALSE	16767
554	661	and	and	and	698	3	FALSE	TRUE	FALSE	CC	CONJ	4	1	FALSE	6091732
555	662	carried	carried	carried	699	7	FALSE	FALSE	FALSE	VBD	VERB	5	1	FALSE	24171
556	663	protest	protest	protest	700	7	FALSE	FALSE	FALSE	NN	NOUN	6	1	FALSE	20891
557	664	signs	signs	signs.	701	5	FALSE	FALSE	FALSE	NNS	NOUN	7	1	FALSE	16789
	665	.	.		702		FALSE	FALSE	FALSE	.	.		1		11777614
558	666	In	In	In	703	2	FALSE	FALSE	FALSE	IN	ADP	1	1	TRUE	5656514
559	667	@entity161	Chicago	Chicago,	704	7	TRUE	FALSE	FALSE	NNP	NOUN	2	1	FALSE	24535
	668	,	,		705		FALSE	TRUE	FALSE	,	.		1		13601952
560	669	hundreds	hundreds	hundreds	706	8	FALSE	FALSE	FALSE	NNS	NOUN	3	1	FALSE	33791
561	670	of	of	of	707	2	FALSE	FALSE	FALSE	IN	ADP	4	1	FALSE	6085230
562	671	protesters	protesters	protesters	708	10	FALSE	FALSE	FALSE	NNS	NOUN	5	1	FALSE	32287
563	672	marched	marched	marched	709	7	FALSE	FALSE	FALSE	VBD	VERB	6	1	FALSE	3017
564	673	Tuesday	Tuesday	Tuesday	710	7	FALSE	FALSE	FALSE	NNP	NOUN	7	1	FALSE	137004
565	674	from	from	from	711	4	FALSE	FALSE	FALSE	IN	ADP	8	1	FALSE	1158086
566	675	police	police	police	712	6	FALSE	FALSE	FALSE	JJ	ADJ	9	1	FALSE	202825
567	676	headquarters	headquarters	headquarters	713	12	FALSE	FALSE	FALSE	NNS	NOUN	10	1	FALSE	9443
568	677	at	at	at	714	2	FALSE	FALSE	FALSE	IN	ADP	11	1	FALSE	1249542
569	678	35th	35th	35th	715	4	FALSE	FALSE	FALSE	CD	NUM	12	1	FALSE	647
570	679	and	and	and	716	3	FALSE	TRUE	FALSE	CC	CONJ	13	1	TRUE	6091732
571	680	@entity163	Michigan	Michigan	717	8	TRUE	FALSE	FALSE	NNP	NOUN	14	1	FALSE	24570
572	681	through	through	through	718	7	FALSE	FALSE	FALSE	IN	ADP	15	1	FALSE	189457
573	682	the	the	the	719	3	FALSE	FALSE	FALSE	DT	DET	16	1	FALSE	15221601
574	683	@entity164	Southside	Southside,	720	9	TRUE	FALSE	FALSE	NNP	NOUN	17	1	FALSE	24966
	684	,	,		721		FALSE	TRUE	FALSE	,	.		1		13601952
575	685	@entity0	CNN	CNN	722	3	TRUE	FALSE	FALSE	NNP	NOUN	18	1	FALSE	883763
576	686	affiliate	affiliate	affiliate	723	9	FALSE	FALSE	FALSE	NN	NOUN	19	1	FALSE	19566
577	687	@entity159	WGN	WGN	724	3	TRUE	FALSE	FALSE	NNP	NOUN	20	1	FALSE	26228
578	688	reported	reported	reported.	725	8	FALSE	FALSE	FALSE	VBD	VERB	21	1	FALSE	111517
	689	.	.		726		FALSE	FALSE	FALSE	.	.		1		11777614
579	690	Police	Police	Police	727	6	FALSE	FALSE	FALSE	NNP	NOUN	1	1	FALSE	202825
580	691	made	made	made	728	4	FALSE	FALSE	FALSE	VBD	VERB	2	1	FALSE	214888
581	692	one	one	one	729	3	FALSE	FALSE	FALSE	CD	NUM	3	1	FALSE	616806
582	693	arrest	arrest	arrest,	730	6	FALSE	FALSE	FALSE	NN	NOUN	4	1	TRUE	31809
	694	,	,		731		FALSE	TRUE	FALSE	,	.		1		13601952
583	695	for	for	for	732	3	FALSE	FALSE	FALSE	IN	ADP	5	1	FALSE	2332393
584	696	reckless	reckless	reckless	733	8	FALSE	FALSE	FALSE	JJ	ADJ	6	1	FALSE	3004
585	697	conduct	conduct	conduct.	734	7	FALSE	FALSE	FALSE	NN	NOUN	7	1	FALSE	15622
	698	.	.		735		FALSE	FALSE	FALSE	.	.		1		11777614
586	699	@entity159	WGN	WGN	736	3	TRUE	FALSE	FALSE	NNP	NOUN	1	1	FALSE	26228
587	700	said	said	said	737	4	FALSE	FALSE	FALSE	VBD	VERB	2	1	FALSE	2037128
588	701	protesters	protesters	protesters	738	10	FALSE	FALSE	FALSE	NNS	NOUN	3	1	FALSE	32287
589	702	spoke	spoke	spoke	739	5	FALSE	FALSE	FALSE	VBD	VERB	4	1	FALSE	32622
590	703	about	about	about	740	5	FALSE	FALSE	FALSE	IN	ADP	5	1	FALSE	626437
591	704	police	police	police	741	6	FALSE	FALSE	FALSE	NN	NOUN	6	1	FALSE	202825
592	705	violence	violence	violence	742	8	FALSE	FALSE	FALSE	NN	NOUN	7	1	FALSE	74233
593	706	and	and	and	743	3	FALSE	TRUE	FALSE	CC	CONJ	8	1	FALSE	6091732
594	707	the	the	the	744	3	FALSE	FALSE	FALSE	DT	DET	9	1	FALSE	15221601
595	708	death	death	death	745	5	FALSE	FALSE	FALSE	NN	NOUN	10	1	TRUE	109368
596	709	of	of	of	746	2	FALSE	FALSE	FALSE	IN	ADP	11	1	FALSE	6085230
597	710	@entity171	Rekia	Rekia	747	5	TRUE	FALSE	FALSE	NNP	NOUN	12	1	FALSE	22420
598			Boyd	Boyd,	748	4	TRUE	FALSE	FALSE	NNP	NOUN	13	1	FALSE	
	711	,	,		749		FALSE	TRUE	FALSE	,	.		1		13601952
599	712	who	who	who	750	3	FALSE	FALSE	FALSE	WP	PRON	14	1	FALSE	867812
600	713	was	was	was	751	3	FALSE	FALSE	FALSE	VBD	VERB	15	1	FALSE	1968273
601	714	killed	killed	killed	752	6	FALSE	FALSE	FALSE	VBN	VERB	16	1	FALSE	118275
602	715	by	by	by	753	2	FALSE	FALSE	FALSE	IN	ADP	17	1	FALSE	1058023
603	716	an	an	an	754	2	FALSE	FALSE	FALSE	DT	DET	18	1	FALSE	963468
604	717	off	off	off-duty	755	7	FALSE	FALSE	FALSE	RP	PRT	19	1	FALSE	185868
	718	-	-		756		FALSE	FALSE	FALSE	:	.		1		2168741
	719	duty	duty		757		FALSE	FALSE	FALSE	NN	NOUN		1		11185
605	720	officer	officer	officer	758	7	FALSE	FALSE	FALSE	NN	NOUN	20	1	FALSE	39645
606	721	in	in	in	759	2	FALSE	TRUE	FALSE	IN	ADP	21	1	FALSE	5656514
607	722	2012	2012	2012.	760	4	FALSE	FALSE	FALSE	CD	NUM	22	1	FALSE	52901
	723	.	.		761		FALSE	FALSE	FALSE	.	.		1		11777614
608	724	That	That	That	762	4	FALSE	FALSE	FALSE	DT	DET	1	1	FALSE	2943020
609	725	officer	officer	officer	763	7	FALSE	FALSE	FALSE	NN	NOUN	2	1	FALSE	39645
610	726	was	was	was	764	3	FALSE	FALSE	FALSE	VBD	VERB	3	1	FALSE	1968273
611	727	acquitted	acquitted	acquitted	765	9	FALSE	FALSE	FALSE	VBN	VERB	4	1	TRUE	2688
612	728	last	last	last	766	4	FALSE	FALSE	FALSE	JJ	ADJ	5	1	FALSE	332979
613	729	week	week	week.	767	4	FALSE	FALSE	FALSE	NN	NOUN	6	1	FALSE	171285
	730	.	.		768		FALSE	FALSE	FALSE	.	.		1		11777614
614	731	The	The	The	769	3	FALSE	FALSE	FALSE	DT	DET	1	1	FALSE	15221601
615	732	group	group	group	770	5	FALSE	FALSE	FALSE	NN	NOUN	2	1	FALSE	157188
616	733	plans	plans	plans	771	5	FALSE	FALSE	FALSE	VBZ	VERB	3	1	FALSE	41676
617	734	to	to	to	772	2	FALSE	FALSE	FALSE	TO	PRT	4	1	FALSE	7098918
618	735	gather	gather	gather	773	6	FALSE	FALSE	FALSE	VB	VERB	5	1	FALSE	5320
619	736	Wednesday	Wednesday	Wednesday	774	9	FALSE	FALSE	FALSE	NNP	NOUN	6	1	FALSE	125383
620	737	night	night	night	775	5	FALSE	FALSE	FALSE	NN	NOUN	7	1	FALSE	94960
621	738	at	at	at	776	2	FALSE	FALSE	FALSE	IN	ADP	8	1	FALSE	1249542
622	739	the	the	the	777	3	FALSE	FALSE	FALSE	DT	DET	9	1	FALSE	15221601
623	740	@entity175	DePaul	DePaul	778	6	TRUE	FALSE	FALSE	NNP	NOUN	10	1	FALSE	21999
624			Law	Law	779	3	TRUE	FALSE	FALSE	NNP	NOUN	11	1	FALSE	
625			School	School.	780	6	TRUE	FALSE	FALSE	NNP	NOUN	12	1	TRUE	
	741	.	.		781		FALSE	FALSE	FALSE	.	.		1		11777614
626	742	About	About	About	782	5	FALSE	FALSE	FALSE	IN	ADP	1	1	FALSE	626437
627	743	100	100	100	783	3	FALSE	FALSE	FALSE	CD	NUM	2	1	FALSE	41772
628	744	people	people	people	784	6	FALSE	FALSE	FALSE	NNS	NOUN	3	1	FALSE	545800
629	745	marched	marched	marched	785	7	FALSE	FALSE	FALSE	VBD	VERB	4	1	FALSE	3017
630	746	Monday	Monday	Monday	786	6	FALSE	FALSE	FALSE	NNP	NOUN	5	1	FALSE	128641
631	747	night	night	night	787	5	FALSE	FALSE	FALSE	NN	NOUN	6	1	FALSE	94960
632	748	in	in	in	788	2	FALSE	TRUE	FALSE	IN	ADP	7	1	FALSE	5656514
633	749	@entity177	Oakland	Oakland	789	7	TRUE	FALSE	FALSE	NNP	NOUN	8	1	FALSE	20431
634	750	in	in	in	790	2	FALSE	TRUE	FALSE	IN	ADP	9	1	FALSE	5656514
635	751	support	support	support	791	7	FALSE	FALSE	FALSE	NN	NOUN	10	1	FALSE	115454
636	752	of	of	of	792	2	FALSE	FALSE	FALSE	IN	ADP	11	1	FALSE	6085230
637	753	@entity21	Baltimore	Baltimore	793	9	TRUE	FALSE	FALSE	NNP	NOUN	12	1	FALSE	177671
638	754	protesters	protesters	protesters,	794	10	FALSE	FALSE	FALSE	NNS	NOUN	13	1	TRUE	32287
	755	,	,		795		FALSE	TRUE	FALSE	,	.		1		13601952
639	756	reported	reported	reported	796	8	FALSE	FALSE	FALSE	VBD	VERB	14	1	FALSE	111517
640	757	@entity0	CNN	CNN	797	3	TRUE	FALSE	FALSE	NNP	NOUN	15	1	FALSE	883763
641	758	affiliate	affiliate	affiliate	798	9	FALSE	FALSE	FALSE	NN	NOUN	16	1	FALSE	19566
642	759	@entity148	KABC	KABC.	799	4	TRUE	FALSE	FALSE	NNP	NOUN	17	1	FALSE	30154
	760	.	.		800		FALSE	FALSE	FALSE	.	.		1		11777614
643	761	A	A	A	801	1	FALSE	FALSE	FALSE	DT	DET	1	1	FALSE	6026258
644	762	protest	protest	protest	802	7	FALSE	FALSE	FALSE	NN	NOUN	2	1	FALSE	20891
645	763	is	is	is	803	2	FALSE	FALSE	FALSE	VBZ	VERB	3	1	FALSE	2253480
646	764	planned	planned	planned	804	7	FALSE	FALSE	FALSE	VBN	VERB	4	1	FALSE	22326
647	765	for	for	for	805	3	FALSE	FALSE	FALSE	IN	ADP	5	1	FALSE	2332393
648	766	Thursday	Thursday	Thursday	806	8	FALSE	FALSE	FALSE	NNP	NOUN	6	1	FALSE	120367
649	767	in	in	in	807	2	FALSE	TRUE	FALSE	IN	ADP	7	1	FALSE	5656514
650	768	@entity181	Cincinnati	Cincinnati,	808	10	TRUE	FALSE	FALSE	NNP	NOUN	8	1	TRUE	19559
	769	,	,		809		FALSE	TRUE	FALSE	,	.		1		13601952
651	770	reported	reported	reported	810	8	FALSE	FALSE	FALSE	VBD	VERB	9	1	FALSE	111517
652	771	@entity0	CNN	CNN	811	3	TRUE	FALSE	FALSE	NNP	NOUN	10	1	FALSE	883763
653	772	affiliate	affiliate	affiliate	812	9	FALSE	FALSE	FALSE	NN	NOUN	11	1	FALSE	19566
654	773	@entity182	WXIX	WXIX.	813	4	TRUE	FALSE	FALSE	NNP	NOUN	12	1	FALSE	19848
	774	.	.		814		FALSE	FALSE	FALSE	.	.		1		11777614
655	775	@entity183	Philly.com	Philly.com	815	9	TRUE	FALSE	FALSE	NNP	NOUN	1	1	FALSE	20149
656	776	said	said	said	816	4	FALSE	FALSE	FALSE	VBD	VERB	2	1	FALSE	2037128
657	777	a	a	a	817	1	FALSE	FALSE	FALSE	DT	DET	3	1	FALSE	6026258
658	778	-	-	-Philly	818	6	FALSE	FALSE	FALSE	NNP	NOUN	4	1	FALSE	6863757
	779	@entity185	Philly		819		TRUE	FALSE	FALSE	NNP	NOUN		1		19088
659	780	is	is	is	820	2	FALSE	FALSE	FALSE	VBZ	VERB	5	1	FALSE	2253480
660	781	@entity21	Baltimore	Baltimore-	821	9	TRUE	FALSE	FALSE	NNP	NOUN	6	1	FALSE	177671
	782	-	-		822		FALSE	FALSE	FALSE	NNP	NOUN		1		6863757
661	783	protest	protest	protest	823	7	FALSE	FALSE	FALSE	NN	NOUN	7	1	TRUE	20891
662	784	will	will	will	824	4	FALSE	FALSE	FALSE	MD	VERB	8	1	FALSE	744145
663	785	be	be	be	825	2	FALSE	FALSE	FALSE	VB	VERB	9	1	FALSE	1098369
664	786	held	held	held	826	4	FALSE	TRUE	FALSE	VBN	VERB	10	1	FALSE	72854
665	787	Thursday	Thursday	Thursday	827	8	FALSE	FALSE	FALSE	NNP	NOUN	11	1	FALSE	120367
666	788	at	at	at	828	2	FALSE	FALSE	FALSE	IN	ADP	12	1	FALSE	1249542
667	789	@entity186	Philadelphia	Philadelphia	829	12	TRUE	FALSE	FALSE	NNP	NOUN	13	1	FALSE	18712
668			City	City	830	4	TRUE	FALSE	FALSE	NNP	NOUN	14	1	FALSE	
669			Hall	Hall.	831	4	TRUE	FALSE	FALSE	NNP	NOUN	15	1	FALSE	
	790	.	.		832		FALSE	FALSE	FALSE	.	.		1		11777614
