HumanPosition	AnonymizedPosition	AnonymizedToken	OriginalToken	ExperimentToken	Participant	Condition	TextNo	JointPosition	tt	fp	rp	ff	rb	sp
0	0	@entity0	Chelsea	Chelsea	10	preview	11	1	541	0	0	0	0	541
2	1	are	are	are	10	preview	11	2	0	0	0	0	0	0
3	2	looking	looking	looking	10	preview	11	3	204	0	0	0	0	204
4	3	to	to	to	10	preview	11	4	0	0	0	0	0	0
5	4	beat	beat	beat	10	preview	11	5	282	0	0	0	0	282
6	5	@entity1	Manchester	Manchester	10	preview	11	6	170	0	0	0	0	170
7			City	City	10	preview	11	7	0	0	0	0	0	0
8	6	to	to	to	10	preview	11	8	233	0	0	0	0	233
9	7	sign	sign	sign	10	preview	11	9	115	0	0	0	0	115
10	8	@entity3	Brazilian	Brazilian	10	preview	11	10	396	0	0	0	0	396
11	9	prospect	prospect	prospect	10	preview	11	11	636	0	0	0	0	636
12	10	@entity2	Nathan	Nathan.	10	preview	11	12	614	0	0	0	0	614
	11	.	.		10	preview	11	13						
13	12	The	The	The	10	preview	11	14	142	0	0	0	0	142
14	13	attacking	attacking	attacking	10	preview	11	15	1165	0	0	0	0	1165
15	14	midfielder	midfielder	midfielder	10	preview	11	16	1031	0	0	0	0	1031
16	15	turned	turned	turned	10	preview	11	17	220	0	0	0	0	220
17	16	19	19	19	10	preview	11	18	139	0	0	0	0	139
18	17	last	last	last	10	preview	11	19	159	0	0	0	0	159
19	18	month	month	month	10	preview	11	20	126	0	0	0	0	126
20	19	but	but	but	10	preview	11	21	0	0	0	0	0	0
21	20	has	has	has	10	preview	11	22	221	0	0	0	0	221
22	21	been	been	been	10	preview	11	23	242	0	0	0	0	242
23	22	in	in	in	10	preview	11	24	0	0	0	0	0	0
24	23	contract	contract	contract	10	preview	11	25	518	0	0	0	0	518
25	24	dispute	dispute	dispute	10	preview	11	26	179	0	0	0	0	179
26	25	with	with	with	10	preview	11	27	0	0	0	0	0	0
27	26	his	his	his	10	preview	11	28	137	0	0	0	0	137
28	27	club	club	club	10	preview	11	29	0	0	0	0	0	0
29	28	@entity6	Atletico	Atletico	10	preview	11	30	244	0	0	0	0	244
30			Paranaense	Paranaense.	10	preview	11	31	256	0	0	0	0	256
	29	.	.		10	preview	11	32						
31	30	He	He	He	10	preview	11	33	0	0	0	0	0	0
32	31	is	is	is	10	preview	11	34	0	0	0	0	0	0
33	32	due	due	due	10	preview	11	35	267	0	0	0	0	267
34	33	to	to	to	10	preview	11	36	0	0	0	0	0	0
35	34	speak	speak	speak	10	preview	11	37	244	0	0	0	0	244
36	35	to	to	to	10	preview	11	38	166	0	0	0	0	166
37	36	@entity0	Chelsea	Chelsea	10	preview	11	39	632	0	0	0	0	632
38	37	next	next	next	10	preview	11	40	0	0	0	0	0	0
39	38	week	week	week	10	preview	11	41	358	0	0	0	0	358
40	39	ahead	ahead	ahead	10	preview	11	42	184	0	0	0	0	184
41	40	of	of	of	10	preview	11	43	129	0	0	0	0	129
42	41	a	a	a	10	preview	11	44	0	0	0	0	0	0
43	42	proposed	proposed	proposed	10	preview	11	45	341	0	0	0	0	341
44	43	move	move	move	10	preview	11	46	463	0	0	0	0	463
45	44	to	to	to	10	preview	11	47	0	0	0	0	0	0
46	45	@entity8	Stamford	Stamford	10	preview	11	48	594	170	10536	170	594	424
47			Bridge	Bridge	10	preview	11	49	440	440	440	440	440	0
48	46	which	which	which	10	preview	11	50	205	205	205	205	205	0
49	47	would	would	would	10	preview	11	51	0	0	0	0	0	0
50	48	likely	likely	likely	10	preview	11	52	136	136	136	136	136	0
51	49	see	see	see	10	preview	11	53	0	0	0	0	0	0
52	50	him	him	him	10	preview	11	54	340	340	340	340	340	0
53	51	loaned	loaned	loaned	10	preview	11	55	382	382	382	382	382	0
54	52	out	out	out.	10	preview	11	56	0	0	0	0	0	0
	53	.	.		10	preview	11	57						
55	54	@entity6	Atletico	Manchester	10	preview	11	58	234	234	234	234	234	0
			Paranaense		10	preview	11	59						
	55	attacking	attacking		10	preview	11	60						
	56	midfielder	midfielder		10	preview	11	61						
	57	@entity2	Nathan		10	preview	11	62						
	58	is	is		10	preview	11	63						
	59	attracting	attracting		10	preview	11	64						
	60	interest	interest		10	preview	11	65						
	61	from	from		10	preview	11	66						
	62	@entity0	Chelsea		10	preview	11	67						
	63	and	and		10	preview	11	68						
	64	@entity1	Manchester		10	preview	11	69						
56	65	@entity11	City	City	10	preview	11	70	0	0	0	0	0	0
57			Jose	have	10	preview	11	71	142	142	142	142	142	0
58			Mourinho	been	10	preview	11	72	0	0	0	0	0	0
	66	and	and		10	preview	11	73						
	67	@entity12	Manuel		10	preview	11	74						
			Pellegrini		10	preview	11	75						
	68	will	will		10	preview	11	76						
	69	go	go		10	preview	11	77						
	70	head	head		10	preview	11	78						
59	71	-	-	keen	10	preview	11	79	118	0	0	0	0	118
	72	to	to		10	preview	11	80						
	73	-	-		10	preview	11	81						
	74	head	head		10	preview	11	82						
60	75	to	to	on	10	preview	11	83	274	274	274	274	274	0
61	76	sign	sign	Nathan	10	preview	11	84	370	197	197	197	197	173
	77	@entity3	Brazilian		10	preview	11	85						
	78	starlet	starlet		10	preview	11	86						
	79	@entity2	Nathan		10	preview	11	87						
62	80	@entity1	Manchester	following	10	preview	11	88	344	195	635	195	344	149
			City		10	preview	11	89						
	81	have	have		10	preview	11	90						
	82	been	been		10	preview	11	91						
	83	keen	keen		10	preview	11	92						
	84	on	on		10	preview	11	93						
	85	@entity2	Nathan		10	preview	11	94						
	86	following	following		10	preview	11	95						
63	87	his	his	his	10	preview	11	96	0	0	0	0	0	0
64	88	performances	performances	performances	10	preview	11	97	461	461	461	189	461	0
65	89	in	in	in	10	preview	11	98	0	0	0	0	0	0
66	90	the	the	the	10	preview	11	99	0	0	0	0	0	0
67	91	@entity16	World	World	10	preview	11	100	184	184	184	184	184	0
68			U17	U17	10	preview	11	101	0	0	0	0	0	0
69			Championships	Championships	10	preview	11	102	354	354	354	236	354	0
70	92	two	two	two	10	preview	11	103	173	173	173	173	173	0
71	93	years	years	years	10	preview	11	104	146	0	0	0	0	146
72	94	ago	ago	ago	10	preview	11	105	123	123	269	123	123	0
73	95	and	and	and	10	preview	11	106	0	0	0	0	0	0
74	96	he	he	he	10	preview	11	107	0	0	0	0	0	0
75	97	has	has	has	10	preview	11	108	229	229	229	229	229	0
76	98	since	since	since	10	preview	11	109	165	165	165	165	165	0
77	99	broken	broken	broken	10	preview	11	110	128	0	0	0	0	128
78	100	into	into	into	10	preview	11	111	194	194	322	194	194	0
79	101	@entity6	Paranaense	Paranaense-s	10	preview	11	112	316	316	316	316	316	0
	102	-s	-s		10	preview	11	113						
80	103	first	first	first	10	preview	11	114	219	219	219	219	219	0
81	104	team	team	team.	10	preview	11	115	203	203	203	203	203	0
	105	.	.		10	preview	11	116						
82	106	@entity0	Chelsea	Chelsea	10	preview	11	117	0	0	0	0	0	0
83	107	have	have	have	10	preview	11	118	220	220	220	220	220	0
84	108	a	a	a	10	preview	11	119	0	0	0	0	0	0
85	109	strong	strong	strong	10	preview	11	120	153	153	153	153	153	0
86	110	@entity3	Brazilian	Brazilian	10	preview	11	121	191	191	191	191	191	0
87	111	contingency	contingency	contingency	10	preview	11	122	329	329	329	329	329	0
88	112	with	with	with	10	preview	11	123	0	0	0	0	0	0
89	113	the	the	the	10	preview	11	124	155	155	155	155	155	0
90	114	likes	likes	likes	10	preview	11	125	131	131	131	131	131	0
91	115	of	of	of	10	preview	11	126	0	0	0	0	0	0
92	116	@entity20	Willian	Willian,	10	preview	11	127	0	0	0	0	0	0
	117	,	,		10	preview	11	128						
93	118	@entity21	Ramires	Ramires,	10	preview	11	129	197	197	197	197	197	0
	119	,	,		10	preview	11	130						
94	120	@entity22	Filipe	Filipe	10	preview	11	131	0	0	0	0	0	0
95			Luis	Luis	10	preview	11	132	0	0	0	0	0	0
96	121	and	and	and	10	preview	11	133	0	0	0	0	0	0
97	122	@entity23	Oscar	Oscar	10	preview	11	134	136	136	136	136	136	0
98	123	while	while	while	10	preview	11	135	83	83	83	83	83	0
99	124	21	21	21-year-old	10	preview	11	136	0	0	0	0	0	0
	125	-	-		10	preview	11	137						
	126	year	year		10	preview	11	138						
	127	-	-		10	preview	11	139						
	128	old	old		10	preview	11	140						
100	129	@entity24	Lucas	Lucas	10	preview	11	141	0	0	0	0	0	0
101			Piazon	Piazon	10	preview	11	142	0	0	0	0	0	0
102	130	is	is	is	10	preview	11	143	0	0	0	0	0	0
103	131	on	on	on	10	preview	11	144	0	0	0	0	0	0
104	132	loan	loan	loan	10	preview	11	145	0	0	0	0	0	0
105	133	at	at	at	10	preview	11	146	284	284	1096	284	284	0
106	134	@entity26	Eintracht	Eintracht	10	preview	11	147	0	0	0	0	0	0
107			Frankfurt	Frankfurt.	10	preview	11	148	0	0	0	0	0	0
	135	.	.		10	preview	11	149						
