HumanPosition	AnonymizedPosition	AnonymizedToken	OriginalToken	ExperimentToken	Participant	Condition	TextNo	JointPosition	tt	fp	rp	ff	rb	sp
1	0	A	A	A	10	preview	17	1	0	0	0	0	0	0
2	1	boxing	boxing	boxing	10	preview	17	2	126	0	0	0	0	126
3	2	fight	fight	fight	10	preview	17	3	195	0	0	0	0	195
4	3	had	had	had	10	preview	17	4	0	0	0	0	0	0
5	4	to	to	to	10	preview	17	5	388	0	0	0	0	388
6	5	be	be	be	10	preview	17	6	0	0	0	0	0	0
7	6	halted	halted	halted	10	preview	17	7	101	0	0	0	0	101
8	7	after	after	after	10	preview	17	8	0	0	0	0	0	0
9	8	a	a	a	10	preview	17	9	195	0	0	0	0	195
10	9	fighter	fighter	fighter-s	10	preview	17	10	123	0	0	0	0	123
	10	-s	-s		10	preview	17	11						
11	11	cell	cell	cell	10	preview	17	12	223	0	0	0	0	223
12	12	phone	phone	phone	10	preview	17	13	275	0	0	0	0	275
13	13	fell	fell	fell	10	preview	17	14	0	0	0	0	0	0
14	14	out	out	out	10	preview	17	15	317	0	0	0	0	317
15	15	of	of	of	10	preview	17	16	0	0	0	0	0	0
16	16	his	his	his	10	preview	17	17	440	0	0	0	0	440
17	17	trunks	trunks	trunks.	10	preview	17	18	349	0	0	0	0	349
	18	.	.		10	preview	17	19						
18	19	@entity4	Marvin	Marvin	10	preview	17	20	546	0	0	0	0	546
19			-	-Papi	10	preview	17	21	870	0	0	0	0	870
			Papi		10	preview	17	22						
20			Gallo	Gallo-	10	preview	17	23	1581	0	0	0	0	1581
			-		10	preview	17	24						
21			Jones	Jones	10	preview	17	25	955	0	0	0	0	955
22	20	and	and	and	10	preview	17	26	0	0	0	0	0	0
23	21	@entity5	Ramon	Ramon	10	preview	17	27	616	0	0	0	0	616
24			Luis	Luis	10	preview	17	28	126	0	0	0	0	126
25			Nicolas	Nicolas	10	preview	17	29	0	0	0	0	0	0
26	22	were	were	were	10	preview	17	30	195	0	0	0	0	195
27	23	in	in	in	10	preview	17	31	123	0	0	0	0	123
28	24	the	the	the	10	preview	17	32	0	0	0	0	0	0
29	25	middle	middle	middle	10	preview	17	33	167	0	0	0	0	167
30	26	of	of	of	10	preview	17	34	0	0	0	0	0	0
31	27	a	a	a	10	preview	17	35	0	0	0	0	0	0
32	28	bout	bout	bout	10	preview	17	36	237	0	0	0	0	237
33	29	when	when	when	10	preview	17	37	145	0	0	0	0	145
34	30	the	the	the	10	preview	17	38	0	0	0	0	0	0
35	31	black	black	black	10	preview	17	39	205	0	0	0	0	205
36	32	phone	phone	phone	10	preview	17	40	160	0	0	0	0	160
37	33	slipped	slipped	slipped	10	preview	17	41	311	0	0	0	0	311
38	34	out	out	out	10	preview	17	42	0	0	0	0	0	0
39	35	from	from	from	10	preview	17	43	663	0	0	0	0	663
40	36	@entity4	Jones	Jones-	10	preview	17	44	390	0	0	0	0	390
	37	-	-		10	preview	17	45						
41	38	black	black	black	10	preview	17	46	86	0	0	0	0	86
42	39	and	and	and	10	preview	17	47	140	0	0	0	0	140
43	40	red	red	red	10	preview	17	48	0	0	0	0	0	0
44	41	shorts	shorts	shorts	10	preview	17	49	487	0	0	0	0	487
45	42	at	at	at	10	preview	17	50	180	0	0	0	0	180
46	43	the	the	the	10	preview	17	51	372	0	0	0	0	372
47	44	ring	ring	ring	10	preview	17	52	83	0	0	0	0	83
48	45	in	in	in	10	preview	17	53	113	0	0	0	0	113
49	46	@entity11	Arcadia	Arcadia,	10	preview	17	54	425	0	0	0	0	425
	47	,	,		10	preview	17	55						
50	48	@entity12	Florida	Florida.	10	preview	17	56	223	0	0	0	0	223
	49	.	.		10	preview	17	57						
51	50	Referee	Referee	Referee	10	preview	17	58	753	122	7202	122	420	631
52	51	@entity13	Frankie	Frankie	10	preview	17	59	861	379	379	379	379	482
53			Santore	Santore	10	preview	17	60	423	423	5799	149	423	0
54			Jr.	Jr.	10	preview	17	61	0	0	0	0	0	0
55	52	went	went	went	10	preview	17	62	226	226	226	226	226	0
56	53	over	over	over	10	preview	17	63	0	0	0	0	0	0
57	54	to	to	to	10	preview	17	64	167	167	167	167	167	0
58	55	pick	pick	pick	10	preview	17	65	0	0	0	0	0	0
59	56	up	up	up	10	preview	17	66	0	0	0	0	0	0
60	57	the	the	the	10	preview	17	67	0	0	0	0	0	0
61	58	@entity14	Samsung	Samsung	10	preview	17	68	290	290	290	290	290	0
62			Galaxy	Galaxy	10	preview	17	69	134	134	134	134	134	0
63	59	and	and	and	10	preview	17	70	127	127	127	127	127	0
64	60	looked	looked	looked	10	preview	17	71	0	0	0	0	0	0
65	61	like	like	like	10	preview	17	72	295	171	171	171	171	124
66	62	he	he	he	10	preview	17	73	0	0	0	0	0	0
67	63	was	was	was	10	preview	17	74	210	210	334	210	210	0
68	64	chastising	chastising	chastising	10	preview	17	75	204	204	204	204	204	0
69	65	@entity4	Jones	Jones,	10	preview	17	76	0	0	0	0	0	0
	66	,	,		10	preview	17	77						
70	67	who	who	who	10	preview	17	78	0	0	0	0	0	0
71	68	seemed	seemed	seemed	10	preview	17	79	149	149	149	149	149	0
72	69	confused	confused	confused.	10	preview	17	80	222	222	222	222	222	0
	70	.	.		10	preview	17	81						
73	71	Scroll	Scroll	Jones,	10	preview	17	82	203	203	203	203	203	0
	72	down	down		10	preview	17	83						
	73	for	for		10	preview	17	84						
	74	video	video		10	preview	17	85						
	75	@entity4	Marvin		10	preview	17	86						
			-		10	preview	17	87						
			Papi		10	preview	17	88						
			Gallo		10	preview	17	89						
			-		10	preview	17	90						
			Jones		10	preview	17	91						
	76	(	(		10	preview	17	92						
74	77	right	right	32,	10	preview	17	93	0	0	0	0	0	0
	78	)	)		10	preview	17	94						
	79	and	and		10	preview	17	95						
75	80	@entity5	Ramon	held	10	preview	17	96	205	205	205	205	205	0
			Luis		10	preview	17	97						
			Nicolas		10	preview	17	98						
	81	(	(		10	preview	17	99						
	82	left	left		10	preview	17	100						
76	83	)	)	his	10	preview	17	101	0	0	0	0	0	0
77	84	were	were	hands	10	preview	17	102	183	183	183	183	183	0
	85	in	in		10	preview	17	103						
	86	the	the		10	preview	17	104						
	87	middle	middle		10	preview	17	105						
	88	of	of		10	preview	17	106						
	89	a	a		10	preview	17	107						
	90	bout	bout		10	preview	17	108						
	91	when	when		10	preview	17	109						
	92	the	the		10	preview	17	110						
	93	black	black		10	preview	17	111						
	94	phone	phone		10	preview	17	112						
	95	slipped	slipped		10	preview	17	113						
	96	out	out		10	preview	17	114						
	97	from	from		10	preview	17	115						
	98	@entity4	Jones		10	preview	17	116						
78	99	-	-	up	10	preview	17	117	0	0	0	0	0	0
79	100	black	black	as	10	preview	17	118	161	161	161	161	161	0
	101	and	and		10	preview	17	119						
80	102	red	red	the	10	preview	17	120	0	0	0	0	0	0
81	103	shorts	shorts	referee	10	preview	17	121	232	232	232	232	232	0
	104	at	at		10	preview	17	122						
	105	the	the		10	preview	17	123						
	106	ring	ring		10	preview	17	124						
	107	in	in		10	preview	17	125						
	108	@entity11	Arcadia		10	preview	17	126						
	109	,	,		10	preview	17	127						
	110	@entity12	Florida		10	preview	17	128						
	111	@entity4	Jones		10	preview	17	129						
	112	,	,		10	preview	17	130						
	113	32	32		10	preview	17	131						
	114	,	,		10	preview	17	132						
	115	held	held		10	preview	17	133						
	116	his	his		10	preview	17	134						
	117	hands	hands		10	preview	17	135						
	118	up	up		10	preview	17	136						
	119	as	as		10	preview	17	137						
	120	the	the		10	preview	17	138						
	121	referee	referee		10	preview	17	139						
82	122	took	took	took	10	preview	17	140	0	0	0	0	0	0
83	123	the	the	the	10	preview	17	141	266	266	266	266	266	0
84	124	phone	phone	phone	10	preview	17	142	0	0	0	0	0	0
85	125	over	over	over	10	preview	17	143	0	0	0	0	0	0
86	126	to	to	to	10	preview	17	144	0	0	0	0	0	0
87	127	the	the	the	10	preview	17	145	0	0	0	0	0	0
88	128	side	side	side	10	preview	17	146	0	0	0	0	0	0
89	129	of	of	of	10	preview	17	147	180	180	180	180	180	0
90	130	the	the	the	10	preview	17	148	0	0	0	0	0	0
91	131	ring	ring	ring.	10	preview	17	149	0	0	0	0	0	0
	132	.	.		10	preview	17	150						
92	133	The	The	The	10	preview	17	151	0	0	0	0	0	0
93	134	audience	audience	audience	10	preview	17	152	285	285	285	165	285	0
94	135	and	and	and	10	preview	17	153	130	130	130	130	130	0
95	136	viewers	viewers	viewers	10	preview	17	154	120	0	0	0	0	120
96	137	were	were	were	10	preview	17	155	152	152	272	152	152	0
97	138	baffled	baffled	baffled	10	preview	17	156	185	185	185	185	185	0
98	139	as	as	as	10	preview	17	157	0	0	0	0	0	0
99	140	to	to	to	10	preview	17	158	0	0	0	0	0	0
100	141	why	why	why	10	preview	17	159	272	272	272	272	272	0
101	142	@entity4	Jones	Jones	10	preview	17	160	0	0	0	0	0	0
102	143	had	had	had	10	preview	17	161	0	0	0	0	0	0
103	144	his	his	his	10	preview	17	162	205	205	205	205	205	0
104	145	phone	phone	phone	10	preview	17	163	0	0	0	0	0	0
105	146	in	in	in	10	preview	17	164	0	0	0	0	0	0
106	147	his	his	his	10	preview	17	165	260	260	260	260	260	0
107	148	shorts	shorts	shorts.	10	preview	17	166	0	0	0	0	0	0
	149	.	.		10	preview	17	167						
108	150	But	But	But	10	preview	17	168	0	0	0	0	0	0
109	151	@entity4	Jones	Jones	10	preview	17	169	252	252	252	252	252	0
110	152	later	later	later	10	preview	17	170	117	117	117	117	117	0
111	153	told	told	told	10	preview	17	171	91	0	0	0	0	91
112	154	@entity26	TMZ	TMZ	10	preview	17	172	0	0	0	0	0	0
113			Sports	Sports	10	preview	17	173	178	178	269	178	178	0
114	155	that	that	that	10	preview	17	174	0	0	0	0	0	0
115	156	he	he	he	10	preview	17	175	183	183	183	183	183	0
116	157	was	was	was	10	preview	17	176	0	0	0	0	0	0
117	158	listening	listening	listening	10	preview	17	177	204	204	204	204	204	0
118	159	to	to	to	10	preview	17	178	0	0	0	0	0	0
119	160	music	music	music	10	preview	17	179	242	242	242	242	242	0
120	161	before	before	before	10	preview	17	180	0	0	0	0	0	0
121	162	the	the	the	10	preview	17	181	165	165	165	165	165	0
122	163	fight	fight	fight	10	preview	17	182	0	0	0	0	0	0
123	164	on	on	on	10	preview	17	183	106	106	106	106	106	0
124	165	Friday	Friday	Friday	10	preview	17	184	192	192	192	192	192	0
125	166	and	and	and	10	preview	17	185	0	0	0	0	0	0
126	167	put	put	put	10	preview	17	186	166	166	166	166	166	0
127	168	his	his	his	10	preview	17	187	90	90	90	90	90	0
128	169	phone	phone	phone	10	preview	17	188	280	0	0	0	0	280
129	170	in	in	in	10	preview	17	189	0	0	0	0	0	0
130	171	his	his	his	10	preview	17	190	319	104	599	104	319	215
131	172	shorts	shorts	shorts.	10	preview	17	191	0	0	0	0	0	0
	173	.	.		10	preview	17	192						
132	174	When	When	When	10	preview	17	193	173	173	173	173	173	0
133	175	he	he	he	10	preview	17	194	0	0	0	0	0	0
134	176	got	got	got	10	preview	17	195	0	0	0	0	0	0
135	177	to	to	to	10	preview	17	196	250	250	250	250	250	0
136	178	the	the	the	10	preview	17	197	412	412	412	174	412	0
137	179	ring	ring	ring,	10	preview	17	198	0	0	0	0	0	0
	180	,	,		10	preview	17	199						
138	181	he	he	he	10	preview	17	200	0	0	0	0	0	0
139	182	pulled	pulled	pulled	10	preview	17	201	105	105	105	105	105	0
140	183	out	out	out	10	preview	17	202	0	0	0	0	0	0
141	184	his	his	his	10	preview	17	203	112	112	112	112	112	0
142	185	headphones	headphones	headphones,	10	preview	17	204	296	118	118	118	118	178
	186	,	,		10	preview	17	205						
143	187	but	but	but	10	preview	17	206	180	180	180	180	180	0
144	188	missed	missed	missed	10	preview	17	207	145	0	0	0	0	145
145	189	his	his	his	10	preview	17	208	131	131	454	131	131	0
146	190	phone	phone	phone.	10	preview	17	209	172	172	172	172	172	0
	191	.	.		10	preview	17	210						
147	192	@entity4	Jones	Jones	10	preview	17	211	255	255	255	255	255	0
148	193	believes	believes	believes	10	preview	17	212	112	0	0	0	0	112
149	194	the	the	the	10	preview	17	213	187	187	299	187	187	0
150	195	mishap	mishap	mishap	10	preview	17	214	234	234	234	234	234	0
151	196	cost	cost	cost	10	preview	17	215	171	171	171	171	171	0
152	197	him	him	him	10	preview	17	216	0	0	0	0	0	0
153	198	the	the	the	10	preview	17	217	172	172	172	172	172	0
154	199	fight	fight	fight	10	preview	17	218	0	0	0	0	0	0
155	200	as	as	as	10	preview	17	219	0	0	0	0	0	0
156	201	he	he	he	10	preview	17	220	191	191	191	191	191	0
157	202	kept	kept	kept	10	preview	17	221	0	0	0	0	0	0
158	203	thinking	thinking	thinking,	10	preview	17	222	145	145	145	145	145	0
	204	,	,		10	preview	17	223						
159	205	-	-	-Man,	10	preview	17	224	92	0	0	0	0	92
	206	Man	Man		10	preview	17	225						
	207	,	,		10	preview	17	226						
160	208	my	my	my	10	preview	17	227	0	0	0	0	0	0
161	209	cell	cell	cell	10	preview	17	228	120	120	212	120	120	0
162	210	phone	phone	phone	10	preview	17	229	192	192	192	192	192	0
163	211	just	just	just	10	preview	17	230	0	0	0	0	0	0
164	212	fell	fell	fell	10	preview	17	231	312	312	312	169	312	0
165	213	out	out	out	10	preview	17	232	0	0	0	0	0	0
166	214	in	in	in	10	preview	17	233	187	0	0	0	0	187
167	215	the	the	the	10	preview	17	234	0	0	0	0	0	0
168	216	ring	ring	ring	10	preview	17	235	365	197	197	197	197	168
169	217	–	–	-	10	preview	17	236	0	0	0	0	0	0
170	218	and	and	and	10	preview	17	237	0	0	0	0	0	0
171	219	on	on	on	10	preview	17	238	166	166	166	166	166	0
172	220	TV	TV	TV!-	10	preview	17	239	149	149	504	149	149	0
	221	!	!		10	preview	17	240						
	222	-	-		10	preview	17	241						
173	223	He	He	He	10	preview	17	242	0	0	0	0	0	0
174	224	has	has	has	10	preview	17	243	207	207	207	207	207	0
175	225	decided	decided	decided	10	preview	17	244	132	132	132	132	132	0
176	226	that	that	that	10	preview	17	245	0	0	0	0	0	0
177	227	for	for	for	10	preview	17	246	158	158	946	158	158	0
178	228	his	his	his	10	preview	17	247	0	0	0	0	0	0
179	229	next	next	next	10	preview	17	248	0	0	0	0	0	0
180	230	fight	fight	fight	10	preview	17	249	0	0	0	0	0	0
181	231	he	he	he	10	preview	17	250	0	0	0	0	0	0
182	232	will	will	will	10	preview	17	251	0	0	0	0	0	0
183	233	make	make	make	10	preview	17	252	0	0	0	0	0	0
184	234	sure	sure	sure	10	preview	17	253	0	0	0	0	0	0
185	235	someone	someone	someone	10	preview	17	254	0	0	0	0	0	0
186	236	pats	pats	pats	10	preview	17	255	0	0	0	0	0	0
187	237	him	him	him	10	preview	17	256	0	0	0	0	0	0
188	238	down	down	down.	10	preview	17	257	0	0	0	0	0	0
	239	.	.		10	preview	17	258						
