1	0	A	A	A
2	1	boxing	boxing	boxing
3	2	fight	fight	fight
4	3	had	had	had
5	4	to	to	to
6	5	be	be	be
7	6	halted	halted	halted
8	7	after	after	after
9	8	a	a	a
10	9	fighter	fighter	fighter's
	10	's	's
11	11	cell	cell	cell
12	12	phone	phone	phone
13	13	fell	fell	fell
14	14	out	out	out
15	15	of	of	of
16	16	his	his	his
17	17	trunks	trunks	trunks.
	18	.	.
18	19	@entity4	Marvin	Marvin
19			"	"Papi
			Papi
20			Gallo	Gallo"
			"
21			Jones	Jones
22	20	and	and	and
23	21	@entity5	Ramon	Ramon
24			Luis	Luis
25			Nicolas	Nicolas
26	22	were	were	were
27	23	in	in	in
28	24	the	the	the
29	25	middle	middle	middle
30	26	of	of	of
31	27	a	a	a
32	28	bout	bout	bout
33	29	when	when	when
34	30	the	the	the
35	31	black	black	black
36	32	phone	phone	phone
37	33	slipped	slipped	slipped
38	34	out	out	out
39	35	from	from	from
40	36	@entity4	Jones	Jones'
	37	'	'
41	38	black	black	black
42	39	and	and	and
43	40	red	red	red
44	41	shorts	shorts	shorts
45	42	at	at	at
46	43	the	the	the
47	44	ring	ring	ring
48	45	in	in	in
49	46	@entity11	Arcadia	Arcadia,
	47	,	,
50	48	@entity12	Florida	Florida.
	49	.	.
51	50	Referee	Referee	Referee
52	51	@entity13	Frankie	Frankie
53			Santore	Santore
54			Jr.	Jr.
55	52	went	went	went
56	53	over	over	over
57	54	to	to	to
58	55	pick	pick	pick
59	56	up	up	up
60	57	the	the	the
61	58	@entity14	Samsung	Samsung
62			Galaxy	Galaxy
63	59	and	and	and
64	60	looked	looked	looked
65	61	like	like	like
66	62	he	he	he
67	63	was	was	was
68	64	chastising	chastising	chastising
69	65	@entity4	Jones	Jones,
	66	,	,
70	67	who	who	who
71	68	seemed	seemed	seemed
72	69	confused	confused	confused.
	70	.	.
73	71	Scroll	Scroll	Jones,
	72	down	down
	73	for	for
	74	video	video
	75	@entity4	Marvin
			"
			Papi
			Gallo
			"
			Jones
	76	(	(
74	77	right	right	32,
	78	)	)
	79	and	and
75	80	@entity5	Ramon	held
			Luis
			Nicolas
	81	(	(
	82	left	left
76	83	)	)	his
77	84	were	were	hands
	85	in	in
	86	the	the
	87	middle	middle
	88	of	of
	89	a	a
	90	bout	bout
	91	when	when
	92	the	the
	93	black	black
	94	phone	phone
	95	slipped	slipped
	96	out	out
	97	from	from
	98	@entity4	Jones
78	99	'	'	up
79	100	black	black	as
	101	and	and
80	102	red	red	the
81	103	shorts	shorts	referee
	104	at	at
	105	the	the
	106	ring	ring
	107	in	in
	108	@entity11	Arcadia
	109	,	,
	110	@entity12	Florida
	111	@entity4	Jones
	112	,	,
	113	32	32
	114	,	,
	115	held	held
	116	his	his
	117	hands	hands
	118	up	up
	119	as	as
	120	the	the
	121	referee	referee
82	122	took	took	took
83	123	the	the	the
84	124	phone	phone	phone
85	125	over	over	over
86	126	to	to	to
87	127	the	the	the
88	128	side	side	side
89	129	of	of	of
90	130	the	the	the
91	131	ring	ring	ring.
	132	.	.
92	133	The	The	The
93	134	audience	audience	audience
94	135	and	and	and
95	136	viewers	viewers	viewers
96	137	were	were	were
97	138	baffled	baffled	baffled
98	139	as	as	as
99	140	to	to	to
100	141	why	why	why
101	142	@entity4	Jones	Jones
102	143	had	had	had
103	144	his	his	his
104	145	phone	phone	phone
105	146	in	in	in
106	147	his	his	his
107	148	shorts	shorts	shorts.
	149	.	.
108	150	But	But	But
109	151	@entity4	Jones	Jones
110	152	later	later	later
111	153	told	told	told
112	154	@entity26	TMZ	TMZ
113			Sports	Sports
114	155	that	that	that
115	156	he	he	he
116	157	was	was	was
117	158	listening	listening	listening
118	159	to	to	to
119	160	music	music	music
120	161	before	before	before
121	162	the	the	the
122	163	fight	fight	fight
123	164	on	on	on
124	165	Friday	Friday	Friday
125	166	and	and	and
126	167	put	put	put
127	168	his	his	his
128	169	phone	phone	phone
129	170	in	in	in
130	171	his	his	his
131	172	shorts	shorts	shorts.
	173	.	.
132	174	When	When	When
133	175	he	he	he
134	176	got	got	got
135	177	to	to	to
136	178	the	the	the
137	179	ring	ring	ring,
	180	,	,
138	181	he	he	he
139	182	pulled	pulled	pulled
140	183	out	out	out
141	184	his	his	his
142	185	headphones	headphones	headphones,
	186	,	,
143	187	but	but	but
144	188	missed	missed	missed
145	189	his	his	his
146	190	phone	phone	phone.
	191	.	.
147	192	@entity4	Jones	Jones
148	193	believes	believes	believes
149	194	the	the	the
150	195	mishap	mishap	mishap
151	196	cost	cost	cost
152	197	him	him	him
153	198	the	the	the
154	199	fight	fight	fight
155	200	as	as	as
156	201	he	he	he
157	202	kept	kept	kept
158	203	thinking	thinking	thinking,
	204	,	,
159	205	'	'	'Man,
	206	Man	Man
	207	,	,
160	208	my	my	my
161	209	cell	cell	cell
162	210	phone	phone	phone
163	211	just	just	just
164	212	fell	fell	fell
165	213	out	out	out
166	214	in	in	in
167	215	the	the	the
168	216	ring	ring	ring
169	217	–	–	-
170	218	and	and	and
171	219	on	on	on
172	220	TV	TV	TV!'
	221	!	!
	222	'	'
173	223	He	He	He
174	224	has	has	has
175	225	decided	decided	decided
176	226	that	that	that
177	227	for	for	for
178	228	his	his	his
179	229	next	next	next
180	230	fight	fight	fight
181	231	he	he	he
182	232	will	will	will
183	233	make	make	make
184	234	sure	sure	sure
185	235	someone	someone	someone
186	236	pats	pats	pats
187	237	him	him	him
188	238	down	down	down.
	239	.	.
