1	0	(	(	Sabra
	1	@entity2	CNN
	2	)	)
	3	@entity1	Sabra
2			Dipping	Dipping
3			Co.	Co.
4	4	is	is	is
5	5	recalling	recalling	recalling
6	6	30,000	30,000	30,000
7	7	cases	cases	cases
8	8	of	of	of
9	9	hummus	hummus	hummus
10	10	due	due	due
11	11	to	to	to
12	12	possible	possible	possible
13	13	contamination	contamination	contamination
14	14	with	with	with
15	15	@entity6	Listeria	Listeria,
	16	,	,
16	17	the	the	the
17	18	@entity0	U.S.	U.S.
18			Food	Food
19			and	and
20			Drug	Drug
21			Administration	Administration
22	19	said	said	said
23	20	Wednesday	Wednesday	Wednesday.
	21	.	.
24	22	The	The	The
25	23	nationwide	nationwide	nationwide
26	24	recall	recall	recall
27	25	is	is	is
28	26	voluntary	voluntary	voluntary.
	27	.	.
29	28	So	So	So
30	29	far	far	far,
	30	,	,
31	31	no	no	no
32	32	illnesses	illnesses	illnesses
33	33	caused	caused	caused
34	34	by	by	by
35	35	the	the	the
36	36	hummus	hummus	hummus
37	37	have	have	have
38	38	been	been	been
39	39	reported	reported	reported.
	40	.	.
40	41	The	The	The
41	42	potential	potential	potential
42	43	for	for	for
43	44	contamination	contamination	contamination
44	45	was	was	was
45	46	discovered	discovered	discovered
46	47	when	when	when
47	48	a	a	a
48	49	routine	routine	routine,
	50	,	,
49	51	random	random	random
50	52	sample	sample	sample
51	53	collected	collected	collected
52	54	at	at	at
53	55	a	a	a
54	56	@entity14	Michigan	Michigan
55	57	store	store	store
56	58	on	on	on
57	59	March	March	March
58	60	30	30	30
59	61	tested	tested	tested
60	62	positive	positive	positive
61	63	for	for	for
62	64	@entity6	Listeria	Listeria
63	65	monocytogenes	monocytogenes	monocytogenes.
	66	.	.
64	67	The	The	The
65	68	@entity0	FDA	FDA
66	69	issued	issued	issued
67	70	a	a	a
68	71	list	list	list
69	72	of	of	of
70	73	the	the	the
71	74	products	products	products
72	75	in	in	in
73	76	the	the	the
74	77	recall	recall	recall.
	78	.	.
75	79	Anyone	Anyone	Anyone
76	80	who	who	who
77	81	has	has	has
78	82	purchased	purchased	purchased
79	83	any	any	any
80	84	of	of	of
81	85	the	the	the
82	86	items	items	items
83	87	is	is	is
84	88	urged	urged	urged
85	89	to	to	to
86	90	dispose	dispose	dispose
87	91	of	of	of
88	92	or	or	or
89	93	return	return	return
90	94	it	it	it
91	95	to	to	to
92	96	the	the	the
93	97	store	store	store
94	98	for	for	for
95	99	a	a	a
96	100	full	full	full
97	101	refund	refund	refund.
	102	.	.
98	103	Listeria	Listeria	Listeria
99	104	monocytogenes	monocytogenes	monocytogenes
100	105	can	can	can
101	106	cause	cause	cause
102	107	serious	serious	serious
103	108	and	and	and
104	109	sometimes	sometimes	sometimes
105	110	fatal	fatal	fatal
106	111	infections	infections	infections
107	112	in	in	in
108	113	young	young	young
109	114	children	children	children,
	115	,	,
110	116	frail	frail	frail
111	117	or	or	or
112	118	elderly	elderly	elderly
113	119	people	people	people,
	120	,	,
114	121	and	and	and
115	122	others	others	others
116	123	with	with	with
117	124	weakened	weakened	weakened
118	125	immune	immune	immune
119	126	systems	systems	systems,
	127	,	,
120	128	the	the	the
121	129	@entity0	FDA	FDA
122	130	says	says	says.
	131	.	.
123	132	Although	Although	Although
124	133	some	some	some
125	134	people	people	people
126	135	may	may	may
127	136	suffer	suffer	suffer
128	137	only	only	only
129	138	short	short	short-term
	139	-	-
	140	term	term
130	141	symptoms	symptoms	symptoms
131	142	such	such	such
132	143	as	as	as
133	144	high	high	high
134	145	fever	fever	fever,
	146	,	,
135	147	severe	severe	severe
136	148	headache	headache	headache,
	149	,	,
137	150	nausea	nausea	nausea,
	151	,	,
138	152	abdominal	abdominal	abdominal
139	153	pain	pain	pain
140	154	and	and	and
141	155	diarrhea	diarrhea	diarrhea,
	156	,	,
142	157	@entity6	Listeria	Listeria
143	158	can	can	can
144	159	also	also	also
145	160	cause	cause	cause
146	161	miscarriages	miscarriages	miscarriages
147	162	and	and	and
148	163	stillbirths	stillbirths	stillbirths
149	164	among	among	among
150	165	pregnant	pregnant	pregnant
151	166	women	women	women.
	167	.	.
