1	0	(	(	The
2	1	@entity3	CNN	accidental
	2	)	)
	3	The	The
	4	accidental	accidental
3	5	death	death	death
4	6	of	of	of
5	7	a	a	a
6	8	2	2	2-year-old
	9	-	-
	10	year	year
	11	-	-
	12	old	old
7	13	boy	boy	boy
8	14	in	in	in
9	15	@entity2	Milwaukee	Milwaukee
10	16	on	on	on
11	17	Sunday	Sunday	Sunday
12	18	triggered	triggered	triggered
13	19	a	a	a
14	20	violent	violent	violent
15	21	chain	chain	chain
16	22	of	of	of
17	23	events	events	events,
	24	,	,
18	25	eventually	eventually	eventually
19	26	claiming	claiming	claiming
20	27	the	the	the
21	28	lives	lives	lives
22	29	of	of	of
23	30	three	three	three
24	31	more	more	more
25	32	people	people	people.
	33	.	.
26	34	It	It	It
27	35	all	all	all
28	36	started	started	started
29	37	with	with	with
30	38	a	a	a
31	39	birthday	birthday	birthday
32	40	party	party	party
33	41	that	that	that
34	42	little	little	little
35	43	@entity9	Damani	Damani
36			Terry	Terry
37	44	was	was	was
38	45	attending	attending	attending.
	46	.	.
39	47	During	During	During
40	48	the	the	the
41	49	family	family	family
42	50	gathering	gathering	gathering,
	51	,	,
43	52	he	he	he
44	53	dashed	dashed	dashed
45	54	out	out	out
46	55	into	into	into
47	56	the	the	the
48	57	street	street	street
49	58	and	and	and
50	59	was	was	was
51	60	struck	struck	struck
52	61	and	and	and
53	62	killed	killed	killed
54	63	by	by	by
55	64	a	a	a
56	65	@entity14	GMC	GMC
57	66	van	van	van,
	67	,	,
58	68	according	according	according
59	69	to	to	to
60	70	@entity2	Milwaukee	Milwaukee
61	71	police	police	police.
	72	.	.
62	73	The	The	The
63	74	distraught	distraught	distraught
64	75	driver	driver	driver,
	76	,	,
65	77	@entity16	Archie	Archie
66			Brown	Brown
67			Jr.	Jr.,
	78	,	,
68	79	40	40	40,
	80	,	,
69	81	immediately	immediately	immediately
70	82	stopped	stopped	stopped
71	83	and	and	and
72	84	got	got	got
73	85	out	out	out
74	86	to	to	to
75	87	tend	tend	tend
76	88	to	to	to
77	89	the	the	the
78	90	boy	boy	boy.
	91	.	.
79	92	But	But	But
80	93	it	it	it
81	94	was	was	was
82	95	too	too	too
83	96	late	late	late,
	97	,	,
84	98	police	police	police
85	99	said	said	said.
	100	.	.
86	101	@entity9	Damani	Damani
87	102	was	was	was
88	103	dead	dead	dead.
	104	.	.
89	105	@entity9	Damani	Damani's
	106	's	's
90	107	alarmed	alarmed	alarmed
91	108	family	family	family
92	109	came	came	came
93	110	running	running	running,
	111	,	,
94	112	including	including	including
95	113	his	his	his
96	114	older	older	older
97	115	brother	brother	brother,
	116	,	,
98	117	15	15	15-year-old
	118	-	-
	119	year	year
	120	-	-
	121	old	old
99	122	@entity22	Rasheed	Rasheed
100			Chiles	Chiles,
	123	,	,
101	124	police	police	police
102	125	said	said	said.
	126	.	.
103	127	That	That	That
104	128	was	was	was
105	129	not	not	not
106	130	the	the	the
107	131	end	end	end
108	132	of	of	of
109	133	the	the	the
110	134	situation	situation	situation.
	135	.	.
111	136	Soon	Soon	Soon,
	137	,	,
112	138	two	two	two
113	139	more	more	more
114	140	people	people	people
115	141	would	would	would
116	142	also	also	also
117	143	die	die	die:
118	144	:	:	the
119	145	the	the	driver
	146	driver	driver
120	147	and	and	and
121	148	the	the	the
122	149	teen	teen	teen
123	150	were	were	were
124	151	both	both	both
125	152	felled	felled	felled
126	153	by	by	by
127	154	bullets	bullets	bullets
128	155	fired	fired	fired
129	156	by	by	by
130	157	the	the	the
131	158	same	same	same
132	159	man	man	man,
	160	,	,
133	161	police	police	police
134	162	said	said	said.
	163	.	.
135	164	That	That	That
136	165	man	man	man,
	166	,	,
137	167	identified	identified	identified
138	168	as	as	as
139	169	@entity33	Ricky	Ricky
140			Ricardo	Ricardo
141			Chiles	Chiles
142			III	III,
	170	,	,
143	171	was	was	was
144	172	located	located	located
145	173	late	late	late
146	174	Wednesday	Wednesday	Wednesday
147	175	at	at	at
148	176	a	a	a
149	177	@entity35	Chicago	Chicago-area
	178	-	-
	179	area	area
150	180	hotel	hotel	hotel.
	181	.	.
151	182	He	He	He
152	183	committed	committed	committed
153	184	suicide	suicide	suicide
154	185	as	as	as
155	186	authorities	authorities	authorities
156	187	closed	closed	closed
157	188	in	in	in
158	189	with	with	with
159	190	a	a	a
160	191	warrant	warrant	warrant
161	192	for	for	for
162	193	his	his	his
163	194	arrest	arrest	arrest,
	195	,	,
164	196	@entity2	Milwaukee	Milwaukee
165	197	Police	Police	Police
166	198	Chief	Chief	Chief
167	199	@entity36	Ed	Ed
168			Flynn	Flynn
169	200	told	told	told
170	201	reporters	reporters	reporters.
	202	.	.
171	203	"	"	"Chicago
	204	@entity35	Chicago
172	205	police	police	police
173	206	and	and	and
174	207	@entity43	United	United
175			States	States
176			Marshals	Marshals
177			Service	Service
178	208	entered	entered	entered
179	209	the	the	the
180	210	hotel	hotel	hotel
181	211	room	room	room,
	212	,	,
182	213	whereupon	whereupon	whereupon
183	214	Mr.	Mr.	Mr.
184	215	@entity22	Chiles	Chiles
185	216	took	took	took
186	217	his	his	his
187	218	own	own	own
188	219	life	life	life
189	220	with	with	with
190	221	his	his	his
191	222	firearm	firearm	firearm,"
	223	,	,
	224	"	"
192	225	the	the	the
193	226	police	police	police
194	227	chief	chief	chief
195	228	said	said	said
196	229	Thursday	Thursday	Thursday.
	230	.	.
197	231	An	An	An
198	232	accidental	accidental	accidental
199	233	death	death	death,
	234	,	,
200	235	a	a	a
201	236	fatal	fatal	fatal
202	237	retaliation	retaliation	retaliation
203	238	rips	rips	rips
204	239	apart	apart	apart
205	240	two	two	two
206	241	families	families	families
207	242	@entity9	Damani	Damani's
	243	's	's
208	244	family	family	family
209	245	members	members	members
210	246	had	had	had
211	247	previously	previously	previously
212	248	identified	identified	identified
213	249	the	the	the
214	250	shooting	shooting	shooting
215	251	suspect	suspect	suspect
216	252	as	as	as
217	253	the	the	the
218	254	boys	boys	boys'
	255	'	'
219	256	uncle	uncle	uncle.
	257	.	.
220	258	"	"	"Sunday
	259	Sunday	Sunday
221	260	was	was	was
222	261	the	the	the
223	262	worst	worst	worst
224	263	day	day	day
225	264	I	I	I
226	265	ever	ever	ever
227	266	lived	lived	lived
228	267	in	in	in
229	268	my	my	my
230	269	whole	whole	whole
231	270	entire	entire	entire
232	271	life	life	life,"
	272	,	,
	273	"	"
233	274	@entity54	Lena	Lena
234			Tidwell	Tidwell,
	275	,	,
235	276	told	told	told
236	277	@entity3	CNN	CNN
237	278	affiliate	affiliate	affiliate
238	279	@entity55	WISN	WISN.
	280	.	.
239	281	"	"	"It's
	282	It	It
	283	's	's
240	284	a	a	a
241	285	day	day	day
242	286	I	I	I
243	287	wish	wish	wish
244	288	had	had	had
245	289	never	never	never,
	290	,	,
246	291	never	never	never
247	292	came	came	came."
	293	.	.
248	294	"	"	Tidwell
	295	@entity54	Tidwell
249	296	is	is	is
250	297	the	the	the
251	298	boys	boys	boys'
	299	'	'
252	300	grandmother	grandmother	grandmother
253	301	and	and	and
254	302	the	the	the
255	303	mother	mother	mother
256	304	of	of	of
257	305	the	the	the
258	306	alleged	alleged	alleged
259	307	gunman	gunman	gunman.
	308	.	.
260	309	She	She	She
261	310	said	said	said
262	311	she	she	she
263	312	was	was	was
264	313	inside	inside	inside
265	314	eating	eating	eating
266	315	cake	cake	cake
267	316	and	and	and
268	317	ice	ice	ice
269	318	cream	cream	cream
270	319	at	at	at
271	320	the	the	the
272	321	birthday	birthday	birthday
273	322	when	when	when
274	323	her	her	her
275	324	life	life	life
276	325	turned	turned	turned
277	326	upside	upside	upside
278	327	down	down	down.
	328	.	.
279	329	"	"	"I
	330	I	I
280	331	did	did	didn't
	332	n't	n't
281	333	know	know	know
282	334	my	my	my
283	335	grandbaby	grandbaby	grandbaby
284	336	got	got	got
285	337	hit	hit	hit,
	338	,	,
286	339	and	and	and
287	340	then	then	then
288	341	I	I	I
289	342	heard	heard	heard
290	343	people	people	people
291	344	just	just	just
292	345	screaming	screaming	screaming,"
	346	,	,
	347	"	"
293	348	she	she	she
294	349	said	said	said.
	350	.	.
295	351	"	"	"Then
	352	Then	Then
296	353	I	I	I
297	354	just	just	just
298	355	heard	heard	heard
299	356	gunshots	gunshots	gunshots,
	357	,	,
300	358	and	and	and
301	359	my	my	my
302	360	daughter	daughter	daughter
303	361	ran	ran	ran
304	362	in	in	in
305	363	the	the	the
306	364	house	house	house
307	365	with	with	with
308	366	the	the	the
309	367	baby	baby	baby
310	368	in	in	in
311	369	her	her	her
312	370	arms	arms	arms."
	371	.	.
313	372	"	"	The
314	373	The	The	family
	374	family	family
315	375	believes	believes	believes
316	376	the	the	the
317	377	uncle	uncle	uncle
318	378	targeted	targeted	targeted
319	379	@entity16	Brown	Brown,
	380	,	,
320	381	and	and	and
321	382	@entity22	Rasheed	Rasheed
322	383	was	was	was
323	384	struck	struck	struck
324	385	by	by	by
325	386	an	an	an
326	387	errant	errant	errant
327	388	bullet	bullet	bullet.
	389	.	.
328	390	"	"	"I
	391	I	I
329	392	heard	heard	heard
330	393	he	he	he
331	394	was	was	was
332	395	trying	trying	trying
333	396	to	to	to
334	397	pick	pick	pick
335	398	his	his	his
336	399	brother	brother	brother
337	400	up	up	up.
	401	.	.
338	402	He	He	He
339	403	was	was	was
340	404	trying	trying	trying
341	405	to	to	to
342	406	hold	hold	hold
343	407	him	him	him
344	408	and	and	and
345	409	save	save	save
346	410	him	him	him,"
	411	,	,
	412	"	"
347	413	a	a	a
348	414	family	family	family
349	415	friend	friend	friend,
	416	,	,
350	417	@entity77	Stephanie	Stephanie
351			Townsend	Townsend,
	418	,	,
352	419	told	told	told
353	420	@entity3	CNN	CNN
354	421	affiliate	affiliate	affiliate
355	422	@entity78	WITI	WITI.
	423	.	.
356	424	Earlier	Earlier	Earlier
357	425	this	this	this
358	426	week	week	week,
	427	,	,
359	428	@entity36	Flynn	Flynn
360	429	bemoaned	bemoaned	bemoaned
361	430	the	the	the
362	431	apparent	apparent	apparent
363	432	madness	madness	madness
364	433	of	of	of
365	434	what	what	what
366	435	happened	happened	happened.
	436	.	.
367	437	"	"	"What
	438	What	What
368	439	did	did	did
369	440	we	we	we
370	441	have	have	have
371	442	Sunday	Sunday	Sunday?"
	443	?	?
	444	"	"
372	445	@entity36	Flynn	Flynn
373	446	asked	asked	asked.
	447	.	.
374	448	"	"	"We
	449	We	We
375	450	had	had	had
376	451	some	some	some
377	452	clown	clown	clown
378	453	take	take	take
379	454	the	the	the
380	455	law	law	law
381	456	into	into	into
382	457	his	his	his
383	458	own	own	own
384	459	hands	hands	hands
385	460	and	and	and
386	461	murder	murder	murder
387	462	a	a	a
388	463	guy	guy	guy
389	464	who	who	who
390	465	was	was	was
391	466	doing	doing	doing
392	467	what	what	what
393	468	we	we	we
394	469	expect	expect	expect
395	470	good	good	good
396	471	citizens	citizens	citizens
397	472	to	to	to
398	473	do	do	do,
	474	,	,
399	475	and	and	and
400	476	oops	oops	oops,
	477	,	,
401	478	accidentally	accidentally	accidentally
402	479	kill	kill	kill
403	480	somebody	somebody	somebody
404	481	else	else	else."
	482	.	.
