HumanPosition	AnonymizedPosition	AnonymizedToken	OriginalToken	ExperimentToken	Participant	Condition	TextNo	JointPosition	tt	fp	rp	ff
1	0	(	(	Blues	9	preview	5	1	0	0	0	0
	1	@entity2	CNN		9	preview	5	2				
	2	)	)		9	preview	5	3				
	3	@entity1	Blues		9	preview	5	4				
2	4	legend	legend	legend	9	preview	5	5	311	0	0	0
3	5	@entity0	B.B.	B.B.	9	preview	5	6	149	149	258	149
4			King	King	9	preview	5	7	0	0	0	0
5	6	was	was	was	9	preview	5	8	0	0	0	0
6	7	hospitalized	hospitalized	hospitalized	9	preview	5	9	536	158	158	158
7	8	for	for	for	9	preview	5	10	0	0	0	0
8	9	dehydration	dehydration	dehydration,	9	preview	5	11	168	0	0	0
	10	,	,		9	preview	5	12				
9	11	though	though	though	9	preview	5	13	284	140	140	140
10	12	the	the	the	9	preview	5	14	0	0	0	0
11	13	ailment	ailment	ailment	9	preview	5	15	425	0	0	0
12	14	did	did	didn-t	9	preview	5	16	0	0	0	0
	15	n-t	n-t		9	preview	5	17				
13	16	keep	keep	keep	9	preview	5	18	0	0	0	0
14	17	him	him	him	9	preview	5	19	0	0	0	0
15	18	out	out	out	9	preview	5	20	94	0	0	0
16	19	for	for	for	9	preview	5	21	184	184	184	184
17	20	long	long	long.	9	preview	5	22	110	0	0	0
	21	.	.		9	preview	5	23				
18	22	@entity0	King	King-s	9	preview	5	24	130	0	0	0
	23	-s	-s		9	preview	5	25				
19	24	dehydration	dehydration	dehydration	9	preview	5	26	323	173	173	173
20	25	was	was	was	9	preview	5	27	0	0	0	0
21	26	caused	caused	caused	9	preview	5	28	0	0	0	0
22	27	by	by	by	9	preview	5	29	376	101	101	101
23	28	his	his	his	9	preview	5	30	0	0	0	0
24	29	Type	Type	Type	9	preview	5	31	205	0	0	0
25	30	II	II	II	9	preview	5	32	0	0	0	0
26	31	diabetes	diabetes	diabetes,	9	preview	5	33	632	233	233	233
	32	,	,		9	preview	5	34				
27	33	but	but	but	9	preview	5	35	0	0	0	0
28	34	he	he	he	9	preview	5	36	134	0	0	0
29	35	-	-	-is	9	preview	5	37	0	0	0	0
	36	is	is		9	preview	5	38				
30	37	much	much	much	9	preview	5	39	0	0	0	0
31	38	better	better	better,-	9	preview	5	40	672	184	184	184
	39	,	,		9	preview	5	41				
	40	-	-		9	preview	5	42				
32	41	his	his	his	9	preview	5	43	133	0	0	0
33	42	daughter	daughter	daughter,	9	preview	5	44	262	0	0	0
	43	,	,		9	preview	5	45				
34	44	@entity6	Claudette	Claudette	9	preview	5	46	86	86	270	86
35			King	King,	9	preview	5	47	107	107	445	107
	45	,	,		9	preview	5	48				
36	46	told	told	told	9	preview	5	49	155	0	0	0
37	47	the	the	the	9	preview	5	50	0	0	0	0
38	48	@entity9	Los	Los	9	preview	5	51	0	0	0	0
39			Angeles	Angeles	9	preview	5	52	161	0	0	0
40			Times	Times.	9	preview	5	53	0	0	0	0
	49	.	.		9	preview	5	54				
41	50	The	The	The	9	preview	5	55	0	0	0	0
42	51	legendary	legendary	legendary	9	preview	5	56	0	0	0	0
43	52	guitarist	guitarist	guitarist	9	preview	5	57	308	0	0	0
44	53	and	and	and	9	preview	5	58	0	0	0	0
45	54	vocalist	vocalist	vocalist	9	preview	5	59	0	0	0	0
46	55	released	released	released	9	preview	5	60	145	0	0	0
47	56	a	a	a	9	preview	5	61	0	0	0	0
48	57	statement	statement	statement	9	preview	5	62	231	0	0	0
49	58	thanking	thanking	thanking	9	preview	5	63	0	0	0	0
50	59	those	those	those	9	preview	5	64	0	0	0	0
51	60	who	who	who	9	preview	5	65	107	0	0	0
52	61	have	have	have	9	preview	5	66	0	0	0	0
53	62	expressed	expressed	expressed	9	preview	5	67	0	0	0	0
54	63	their	their	their	9	preview	5	68	290	0	0	0
55	64	concerns	concerns	concerns.	9	preview	5	69	0	0	0	0
	65	.	.		9	preview	5	70				
56	66	-	-	-I-m	9	preview	5	71	0	0	0	0
	67	I	I		9	preview	5	72				
	68	-m	-m		9	preview	5	73				
57	69	feeling	feeling	feeling	9	preview	5	74	0	0	0	0
58	70	much	much	much	9	preview	5	75	0	0	0	0
59	71	better	better	better	9	preview	5	76	174	0	0	0
60	72	and	and	and	9	preview	5	77	0	0	0	0
61	73	am	am	am	9	preview	5	78	172	172	172	172
62	74	leaving	leaving	leaving	9	preview	5	79	237	0	0	0
63	75	the	the	the	9	preview	5	80	0	0	0	0
64	76	hospital	hospital	hospital	9	preview	5	81	110	0	0	0
65	77	today	today	today,-	9	preview	5	82	0	0	0	0
	78	,	,		9	preview	5	83				
	79	-	-		9	preview	5	84				
66	80	@entity0	King	King	9	preview	5	85	107	0	0	0
67	81	said	said	said	9	preview	5	86	0	0	0	0
68	82	in	in	in	9	preview	5	87	0	0	0	0
69	83	a	a	a	9	preview	5	88	0	0	0	0
70	84	message	message	message	9	preview	5	89	0	0	0	0
71	85	Tuesday	Tuesday	Tuesday.	9	preview	5	90	329	201	201	201
	86	.	.		9	preview	5	91				
72	87	@entity17	Angela	Angela	9	preview	5	92	0	0	0	0
73			Moore	Moore,	9	preview	5	93	297	166	166	166
	88	,	,		9	preview	5	94				
74	89	a	a	a	9	preview	5	95	220	0	0	0
75	90	publicist	publicist	publicist	9	preview	5	96	403	113	514	113
76	91	for	for	for	9	preview	5	97	0	0	0	0
77	92	@entity6	Claudette	Claudette	9	preview	5	98	303	203	203	203
78			King	King,	9	preview	5	99	0	0	0	0
	93	,	,		9	preview	5	100				
79	94	said	said	said	9	preview	5	101	0	0	0	0
80	95	later	later	later	9	preview	5	102	0	0	0	0
81	96	in	in	in	9	preview	5	103	225	0	0	0
82	97	the	the	the	9	preview	5	104	0	0	0	0
83	98	day	day	day	9	preview	5	105	210	210	210	210
84	99	that	that	that	9	preview	5	106	0	0	0	0
85	100	he	he	he	9	preview	5	107	0	0	0	0
86	101	was	was	was	9	preview	5	108	0	0	0	0
87	102	back	back	back	9	preview	5	109	158	0	0	0
88	103	home	home	home	9	preview	5	110	0	0	0	0
89	104	resting	resting	resting	9	preview	5	111	0	0	0	0
90	105	and	and	and	9	preview	5	112	166	0	0	0
91	106	enjoying	enjoying	enjoying	9	preview	5	113	0	0	0	0
92	107	time	time	time	9	preview	5	114	124	0	0	0
93	108	with	with	with	9	preview	5	115	0	0	0	0
94	109	his	his	his	9	preview	5	116	0	0	0	0
95	110	grandchildren	grandchildren	grandchildren.	9	preview	5	117	272	0	0	0
	111	.	.		9	preview	5	118				
96	112	-	-	-He	9	preview	5	119	0	0	0	0
	113	He	He		9	preview	5	120				
97	114	was	was	was	9	preview	5	121	145	145	145	145
98	115	struggling	struggling	struggling	9	preview	5	122	187	0	0	0
99	116	before	before	before,	9	preview	5	123	149	149	149	149
	117	,	,		9	preview	5	124				
100	118	and	and	and	9	preview	5	125	0	0	0	0
101	119	he	he	he	9	preview	5	126	0	0	0	0
102	120	is	is	is	9	preview	5	127	0	0	0	0
103	121	a	a	a	9	preview	5	128	134	0	0	0
104	122	trouper	trouper	trouper,-	9	preview	5	129	236	236	236	236
	123	,	,		9	preview	5	130				
	124	-	-		9	preview	5	131				
105	125	@entity17	Moore	Moore	9	preview	5	132	0	0	0	0
106	126	said	said	said.	9	preview	5	133	171	0	0	0
	127	.	.		9	preview	5	134				
107	128	-	-	-He	9	preview	5	135	0	0	0	0
	129	He	He		9	preview	5	136				
108	130	was	was	wasn-t	9	preview	5	137	0	0	0	0
	131	n-t	n-t		9	preview	5	138				
109	132	going	going	going	9	preview	5	139	362	0	0	0
110	133	to	to	to	9	preview	5	140	139	0	0	0
111	134	let	let	let	9	preview	5	141	418	0	0	0
112	135	his	his	his	9	preview	5	142	0	0	0	0
113	136	fans	fans	fans	9	preview	5	143	0	0	0	0
114	137	down	down	down.-	9	preview	5	144	0	0	0	0
	138	.	.		9	preview	5	145				
115	139	-	-	No	9	preview	5	146	157	157	435	157
116	140	No	No	more	9	preview	5	147	0	0	0	0
117	141	more	more	information	9	preview	5	148	254	0	0	0
	142	information	information		9	preview	5	149				
118	143	on	on	on	9	preview	5	150	0	0	0	0
119	144	@entity0	King	King-s	9	preview	5	151	0	0	0	0
	145	-s	-s		9	preview	5	152				
120	146	condition	condition	condition	9	preview	5	153	176	0	0	0
121	147	or	or	or	9	preview	5	154	0	0	0	0
122	148	where	where	where	9	preview	5	155	0	0	0	0
123	149	he	he	he	9	preview	5	156	0	0	0	0
124	150	was	was	was	9	preview	5	157	0	0	0	0
125	151	hospitalized	hospitalized	hospitalized	9	preview	5	158	166	0	0	0
126	152	was	was	was	9	preview	5	159	0	0	0	0
127	153	immediately	immediately	immediately	9	preview	5	160	0	0	0	0
128	154	available	available	available.	9	preview	5	161	166	166	166	166
	155	.	.		9	preview	5	162				
129	156	@entity0	B.B.	B.B.	9	preview	5	163	0	0	0	0
130	157	is	is	is	9	preview	5	164	0	0	0	0
131	158	short	short	short	9	preview	5	165	417	222	222	222
132	159	for	for	for	9	preview	5	166	0	0	0	0
133	160	@entity24	Blues	Blues	9	preview	5	167	201	201	201	201
134			Boy	Boy,	9	preview	5	168	0	0	0	0
	161	,	,		9	preview	5	169				
135	162	part	part	part	9	preview	5	170	0	0	0	0
136	163	of	of	of	9	preview	5	171	0	0	0	0
137	164	the	the	the	9	preview	5	172	0	0	0	0
138	165	name	name	name	9	preview	5	173	268	0	0	0
139	166	he	he	he	9	preview	5	174	199	0	0	0
140	167	used	used	used	9	preview	5	175	0	0	0	0
141	168	as	as	as	9	preview	5	176	0	0	0	0
142	169	a	a	a	9	preview	5	177	233	233	233	233
143	170	@entity27	Memphis	Memphis	9	preview	5	178	0	0	0	0
144	171	disc	disc	disc	9	preview	5	179	403	174	174	174
145	172	jockey	jockey	jockey,	9	preview	5	180	145	0	0	0
	173	,	,		9	preview	5	181				
146	174	the	the	the	9	preview	5	182	0	0	0	0
147	175	@entity0	Beale	Beale	9	preview	5	183	0	0	0	0
148			Street	Street	9	preview	5	184	523	253	253	253
149			Blues	Blues	9	preview	5	185	104	104	372	104
150			Boy	Boy.	9	preview	5	186	0	0	0	0
	176	.	.		9	preview	5	187				
151	177	He	He	He	9	preview	5	188	196	196	9760	196
152	178	was	was	was	9	preview	5	189	0	0	0	0
153	179	inducted	inducted	inducted	9	preview	5	190	188	188	188	188
154	180	into	into	into	9	preview	5	191	0	0	0	0
155	181	the	the	the	9	preview	5	192	0	0	0	0
156	182	@entity28	Rock	Rock	9	preview	5	193	0	0	0	0
157			and	and	9	preview	5	194	0	0	0	0
158			Roll	Roll	9	preview	5	195	199	199	199	199
159			Hall	Hall	9	preview	5	196	0	0	0	0
160			of	of	9	preview	5	197	0	0	0	0
161			Fame	Fame	9	preview	5	198	109	0	0	0
162	183	in	in	in	9	preview	5	199	0	0	0	0
163	184	1987	1987	1987,	9	preview	5	200	332	133	133	133
	185	,	,		9	preview	5	201				
164	186	and	and	and	9	preview	5	202	0	0	0	0
165	187	has	has	has	9	preview	5	203	0	0	0	0
166	188	30	30	30	9	preview	5	204	0	0	0	0
167	189	@entity30	Grammy	Grammy	9	preview	5	205	303	303	303	303
168	190	nominations	nominations	nominations.	9	preview	5	206	0	0	0	0
	191	.	.		9	preview	5	207				
169	192	@entity0	King	King,	9	preview	5	208	0	0	0	0
	193	,	,		9	preview	5	209				
170	194	89	89	89,	9	preview	5	210	0	0	0	0
	195	,	,		9	preview	5	211				
171	196	has	has	has	9	preview	5	212	239	0	0	0
172	197	used	used	used	9	preview	5	213	224	0	0	0
173	198	various	various	various	9	preview	5	214	258	130	403	130
174	199	models	models	models	9	preview	5	215	0	0	0	0
175	200	of	of	of	9	preview	5	216	0	0	0	0
176	201	@entity33	Gibson	Gibson	9	preview	5	217	296	296	296	296
177	202	guitars	guitars	guitars	9	preview	5	218	126	126	126	126
178	203	over	over	over	9	preview	5	219	0	0	0	0
179	204	the	the	the	9	preview	5	220	0	0	0	0
180	205	years	years	years,	9	preview	5	221	155	155	155	155
	206	,	,		9	preview	5	222				
181	207	and	and	and	9	preview	5	223	0	0	0	0
182	208	named	named	named	9	preview	5	224	0	0	0	0
183	209	each	each	each	9	preview	5	225	0	0	0	0
184	210	one	one	one	9	preview	5	226	0	0	0	0
185	211	of	of	of	9	preview	5	227	0	0	0	0
186	212	them	them	them	9	preview	5	228	0	0	0	0
187	213	@entity35	Lucille	Lucille.	9	preview	5	229	0	0	0	0
	214	.	.		9	preview	5	230				
188	215	In	In	In	9	preview	5	231	0	0	0	0
189	216	the	the	the	9	preview	5	232	133	0	0	0
190	217	1980s	1980s	1980s,	9	preview	5	233	0	0	0	0
	218	,	,		9	preview	5	234				
191	219	@entity33	Gibson	Gibson	9	preview	5	235	0	0	0	0
192	220	officially	officially	officially	9	preview	5	236	0	0	0	0
193	221	dropped	dropped	dropped	9	preview	5	237	0	0	0	0
194	222	the	the	the	9	preview	5	238	0	0	0	0
195	223	model	model	model	9	preview	5	239	0	0	0	0
196	224	number	number	number	9	preview	5	240	211	211	344	211
197	225	on	on	on	9	preview	5	241	0	0	0	0
198	226	the	the	the	9	preview	5	242	0	0	0	0
199	227	guitar	guitar	guitar	9	preview	5	243	0	0	0	0
200	228	he	he	he	9	preview	5	244	0	0	0	0
201	229	used	used	used	9	preview	5	245	0	0	0	0
202	230	last	last	last	9	preview	5	246	0	0	0	0
203	231	and	and	and	9	preview	5	247	0	0	0	0
204	232	most	most	most.	9	preview	5	248	0	0	0	0
	233	.	.		9	preview	5	249				
205	234	It	It	It	9	preview	5	250	0	0	0	0
206	235	became	became	became	9	preview	5	251	0	0	0	0
207	236	a	a	a	9	preview	5	252	181	181	181	181
208	237	custom	custom	custom-made	9	preview	5	253	0	0	0	0
	238	-	-		9	preview	5	254				
	239	made	made		9	preview	5	255				
209	240	signature	signature	signature	9	preview	5	256	0	0	0	0
210	241	model	model	model	9	preview	5	257	0	0	0	0
211	242	named	named	named	9	preview	5	258	0	0	0	0
212	243	@entity35	Lucille	Lucille,	9	preview	5	259	0	0	0	0
	244	,	,		9	preview	5	260				
213	245	manufactured	manufactured	manufactured	9	preview	5	261	0	0	0	0
214	246	exclusively	exclusively	exclusively	9	preview	5	262	0	0	0	0
215	247	for	for	for	9	preview	5	263	0	0	0	0
216	248	the	the	the	9	preview	5	264	0	0	0	0
217	249	-	-	-King	9	preview	5	265	0	0	0	0
	250	@entity40	King		9	preview	5	266				
218			of	of	9	preview	5	267	0	0	0	0
219			the	the	9	preview	5	268	181	181	181	181
220			Blues	Blues.-	9	preview	5	269	0	0	0	0
	251	.	.		9	preview	5	270				
221	252	-	-	Some	9	preview	5	271	0	0	0	0
	253	Some	Some		9	preview	5	272				
222	254	of	of	of	9	preview	5	273	0	0	0	0
223	255	his	his	his	9	preview	5	274	0	0	0	0
224	256	hits	hits	hits	9	preview	5	275	0	0	0	0
225	257	include	include	include	9	preview	5	276	0	0	0	0
226	258	-	-	-The	9	preview	5	277	0	0	0	0
	259	The	The		9	preview	5	278				
227	260	Thrill	Thrill	Thrill	9	preview	5	279	0	0	0	0
228	261	Is	Is	Is	9	preview	5	280	0	0	0	0
229	262	Gone	Gone	Gone,-	9	preview	5	281	0	0	0	0
	263	,	,		9	preview	5	282				
	264	-	-		9	preview	5	283				
230	265	which	which	which	9	preview	5	284	0	0	0	0
231	266	won	won	won	9	preview	5	285	0	0	0	0
232	267	him	him	him	9	preview	5	286	235	0	0	0
233	268	his	his	his	9	preview	5	287	0	0	0	0
234	269	first	first	first	9	preview	5	288	0	0	0	0
235	270	Grammy	Grammy	Grammy	9	preview	5	289	0	0	0	0
236	271	in	in	in	9	preview	5	290	0	0	0	0
237	272	1970	1970	1970,	9	preview	5	291	124	124	124	124
	273	,	,		9	preview	5	292				
238	274	-	-	-There	9	preview	5	293	0	0	0	0
	275	@entity44	There		9	preview	5	294				
239			Must	Must	9	preview	5	295	0	0	0	0
240			be	be	9	preview	5	296	0	0	0	0
241			a	a	9	preview	5	297	0	0	0	0
242			Better	Better	9	preview	5	298	0	0	0	0
243			World	World	9	preview	5	299	0	0	0	0
244			Somewhere	Somewhere-	9	preview	5	300	0	0	0	0
	276	-	-		9	preview	5	301				
245	277	and	and	and	9	preview	5	302	0	0	0	0
246	278	-	-	-When	9	preview	5	303	0	0	0	0
	279	@entity45	When		9	preview	5	304				
247			Love	Love	9	preview	5	305	0	0	0	0
248			Comes	Comes	9	preview	5	306	175	175	175	175
249			to	to	9	preview	5	307	0	0	0	0
250			Town	Town,-	9	preview	5	308	0	0	0	0
	280	,	,		9	preview	5	309				
	281	-	-		9	preview	5	310				
251	282	a	a	a	9	preview	5	311	0	0	0	0
252	283	collaboration	collaboration	collaboration	9	preview	5	312	178	0	0	0
253	284	with	with	with	9	preview	5	313	0	0	0	0
254	285	@entity47	U2	U2.	9	preview	5	314	122	0	0	0
	286	.	.		9	preview	5	315				
255	287	Last	Last	Last	9	preview	5	316	0	0	0	0
256	288	year	year	year,	9	preview	5	317	0	0	0	0
	289	,	,		9	preview	5	318				
257	290	the	the	the	9	preview	5	319	0	0	0	0
258	291	bluesman	bluesman	bluesman	9	preview	5	320	434	0	0	0
259	292	suffered	suffered	suffered	9	preview	5	321	636	0	0	0
260	293	from	from	from	9	preview	5	322	0	0	0	0
261	294	dehydration	dehydration	dehydration	9	preview	5	323	759	0	0	0
262	295	and	and	and	9	preview	5	324	0	0	0	0
263	296	exhaustion	exhaustion	exhaustion	9	preview	5	325	390	0	0	0
264	297	after	after	after	9	preview	5	326	219	219	714	219
265	298	a	a	a	9	preview	5	327	239	0	0	0
266	299	show	show	show	9	preview	5	328	383	0	0	0
267	300	in	in	in	9	preview	5	329	289	289	595	289
268	301	@entity52	Chicago	Chicago,	9	preview	5	330	752	0	0	0
	302	,	,		9	preview	5	331				
269	303	forcing	forcing	forcing	9	preview	5	332	137	0	0	0
270	304	him	him	him	9	preview	5	333	207	0	0	0
271	305	to	to	to	9	preview	5	334	0	0	0	0
272	306	cancel	cancel	cancel	9	preview	5	335	150	0	0	0
273	307	the	the	the	9	preview	5	336	212	212	2871	212
274	308	remainder	remainder	remainder	9	preview	5	337	122	122	1910	122
275	309	of	of	of	9	preview	5	338	0	0	0	0
276	310	his	his	his	9	preview	5	339	0	0	0	0
277	311	tour	tour	tour.	9	preview	5	340	0	0	0	0
	312	.	.		9	preview	5	341				
