HumanPosition	AnonymizedPosition	AnonymizedToken	OriginalToken	ExperimentToken	Participant	Condition	TextNo	JointPosition	tt	fp	rp	ff
1	0	A	A	A	3	nopreview	17	1	0	0	0	0
2	1	boxing	boxing	boxing	3	nopreview	17	2	360	360	360	148
3	2	fight	fight	fight	3	nopreview	17	3	190	190	190	190
4	3	had	had	had	3	nopreview	17	4	0	0	0	0
5	4	to	to	to	3	nopreview	17	5	243	243	243	243
6	5	be	be	be	3	nopreview	17	6	0	0	0	0
7	6	halted	halted	halted	3	nopreview	17	7	481	481	481	481
8	7	after	after	after	3	nopreview	17	8	171	171	171	171
9	8	a	a	a	3	nopreview	17	9	0	0	0	0
10	9	fighter	fighter	fighter-s	3	nopreview	17	10	174	174	174	83
	10	-s	-s		3	nopreview	17	11				
11	11	cell	cell	cell	3	nopreview	17	12	254	254	254	254
12	12	phone	phone	phone	3	nopreview	17	13	254	254	254	254
13	13	fell	fell	fell	3	nopreview	17	14	265	265	265	265
14	14	out	out	out	3	nopreview	17	15	177	177	177	177
15	15	of	of	of	3	nopreview	17	16	0	0	0	0
16	16	his	his	his	3	nopreview	17	17	556	556	556	556
17	17	trunks	trunks	trunks.	3	nopreview	17	18	0	0	0	0
	18	.	.		3	nopreview	17	19				
18	19	@entity4	Marvin	Marvin	3	nopreview	17	20	532	0	0	0
19			-	-Papi	3	nopreview	17	21	470	99	596	99
			Papi		3	nopreview	17	22				
20			Gallo	Gallo-	3	nopreview	17	23	1057	300	1249	300
			-		3	nopreview	17	24				
21			Jones	Jones	3	nopreview	17	25	543	267	267	267
22	20	and	and	and	3	nopreview	17	26	220	220	220	220
23	21	@entity5	Ramon	Ramon	3	nopreview	17	27	920	172	172	172
24			Luis	Luis	3	nopreview	17	28	971	327	986	327
25			Nicolas	Nicolas	3	nopreview	17	29	563	563	563	239
26	22	were	were	were	3	nopreview	17	30	502	502	502	323
27	23	in	in	in	3	nopreview	17	31	0	0	0	0
28	24	the	the	the	3	nopreview	17	32	0	0	0	0
29	25	middle	middle	middle	3	nopreview	17	33	212	212	212	212
30	26	of	of	of	3	nopreview	17	34	89	89	89	89
31	27	a	a	a	3	nopreview	17	35	0	0	0	0
32	28	bout	bout	bout	3	nopreview	17	36	346	346	346	346
33	29	when	when	when	3	nopreview	17	37	0	0	0	0
34	30	the	the	the	3	nopreview	17	38	229	0	0	0
35	31	black	black	black	3	nopreview	17	39	930	88	317	88
36	32	phone	phone	phone	3	nopreview	17	40	250	250	250	250
37	33	slipped	slipped	slipped	3	nopreview	17	41	507	304	589	304
38	34	out	out	out	3	nopreview	17	42	253	253	253	253
39	35	from	from	from	3	nopreview	17	43	136	0	0	0
40	36	@entity4	Jones	Jones-	3	nopreview	17	44	301	301	437	301
	37	-	-		3	nopreview	17	45				
41	38	black	black	black	3	nopreview	17	46	542	542	542	282
42	39	and	and	and	3	nopreview	17	47	0	0	0	0
43	40	red	red	red	3	nopreview	17	48	130	130	130	130
44	41	shorts	shorts	shorts	3	nopreview	17	49	85	85	85	85
45	42	at	at	at	3	nopreview	17	50	530	288	288	288
46	43	the	the	the	3	nopreview	17	51	161	0	0	0
47	44	ring	ring	ring	3	nopreview	17	52	1023	524	1130	207
48	45	in	in	in	3	nopreview	17	53	152	0	0	0
49	46	@entity11	Arcadia	Arcadia,	3	nopreview	17	54	575	432	1023	221
	47	,	,		3	nopreview	17	55				
50	48	@entity12	Florida	Florida.	3	nopreview	17	56	368	0	0	0
	49	.	.		3	nopreview	17	57				
51	50	Referee	Referee	Referee	3	nopreview	17	58	1032	110	3383	110
52	51	@entity13	Frankie	Frankie	3	nopreview	17	59	192	192	192	192
53			Santore	Santore	3	nopreview	17	60	434	434	434	434
54			Jr.	Jr.	3	nopreview	17	61	0	0	0	0
55	52	went	went	went	3	nopreview	17	62	576	139	139	139
56	53	over	over	over	3	nopreview	17	63	386	176	176	176
57	54	to	to	to	3	nopreview	17	64	252	252	252	252
58	55	pick	pick	pick	3	nopreview	17	65	283	116	493	116
59	56	up	up	up	3	nopreview	17	66	0	0	0	0
60	57	the	the	the	3	nopreview	17	67	0	0	0	0
61	58	@entity14	Samsung	Samsung	3	nopreview	17	68	153	153	153	153
62			Galaxy	Galaxy	3	nopreview	17	69	412	412	412	219
63	59	and	and	and	3	nopreview	17	70	0	0	0	0
64	60	looked	looked	looked	3	nopreview	17	71	823	0	0	0
65	61	like	like	like	3	nopreview	17	72	527	135	955	135
66	62	he	he	he	3	nopreview	17	73	168	0	0	0
67	63	was	was	was	3	nopreview	17	74	727	199	199	199
68	64	chastising	chastising	chastising	3	nopreview	17	75	1451	852	852	541
69	65	@entity4	Jones	Jones,	3	nopreview	17	76	372	242	880	242
	66	,	,		3	nopreview	17	77				
70	67	who	who	who	3	nopreview	17	78	383	169	2002	169
71	68	seemed	seemed	seemed	3	nopreview	17	79	273	273	273	273
72	69	confused	confused	confused.	3	nopreview	17	80	427	427	427	285
	70	.	.		3	nopreview	17	81				
73	71	Scroll	Scroll	Jones,	3	nopreview	17	82	647	259	259	122
	72	down	down		3	nopreview	17	83				
	73	for	for		3	nopreview	17	84				
	74	video	video		3	nopreview	17	85				
	75	@entity4	Marvin		3	nopreview	17	86				
			-		3	nopreview	17	87				
			Papi		3	nopreview	17	88				
			Gallo		3	nopreview	17	89				
			-		3	nopreview	17	90				
			Jones		3	nopreview	17	91				
	76	(	(		3	nopreview	17	92				
74	77	right	right	32,	3	nopreview	17	93	901	650	1289	375
	78	)	)		3	nopreview	17	94				
	79	and	and		3	nopreview	17	95				
75	80	@entity5	Ramon	held	3	nopreview	17	96	222	222	222	222
			Luis		3	nopreview	17	97				
			Nicolas		3	nopreview	17	98				
	81	(	(		3	nopreview	17	99				
	82	left	left		3	nopreview	17	100				
76	83	)	)	his	3	nopreview	17	101	162	162	162	162
77	84	were	were	hands	3	nopreview	17	102	0	0	0	0
	85	in	in		3	nopreview	17	103				
	86	the	the		3	nopreview	17	104				
	87	middle	middle		3	nopreview	17	105				
	88	of	of		3	nopreview	17	106				
	89	a	a		3	nopreview	17	107				
	90	bout	bout		3	nopreview	17	108				
	91	when	when		3	nopreview	17	109				
	92	the	the		3	nopreview	17	110				
	93	black	black		3	nopreview	17	111				
	94	phone	phone		3	nopreview	17	112				
	95	slipped	slipped		3	nopreview	17	113				
	96	out	out		3	nopreview	17	114				
	97	from	from		3	nopreview	17	115				
	98	@entity4	Jones		3	nopreview	17	116				
78	99	-	-	up	3	nopreview	17	117	0	0	0	0
79	100	black	black	as	3	nopreview	17	118	256	0	0	0
	101	and	and		3	nopreview	17	119				
80	102	red	red	the	3	nopreview	17	120	215	215	471	215
81	103	shorts	shorts	referee	3	nopreview	17	121	191	191	191	191
	104	at	at		3	nopreview	17	122				
	105	the	the		3	nopreview	17	123				
	106	ring	ring		3	nopreview	17	124				
	107	in	in		3	nopreview	17	125				
	108	@entity11	Arcadia		3	nopreview	17	126				
	109	,	,		3	nopreview	17	127				
	110	@entity12	Florida		3	nopreview	17	128				
	111	@entity4	Jones		3	nopreview	17	129				
	112	,	,		3	nopreview	17	130				
	113	32	32		3	nopreview	17	131				
	114	,	,		3	nopreview	17	132				
	115	held	held		3	nopreview	17	133				
	116	his	his		3	nopreview	17	134				
	117	hands	hands		3	nopreview	17	135				
	118	up	up		3	nopreview	17	136				
	119	as	as		3	nopreview	17	137				
	120	the	the		3	nopreview	17	138				
	121	referee	referee		3	nopreview	17	139				
82	122	took	took	took	3	nopreview	17	140	256	256	256	256
83	123	the	the	the	3	nopreview	17	141	334	334	334	334
84	124	phone	phone	phone	3	nopreview	17	142	309	309	309	309
85	125	over	over	over	3	nopreview	17	143	254	254	254	254
86	126	to	to	to	3	nopreview	17	144	0	0	0	0
87	127	the	the	the	3	nopreview	17	145	0	0	0	0
88	128	side	side	side	3	nopreview	17	146	275	275	275	275
89	129	of	of	of	3	nopreview	17	147	0	0	0	0
90	130	the	the	the	3	nopreview	17	148	188	188	188	188
91	131	ring	ring	ring.	3	nopreview	17	149	137	137	137	137
	132	.	.		3	nopreview	17	150				
92	133	The	The	The	3	nopreview	17	151	0	0	0	0
93	134	audience	audience	audience	3	nopreview	17	152	259	259	259	112
94	135	and	and	and	3	nopreview	17	153	0	0	0	0
95	136	viewers	viewers	viewers	3	nopreview	17	154	277	277	277	277
96	137	were	were	were	3	nopreview	17	155	245	245	245	245
97	138	baffled	baffled	baffled	3	nopreview	17	156	135	135	135	135
98	139	as	as	as	3	nopreview	17	157	0	0	0	0
99	140	to	to	to	3	nopreview	17	158	0	0	0	0
100	141	why	why	why	3	nopreview	17	159	385	385	385	245
101	142	@entity4	Jones	Jones	3	nopreview	17	160	0	0	0	0
102	143	had	had	had	3	nopreview	17	161	232	232	232	232
103	144	his	his	his	3	nopreview	17	162	0	0	0	0
104	145	phone	phone	phone	3	nopreview	17	163	272	272	272	272
105	146	in	in	in	3	nopreview	17	164	0	0	0	0
106	147	his	his	his	3	nopreview	17	165	0	0	0	0
107	148	shorts	shorts	shorts.	3	nopreview	17	166	218	218	218	218
	149	.	.		3	nopreview	17	167				
108	150	But	But	But	3	nopreview	17	168	270	270	270	270
109	151	@entity4	Jones	Jones	3	nopreview	17	169	231	231	231	231
110	152	later	later	later	3	nopreview	17	170	0	0	0	0
111	153	told	told	told	3	nopreview	17	171	315	0	0	0
112	154	@entity26	TMZ	TMZ	3	nopreview	17	172	131	131	446	131
113			Sports	Sports	3	nopreview	17	173	244	244	244	244
114	155	that	that	that	3	nopreview	17	174	217	217	217	217
115	156	he	he	he	3	nopreview	17	175	0	0	0	0
116	157	was	was	was	3	nopreview	17	176	209	209	209	209
117	158	listening	listening	listening	3	nopreview	17	177	246	246	246	246
118	159	to	to	to	3	nopreview	17	178	0	0	0	0
119	160	music	music	music	3	nopreview	17	179	529	529	529	277
120	161	before	before	before	3	nopreview	17	180	207	207	207	207
121	162	the	the	the	3	nopreview	17	181	0	0	0	0
122	163	fight	fight	fight	3	nopreview	17	182	247	247	247	247
123	164	on	on	on	3	nopreview	17	183	0	0	0	0
124	165	Friday	Friday	Friday	3	nopreview	17	184	435	435	435	208
125	166	and	and	and	3	nopreview	17	185	0	0	0	0
126	167	put	put	put	3	nopreview	17	186	350	350	350	250
127	168	his	his	his	3	nopreview	17	187	0	0	0	0
128	169	phone	phone	phone	3	nopreview	17	188	311	0	0	0
129	170	in	in	in	3	nopreview	17	189	131	131	442	131
130	171	his	his	his	3	nopreview	17	190	186	186	186	186
131	172	shorts	shorts	shorts.	3	nopreview	17	191	239	239	239	239
	173	.	.		3	nopreview	17	192				
132	174	When	When	When	3	nopreview	17	193	167	167	167	167
133	175	he	he	he	3	nopreview	17	194	169	169	169	169
134	176	got	got	got	3	nopreview	17	195	135	0	0	0
135	177	to	to	to	3	nopreview	17	196	174	174	309	174
136	178	the	the	the	3	nopreview	17	197	0	0	0	0
137	179	ring	ring	ring,	3	nopreview	17	198	0	0	0	0
	180	,	,		3	nopreview	17	199				
138	181	he	he	he	3	nopreview	17	200	248	248	248	248
139	182	pulled	pulled	pulled	3	nopreview	17	201	0	0	0	0
140	183	out	out	out	3	nopreview	17	202	153	153	153	153
141	184	his	his	his	3	nopreview	17	203	302	302	302	302
142	185	headphones	headphones	headphones,	3	nopreview	17	204	520	520	520	280
	186	,	,		3	nopreview	17	205				
143	187	but	but	but	3	nopreview	17	206	168	168	168	168
144	188	missed	missed	missed	3	nopreview	17	207	312	312	312	312
145	189	his	his	his	3	nopreview	17	208	0	0	0	0
146	190	phone	phone	phone.	3	nopreview	17	209	223	223	223	223
	191	.	.		3	nopreview	17	210				
147	192	@entity4	Jones	Jones	3	nopreview	17	211	240	240	240	240
148	193	believes	believes	believes	3	nopreview	17	212	341	341	341	134
149	194	the	the	the	3	nopreview	17	213	281	281	281	281
150	195	mishap	mishap	mishap	3	nopreview	17	214	325	325	325	325
151	196	cost	cost	cost	3	nopreview	17	215	693	693	693	310
152	197	him	him	him	3	nopreview	17	216	0	0	0	0
153	198	the	the	the	3	nopreview	17	217	162	162	162	162
154	199	fight	fight	fight	3	nopreview	17	218	307	307	307	307
155	200	as	as	as	3	nopreview	17	219	0	0	0	0
156	201	he	he	he	3	nopreview	17	220	219	219	219	219
157	202	kept	kept	kept	3	nopreview	17	221	0	0	0	0
158	203	thinking	thinking	thinking,	3	nopreview	17	222	362	362	362	224
	204	,	,		3	nopreview	17	223				
159	205	-	-	-Man,	3	nopreview	17	224	422	422	422	422
	206	Man	Man		3	nopreview	17	225				
	207	,	,		3	nopreview	17	226				
160	208	my	my	my	3	nopreview	17	227	0	0	0	0
161	209	cell	cell	cell	3	nopreview	17	228	297	297	297	297
162	210	phone	phone	phone	3	nopreview	17	229	274	274	274	274
163	211	just	just	just	3	nopreview	17	230	264	264	264	264
164	212	fell	fell	fell	3	nopreview	17	231	179	179	179	179
165	213	out	out	out	3	nopreview	17	232	0	0	0	0
166	214	in	in	in	3	nopreview	17	233	170	170	170	170
167	215	the	the	the	3	nopreview	17	234	0	0	0	0
168	216	ring	ring	ring	3	nopreview	17	235	253	253	253	253
169	217	–	–	-	3	nopreview	17	236	0	0	0	0
170	218	and	and	and	3	nopreview	17	237	208	208	208	208
171	219	on	on	on	3	nopreview	17	238	103	0	0	0
172	220	TV	TV	TV!-	3	nopreview	17	239	107	107	210	107
	221	!	!		3	nopreview	17	240				
	222	-	-		3	nopreview	17	241				
173	223	He	He	He	3	nopreview	17	242	258	258	258	258
174	224	has	has	has	3	nopreview	17	243	282	0	0	0
175	225	decided	decided	decided	3	nopreview	17	244	564	438	438	253
176	226	that	that	that	3	nopreview	17	245	409	246	817	246
177	227	for	for	for	3	nopreview	17	246	87	87	87	87
178	228	his	his	his	3	nopreview	17	247	0	0	0	0
179	229	next	next	next	3	nopreview	17	248	0	0	0	0
180	230	fight	fight	fight	3	nopreview	17	249	0	0	0	0
181	231	he	he	he	3	nopreview	17	250	0	0	0	0
182	232	will	will	will	3	nopreview	17	251	0	0	0	0
183	233	make	make	make	3	nopreview	17	252	0	0	0	0
184	234	sure	sure	sure	3	nopreview	17	253	0	0	0	0
185	235	someone	someone	someone	3	nopreview	17	254	0	0	0	0
186	236	pats	pats	pats	3	nopreview	17	255	0	0	0	0
187	237	him	him	him	3	nopreview	17	256	0	0	0	0
188	238	down	down	down.	3	nopreview	17	257	0	0	0	0
	239	.	.		3	nopreview	17	258				
