HumanPosition	AnonymizedPosition	AnonymizedToken	OriginalToken	ExperimentToken	Participant	Condition	TextNo	JointPosition	tt	fp	rp	ff	rb	sp
0	0	@entity0	Alejandro	Alejandro	5	nopreview	12	1	271	0	0	0	0	271
2			Valverde	Valverde	5	nopreview	12	2	184	0	0	0	0	184
3	1	successfully	successfully	successfully	5	nopreview	12	3	338	0	0	0	0	338
4	2	defended	defended	defended	5	nopreview	12	4	168	0	0	0	0	168
5	3	his	his	his	5	nopreview	12	5	0	0	0	0	0	0
6	4	@entity2	Fleche	Fleche	5	nopreview	12	6	754	0	0	0	0	754
7			Wallonne	Wallonne	5	nopreview	12	7	1144	0	0	0	0	1144
8	5	title	title	title	5	nopreview	12	8	165	0	0	0	0	165
9	6	on	on	on	5	nopreview	12	9	339	0	0	0	0	339
10	7	Wednesday	Wednesday	Wednesday	5	nopreview	12	10	138	0	0	0	0	138
11	8	as	as	as	5	nopreview	12	11	97	0	0	0	0	97
12	9	@entity3	Chris	Chris	5	nopreview	12	12	0	0	0	0	0	0
13			Froome	Froome	5	nopreview	12	13	477	0	0	0	0	477
14	10	finished	finished	finished	5	nopreview	12	14	467	0	0	0	0	467
15	11	back	back	back	5	nopreview	12	15	212	0	0	0	0	212
16	12	in	in	in	5	nopreview	12	16	106	106	4860	106	106	0
17	13	123rd	123rd	123rd	5	nopreview	12	17	652	122	122	122	122	530
18	14	after	after	after	5	nopreview	12	18	227	144	144	144	144	83
19	15	a	a	a	5	nopreview	12	19	172	0	0	0	0	172
20	16	fall	fall	fall.	5	nopreview	12	20	260	99	1045	99	260	161
	17	.	.		5	nopreview	12	21						
21	18	@entity4	Movistar	Movistar	5	nopreview	12	22	327	327	327	199	327	0
22	19	rider	rider	rider	5	nopreview	12	23	530	530	530	530	530	0
23	20	@entity0	Valverde	Valverde	5	nopreview	12	24	510	510	510	510	510	0
24	21	sprinted	sprinted	sprinted	5	nopreview	12	25	379	379	379	224	379	0
25	22	to	to	to	5	nopreview	12	26	85	85	85	85	85	0
26	23	victory	victory	victory	5	nopreview	12	27	245	0	0	0	0	245
27	24	ahead	ahead	ahead	5	nopreview	12	28	177	177	422	177	177	0
28	25	of	of	of	5	nopreview	12	29	0	0	0	0	0	0
29	26	@entity6	Julian	Julian	5	nopreview	12	30	348	348	348	193	348	0
30			Alaphilippe	Alaphilippe	5	nopreview	12	31	254	254	254	254	254	0
31	27	and	and	and	5	nopreview	12	32	134	0	0	0	0	134
32	28	@entity7	Michael	Michael	5	nopreview	12	33	274	181	181	181	181	93
33			Albasini	Albasini	5	nopreview	12	34	463	136	690	136	463	327
34	29	in	in	in	5	nopreview	12	35	0	0	0	0	0	0
35	30	a	a	a	5	nopreview	12	36	0	0	0	0	0	0
36	31	race	race	race	5	nopreview	12	37	392	164	164	164	164	228
37	32	which	which	which	5	nopreview	12	38	114	114	342	114	114	0
38	33	saw	saw	saw	5	nopreview	12	39	223	223	223	223	223	0
39	34	former	former	former	5	nopreview	12	40	150	150	150	150	150	0
40	35	winner	winner	winner	5	nopreview	12	41	86	0	0	0	0	86
41	36	@entity9	Philippe	Philippe	5	nopreview	12	42	485	355	571	171	485	130
42			Gilbert	Gilbert	5	nopreview	12	43	188	188	188	188	188	0
43	37	pull	pull	pull	5	nopreview	12	44	0	0	0	0	0	0
44	38	out	out	out	5	nopreview	12	45	164	0	0	0	0	164
45	39	after	after	after	5	nopreview	12	46	159	159	323	159	159	0
46	40	a	a	a	5	nopreview	12	47	155	155	155	155	155	0
47	41	bad	bad	bad	5	nopreview	12	48	178	0	0	0	0	178
48	42	crash	crash	crash	5	nopreview	12	49	166	166	344	166	166	0
49	43	some	some	some	5	nopreview	12	50	0	0	0	0	0	0
50	44	50	50	50	5	nopreview	12	51	156	156	156	156	156	0
51	45	kilometres	kilometres	kilometres	5	nopreview	12	52	152	152	152	152	152	0
52	46	from	from	from	5	nopreview	12	53	163	163	163	163	163	0
53	47	the	the	the	5	nopreview	12	54	90	90	90	90	90	0
54	48	end	end	end.	5	nopreview	12	55	0	0	0	0	0	0
	49	.	.		5	nopreview	12	56						
55	50	@entity3	Froome	Froome	5	nopreview	12	57	0	0	0	0	0	0
56	51	was	was	was	5	nopreview	12	58	180	180	180	180	180	0
57	52	involved	involved	involved	5	nopreview	12	59	524	356	356	214	356	168
58	53	in	in	in	5	nopreview	12	60	0	0	0	0	0	0
59	54	a	a	a	5	nopreview	12	61	212	212	212	212	212	0
60	55	crash	crash	crash	5	nopreview	12	62	401	0	0	0	0	401
61	56	in	in	in	5	nopreview	12	63	0	0	0	0	0	0
62	57	the	the	the	5	nopreview	12	64	388	388	388	388	388	0
63	58	final	final	final	5	nopreview	12	65	446	0	0	0	0	446
64	59	12	12	12	5	nopreview	12	66	380	160	160	160	160	220
65	60	kilometres	kilometres	kilometres	5	nopreview	12	67	536	143	143	143	143	393
66	61	but	but	but	5	nopreview	12	68	0	0	0	0	0	0
67	62	was	was	was	5	nopreview	12	69	373	153	1432	153	373	220
68	63	able	able	able	5	nopreview	12	70	134	134	134	134	134	0
69	64	to	to	to	5	nopreview	12	71	0	0	0	0	0	0
70	65	get	get	get	5	nopreview	12	72	146	146	146	146	146	0
71	66	back	back	back	5	nopreview	12	73	134	134	134	134	134	0
72	67	on	on	on	5	nopreview	12	74	0	0	0	0	0	0
73	68	his	his	his	5	nopreview	12	75	0	0	0	0	0	0
74	69	bike	bike	bike	5	nopreview	12	76	0	0	0	0	0	0
75	70	and	and	and	5	nopreview	12	77	0	0	0	0	0	0
76	71	finish	finish	finish.	5	nopreview	12	78	361	361	930	361	361	0
	72	.	.		5	nopreview	12	79						
77	73	@entity14	Spain	Team	5	nopreview	12	80	964	964	964	431	964	0
	74	-s	-s		5	nopreview	12	81						
	75	@entity0	Alejandro		5	nopreview	12	82						
			Valverde		5	nopreview	12	83						
	76	(	(		5	nopreview	12	84						
	77	centre	centre		5	nopreview	12	85						
	78	)	)		5	nopreview	12	86						
	79	realises	realises		5	nopreview	12	87						
	80	he	he		5	nopreview	12	88						
78	81	-s	-s	Sky-s	5	nopreview	12	89	601	363	363	189	363	238
	82	done	done		5	nopreview	12	90						
	83	enough	enough		5	nopreview	12	91						
	84	to	to		5	nopreview	12	92						
79	85	claim	claim	sports	5	nopreview	12	93	323	146	146	146	146	177
	86	victory	victory		5	nopreview	12	94						
	87	in	in		5	nopreview	12	95						
	88	@entity17	Belgium		5	nopreview	12	96						
	89	-s	-s		5	nopreview	12	97						
	90	@entity2	Fleche		5	nopreview	12	98						
	91	@entity0	Wallonne		5	nopreview	12	99						
			Valverde		5	nopreview	12	100						
	92	(	(		5	nopreview	12	101						
	93	centre	centre		5	nopreview	12	102						
	94	)	)		5	nopreview	12	103						
	95	finished	finished		5	nopreview	12	104						
	96	ahead	ahead		5	nopreview	12	105						
	97	of	of		5	nopreview	12	106						
	98	@entity6	Julian		5	nopreview	12	107						
			Alaphilippe		5	nopreview	12	108						
	99	(	(		5	nopreview	12	109						
	100	left	left		5	nopreview	12	110						
	101	)	)		5	nopreview	12	111						
	102	and	and		5	nopreview	12	112						
	103	@entity7	Michael		5	nopreview	12	113						
			Albasini		5	nopreview	12	114						
	104	(	(		5	nopreview	12	115						
	105	right	right		5	nopreview	12	116						
	106	)	)		5	nopreview	12	117						
	107	on	on		5	nopreview	12	118						
	108	Wednesday	Wednesday		5	nopreview	12	119						
	109	@entity20	Team		5	nopreview	12	120						
			Sky		5	nopreview	12	121						
	110	-s	-s		5	nopreview	12	122						
	111	sports	sports		5	nopreview	12	123						
80	112	director	director	director	5	nopreview	12	124	235	82	650	82	235	153
81	113	@entity19	Gabriel	Gabriel	5	nopreview	12	125	268	268	268	154	268	0
82			Rasch	Rasch	5	nopreview	12	126	231	231	231	231	231	0
83	114	praised	praised	praised	5	nopreview	12	127	429	279	279	279	279	150
84	115	@entity3	Froome	Froome	5	nopreview	12	128	124	124	274	124	124	0
85	116	for	for	for	5	nopreview	12	129	115	115	115	115	115	0
86	117	finishing	finishing	finishing	5	nopreview	12	130	239	239	239	239	239	0
87	118	the	the	the	5	nopreview	12	131	0	0	0	0	0	0
88	119	race	race	race	5	nopreview	12	132	248	248	248	161	248	0
89	120	and	and	and	5	nopreview	12	133	0	0	0	0	0	0
90	121	said	said	said	5	nopreview	12	134	0	0	0	0	0	0
91	122	he	he	he	5	nopreview	12	135	168	168	168	168	168	0
92	123	expects	expects	expects	5	nopreview	12	136	117	117	117	117	117	0
93	124	the	the	the	5	nopreview	12	137	0	0	0	0	0	0
94	125	former	former	former	5	nopreview	12	138	373	212	212	212	212	161
95	126	@entity23	Tour	Tour	5	nopreview	12	139	311	311	472	311	311	0
96			de	de	5	nopreview	12	140	0	0	0	0	0	0
97			France	France	5	nopreview	12	141	152	152	152	152	152	0
98	127	winner	winner	winner	5	nopreview	12	142	243	243	243	243	243	0
99	128	will	will	will	5	nopreview	12	143	0	0	0	0	0	0
100	129	be	be	be	5	nopreview	12	144	309	148	148	148	148	161
101	130	fine	fine	fine	5	nopreview	12	145	203	101	101	101	101	102
102	131	to	to	to	5	nopreview	12	146	0	0	0	0	0	0
103	132	take	take	take	5	nopreview	12	147	460	0	0	0	0	460
104	133	part	part	part	5	nopreview	12	148	206	206	929	206	206	0
105	134	in	in	in	5	nopreview	12	149	0	0	0	0	0	0
106	135	the	the	the	5	nopreview	12	150	200	200	200	200	200	0
107	136	@entity25	Tour	Tour	5	nopreview	12	151	164	164	164	164	164	0
108			de	de	5	nopreview	12	152	207	0	0	0	0	207
109			Romandie	Romandie	5	nopreview	12	153	416	160	623	160	416	256
110	137	next	next	next	5	nopreview	12	154	226	226	226	226	226	0
111	138	week	week	week.	5	nopreview	12	155	0	0	0	0	0	0
	139	.	.		5	nopreview	12	156						
112	140	@entity19	Rasch	Rasch	5	nopreview	12	157	0	0	0	0	0	0
113	141	told	told	told	5	nopreview	12	158	346	172	172	172	172	174
114	142	@entity26	TeamSky.com	TeamSky.com:	5	nopreview	12	159	276	194	450	194	276	82
115	143	:	:	-Chris	5	nopreview	12	160	328	173	173	173	173	155
	144	-	-		5	nopreview	12	161						
	145	@entity3	Chris		5	nopreview	12	162						
116	146	was	was	was	5	nopreview	12	163	160	160	315	160	160	0
117	147	pretty	pretty	pretty	5	nopreview	12	164	228	0	0	0	0	228
118	148	banged	banged	banged	5	nopreview	12	165	123	123	351	123	123	0
119	149	up	up	up	5	nopreview	12	166	0	0	0	0	0	0
120	150	but	but	but	5	nopreview	12	167	175	175	175	175	175	0
121	151	showed	showed	showed	5	nopreview	12	168	176	176	176	176	176	0
122	152	real	real	real	5	nopreview	12	169	125	125	125	125	125	0
123	153	courage	courage	courage	5	nopreview	12	170	130	130	130	130	130	0
124	154	to	to	to	5	nopreview	12	171	0	0	0	0	0	0
125	155	finish	finish	finish	5	nopreview	12	172	177	177	177	177	177	0
126	156	the	the	the	5	nopreview	12	173	0	0	0	0	0	0
127	157	race	race	race	5	nopreview	12	174	180	180	180	180	180	0
128	158	and	and	and	5	nopreview	12	175	0	0	0	0	0	0
129	159	we	we	we-ll	5	nopreview	12	176	0	0	0	0	0	0
	160	-ll	-ll		5	nopreview	12	177						
130	161	assess	assess	assess	5	nopreview	12	178	293	293	293	173	293	0
131	162	his	his	his	5	nopreview	12	179	107	107	107	107	107	0
132	163	injuries	injuries	injuries	5	nopreview	12	180	160	160	160	160	160	0
133	164	overnight	overnight	overnight.	5	nopreview	12	181	154	154	154	154	154	0
	165	.	.		5	nopreview	12	182						
134	166	-	-	-He	5	nopreview	12	183	0	0	0	0	0	0
	167	He	He		5	nopreview	12	184						
135	168	has	has	hasn-t	5	nopreview	12	185	395	292	292	163	292	103
	169	n-t	n-t		5	nopreview	12	186						
136	170	needed	needed	needed	5	nopreview	12	187	485	323	426	182	323	162
137	171	to	to	to	5	nopreview	12	188	0	0	0	0	0	0
138	172	go	go	go	5	nopreview	12	189	182	182	344	182	182	0
139	173	to	to	to	5	nopreview	12	190	129	129	129	129	129	0
140	174	hospital	hospital	hospital	5	nopreview	12	191	0	0	0	0	0	0
141	175	and	and	and	5	nopreview	12	192	0	0	0	0	0	0
142	176	right	right	right	5	nopreview	12	193	336	336	336	192	336	0
143	177	now	now	now,	5	nopreview	12	194	0	0	0	0	0	0
	178	,	,		5	nopreview	12	195						
144	179	as	as	as	5	nopreview	12	196	0	0	0	0	0	0
145	180	things	things	things	5	nopreview	12	197	336	336	336	196	336	0
146	181	stand	stand	stand,	5	nopreview	12	198	134	0	0	0	0	134
	182	,	,		5	nopreview	12	199						
147	183	we	we	we-re	5	nopreview	12	200	286	150	420	150	286	136
	184	-re	-re		5	nopreview	12	201						
148	185	still	still	still	5	nopreview	12	202	0	0	0	0	0	0
149	186	expecting	expecting	expecting	5	nopreview	12	203	184	184	184	184	184	0
150	187	him	him	him	5	nopreview	12	204	0	0	0	0	0	0
151	188	to	to	to	5	nopreview	12	205	152	152	152	152	152	0
152	189	line	line	line	5	nopreview	12	206	102	0	0	0	0	102
153	190	up	up	up	5	nopreview	12	207	184	184	286	184	184	0
154	191	at	at	at	5	nopreview	12	208	0	0	0	0	0	0
155	192	the	the	the	5	nopreview	12	209	194	194	194	194	194	0
156	193	@entity25	Tour	Tour	5	nopreview	12	210	0	0	0	0	0	0
157			de	de	5	nopreview	12	211	0	0	0	0	0	0
158			Romandie	Romandie	5	nopreview	12	212	398	398	398	246	398	0
159	194	next	next	next	5	nopreview	12	213	0	0	0	0	0	0
160	195	Tuesday	Tuesday	Tuesday.-	5	nopreview	12	214	115	115	115	115	115	0
	196	.	.		5	nopreview	12	215						
161	197	-	-	Team	5	nopreview	12	216	0	0	0	0	0	0
	198	@entity20	Team		5	nopreview	12	217						
162			Sky	Sky-s	5	nopreview	12	218	0	0	0	0	0	0
	199	-s	-s		5	nopreview	12	219						
163	200	@entity3	Chris	Chris	5	nopreview	12	220	0	0	0	0	0	0
164			Froome	Froome	5	nopreview	12	221	0	0	0	0	0	0
165	201	fell	fell	fell	5	nopreview	12	222	0	0	0	0	0	0
166	202	in	in	in	5	nopreview	12	223	0	0	0	0	0	0
167	203	the	the	the	5	nopreview	12	224	0	0	0	0	0	0
168	204	closing	closing	closing	5	nopreview	12	225	0	0	0	0	0	0
169	205	12km	12km	12km	5	nopreview	12	226	0	0	0	0	0	0
170	206	but	but	but	5	nopreview	12	227	0	0	0	0	0	0
171	207	fought	fought	fought	5	nopreview	12	228	0	0	0	0	0	0
172	208	on	on	on	5	nopreview	12	229	0	0	0	0	0	0
173	209	to	to	to	5	nopreview	12	230	0	0	0	0	0	0
174	210	finish	finish	finish	5	nopreview	12	231	0	0	0	0	0	0
175	211	the	the	the	5	nopreview	12	232	0	0	0	0	0	0
176	212	race	race	race	5	nopreview	12	233	0	0	0	0	0	0
177	213	despite	despite	despite	5	nopreview	12	234	203	0	0	0	0	203
178	214	being	being	being	5	nopreview	12	235	414	294	497	294	294	120
179	215	-	-	-banged	5	nopreview	12	236	298	179	179	179	179	119
	216	banged	banged		5	nopreview	12	237						
180	217	up	up	up-.	5	nopreview	12	238	292	292	531	148	292	0
	218	-	-		5	nopreview	12	239						
