HumanPosition	AnonymizedPosition	AnonymizedToken	OriginalToken	ExperimentToken	Participant	Condition	TextNo	JointPosition	tt	fp	rp	ff	rb	sp
1	0	(	(	Good	5	nopreview	3	1	0	0	0	0	0	0
	1	The	The		5	nopreview	3	2						
	2	@entity0	Hollywood		5	nopreview	3	3						
			Reporter		5	nopreview	3	4						
	3	)	)		5	nopreview	3	5						
	4	Good	Good		5	nopreview	3	6						
2	5	news	news	news	5	nopreview	3	7	324	324	324	120	324	0
3	6	arrived	arrived	arrived	5	nopreview	3	8	378	378	378	211	378	0
4	7	Thursday	Thursday	Thursday	5	nopreview	3	9	444	240	240	240	240	204
5	8	for	for	for	5	nopreview	3	10	141	141	345	141	141	0
6	9	-	-	-Fifty	5	nopreview	3	11	164	164	164	164	164	0
	10	@entity3	Fifty		5	nopreview	3	12						
7			Shades	Shades	5	nopreview	3	13	258	258	258	258	258	0
8			of	of	5	nopreview	3	14	0	0	0	0	0	0
9			Grey	Grey-	5	nopreview	3	15	469	180	180	180	180	289
	11	-	-		5	nopreview	3	16						
10	12	fans	fans	fans.	5	nopreview	3	17	279	170	568	170	279	109
	13	.	.		5	nopreview	3	18						
11	14	@entity4	Universal	Universal	5	nopreview	3	19	255	167	167	167	167	88
12	15	announced	announced	announced	5	nopreview	3	20	447	447	535	204	447	0
13	16	Thursday	Thursday	Thursday	5	nopreview	3	21	174	174	174	174	174	0
14	17	that	that	that	5	nopreview	3	22	0	0	0	0	0	0
15	18	the	the	the	5	nopreview	3	23	156	156	156	156	156	0
16	19	sequel	sequel	sequel	5	nopreview	3	24	0	0	0	0	0	0
17	20	to	to	to	5	nopreview	3	25	139	139	139	139	139	0
18	21	the	the	the	5	nopreview	3	26	0	0	0	0	0	0
19	22	box	box	box	5	nopreview	3	27	136	136	136	136	136	0
20	23	office	office	office	5	nopreview	3	28	0	0	0	0	0	0
21	24	blockbuster	blockbuster	blockbuster	5	nopreview	3	29	329	329	329	192	329	0
22	25	will	will	will	5	nopreview	3	30	0	0	0	0	0	0
23	26	hit	hit	hit	5	nopreview	3	31	155	155	155	155	155	0
24	27	theaters	theaters	theaters	5	nopreview	3	32	137	137	137	137	137	0
25	28	on	on	on	5	nopreview	3	33	213	213	213	213	213	0
26	29	Feb.	Feb.	Feb.	5	nopreview	3	34	204	204	204	204	204	0
27	30	10	10	10,	5	nopreview	3	35	0	0	0	0	0	0
	31	,	,		5	nopreview	3	36						
28	32	2017	2017	2017.	5	nopreview	3	37	209	0	0	0	0	209
	33	.	.		5	nopreview	3	38						
29	34	The	The	The	5	nopreview	3	39	140	140	349	140	140	0
30	35	third	third	third	5	nopreview	3	40	368	368	368	226	368	0
31	36	film	film	film	5	nopreview	3	41	0	0	0	0	0	0
32	37	in	in	in	5	nopreview	3	42	162	162	162	162	162	0
33	38	the	the	the	5	nopreview	3	43	0	0	0	0	0	0
34	39	series	series	series	5	nopreview	3	44	360	360	360	192	360	0
35	40	will	will	will	5	nopreview	3	45	0	0	0	0	0	0
36	41	debut	debut	debut	5	nopreview	3	46	633	633	633	422	633	0
37	42	Feb.	Feb.	Feb.	5	nopreview	3	47	325	325	325	173	325	0
38	43	9	9	9,	5	nopreview	3	48	174	174	174	174	174	0
	44	,	,		5	nopreview	3	49						
39	45	2018	2018	2018.	5	nopreview	3	50	1011	1011	1011	206	1011	0
	46	.	.		5	nopreview	3	51						
40	47	The	The	The	5	nopreview	3	52	0	0	0	0	0	0
41	48	news	news	news	5	nopreview	3	53	377	377	377	377	377	0
42	49	came	came	came	5	nopreview	3	54	141	141	141	141	141	0
43	50	one	one	one	5	nopreview	3	55	141	141	141	141	141	0
44	51	day	day	day	5	nopreview	3	56	0	0	0	0	0	0
45	52	after	after	after	5	nopreview	3	57	0	0	0	0	0	0
46	53	@entity0	The	The	5	nopreview	3	58	164	164	164	164	164	0
47			Hollywood	Hollywood	5	nopreview	3	59	144	144	144	144	144	0
48			Reporter	Reporter	5	nopreview	3	60	291	291	291	150	291	0
49	54	reported	reported	reported	5	nopreview	3	61	341	180	180	180	180	161
50	55	exclusively	exclusively	exclusively	5	nopreview	3	62	638	167	328	167	167	471
51	56	that	that	that	5	nopreview	3	63	283	131	131	131	131	152
52	57	the	the	the	5	nopreview	3	64	0	0	0	0	0	0
53	58	husband	husband	husband	5	nopreview	3	65	386	183	1009	183	386	203
54	59	of	of	of	5	nopreview	3	66	0	0	0	0	0	0
55	60	@entity12	EL	EL	5	nopreview	3	67	0	0	0	0	0	0
56			James	James,	5	nopreview	3	68	306	306	306	306	306	0
	61	,	,		5	nopreview	3	69						
57	62	author	author	author	5	nopreview	3	70	103	0	0	0	0	103
58	63	of	of	of	5	nopreview	3	71	362	0	0	0	0	362
59	64	the	the	the	5	nopreview	3	72	132	132	235	132	132	0
60	65	-	-	-Fifty	5	nopreview	3	73	260	119	303	119	119	141
	66	@entity3	Fifty		5	nopreview	3	74						
61			Shades	Shades-	5	nopreview	3	75	195	0	0	0	0	195
	67	-	-		5	nopreview	3	76						
62	68	trilogy	trilogy	trilogy,	5	nopreview	3	77	388	254	902	254	388	134
	69	,	,		5	nopreview	3	78						
63	70	will	will	will	5	nopreview	3	79	0	0	0	0	0	0
64	71	write	write	write	5	nopreview	3	80	146	146	146	146	146	0
65	72	the	the	the	5	nopreview	3	81	0	0	0	0	0	0
66	73	script	script	script	5	nopreview	3	82	145	145	145	145	145	0
67	74	for	for	for	5	nopreview	3	83	0	0	0	0	0	0
68	75	the	the	the	5	nopreview	3	84	307	0	0	0	0	307
69	76	second	second	second	5	nopreview	3	85	430	216	737	216	430	214
70	77	film	film	film.	5	nopreview	3	86	0	0	0	0	0	0
	78	.	.		5	nopreview	3	87						
71	79	@entity16	Niall	Niall	5	nopreview	3	88	618	0	0	0	0	618
72			Leonard	Leonard,	5	nopreview	3	89	554	218	1172	218	554	336
	80	,	,		5	nopreview	3	90						
73	81	who	who	who	5	nopreview	3	91	146	146	146	146	146	0
74	82	is	is	is	5	nopreview	3	92	0	0	0	0	0	0
75	83	married	married	married	5	nopreview	3	93	190	190	190	190	190	0
76	84	and	and	and	5	nopreview	3	94	228	228	228	228	228	0
77	85	has	has	has	5	nopreview	3	95	134	134	134	134	134	0
78	86	two	two	two	5	nopreview	3	96	0	0	0	0	0	0
79	87	sons	sons	sons	5	nopreview	3	97	373	373	373	206	373	0
80	88	with	with	with	5	nopreview	3	98	0	0	0	0	0	0
81	89	the	the	the	5	nopreview	3	99	0	0	0	0	0	0
82	90	@entity19	British	British	5	nopreview	3	100	431	431	431	248	431	0
83	91	author	author	author,	5	nopreview	3	101	0	0	0	0	0	0
	92	,	,		5	nopreview	3	102						
84	93	is	is	is	5	nopreview	3	103	180	180	180	180	180	0
85	94	an	an	an	5	nopreview	3	104	0	0	0	0	0	0
86	95	author	author	author	5	nopreview	3	105	931	931	931	526	931	0
87	96	himself	himself	himself,	5	nopreview	3	106	252	0	0	0	0	252
	97	,	,		5	nopreview	3	107						
88	98	in	in	in	5	nopreview	3	108	138	138	390	138	138	0
89	99	addition	addition	addition	5	nopreview	3	109	170	170	170	170	170	0
90	100	to	to	to	5	nopreview	3	110	0	0	0	0	0	0
91	101	being	being	being	5	nopreview	3	111	492	148	148	148	148	344
92	102	a	a	a	5	nopreview	3	112	0	0	0	0	0	0
93	103	screenwriter	screenwriter	screenwriter.	5	nopreview	3	113	182	182	526	182	182	0
	104	.	.		5	nopreview	3	114						
94	105	@entity12	James	James,	5	nopreview	3	115	343	175	175	175	175	168
	106	,	,		5	nopreview	3	116						
95	107	whose	whose	whose	5	nopreview	3	117	420	286	454	175	286	134
96	108	real	real	real	5	nopreview	3	118	188	188	188	188	188	0
97	109	name	name	name	5	nopreview	3	119	307	150	150	150	150	157
98	110	is	is	is	5	nopreview	3	120	517	0	0	0	0	517
99	111	@entity12	Erika	Erika	5	nopreview	3	121	603	268	493	175	268	335
100			Leonard	Leonard,	5	nopreview	3	122	645	426	1030	146	426	219
	112	,	,		5	nopreview	3	123						
101	113	has	has	has	5	nopreview	3	124	146	146	365	146	146	0
102	114	been	been	been	5	nopreview	3	125	156	156	156	156	156	0
103	115	credited	credited	credited	5	nopreview	3	126	368	180	180	180	180	188
104	116	with	with	with	5	nopreview	3	127	198	198	386	198	198	0
105	117	keeping	keeping	keeping	5	nopreview	3	128	591	131	905	131	591	460
106	118	a	a	a	5	nopreview	3	129	213	213	213	213	213	0
107	119	strong	strong	strong	5	nopreview	3	130	263	149	1136	149	149	114
108	120	amount	amount	amount	5	nopreview	3	131	184	184	298	184	184	0
109	121	of	of	of	5	nopreview	3	132	0	0	0	0	0	0
110	122	creative	creative	creative	5	nopreview	3	133	230	143	143	143	143	87
111	123	control	control	control	5	nopreview	3	134	315	144	402	144	315	171
112	124	when	when	when	5	nopreview	3	135	0	0	0	0	0	0
113	125	it	it	it	5	nopreview	3	136	192	192	192	192	192	0
114	126	comes	comes	comes	5	nopreview	3	137	0	0	0	0	0	0
115	127	to	to	to	5	nopreview	3	138	192	0	0	0	0	192
116	128	@entity4	Universal	Universal-s	5	nopreview	3	139	287	116	308	116	116	171
	129	-s	-s		5	nopreview	3	140						
117	130	adaptations	adaptations	adaptations	5	nopreview	3	141	459	297	297	190	297	162
118	131	of	of	of	5	nopreview	3	142	0	0	0	0	0	0
119	132	her	her	her	5	nopreview	3	143	308	308	308	308	308	0
120	133	books	books	books,	5	nopreview	3	144	0	0	0	0	0	0
	134	,	,		5	nopreview	3	145						
121	135	the	the	the	5	nopreview	3	146	686	0	0	0	0	686
122	136	second	second	second	5	nopreview	3	147	1351	672	2037	407	1351	679
123	137	of	of	of	5	nopreview	3	148	328	0	0	0	0	328
124	138	which	which	which	5	nopreview	3	149	550	182	182	182	182	368
125	139	is	is	is	5	nopreview	3	150	0	0	0	0	0	0
126	140	titled	titled	titled	5	nopreview	3	151	307	137	882	137	307	170
127	141	-	-	-Fifty	5	nopreview	3	152	396	272	517	272	396	124
	142	@entity32	Fifty		5	nopreview	3	153						
128			Shades	Shades	5	nopreview	3	154	0	0	0	0	0	0
129			Darker	Darker.-	5	nopreview	3	155	591	447	780	309	447	144
	143	.	.		5	nopreview	3	156						
130	144	-	-	After	5	nopreview	3	157	147	0	0	0	0	147
	145	After	After		5	nopreview	3	158						
131	146	clashing	clashing	clashing	5	nopreview	3	159	737	204	204	204	204	533
132	147	with	with	with	5	nopreview	3	160	373	174	684	174	373	199
133	148	@entity12	James	James,	5	nopreview	3	161	0	0	0	0	0	0
	149	,	,		5	nopreview	3	162						
134	150	@entity33	Sam	Sam	5	nopreview	3	163	0	0	0	0	0	0
135			Taylor	Taylor-Johnson	5	nopreview	3	164	1099	1099	1099	280	1099	0
			-		5	nopreview	3	165						
			Johnson		5	nopreview	3	166						
136	151	is	is	isn-t	5	nopreview	3	167	0	0	0	0	0	0
	152	n-t	n-t		5	nopreview	3	168						
137	153	returning	returning	returning	5	nopreview	3	169	482	482	482	178	482	0
138	154	to	to	to	5	nopreview	3	170	0	0	0	0	0	0
139	155	direct	direct	direct	5	nopreview	3	171	134	0	0	0	0	134
140	156	the	the	the	5	nopreview	3	172	138	138	272	138	138	0
141	157	sequel	sequel	sequel.	5	nopreview	3	173	352	131	865	131	352	221
	158	.	.		5	nopreview	3	174						
142	159	Stars	Stars	Stars	5	nopreview	3	175	194	194	194	194	194	0
143	160	@entity35	Dakota	Dakota	5	nopreview	3	176	0	0	0	0	0	0
144			Johnson	Johnson	5	nopreview	3	177	147	147	147	147	147	0
145	161	and	and	and	5	nopreview	3	178	0	0	0	0	0	0
146	162	@entity36	Jamie	Jamie	5	nopreview	3	179	146	146	146	146	146	0
147			Dornan	Dornan	5	nopreview	3	180	0	0	0	0	0	0
148	163	are	are	are	5	nopreview	3	181	189	189	189	189	189	0
149	164	negotiating	negotiating	negotiating	5	nopreview	3	182	345	149	149	149	149	196
150	165	for	for	for	5	nopreview	3	183	134	134	330	134	134	0
151	166	more	more	more	5	nopreview	3	184	0	0	0	0	0	0
152	167	money	money	money	5	nopreview	3	185	376	0	0	0	0	376
153	168	for	for	for	5	nopreview	3	186	150	0	0	0	0	150
154	169	the	the	the	5	nopreview	3	187	172	0	0	0	0	172
155	170	sequel	sequel	sequel	5	nopreview	3	188	440	0	0	0	0	440
156	171	after	after	after	5	nopreview	3	189	420	0	0	0	0	420
157	172	the	the	the	5	nopreview	3	190	0	0	0	0	0	0
158	173	first	first	first	5	nopreview	3	191	302	0	0	0	0	302
159	174	film	film	film,	5	nopreview	3	192	196	0	0	0	0	196
	175	,	,		5	nopreview	3	193						
160	176	release	release	release	5	nopreview	3	194	443	0	0	0	0	443
161	177	over	over	over	5	nopreview	3	195	0	0	0	0	0	0
162	178	@entity40	Valentine	Valentine-s	5	nopreview	3	196	458	0	0	0	0	458
			-s		5	nopreview	3	197						
163			Day	Day	5	nopreview	3	198	0	0	0	0	0	0
164	179	weekend	weekend	weekend	5	nopreview	3	199	310	0	0	0	0	310
165	180	of	of	of	5	nopreview	3	200	0	0	0	0	0	0
166	181	this	this	this	5	nopreview	3	201	0	0	0	0	0	0
167	182	year	year	year,	5	nopreview	3	202	274	0	0	0	0	274
	183	,	,		5	nopreview	3	203						
168	184	earned	earned	earned	5	nopreview	3	204	300	0	0	0	0	300
169	185	a	a	a	5	nopreview	3	205	568	102	3508	102	102	466
170	186	massive	massive	massive	5	nopreview	3	206	262	133	133	133	133	129
171	187	$	$	$568.8	5	nopreview	3	207	950	287	287	157	287	663
	188	568.8	568.8		5	nopreview	3	208						
172	189	million	million	million	5	nopreview	3	209	0	0	0	0	0	0
173	190	worldwide	worldwide	worldwide.	5	nopreview	3	210	297	86	1990	86	297	211
	191	.	.		5	nopreview	3	211						
