1	0	Fighting	InVocab	8.8186
2	1	between	InVocab	3.4955
3	2	rival	InVocab	4.0173
4	3	fans	InVocab	4.8255
5	4	forced	InVocab	9.5927
6	5	a	InVocab	2.7899
7	6	Russian	InVocab	7.12
8		Premier	InVocab	6.6591
9		League	InVocab	0.0996
10	7	match	InVocab	3.0409
11	8	between	InVocab	2.6055
12	9	Arsenal	InVocab	3.2197
13		Tula	OOV	7.2992
14	10	and	InVocab	2.5104
15	11	Torpedo	InVocab	12.8135
16		Moscow	InVocab	4.6021
17	12	to	InVocab	2.0479
18	13	be	InVocab	4.5167
19	14	stopped	InVocab	6.5036
20	15	for	InVocab	3.7695
21	16	seven	InVocab	6.8516
22	17	minutes	InVocab	1.3216
23	18	on	InVocab	3.0598
24	19	Sunday	InVocab	2.2128
	20	.	InVocab	0.4151
25	21	A	InVocab	4.2435
26	22	statement	InVocab	3.5639
27	23	on	InVocab	1.1282
28	24	Arsenal	InVocab	5.8495
	25	's	InVocab	0.6563
29	26	official	InVocab	1.1459
30	27	site	InVocab	8.0983
31	28	read	InVocab	0.2322
32	29	:	InVocab	0.1193
	30	'	InVocab	0.8422
33	31	In	InVocab	4.8866
34	32	the	InVocab	1.3556
	33	31st	InVocab	9.2781
35	34	minute	InVocab	2.1783
	35	,	InVocab	0.8295
36	36	fans	InVocab	8.5317
37	37	from	InVocab	6.2714
38	38	the	InVocab	0.7864
39	39	visiting	InVocab	7.9782
40	40	Moscow	InVocab	5.6263
41	41	club	InVocab	6.1271
42	42	broke	InVocab	8.1927
43	43	down	InVocab	1.9459
44	44	barriers	InVocab	5.3773
45	45	in	InVocab	3.114
46	46	front	InVocab	8.5562
47	47	of	InVocab	1.1137
48	48	the	InVocab	0.8864
49	49	visitors	InVocab	7.2317
50	50	sector	InVocab	9.7061
51	51	and	InVocab	3.3426
52	52	tried	InVocab	7.8387
53	53	to	InVocab	0.0801
54	54	get	InVocab	3.0959
55	55	to	InVocab	2.8691
56	56	the	InVocab	0.3187
57	57	East	InVocab	7.0142
58		Stand	InVocab	9.4076
	58	,	InVocab	3.5811
59	59	where	InVocab	3.9552
60	60	a	InVocab	3.4252
61	61	number	InVocab	4.4325
62	62	of	InVocab	0.0499
63	63	women	InVocab	6.1638
64	64	and	InVocab	3.3523
65	65	children	InVocab	1.2797
66	66	were	InVocab	1.0972
67	67	sitting	InVocab	5.7382
	68	.	InVocab	3.4139
68	69	'	InVocab	2.9284
	70	The	InVocab	1.9334
69	71	Torpedo	InVocab	12.9791
70	72	fans	InVocab	10.3677
71	73	began	InVocab	5.9942
72	74	breaking	InVocab	8.4859
73	75	seats	InVocab	13.146
74	76	and	InVocab	2.104
75	77	throwing	InVocab	5.1461
76	78	them	InVocab	2.3914
77	79	towards	InVocab	5.6233
78	80	law	InVocab	12.4118
79	81	enforcement	InVocab	0.9385
80	82	officers	InVocab	1.8304
81	83	and	InVocab	2.2394
82	84	stewards	InVocab	5.2473
	85	.	InVocab	1.0801
83	86	'	InVocab	0.5484
	87	Scroll	InVocab	6.6244
	88	down	InVocab	0.0068
	89	to	InVocab	3.3296
	90	watch	InVocab	0.489
	91	video	InVocab	1.2428
	92	footage	InVocab	1.6691
	93	of	InVocab	1.2972
	94	the	InVocab	0.5656
	95	incident	InVocab	8.5404
	96	Fans	InVocab	12.1749
	97	fight	InVocab	11.4441
	98	leading	InVocab	10.1476
	99	to	InVocab	1.4251
	100	Arsenal	InVocab	9.9163
		Tula	OOV	2.8577
	101	vs	InVocab	8.4888
	102	Torpedo	InVocab	14.6828
		Moscow	InVocab	8.6188
	103	to	InVocab	2.3592
	104	be	InVocab	4.1169
	105	suspended	InVocab	7.5874
	106	for	InVocab	0.8122
	107	seven	InVocab	7.144
	108	minutes	InVocab	3.3485
	109	on	InVocab	2.8702
	110	Sunday	InVocab	2.7622
	111	Torpedo	InVocab	18.0497
		Moscow	InVocab	7.1278
	112	fans	InVocab	4.9788
	113	broke	InVocab	8.3832
	114	down	InVocab	2.2153
	115	barriers	InVocab	5.9016
	116	and	InVocab	3.1303
	117	threw	InVocab	4.5298
	118	chairs	InVocab	8.5151
	119	,	InVocab	4.3125
	120	according	InVocab	4.6227
	121	to	InVocab	0.007
	122	Arsenal	InVocab	6.6997
		Tula	OOV	5.3069
	123	's	InVocab	6.2477
	124	website	InVocab	1.7436
	125	Referee	InVocab	11.0629
84	126	Alexander	InVocab	8.5957
85		Yegorov	OOV	0.4495
86	127	stopped	InVocab	8.1461
87	128	the	InVocab	1.8761
88	129	match	InVocab	2.4733
89	130	and	InVocab	2.7108
90	131	told	InVocab	4.504
91	132	the	InVocab	1.3533
92	133	players	InVocab	3.1683
93	134	to	InVocab	2.3082
94	135	leave	InVocab	2.8073
95	136	the	InVocab	1.1102
96	137	pitch	InVocab	1.2937
97	138	and	InVocab	2.4149
98	139	head	InVocab	6.2036
99	140	for	InVocab	4.9955
100	141	the	InVocab	1.6151
101	142	dressing	InVocab	9.8396
102	143	rooms	InVocab	3.9447
	144	,	InVocab	2.0636
103	145	while	InVocab	4.9851
104	146	fights	InVocab	12.6771
105	147	broke	InVocab	8.3549
106	148	out	InVocab	0.4594
107	149	between	InVocab	3.9759
108	150	fans	InVocab	6.5348
109	151	on	InVocab	4.6398
110	152	the	InVocab	0.8501
111	153	running	InVocab	9.0959
112	154	track	InVocab	3.5619
113	155	after	InVocab	6.0474
114	156	they	InVocab	4.1383
115	157	managed	InVocab	6.5205
116	158	to	InVocab	0.1049
117	159	climb	InVocab	5.666
118	160	over	InVocab	3.7279
119	161	barriers	InVocab	9.1347
	162	.	InVocab	1.5408
120	163	After	InVocab	4.7656
121	164	order	InVocab	16.0037
122	165	was	InVocab	1.7373
123	166	restored	InVocab	3.5404
124	167	play	InVocab	12.8528
125	168	resumed	InVocab	4.4721
126	169	and	InVocab	2.9444
127	170	Torpedo	InVocab	11.8707
128	171	ran	InVocab	7.9672
129	172	out	InVocab	2.9342
130	173	3	InVocab	6.7224
	174	-	InVocab	0.1097
	175	1	InVocab	1.3289
131	176	winners	InVocab	1.006
	177	.	InVocab	2.8731
132	178	Sergei	InVocab	11.9983
133		Cheban	OOV	0.2491
	179	,	InVocab	2.5665
134	180	executive	InVocab	10.4403
135	181	director	InVocab	0.4497
136	182	of	InVocab	0.1896
137	183	the	InVocab	0.7306
138	184	Russian	InVocab	5.2908
139		Football	InVocab	2.7722
140		Premier	InVocab	9.5776
141		League	InVocab	0.3075
	185	,	InVocab	1.0266
142	186	said	InVocab	5.2961
143	187	Torpedo	InVocab	15.5043
144	188	could	InVocab	7.2525
145	189	expected	InVocab	12.472
146	190	to	InVocab	1.3517
147	191	be	InVocab	2.1465
148	192	heavily	InVocab	6.7352
149	193	punished	InVocab	8.4688
150	194	for	InVocab	1.4811
151	195	this	InVocab	6.1988
152	196	latest	InVocab	5.9885
153	197	outbreak	InVocab	5.7676
154	198	of	InVocab	0.6533
155	199	violence	InVocab	2.2291
156	200	by	InVocab	4.3996
157	201	their	InVocab	7.586
158	202	fans	InVocab	4.883
	203	.	InVocab	0.6855
159	204	'	InVocab	3.0023
	205	Those	InVocab	6.4897
160	206	people	InVocab	3.1434
161	207	who	InVocab	1.3515
162	208	organised	InVocab	9.1534
163	209	the	InVocab	0.642
164	210	trouble	InVocab	9.5331
165	211	have	InVocab	4.3452
166	212	already	InVocab	4.126
167	213	been	InVocab	1.5068
168	214	detained	InVocab	6.7064
	215	.	InVocab	2.5682
169	216	The	InVocab	2.8189
170	217	security	InVocab	5.8536
171	218	forces	InVocab	2.3253
172	219	on	InVocab	5.461
173	220	duty	InVocab	6.6462
174	221	were	InVocab	3.7529
175	222	very	InVocab	6.7006
176	223	professional	InVocab	7.804
177	224	in	InVocab	3.2078
178	225	their	InVocab	2.1637
179	226	work	InVocab	6.185
	227	,	InVocab	1.3539
180	228	'	InVocab	0.693
	229	said	InVocab	1.9051
181	230	Cheban	OOV	2.4322
182	231	in	InVocab	6.2103
183	232	an	InVocab	2.3767
184	233	interview	InVocab	0.6259
185	234	with	InVocab	0.2582
186	235	Championat.com	OOV	2.2664
	236	.	InVocab	3.104
187	237	'	InVocab	3.0134
	238	Torpedo	InVocab	13.5903
188	239	can	InVocab	6.1211
189	240	expect	InVocab	5.5948
190	241	to	InVocab	0.8945
191	242	receive	InVocab	5.7085
192	243	serious	InVocab	8.5591
193	244	punishment	InVocab	4.9936
	245	.	InVocab	2.9648
194	246	This	InVocab	3.9449
195	247	is	InVocab	0.8765
196	248	hooliganism	InVocab	14.6907
197	249	and	InVocab	2.8588
198	250	it	InVocab	3.7199
199	251	not	InVocab	9.1652
200	252	the	InVocab	3.827
201	253	first	InVocab	4.7761
202	254	time	InVocab	0.1953
203	255	they	InVocab	5.4937
204	256	have	InVocab	0.8555
205	257	stopped	InVocab	5.6869
206	258	a	InVocab	3.7266
207	259	match	InVocab	4.9037
	260	.	InVocab	1.2586
208	261	The	InVocab	3.175
209	262	punishment	InVocab	6.5333
210	263	will	InVocab	3.7248
211	264	be	InVocab	1.0263
212	265	harsh	InVocab	6.0669
	266	.	InVocab	1.9211
213	267	'	InVocab	0.5796
	268	Torpedo	InVocab	13.7436
	269	's	InVocab	5.713
214	270	fans	InVocab	5.2347
215	271	have	InVocab	2.8341
216	272	caused	InVocab	6.4508
217	273	trouble	InVocab	4.1824
218	274	on	InVocab	4.9721
219	275	a	InVocab	3.3603
220	276	number	InVocab	2.6617
221	277	of	InVocab	0.0347
222	278	occasions	InVocab	0.5851
223	279	and	InVocab	2.2253
224	280	the	InVocab	3.0663
225	281	club	InVocab	3.2886
226	282	have	InVocab	2.093
227	283	already	InVocab	4.2226
228	284	been	InVocab	2.8767
229	285	punished	InVocab	3.4988
230	286	three	InVocab	6.9594
231	287	times	InVocab	3.5984
232	288	this	InVocab	4.8264
233	289	season	InVocab	2.7387
234	290	for	InVocab	4.9766
235	291	racist	InVocab	9.8249
236	292	behaviour	InVocab	4.5006
237	293	of	InVocab	4.0807
238	294	their	InVocab	4.6152
239	295	supporters	InVocab	4.6493
	296	.	InVocab	0.6512
240	297	The	InVocab	2.1964
241	298	last	InVocab	5.5073
242	299	incident	InVocab	7.1978
243	300	occurred	InVocab	1.9158
244	301	on	InVocab	3.1986
245	302	March	InVocab	3.9298
246	303	15	InVocab	3.4947
247	304	when	InVocab	2.3497
248	305	Torpedo	InVocab	13.7818
249	306	fans	InVocab	6.1632
250	307	abused	InVocab	8.8358
251	308	Zenit	InVocab	11.7555
252		St	InVocab	3.8169
253		Petersburg	InVocab	1.0687
	309	's	InVocab	4.165
254	310	Brazilian	InVocab	7.6115
255	311	forward	InVocab	3.7151
256	312	Hulk	InVocab	6.7099
	313	.	InVocab	1.8914
257	314	The	InVocab	1.2637
258	315	side	InVocab	9.6273
259	316	were	InVocab	2.6328
260	317	sanctioned	InVocab	8.4792
261	318	by	InVocab	0.6858
262	319	having	InVocab	8.7393
263	320	to	InVocab	2.8463
264	321	play	InVocab	3.1143
265	322	two	InVocab	5.972
266	323	matches	InVocab	2.0102
267	324	behind	InVocab	5.15
268	325	closed	InVocab	1.3583
269	326	doors	InVocab	0.1741
	327	.	InVocab	2.035
270	328	Torpedo	InVocab	15.1491
271	329	are	InVocab	7.5881
272	330	currently	InVocab	5.5124
273	331	in	InVocab	1.9479
274	332	12th	InVocab	5.0561
275	333	place	InVocab	0.2724
276	334	in	InVocab	3.9758
277	335	the	InVocab	1.2442
278	336	Russian	InVocab	7.9727
279		Premier	InVocab	5.2455
280		League	InVocab	0.3859
281	337	table	InVocab	6.057
282	338	with	InVocab	3.1019
283	339	19	InVocab	4.7413
284	340	points	InVocab	0.4164
	341	,	InVocab	1.7902
285	342	while	InVocab	3.3313
286	343	Arsenal	InVocab	2.3628
287		Tula	OOV	4.254
288	344	are	InVocab	5.9423
289	345	one	InVocab	5.2245
290	346	place	InVocab	3.5705
291	347	off	InVocab	5.8966
292	348	the	InVocab	0.6232
293	349	bottom	InVocab	1.4807
294	350	with	InVocab	4.5665
295	351	14	InVocab	5.7355
296	352	points	InVocab	0.054
	353	.	InVocab	0.3407
