HumanPosition	AnonymizedPosition	AnonymizedToken	OriginalToken	ExperimentToken	Participant	Condition	TextNo	JointPosition	tt	fp	rp	ff
1	0	Many	Many	Many	10	preview	13	1	193	193	193	105
2	1	animals	animals	animals	10	preview	13	2	129	129	129	129
3	2	mimic	mimic	mimic	10	preview	13	3	624	336	336	336
4	3	human	human	human	10	preview	13	4	377	180	665	180
5	4	traits	traits	traits	10	preview	13	5	84	84	84	84
6	5	and	and	and	10	preview	13	6	0	0	0	0
7	6	vice	vice	vice	10	preview	13	7	0	0	0	0
8	7	versa	versa	versa	10	preview	13	8	171	171	171	171
9	8	but	but	but	10	preview	13	9	0	0	0	0
10	9	this	this	this	10	preview	13	10	165	165	165	165
11	10	puppy	puppy	puppy	10	preview	13	11	118	118	118	118
12	11	takes	takes	takes	10	preview	13	12	131	131	131	131
13	12	the	the	the	10	preview	13	13	250	250	250	250
14	13	biscuit	biscuit	biscuit.	10	preview	13	14	0	0	0	0
	14	.	.		10	preview	13	15				
15	15	@entity5	Leia	Leia,	10	preview	13	16	133	0	0	0
	16	,	,		10	preview	13	17				
16	17	an	an	an	10	preview	13	18	105	105	238	105
17	18	eight	eight	eight-month-old	10	preview	13	19	373	373	373	200
	19	-	-		10	preview	13	20				
	20	month	month		10	preview	13	21				
	21	-	-		10	preview	13	22				
	22	old	old		10	preview	13	23				
18	23	@entity6	Boxer	Boxer	10	preview	13	24	0	0	0	0
19	24	from	from	from	10	preview	13	25	136	136	136	136
20	25	@entity7	Pennsylvania	Pennsylvania,	10	preview	13	26	0	0	0	0
	26	,	,		10	preview	13	27				
21	27	was	was	was	10	preview	13	28	0	0	0	0
22	28	filmed	filmed	filmed	10	preview	13	29	245	245	245	245
23	29	as	as	as	10	preview	13	30	0	0	0	0
24	30	she	she	she	10	preview	13	31	0	0	0	0
25	31	lay	lay	lay	10	preview	13	32	246	246	246	246
26	32	on	on	on	10	preview	13	33	0	0	0	0
27	33	the	the	the	10	preview	13	34	0	0	0	0
28	34	couch	couch	couch	10	preview	13	35	196	196	196	196
29	35	and	and	and	10	preview	13	36	0	0	0	0
30	36	latched	latched	latched	10	preview	13	37	215	215	215	215
31	37	on	on	on	10	preview	13	38	0	0	0	0
32	38	to	to	to	10	preview	13	39	197	0	0	0
33	39	a	a	a	10	preview	13	40	0	0	0	0
34	40	baby	baby	baby-s	10	preview	13	41	186	186	383	186
	41	-s	-s		10	preview	13	42				
35	42	pacifier	pacifier	pacifier.	10	preview	13	43	185	185	185	185
	43	.	.		10	preview	13	44				
36	44	Footage	Footage	Footage	10	preview	13	45	384	384	384	384
37	45	shows	shows	shows	10	preview	13	46	210	210	210	210
38	46	her	her	her	10	preview	13	47	0	0	0	0
39	47	then	then	then	10	preview	13	48	277	277	277	277
40	48	sucking	sucking	sucking	10	preview	13	49	109	109	109	109
41	49	on	on	on	10	preview	13	50	0	0	0	0
42	50	it	it	it	10	preview	13	51	144	144	144	144
43	51	before	before	before	10	preview	13	52	160	160	160	160
44	52	closing	closing	closing	10	preview	13	53	141	0	0	0
45	53	her	her	her	10	preview	13	54	101	101	242	101
46	54	eyes	eyes	eyes	10	preview	13	55	0	0	0	0
47	55	and	and	and	10	preview	13	56	142	142	142	142
48	56	loudly	loudly	loudly	10	preview	13	57	139	139	139	139
49	57	snoring	snoring	snoring	10	preview	13	58	0	0	0	0
50	58	in	in	in	10	preview	13	59	197	197	197	197
51	59	her	her	her	10	preview	13	60	0	0	0	0
52	60	sleep	sleep	sleep.	10	preview	13	61	157	157	157	157
	61	.	.		10	preview	13	62				
53	62	A	A	A	10	preview	13	63	0	0	0	0
54	63	soothing	soothing	soothing	10	preview	13	64	205	205	205	205
55	64	rendition	rendition	rendition	10	preview	13	65	283	283	283	283
56	65	of	of	of	10	preview	13	66	0	0	0	0
57	66	@entity16	Twinkle	Twinkle,	10	preview	13	67	124	124	124	124
			,		10	preview	13	68				
58			Twinkle	Twinkle	10	preview	13	69	0	0	0	0
59			Little	Little	10	preview	13	70	220	220	220	220
60			Star	Star	10	preview	13	71	0	0	0	0
61	67	is	is	is	10	preview	13	72	0	0	0	0
62	68	heard	heard	heard	10	preview	13	73	240	240	240	240
63	69	playing	playing	playing	10	preview	13	74	200	200	200	200
64	70	away	away	away	10	preview	13	75	0	0	0	0
65	71	in	in	in	10	preview	13	76	0	0	0	0
66	72	the	the	the	10	preview	13	77	171	171	171	171
67	73	background	background	background.	10	preview	13	78	0	0	0	0
	74	.	.		10	preview	13	79				
68	75	The	The	The	10	preview	13	80	0	0	0	0
69	76	pup	pup	pup-s	10	preview	13	81	155	155	155	155
	77	-s	-s		10	preview	13	82				
70	78	owner	owner	owner,	10	preview	13	83	287	287	287	287
	79	,	,		10	preview	13	84				
71	80	@entity18	Dave	Dave	10	preview	13	85	0	0	0	0
72			McK	McK,	10	preview	13	86	499	0	0	0
	81	,	,		10	preview	13	87				
73	82	says	says	says	10	preview	13	88	296	131	287	131
74	83	that	that	that	10	preview	13	89	202	0	0	0
75	84	apparently	apparently	apparently	10	preview	13	90	465	204	1175	204
76	85	@entity5	Leia	Leia	10	preview	13	91	160	0	0	0
77	86	loves	loves	loves	10	preview	13	92	251	251	411	251
78	87	to	to	to	10	preview	13	93	200	200	200	200
79	88	suck	suck	suck	10	preview	13	94	0	0	0	0
80	89	on	on	on	10	preview	13	95	0	0	0	0
81	90	her	her	her	10	preview	13	96	0	0	0	0
82	91	pacifier	pacifier	pacifier.	10	preview	13	97	331	331	331	331
	92	.	.		10	preview	13	98				
83	93	Each	Each	Each	10	preview	13	99	0	0	0	0
84	94	time	time	time	10	preview	13	100	237	237	237	237
85	95	around	around	around,	10	preview	13	101	248	248	248	248
	96	,	,		10	preview	13	102				
86	97	she	she	she	10	preview	13	103	113	113	113	113
87	98	immediately	immediately	immediately	10	preview	13	104	264	179	179	179
88	99	falls	falls	falls	10	preview	13	105	315	315	400	315
89	100	to	to	to	10	preview	13	106	109	109	109	109
90	101	sleep	sleep	sleep.	10	preview	13	107	0	0	0	0
	102	.	.		10	preview	13	108				
91	103	To	To	To	10	preview	13	109	0	0	0	0
92	104	date	date	date	10	preview	13	110	208	208	208	208
93	105	the	the	the	10	preview	13	111	0	0	0	0
94	106	video	video	video	10	preview	13	112	185	185	185	185
95	107	of	of	of	10	preview	13	113	0	0	0	0
96	108	@entity5	Leia	Leia	10	preview	13	114	179	179	179	179
97	109	has	has	has	10	preview	13	115	0	0	0	0
98	110	garnered	garnered	garnered	10	preview	13	116	184	184	184	184
99	111	more	more	more	10	preview	13	117	0	0	0	0
100	112	than	than	than	10	preview	13	118	0	0	0	0
101	113	145,000	145,000	145,000	10	preview	13	119	240	240	240	240
102	114	likes	likes	likes	10	preview	13	120	137	0	0	0
103	115	on	on	on	10	preview	13	121	0	0	0	0
104	116	@entity23	Facebook	Facebook,	10	preview	13	122	221	105	358	105
	117	,	,		10	preview	13	123				
105	118	with	with	with	10	preview	13	124	0	0	0	0
106	119	many	many	many	10	preview	13	125	0	0	0	0
107	120	viewers	viewers	viewers	10	preview	13	126	316	316	316	316
108	121	deeming	deeming	deeming	10	preview	13	127	340	340	340	237
109	122	the	the	the	10	preview	13	128	0	0	0	0
110	123	scene	scene	scene	10	preview	13	129	169	169	169	169
111	124	-	-	-cute-	10	preview	13	130	109	109	109	109
	125	cute	cute		10	preview	13	131				
	126	-	-		10	preview	13	132				
112	127	and	and	and	10	preview	13	133	0	0	0	0
113	128	-	-	-adorable-.	10	preview	13	134	224	224	224	224
	129	adorable	adorable		10	preview	13	135				
	130	-	-		10	preview	13	136				
	131	.	.		10	preview	13	137				
114	132	-	-	-This	10	preview	13	138	294	294	294	294
	133	This	This		10	preview	13	139				
115	134	has	has	has	10	preview	13	140	0	0	0	0
116	135	made	made	made	10	preview	13	141	174	174	174	174
117	136	my	my	my	10	preview	13	142	0	0	0	0
118	137	night	night	night,-	10	preview	13	143	173	173	173	173
	138	,	,		10	preview	13	144				
119	139	-	-	one	10	preview	13	145	0	0	0	0
120	140	one	one	fan	10	preview	13	146	148	148	148	148
121	141	fan	fan	exclaimed,	10	preview	13	147	185	185	185	185
	142	exclaimed	exclaimed		10	preview	13	148				
	143	,	,		10	preview	13	149				
122	144	while	while	while	10	preview	13	150	0	0	0	0
123	145	another	another	another	10	preview	13	151	243	243	243	243
124	146	added	added	added:	10	preview	13	152	124	124	124	124
125	147	:	:	-That	10	preview	13	153	0	0	0	0
	148	-	-		10	preview	13	154				
	149	That	That		10	preview	13	155				
126	150	is	is	is	10	preview	13	156	0	0	0	0
127	151	the	the	the	10	preview	13	157	320	320	320	320
128	152	cutest	cutest	cutest	10	preview	13	158	127	127	127	127
129	153	thing	thing	thing	10	preview	13	159	83	83	83	83
130	154	I	I	I-ve	10	preview	13	160	0	0	0	0
	155	-ve	-ve		10	preview	13	161				
131	156	ever	ever	ever	10	preview	13	162	0	0	0	0
132	157	seen	seen	seen!-	10	preview	13	163	247	247	247	247
	158	!	!		10	preview	13	164				
	159	-	-		10	preview	13	165				
133	160	When	When	When	10	preview	13	166	0	0	0	0
134	161	she	she	she-s	10	preview	13	167	323	185	185	185
	162	-s	-s		10	preview	13	168				
135	163	not	not	not	10	preview	13	169	0	0	0	0
136	164	snoozing	snoozing	snoozing,	10	preview	13	170	110	110	248	110
	165	,	,		10	preview	13	171				
137	166	@entity5	Leia	Leia	10	preview	13	172	0	0	0	0
138	167	is	is	is	10	preview	13	173	217	217	217	217
139	168	usually	usually	usually	10	preview	13	174	0	0	0	0
140	169	getting	getting	getting	10	preview	13	175	0	0	0	0
141	170	up	up	up	10	preview	13	176	181	181	181	181
142	171	to	to	to	10	preview	13	177	0	0	0	0
143	172	mischief	mischief	mischief	10	preview	13	178	178	178	178	178
144	173	with	with	with	10	preview	13	179	88	88	88	88
145	174	her	her	her	10	preview	13	180	0	0	0	0
146	175	older	older	older	10	preview	13	181	209	209	209	209
147	176	brother	brother	brother	10	preview	13	182	0	0	0	0
148	177	@entity31	Luke	Luke.	10	preview	13	183	155	155	155	155
	178	.	.		10	preview	13	184				
149	179	Together	Together	Together,	10	preview	13	185	198	198	198	198
	180	,	,		10	preview	13	186				
150	181	the	the	the	10	preview	13	187	0	0	0	0
151	182	canines	canines	canines	10	preview	13	188	430	269	269	269
152	183	have	have	have	10	preview	13	189	0	0	0	0
153	184	starred	starred	starred	10	preview	13	190	623	189	784	189
154	185	in	in	in	10	preview	13	191	0	0	0	0
155	186	numerous	numerous	numerous	10	preview	13	192	424	424	424	206
156	187	videos	videos	videos	10	preview	13	193	185	185	185	185
157	188	via	via	via	10	preview	13	194	92	92	92	92
158	189	@entity23	Facebook	Facebook	10	preview	13	195	107	0	0	0
159	190	and	and	and	10	preview	13	196	0	0	0	0
160	191	@entity34	YouTube	YouTube.	10	preview	13	197	191	0	0	0
	192	.	.		10	preview	13	198				
161	193	They	They	They	10	preview	13	199	0	0	0	0
162	194	also	also	also	10	preview	13	200	151	0	0	0
163	195	have	have	have	10	preview	13	201	168	0	0	0
164	196	their	their	their	10	preview	13	202	0	0	0	0
165	197	own	own	own	10	preview	13	203	180	0	0	0
166	198	website	website	website,	10	preview	13	204	152	0	0	0
	199	,	,		10	preview	13	205				
167	200	www.luketheboxer.com	www.luketheboxer.com	www.luketheboxer.com,	10	preview	13	206	437	0	0	0
168	201	where	where	where	10	preview	13	207	144	0	0	0
169	202	fans	fans	fans	10	preview	13	208	344	142	1672	142
170	203	can	can	can	10	preview	13	209	216	216	216	216
171	204	buy	buy	buy	10	preview	13	210	259	0	0	0
172	205	calendars	calendars	calendars	10	preview	13	211	521	200	894	200
173	206	with	with	with	10	preview	13	212	0	0	0	0
174	207	their	their	their	10	preview	13	213	179	179	179	179
175	208	photographs	photographs	photographs	10	preview	13	214	418	418	506	147
176	209	on	on	on.	10	preview	13	215	0	0	0	0
	210	.	.		10	preview	13	216				
