HumanPosition	AnonymizedPosition	AnonymizedToken	OriginalToken	ExperimentToken	Participant	Condition	TextNo	JointPosition	tt	fp	rp	ff
1	0	A	A	A	11	preview	17	1	0	0	0	0
2	1	boxing	boxing	boxing	11	preview	17	2	306	0	0	0
3	2	fight	fight	fight	11	preview	17	3	0	0	0	0
4	3	had	had	had	11	preview	17	4	229	0	0	0
5	4	to	to	to	11	preview	17	5	0	0	0	0
6	5	be	be	be	11	preview	17	6	0	0	0	0
7	6	halted	halted	halted	11	preview	17	7	176	0	0	0
8	7	after	after	after	11	preview	17	8	141	0	0	0
9	8	a	a	a	11	preview	17	9	0	0	0	0
10	9	fighter	fighter	fighter-s	11	preview	17	10	563	0	0	0
	10	-s	-s		11	preview	17	11				
11	11	cell	cell	cell	11	preview	17	12	235	0	0	0
12	12	phone	phone	phone	11	preview	17	13	277	0	0	0
13	13	fell	fell	fell	11	preview	17	14	0	0	0	0
14	14	out	out	out	11	preview	17	15	157	0	0	0
15	15	of	of	of	11	preview	17	16	148	0	0	0
16	16	his	his	his	11	preview	17	17	133	0	0	0
17	17	trunks	trunks	trunks.	11	preview	17	18	239	0	0	0
	18	.	.		11	preview	17	19				
18	19	@entity4	Marvin	Marvin	11	preview	17	20	232	0	0	0
19			-	-Papi	11	preview	17	21	387	0	0	0
			Papi		11	preview	17	22				
20			Gallo	Gallo-	11	preview	17	23	421	0	0	0
			-		11	preview	17	24				
21			Jones	Jones	11	preview	17	25	540	0	0	0
22	20	and	and	and	11	preview	17	26	221	0	0	0
23	21	@entity5	Ramon	Ramon	11	preview	17	27	0	0	0	0
24			Luis	Luis	11	preview	17	28	0	0	0	0
25			Nicolas	Nicolas	11	preview	17	29	182	0	0	0
26	22	were	were	were	11	preview	17	30	0	0	0	0
27	23	in	in	in	11	preview	17	31	181	0	0	0
28	24	the	the	the	11	preview	17	32	0	0	0	0
29	25	middle	middle	middle	11	preview	17	33	220	0	0	0
30	26	of	of	of	11	preview	17	34	140	0	0	0
31	27	a	a	a	11	preview	17	35	0	0	0	0
32	28	bout	bout	bout	11	preview	17	36	0	0	0	0
33	29	when	when	when	11	preview	17	37	165	0	0	0
34	30	the	the	the	11	preview	17	38	158	0	0	0
35	31	black	black	black	11	preview	17	39	384	0	0	0
36	32	phone	phone	phone	11	preview	17	40	209	0	0	0
37	33	slipped	slipped	slipped	11	preview	17	41	194	0	0	0
38	34	out	out	out	11	preview	17	42	339	132	5914	132
39	35	from	from	from	11	preview	17	43	137	0	0	0
40	36	@entity4	Jones	Jones-	11	preview	17	44	550	245	382	245
	37	-	-		11	preview	17	45				
41	38	black	black	black	11	preview	17	46	816	154	1553	154
42	39	and	and	and	11	preview	17	47	238	238	469	238
43	40	red	red	red	11	preview	17	48	0	0	0	0
44	41	shorts	shorts	shorts	11	preview	17	49	418	418	418	211
45	42	at	at	at	11	preview	17	50	0	0	0	0
46	43	the	the	the	11	preview	17	51	0	0	0	0
47	44	ring	ring	ring	11	preview	17	52	215	215	215	215
48	45	in	in	in	11	preview	17	53	0	0	0	0
49	46	@entity11	Arcadia	Arcadia,	11	preview	17	54	225	225	225	225
	47	,	,		11	preview	17	55				
50	48	@entity12	Florida	Florida.	11	preview	17	56	210	210	210	210
	49	.	.		11	preview	17	57				
51	50	Referee	Referee	Referee	11	preview	17	58	229	229	229	229
52	51	@entity13	Frankie	Frankie	11	preview	17	59	189	189	189	189
53			Santore	Santore	11	preview	17	60	0	0	0	0
54			Jr.	Jr.	11	preview	17	61	0	0	0	0
55	52	went	went	went	11	preview	17	62	0	0	0	0
56	53	over	over	over	11	preview	17	63	344	344	344	204
57	54	to	to	to	11	preview	17	64	0	0	0	0
58	55	pick	pick	pick	11	preview	17	65	206	206	206	206
59	56	up	up	up	11	preview	17	66	0	0	0	0
60	57	the	the	the	11	preview	17	67	0	0	0	0
61	58	@entity14	Samsung	Samsung	11	preview	17	68	158	158	158	158
62			Galaxy	Galaxy	11	preview	17	69	0	0	0	0
63	59	and	and	and	11	preview	17	70	121	121	121	121
64	60	looked	looked	looked	11	preview	17	71	265	265	265	132
65	61	like	like	like	11	preview	17	72	200	0	0	0
66	62	he	he	he	11	preview	17	73	0	0	0	0
67	63	was	was	was	11	preview	17	74	179	179	179	179
68	64	chastising	chastising	chastising	11	preview	17	75	365	163	363	163
69	65	@entity4	Jones	Jones,	11	preview	17	76	0	0	0	0
	66	,	,		11	preview	17	77				
70	67	who	who	who	11	preview	17	78	149	0	0	0
71	68	seemed	seemed	seemed	11	preview	17	79	184	184	333	184
72	69	confused	confused	confused.	11	preview	17	80	0	0	0	0
	70	.	.		11	preview	17	81				
73	71	Scroll	Scroll	Jones,	11	preview	17	82	222	222	222	222
	72	down	down		11	preview	17	83				
	73	for	for		11	preview	17	84				
	74	video	video		11	preview	17	85				
	75	@entity4	Marvin		11	preview	17	86				
			-		11	preview	17	87				
			Papi		11	preview	17	88				
			Gallo		11	preview	17	89				
			-		11	preview	17	90				
			Jones		11	preview	17	91				
	76	(	(		11	preview	17	92				
74	77	right	right	32,	11	preview	17	93	347	347	347	181
	78	)	)		11	preview	17	94				
	79	and	and		11	preview	17	95				
75	80	@entity5	Ramon	held	11	preview	17	96	0	0	0	0
			Luis		11	preview	17	97				
			Nicolas		11	preview	17	98				
	81	(	(		11	preview	17	99				
	82	left	left		11	preview	17	100				
76	83	)	)	his	11	preview	17	101	199	199	199	199
77	84	were	were	hands	11	preview	17	102	138	138	138	138
	85	in	in		11	preview	17	103				
	86	the	the		11	preview	17	104				
	87	middle	middle		11	preview	17	105				
	88	of	of		11	preview	17	106				
	89	a	a		11	preview	17	107				
	90	bout	bout		11	preview	17	108				
	91	when	when		11	preview	17	109				
	92	the	the		11	preview	17	110				
	93	black	black		11	preview	17	111				
	94	phone	phone		11	preview	17	112				
	95	slipped	slipped		11	preview	17	113				
	96	out	out		11	preview	17	114				
	97	from	from		11	preview	17	115				
	98	@entity4	Jones		11	preview	17	116				
78	99	-	-	up	11	preview	17	117	245	0	0	0
79	100	black	black	as	11	preview	17	118	0	0	0	0
	101	and	and		11	preview	17	119				
80	102	red	red	the	11	preview	17	120	132	0	0	0
81	103	shorts	shorts	referee	11	preview	17	121	308	111	685	111
	104	at	at		11	preview	17	122				
	105	the	the		11	preview	17	123				
	106	ring	ring		11	preview	17	124				
	107	in	in		11	preview	17	125				
	108	@entity11	Arcadia		11	preview	17	126				
	109	,	,		11	preview	17	127				
	110	@entity12	Florida		11	preview	17	128				
	111	@entity4	Jones		11	preview	17	129				
	112	,	,		11	preview	17	130				
	113	32	32		11	preview	17	131				
	114	,	,		11	preview	17	132				
	115	held	held		11	preview	17	133				
	116	his	his		11	preview	17	134				
	117	hands	hands		11	preview	17	135				
	118	up	up		11	preview	17	136				
	119	as	as		11	preview	17	137				
	120	the	the		11	preview	17	138				
	121	referee	referee		11	preview	17	139				
82	122	took	took	took	11	preview	17	140	227	227	227	227
83	123	the	the	the	11	preview	17	141	0	0	0	0
84	124	phone	phone	phone	11	preview	17	142	186	186	186	186
85	125	over	over	over	11	preview	17	143	0	0	0	0
86	126	to	to	to	11	preview	17	144	157	157	157	157
87	127	the	the	the	11	preview	17	145	0	0	0	0
88	128	side	side	side	11	preview	17	146	208	208	208	208
89	129	of	of	of	11	preview	17	147	0	0	0	0
90	130	the	the	the	11	preview	17	148	0	0	0	0
91	131	ring	ring	ring.	11	preview	17	149	150	150	150	150
	132	.	.		11	preview	17	150				
92	133	The	The	The	11	preview	17	151	0	0	0	0
93	134	audience	audience	audience	11	preview	17	152	209	209	209	209
94	135	and	and	and	11	preview	17	153	0	0	0	0
95	136	viewers	viewers	viewers	11	preview	17	154	194	0	0	0
96	137	were	were	were	11	preview	17	155	125	125	319	125
97	138	baffled	baffled	baffled	11	preview	17	156	159	159	159	159
98	139	as	as	as	11	preview	17	157	0	0	0	0
99	140	to	to	to	11	preview	17	158	0	0	0	0
100	141	why	why	why	11	preview	17	159	299	299	299	299
101	142	@entity4	Jones	Jones	11	preview	17	160	0	0	0	0
102	143	had	had	had	11	preview	17	161	221	221	221	221
103	144	his	his	his	11	preview	17	162	0	0	0	0
104	145	phone	phone	phone	11	preview	17	163	145	145	145	145
105	146	in	in	in	11	preview	17	164	0	0	0	0
106	147	his	his	his	11	preview	17	165	0	0	0	0
107	148	shorts	shorts	shorts.	11	preview	17	166	184	184	184	184
	149	.	.		11	preview	17	167				
108	150	But	But	But	11	preview	17	168	0	0	0	0
109	151	@entity4	Jones	Jones	11	preview	17	169	229	229	229	229
110	152	later	later	later	11	preview	17	170	128	128	128	128
111	153	told	told	told	11	preview	17	171	0	0	0	0
112	154	@entity26	TMZ	TMZ	11	preview	17	172	172	172	172	172
113			Sports	Sports	11	preview	17	173	0	0	0	0
114	155	that	that	that	11	preview	17	174	0	0	0	0
115	156	he	he	he	11	preview	17	175	239	239	239	239
116	157	was	was	was	11	preview	17	176	0	0	0	0
117	158	listening	listening	listening	11	preview	17	177	148	148	148	148
118	159	to	to	to	11	preview	17	178	0	0	0	0
119	160	music	music	music	11	preview	17	179	159	159	159	159
120	161	before	before	before	11	preview	17	180	0	0	0	0
121	162	the	the	the	11	preview	17	181	223	223	223	223
122	163	fight	fight	fight	11	preview	17	182	0	0	0	0
123	164	on	on	on	11	preview	17	183	208	208	208	208
124	165	Friday	Friday	Friday	11	preview	17	184	0	0	0	0
125	166	and	and	and	11	preview	17	185	188	188	188	188
126	167	put	put	put	11	preview	17	186	0	0	0	0
127	168	his	his	his	11	preview	17	187	154	154	154	154
128	169	phone	phone	phone	11	preview	17	188	0	0	0	0
129	170	in	in	in	11	preview	17	189	121	121	121	121
130	171	his	his	his	11	preview	17	190	0	0	0	0
131	172	shorts	shorts	shorts.	11	preview	17	191	154	154	154	154
	173	.	.		11	preview	17	192				
132	174	When	When	When	11	preview	17	193	0	0	0	0
133	175	he	he	he	11	preview	17	194	198	198	198	198
134	176	got	got	got	11	preview	17	195	160	0	0	0
135	177	to	to	to	11	preview	17	196	0	0	0	0
136	178	the	the	the	11	preview	17	197	252	252	412	252
137	179	ring	ring	ring,	11	preview	17	198	0	0	0	0
	180	,	,		11	preview	17	199				
138	181	he	he	he	11	preview	17	200	0	0	0	0
139	182	pulled	pulled	pulled	11	preview	17	201	0	0	0	0
140	183	out	out	out	11	preview	17	202	0	0	0	0
141	184	his	his	his	11	preview	17	203	0	0	0	0
142	185	headphones	headphones	headphones,	11	preview	17	204	0	0	0	0
	186	,	,		11	preview	17	205				
143	187	but	but	but	11	preview	17	206	0	0	0	0
144	188	missed	missed	missed	11	preview	17	207	260	0	0	0
145	189	his	his	his	11	preview	17	208	109	0	0	0
146	190	phone	phone	phone.	11	preview	17	209	190	0	0	0
	191	.	.		11	preview	17	210				
147	192	@entity4	Jones	Jones	11	preview	17	211	95	0	0	0
148	193	believes	believes	believes	11	preview	17	212	195	0	0	0
149	194	the	the	the	11	preview	17	213	0	0	0	0
150	195	mishap	mishap	mishap	11	preview	17	214	0	0	0	0
151	196	cost	cost	cost	11	preview	17	215	248	248	248	248
152	197	him	him	him	11	preview	17	216	0	0	0	0
153	198	the	the	the	11	preview	17	217	160	160	160	160
154	199	fight	fight	fight	11	preview	17	218	0	0	0	0
155	200	as	as	as	11	preview	17	219	239	239	239	239
156	201	he	he	he	11	preview	17	220	0	0	0	0
157	202	kept	kept	kept	11	preview	17	221	0	0	0	0
158	203	thinking	thinking	thinking,	11	preview	17	222	181	181	1030	181
	204	,	,		11	preview	17	223				
159	205	-	-	-Man,	11	preview	17	224	200	0	0	0
	206	Man	Man		11	preview	17	225				
	207	,	,		11	preview	17	226				
160	208	my	my	my	11	preview	17	227	0	0	0	0
161	209	cell	cell	cell	11	preview	17	228	233	0	0	0
162	210	phone	phone	phone	11	preview	17	229	0	0	0	0
163	211	just	just	just	11	preview	17	230	0	0	0	0
164	212	fell	fell	fell	11	preview	17	231	184	0	0	0
165	213	out	out	out	11	preview	17	232	0	0	0	0
166	214	in	in	in	11	preview	17	233	0	0	0	0
167	215	the	the	the	11	preview	17	234	265	0	0	0
168	216	ring	ring	ring	11	preview	17	235	270	270	270	270
169	217	–	–	-	11	preview	17	236	0	0	0	0
170	218	and	and	and	11	preview	17	237	0	0	0	0
171	219	on	on	on	11	preview	17	238	0	0	0	0
172	220	TV	TV	TV!-	11	preview	17	239	201	201	201	201
	221	!	!		11	preview	17	240				
	222	-	-		11	preview	17	241				
173	223	He	He	He	11	preview	17	242	0	0	0	0
174	224	has	has	has	11	preview	17	243	148	0	0	0
175	225	decided	decided	decided	11	preview	17	244	413	202	1645	202
176	226	that	that	that	11	preview	17	245	0	0	0	0
177	227	for	for	for	11	preview	17	246	0	0	0	0
178	228	his	his	his	11	preview	17	247	0	0	0	0
179	229	next	next	next	11	preview	17	248	0	0	0	0
180	230	fight	fight	fight	11	preview	17	249	0	0	0	0
181	231	he	he	he	11	preview	17	250	0	0	0	0
182	232	will	will	will	11	preview	17	251	0	0	0	0
183	233	make	make	make	11	preview	17	252	0	0	0	0
184	234	sure	sure	sure	11	preview	17	253	0	0	0	0
185	235	someone	someone	someone	11	preview	17	254	0	0	0	0
186	236	pats	pats	pats	11	preview	17	255	0	0	0	0
187	237	him	him	him	11	preview	17	256	0	0	0	0
188	238	down	down	down.	11	preview	17	257	0	0	0	0
	239	.	.		11	preview	17	258				
