HumanPosition	AnonymizedPosition	AnonymizedToken	OriginalToken	ExperimentToken	Participant	Condition	TextNo	JointPosition	tt	fp	rp	ff
1	0	(	(	The	11	preview	6	1	0	0	0	0
2	1	@entity0	CNN	underwater	11	preview	6	2	230	230	230	230
	2	)	)		11	preview	6	3				
	3	The	The		11	preview	6	4				
	4	underwater	underwater		11	preview	6	5				
3	5	search	search	search	11	preview	6	6	172	172	172	172
4	6	area	area	area	11	preview	6	7	0	0	0	0
5	7	for	for	for	11	preview	6	8	0	0	0	0
6	8	missing	missing	missing	11	preview	6	9	178	178	178	178
7	9	@entity2	Malaysia	Malaysia	11	preview	6	10	220	220	220	220
8			Airlines	Airlines	11	preview	6	11	0	0	0	0
9			Flight	Flight	11	preview	6	12	183	183	183	183
10			370	370	11	preview	6	13	127	0	0	0
11	10	looks	looks	looks	11	preview	6	14	137	137	264	137
12	11	set	set	set	11	preview	6	15	327	327	327	189
13	12	to	to	to	11	preview	6	16	0	0	0	0
14	13	double	double	double	11	preview	6	17	163	0	0	0
15	14	in	in	in	11	preview	6	18	162	162	325	162
16	15	size	size	size.	11	preview	6	19	188	0	0	0
	16	.	.		11	preview	6	20				
17	17	Teams	Teams	Teams	11	preview	6	21	234	234	422	234
18	18	are	are	are	11	preview	6	22	241	241	241	241
19	19	scouring	scouring	scouring	11	preview	6	23	267	267	267	267
20	20	the	the	the	11	preview	6	24	0	0	0	0
21	21	depths	depths	depths	11	preview	6	25	153	153	153	153
22	22	of	of	of	11	preview	6	26	0	0	0	0
23	23	a	a	a	11	preview	6	27	0	0	0	0
24	24	remote	remote	remote	11	preview	6	28	0	0	0	0
25	25	part	part	part	11	preview	6	29	276	276	276	276
26	26	of	of	of	11	preview	6	30	0	0	0	0
27	27	the	the	the	11	preview	6	31	0	0	0	0
28	28	southern	southern	southern	11	preview	6	32	0	0	0	0
29	29	@entity7	Indian	Indian	11	preview	6	33	0	0	0	0
30			Ocean	Ocean	11	preview	6	34	0	0	0	0
31	30	for	for	for	11	preview	6	35	0	0	0	0
32	31	the	the	the	11	preview	6	36	0	0	0	0
33	32	remains	remains	remains	11	preview	6	37	0	0	0	0
34	33	of	of	of	11	preview	6	38	0	0	0	0
35	34	the	the	the	11	preview	6	39	0	0	0	0
36	35	passenger	passenger	passenger	11	preview	6	40	0	0	0	0
37	36	jet	jet	jet	11	preview	6	41	347	0	0	0
38	37	that	that	that	11	preview	6	42	0	0	0	0
39	38	disappeared	disappeared	disappeared	11	preview	6	43	443	0	0	0
40	39	more	more	more	11	preview	6	44	0	0	0	0
41	40	than	than	than	11	preview	6	45	352	162	509	162
42	41	a	a	a	11	preview	6	46	0	0	0	0
43	42	year	year	year	11	preview	6	47	230	0	0	0
44	43	ago	ago	ago	11	preview	6	48	0	0	0	0
45	44	with	with	with	11	preview	6	49	0	0	0	0
46	45	239	239	239	11	preview	6	50	0	0	0	0
47	46	people	people	people	11	preview	6	51	0	0	0	0
48	47	on	on	on	11	preview	6	52	0	0	0	0
49	48	board	board	board.	11	preview	6	53	137	0	0	0
	49	.	.		11	preview	6	54				
50	50	So	So	So	11	preview	6	55	0	0	0	0
51	51	far	far	far,	11	preview	6	56	0	0	0	0
	52	,	,		11	preview	6	57				
52	53	they	they	they-ve	11	preview	6	58	175	0	0	0
	54	-ve	-ve		11	preview	6	59				
53	55	covered	covered	covered	11	preview	6	60	333	0	0	0
54	56	about	about	about	11	preview	6	61	209	0	0	0
55	57	60	60	60%	11	preview	6	62	518	190	1053	190
	58	%	%		11	preview	6	63				
56	59	of	of	of	11	preview	6	64	245	0	0	0
57	60	the	the	the	11	preview	6	65	0	0	0	0
58	61	priority	priority	priority	11	preview	6	66	188	0	0	0
59	62	search	search	search	11	preview	6	67	162	0	0	0
60	63	zone	zone	zone	11	preview	6	68	143	0	0	0
61	64	without	without	without	11	preview	6	69	252	0	0	0
62	65	reporting	reporting	reporting	11	preview	6	70	158	0	0	0
63	66	any	any	any	11	preview	6	71	0	0	0	0
64	67	trace	trace	trace	11	preview	6	72	320	156	2650	156
65	68	of	of	of	11	preview	6	73	0	0	0	0
66	69	the	the	the	11	preview	6	74	0	0	0	0
67	70	airliner	airliner	airliner.	11	preview	6	75	307	307	307	307
	71	.	.		11	preview	6	76				
68	72	Families	Families	Families	11	preview	6	77	269	269	269	269
69	73	of	of	of	11	preview	6	78	0	0	0	0
70	74	passengers	passengers	passengers	11	preview	6	79	223	223	223	223
71	75	and	and	and	11	preview	6	80	0	0	0	0
72	76	crew	crew	crew	11	preview	6	81	255	255	255	255
73	77	members	members	members	11	preview	6	82	164	164	164	164
74	78	still	still	still	11	preview	6	83	301	0	0	0
75	79	have	have	have	11	preview	6	84	0	0	0	0
76	80	no	no	no	11	preview	6	85	125	125	426	125
77	81	answers	answers	answers	11	preview	6	86	231	231	231	231
78	82	about	about	about	11	preview	6	87	0	0	0	0
79	83	what	what	what	11	preview	6	88	284	284	284	284
80	84	happened	happened	happened	11	preview	6	89	158	158	158	158
81	85	to	to	to	11	preview	6	90	0	0	0	0
82	86	their	their	their	11	preview	6	91	264	264	264	264
83	87	loved	loved	loved	11	preview	6	92	0	0	0	0
84	88	ones	ones	ones.	11	preview	6	93	0	0	0	0
	89	.	.		11	preview	6	94				
85	90	If	If	If	11	preview	6	95	0	0	0	0
86	91	the	the	the	11	preview	6	96	0	0	0	0
87	92	searchers	searchers	searchers	11	preview	6	97	346	346	346	346
88	93	have	have	haven-t	11	preview	6	98	195	0	0	0
	94	n-t	n-t		11	preview	6	99				
89	95	found	found	found	11	preview	6	100	128	128	323	128
90	96	anything	anything	anything	11	preview	6	101	192	192	192	192
91	97	by	by	by	11	preview	6	102	0	0	0	0
92	98	the	the	the	11	preview	6	103	0	0	0	0
93	99	time	time	time	11	preview	6	104	235	235	235	235
94	100	they	they	they-ve	11	preview	6	105	216	216	216	216
	101	-ve	-ve		11	preview	6	106				
95	102	covered	covered	covered	11	preview	6	107	0	0	0	0
96	103	the	the	the	11	preview	6	108	0	0	0	0
97	104	entire	entire	entire	11	preview	6	109	0	0	0	0
98	105	60,000	60,000	60,000-square-kilometer	11	preview	6	110	404	404	404	258
	106	-	-		11	preview	6	111				
	107	square	square		11	preview	6	112				
	108	-	-		11	preview	6	113				
	109	kilometer	kilometer		11	preview	6	114				
99	110	priority	priority	priority	11	preview	6	115	113	0	0	0
100	111	zone	zone	zone,	11	preview	6	116	131	131	244	131
	112	,	,		11	preview	6	117				
101	113	the	the	the	11	preview	6	118	0	0	0	0
102	114	search	search	search	11	preview	6	119	227	227	227	227
103	115	will	will	will	11	preview	6	120	0	0	0	0
104	116	stretch	stretch	stretch	11	preview	6	121	300	300	300	300
105	117	into	into	into	11	preview	6	122	227	227	227	227
106	118	a	a	a	11	preview	6	123	0	0	0	0
107	119	new	new	new	11	preview	6	124	168	0	0	0
108	120	equally	equally	equally	11	preview	6	125	128	128	128	128
109	121	vast	vast	vast	11	preview	6	126	485	225	653	225
110	122	area	area	area,	11	preview	6	127	0	0	0	0
	123	,	,		11	preview	6	128				
111	124	government	government	government	11	preview	6	129	348	348	348	188
112	125	officials	officials	officials	11	preview	6	130	450	450	450	450
113	126	from	from	from	11	preview	6	131	143	0	0	0
114	127	@entity23	Malaysia	Malaysia,	11	preview	6	132	345	207	207	207
	128	,	,		11	preview	6	133				
115	129	@entity24	Australia	Australia	11	preview	6	134	420	246	246	246
116	130	and	and	and	11	preview	6	135	0	0	0	0
117	131	@entity25	China	China	11	preview	6	136	162	0	0	0
118	132	announced	announced	announced	11	preview	6	137	415	205	660	205
119	133	Thursday	Thursday	Thursday.	11	preview	6	138	239	239	239	239
	134	.	.		11	preview	6	139				
120	135	-	-	-Ministers	11	preview	6	140	382	136	754	136
	136	Ministers	Ministers		11	preview	6	141				
121	137	remain	remain	remain	11	preview	6	142	0	0	0	0
122	138	committed	committed	committed	11	preview	6	143	0	0	0	0
123	139	to	to	to	11	preview	6	144	0	0	0	0
124	140	bring	bring	bring	11	preview	6	145	0	0	0	0
125	141	closure	closure	closure	11	preview	6	146	0	0	0	0
126	142	and	and	and	11	preview	6	147	0	0	0	0
127	143	some	some	some	11	preview	6	148	0	0	0	0
128	144	peace	peace	peace	11	preview	6	149	0	0	0	0
129	145	to	to	to	11	preview	6	150	0	0	0	0
130	146	the	the	the	11	preview	6	151	0	0	0	0
131	147	families	families	families	11	preview	6	152	0	0	0	0
132	148	and	and	and	11	preview	6	153	0	0	0	0
133	149	loved	loved	loved	11	preview	6	154	0	0	0	0
134	150	ones	ones	ones	11	preview	6	155	0	0	0	0
135	151	of	of	of	11	preview	6	156	0	0	0	0
136	152	those	those	those	11	preview	6	157	0	0	0	0
137	153	on	on	on	11	preview	6	158	0	0	0	0
138	154	board	board	board	11	preview	6	159	0	0	0	0
139	155	@entity2	Malaysia	Malaysia	11	preview	6	160	0	0	0	0
140			Airlines	Airlines	11	preview	6	161	0	0	0	0
141			Flight	Flight	11	preview	6	162	0	0	0	0
142			MH370	MH370,-	11	preview	6	163	0	0	0	0
	156	,	,		11	preview	6	164				
	157	-	-		11	preview	6	165				
143	158	the	the	the	11	preview	6	166	0	0	0	0
144	159	three	three	three	11	preview	6	167	0	0	0	0
145	160	countries	countries	countries	11	preview	6	168	0	0	0	0
146	161	said	said	said	11	preview	6	169	0	0	0	0
147	162	in	in	in	11	preview	6	170	0	0	0	0
148	163	a	a	a	11	preview	6	171	0	0	0	0
149	164	joint	joint	joint	11	preview	6	172	0	0	0	0
150	165	statement	statement	statement.	11	preview	6	173	0	0	0	0
	166	.	.		11	preview	6	174				
151	167	The	The	The	11	preview	6	175	0	0	0	0
152	168	search	search	search	11	preview	6	176	0	0	0	0
153	169	of	of	of	11	preview	6	177	0	0	0	0
154	170	the	the	the	11	preview	6	178	0	0	0	0
155	171	current	current	current	11	preview	6	179	0	0	0	0
156	172	priority	priority	priority	11	preview	6	180	0	0	0	0
157	173	zone	zone	zone	11	preview	6	181	0	0	0	0
158	174	is	is	is	11	preview	6	182	0	0	0	0
159	175	expected	expected	expected	11	preview	6	183	0	0	0	0
160	176	to	to	to	11	preview	6	184	0	0	0	0
161	177	be	be	be	11	preview	6	185	0	0	0	0
162	178	completed	completed	completed	11	preview	6	186	0	0	0	0
163	179	in	in	in	11	preview	6	187	0	0	0	0
164	180	May	May	May.	11	preview	6	188	0	0	0	0
	181	.	.		11	preview	6	189				
165	182	Covering	Covering	Covering	11	preview	6	190	0	0	0	0
166	183	the	the	the	11	preview	6	191	0	0	0	0
167	184	new	new	new	11	preview	6	192	0	0	0	0
168	185	zone	zone	zone	11	preview	6	193	0	0	0	0
169	186	could	could	could	11	preview	6	194	0	0	0	0
170	187	take	take	take	11	preview	6	195	120	0	0	0
171	188	as	as	as	11	preview	6	196	218	0	0	0
172	189	long	long	long	11	preview	6	197	345	0	0	0
173	190	as	as	as	11	preview	6	198	0	0	0	0
174	191	a	a	a	11	preview	6	199	0	0	0	0
175	192	year	year	year.	11	preview	6	200	0	0	0	0
	193	.	.		11	preview	6	201				
176	194	At	At	At	11	preview	6	202	228	0	0	0
177	195	that	that	that	11	preview	6	203	215	0	0	0
178	196	point	point	point,	11	preview	6	204	160	0	0	0
	197	,	,		11	preview	6	205				
179	198	-	-	-all	11	preview	6	206	0	0	0	0
	199	all	all		11	preview	6	207				
180	200	high	high	high	11	preview	6	208	453	0	0	0
181	201	probability	probability	probability	11	preview	6	209	159	0	0	0
182	202	search	search	search	11	preview	6	210	199	0	0	0
183	203	areas	areas	areas	11	preview	6	211	136	0	0	0
184	204	would	would	would	11	preview	6	212	173	0	0	0
185	205	have	have	have	11	preview	6	213	0	0	0	0
186	206	been	been	been	11	preview	6	214	0	0	0	0
187	207	covered	covered	covered,-	11	preview	6	215	186	0	0	0
	208	,	,		11	preview	6	216				
	209	-	-		11	preview	6	217				
188	210	the	the	the	11	preview	6	218	0	0	0	0
189	211	governments	governments	governments	11	preview	6	219	492	0	0	0
190	212	said	said	said	11	preview	6	220	0	0	0	0
191	213	Thursday	Thursday	Thursday.	11	preview	6	221	423	0	0	0
	214	.	.		11	preview	6	222				
192	215	The	The	The	11	preview	6	223	0	0	0	0
193	216	size	size	size	11	preview	6	224	197	0	0	0
194	217	of	of	of	11	preview	6	225	0	0	0	0
195	218	the	the	the	11	preview	6	226	0	0	0	0
196	219	doubled	doubled	doubled	11	preview	6	227	451	0	0	0
197	220	search	search	search	11	preview	6	228	630	234	3938	234
198	221	area	area	area,	11	preview	6	229	635	0	0	0
	222	,	,		11	preview	6	230				
199	223	the	the	the	11	preview	6	231	496	0	0	0
200	224	equivalent	equivalent	equivalent	11	preview	6	232	517	0	0	0
201	225	of	of	of	11	preview	6	233	0	0	0	0
202	226	more	more	more	11	preview	6	234	156	0	0	0
203	227	than	than	than	11	preview	6	235	0	0	0	0
204	228	46,000	46,000	46,000	11	preview	6	236	353	0	0	0
205	229	square	square	square	11	preview	6	237	0	0	0	0
206	230	miles	miles	miles,	11	preview	6	238	216	0	0	0
	231	,	,		11	preview	6	239				
207	232	would	would	would	11	preview	6	240	0	0	0	0
208	233	be	be	be	11	preview	6	241	190	0	0	0
209	234	bigger	bigger	bigger	11	preview	6	242	345	161	3755	161
210	235	than	than	than	11	preview	6	243	169	0	0	0
211	236	the	the	the	11	preview	6	244	0	0	0	0
212	237	@entity50	U.S.	U.S.	11	preview	6	245	155	155	324	155
213	238	state	state	state	11	preview	6	246	257	257	257	257
214	239	of	of	of	11	preview	6	247	0	0	0	0
215	240	@entity51	Pennsylvania	Pennsylvania.	11	preview	6	248	175	175	175	175
	241	.	.		11	preview	6	249				
216	242	Flight	Flight	Flight	11	preview	6	250	275	0	0	0
217	243	370	370	370	11	preview	6	251	164	164	439	164
218	244	vanished	vanished	vanished	11	preview	6	252	213	213	213	213
219	245	after	after	after	11	preview	6	253	0	0	0	0
220	246	taking	taking	taking	11	preview	6	254	0	0	0	0
221	247	off	off	off	11	preview	6	255	0	0	0	0
222	248	from	from	from	11	preview	6	256	0	0	0	0
223	249	@entity53	Kuala	Kuala	11	preview	6	257	361	361	361	361
224			Lumpur	Lumpur,	11	preview	6	258	0	0	0	0
	250	,	,		11	preview	6	259				
225	251	@entity23	Malaysia	Malaysia,	11	preview	6	260	270	270	270	270
	252	,	,		11	preview	6	261				
226	253	on	on	on	11	preview	6	262	0	0	0	0
227	254	March	March	March	11	preview	6	263	193	193	193	193
228	255	8	8	8,	11	preview	6	264	0	0	0	0
	256	,	,		11	preview	6	265				
229	257	2014	2014	2014,	11	preview	6	266	149	0	0	0
	258	,	,		11	preview	6	267				
230	259	bound	bound	bound	11	preview	6	268	294	0	0	0
231	260	for	for	for	11	preview	6	269	143	143	285	143
232	261	@entity54	Beijing	Beijing.	11	preview	6	270	0	0	0	0
	262	.	.		11	preview	6	271				
233	263	Officials	Officials	Officials	11	preview	6	272	950	268	1251	175
234	264	are	are	are	11	preview	6	273	0	0	0	0
235	265	still	still	still	11	preview	6	274	233	233	233	233
236	266	trying	trying	trying	11	preview	6	275	167	167	167	167
237	267	to	to	to	11	preview	6	276	0	0	0	0
238	268	figure	figure	figure	11	preview	6	277	278	278	278	278
239	269	out	out	out	11	preview	6	278	0	0	0	0
240	270	why	why	why	11	preview	6	279	172	172	172	172
241	271	it	it	it	11	preview	6	280	0	0	0	0
242	272	veered	veered	veered	11	preview	6	281	477	256	256	256
243	273	dramatically	dramatically	dramatically	11	preview	6	282	200	200	421	200
244	274	off	off	off	11	preview	6	283	0	0	0	0
245	275	course	course	course	11	preview	6	284	242	242	242	242
246	276	over	over	over	11	preview	6	285	160	160	160	160
247	277	the	the	the	11	preview	6	286	0	0	0	0
248	278	sea	sea	sea	11	preview	6	287	0	0	0	0
249	279	between	between	between	11	preview	6	288	0	0	0	0
250	280	@entity23	Malaysia	Malaysia	11	preview	6	289	0	0	0	0
251	281	and	and	and	11	preview	6	290	0	0	0	0
252	282	@entity58	Vietnam	Vietnam	11	preview	6	291	158	0	0	0
253	283	and	and	and	11	preview	6	292	138	138	296	138
254	284	where	where	where	11	preview	6	293	0	0	0	0
255	285	exactly	exactly	exactly	11	preview	6	294	153	153	153	153
256	286	it	it	it	11	preview	6	295	0	0	0	0
257	287	ended	ended	ended	11	preview	6	296	0	0	0	0
258	288	up	up	up.	11	preview	6	297	186	186	186	186
	289	.	.		11	preview	6	298				
259	290	An	An	An	11	preview	6	299	0	0	0	0
260	291	international	international	international	11	preview	6	300	450	227	227	227
261	292	team	team	team	11	preview	6	301	254	254	477	254
262	293	of	of	of	11	preview	6	302	213	213	213	213
263	294	experts	experts	experts	11	preview	6	303	190	190	190	190
264	295	used	used	used	11	preview	6	304	137	137	137	137
265	296	satellite	satellite	satellite	11	preview	6	305	251	0	0	0
266	297	data	data	data	11	preview	6	306	128	128	379	128
267	298	to	to	to	11	preview	6	307	0	0	0	0
268	299	calculate	calculate	calculate	11	preview	6	308	0	0	0	0
269	300	that	that	that	11	preview	6	309	0	0	0	0
270	301	the	the	the	11	preview	6	310	0	0	0	0
271	302	plane	plane	plane	11	preview	6	311	0	0	0	0
272	303	eventually	eventually	eventually	11	preview	6	312	0	0	0	0
273	304	went	went	went	11	preview	6	313	0	0	0	0
274	305	down	down	down	11	preview	6	314	0	0	0	0
275	306	in	in	in	11	preview	6	315	0	0	0	0
276	307	the	the	the	11	preview	6	316	0	0	0	0
277	308	southern	southern	southern	11	preview	6	317	0	0	0	0
278	309	@entity7	Indian	Indian	11	preview	6	318	0	0	0	0
279			Ocean	Ocean,	11	preview	6	319	138	138	138	138
	310	,	,		11	preview	6	320				
280	311	far	far	far	11	preview	6	321	0	0	0	0
281	312	off	off	off	11	preview	6	322	177	177	177	177
282	313	the	the	the	11	preview	6	323	0	0	0	0
283	314	coast	coast	coast	11	preview	6	324	0	0	0	0
284	315	of	of	of	11	preview	6	325	141	141	141	141
285	316	@entity24	Western	Western	11	preview	6	326	0	0	0	0
286			Australia	Australia.	11	preview	6	327	0	0	0	0
	317	.	.		11	preview	6	328				
287	318	The	The	The	11	preview	6	329	0	0	0	0
288	319	people	people	people	11	preview	6	330	201	201	201	201
289	320	on	on	on	11	preview	6	331	0	0	0	0
290	321	board	board	board	11	preview	6	332	203	203	203	203
291	322	the	the	the	11	preview	6	333	0	0	0	0
292	323	@entity64	Boeing	Boeing	11	preview	6	334	145	145	145	145
293			777	777	11	preview	6	335	0	0	0	0
294	324	came	came	came	11	preview	6	336	171	171	171	171
295	325	from	from	from	11	preview	6	337	0	0	0	0
296	326	various	various	various	11	preview	6	338	0	0	0	0
297	327	nations	nations	nations,	11	preview	6	339	157	157	157	157
	328	,	,		11	preview	6	340				
298	329	but	but	but	11	preview	6	341	0	0	0	0
299	330	the	the	the	11	preview	6	342	0	0	0	0
300	331	majority	majority	majority	11	preview	6	343	112	112	112	112
301	332	were	were	were	11	preview	6	344	0	0	0	0
302	333	@entity25	Chinese	Chinese.	11	preview	6	345	0	0	0	0
	334	.	.		11	preview	6	346				
