HumanPosition	AnonymizedPosition	AnonymizedToken	OriginalToken	ExperimentToken	Participant	Condition	TextNo	JointPosition	tt	fp	rp	ff
1	0	This	This	This	11	nopreview	16	1	243	0	0	0
2	1	is	is	is	11	nopreview	16	2	0	0	0	0
3	2	the	the	the	11	nopreview	16	3	146	0	0	0
4	3	shocking	shocking	shocking	11	nopreview	16	4	187	0	0	0
5	4	moment	moment	moment	11	nopreview	16	5	283	0	0	0
6	5	a	a	a	11	nopreview	16	6	0	0	0	0
7	6	pit	pit	pit	11	nopreview	16	7	495	0	0	0
8	7	crew	crew	crew	11	nopreview	16	8	290	0	0	0
9	8	member	member	member	11	nopreview	16	9	291	0	0	0
10	9	was	was	was	11	nopreview	16	10	0	0	0	0
11	10	hit	hit	hit	11	nopreview	16	11	153	0	0	0
12	11	by	by	by	11	nopreview	16	12	194	0	0	0
13	12	a	a	a	11	nopreview	16	13	0	0	0	0
14	13	car	car	car	11	nopreview	16	14	294	0	0	0
15	14	on	on	on	11	nopreview	16	15	0	0	0	0
16	15	Sunday	Sunday	Sunday	11	nopreview	16	16	315	0	0	0
17	16	during	during	during	11	nopreview	16	17	352	0	0	0
18	17	the	the	the	11	nopreview	16	18	0	0	0	0
19	18	inaugural	inaugural	inaugural	11	nopreview	16	19	557	104	3800	104
20	19	@entity4	IndyCar	IndyCar	11	nopreview	16	20	505	505	505	311
21	20	@entity3	Grand	Grand	11	nopreview	16	21	299	299	299	299
22			Prix	Prix	11	nopreview	16	22	219	219	219	219
23	21	of	of	of	11	nopreview	16	23	0	0	0	0
24	22	@entity5	Louisiana	Louisiana.	11	nopreview	16	24	329	329	329	189
	23	.	.		11	nopreview	16	25				
25	24	@entity6	Todd	Todd	11	nopreview	16	26	0	0	0	0
26			Phillips	Phillips,	11	nopreview	16	27	476	476	476	338
	25	,	,		11	nopreview	16	28				
27	26	a	a	a	11	nopreview	16	29	0	0	0	0
28	27	front	front	front-outside	11	nopreview	16	30	672	485	485	145
	28	-	-		11	nopreview	16	31				
	29	outside	outside		11	nopreview	16	32				
29	30	tire	tire	tire	11	nopreview	16	33	282	153	469	153
30	31	changer	changer	changer	11	nopreview	16	34	306	306	306	105
31	32	for	for	for	11	nopreview	16	35	173	173	173	173
32	33	@entity8	Dayle	Dayle	11	nopreview	16	36	285	285	285	285
33			Coyne	Coyne	11	nopreview	16	37	148	148	148	148
34			Racing	Racing,	11	nopreview	16	38	0	0	0	0
	34	,	,		11	nopreview	16	39				
35	35	was	was	was	11	nopreview	16	40	0	0	0	0
36	36	injured	injured	injured	11	nopreview	16	41	407	407	407	254
37	37	when	when	when	11	nopreview	16	42	233	233	233	233
38	38	he	he	he	11	nopreview	16	43	0	0	0	0
39	39	was	was	was	11	nopreview	16	44	155	155	155	155
40	40	struck	struck	struck	11	nopreview	16	45	759	759	759	155
41	41	by	by	by	11	nopreview	16	46	182	182	182	182
42	42	the	the	the	11	nopreview	16	47	0	0	0	0
43	43	car	car	car	11	nopreview	16	48	271	271	271	271
44	44	of	of	of	11	nopreview	16	49	180	180	180	180
45	45	@entity10	Francesco	Francesco	11	nopreview	16	50	256	0	0	0
46			Dracone	Dracone,	11	nopreview	16	51	326	84	582	84
	46	,	,		11	nopreview	16	52				
47	47	who	who	who	11	nopreview	16	53	0	0	0	0
48	48	had	had	had	11	nopreview	16	54	524	524	524	361
49	49	come	come	come	11	nopreview	16	55	275	275	275	275
50	50	in	in	in	11	nopreview	16	56	138	138	138	138
51	51	on	on	on	11	nopreview	16	57	0	0	0	0
52	52	Lap	Lap	Lap	11	nopreview	16	58	387	241	241	241
53	53	25	25	25	11	nopreview	16	59	152	152	152	152
54	54	for	for	for	11	nopreview	16	60	202	202	202	202
55	55	tyres	tyres	tyres	11	nopreview	16	61	614	163	309	163
56	56	and	and	and	11	nopreview	16	62	179	179	630	179
57	57	fuel	fuel	fuel.	11	nopreview	16	63	237	237	237	237
	58	.	.		11	nopreview	16	64				
58	59	@entity10	Dracone	Dracone	11	nopreview	16	65	589	589	589	368
59	60	spun	spun	spun	11	nopreview	16	66	316	316	316	316
60	61	while	while	while	11	nopreview	16	67	0	0	0	0
61	62	exiting	exiting	exiting	11	nopreview	16	68	959	959	959	150
62	63	his	his	his	11	nopreview	16	69	230	230	230	230
63	64	put	put	put	11	nopreview	16	70	463	328	328	188
64	65	box	box	box,	11	nopreview	16	71	236	236	371	236
	66	,	,		11	nopreview	16	72				
65	67	clipping	clipping	clipping	11	nopreview	16	73	353	353	353	353
66	68	@entity15	Phillips	Phillips-	11	nopreview	16	74	221	221	221	221
	69	-	-		11	nopreview	16	75				
67	70	leg	leg	leg.	11	nopreview	16	76	207	207	207	207
	71	.	.		11	nopreview	16	77				
68	72	@entity6	Todd	Phillips	11	nopreview	16	78	230	230	230	230
			Phillips		11	nopreview	16	79				
69	73	waits	waits	was	11	nopreview	16	80	0	0	0	0
70	74	in	in	taken	11	nopreview	16	81	323	323	323	156
	75	the	the		11	nopreview	16	82				
71	76	pit	pit	to	11	nopreview	16	83	0	0	0	0
72	77	lane	lane	the	11	nopreview	16	84	193	193	193	193
73	78	as	as	infield	11	nopreview	16	85	173	173	173	173
	79	the	the		11	nopreview	16	86				
	80	car	car		11	nopreview	16	87				
	81	makes	makes		11	nopreview	16	88				
	82	a	a		11	nopreview	16	89				
	83	stop	stop		11	nopreview	16	90				
	84	during	during		11	nopreview	16	91				
	85	the	the		11	nopreview	16	92				
	86	race	race		11	nopreview	16	93				
	87	in	in		11	nopreview	16	94				
	88	@entity5	Louisiana		11	nopreview	16	95				
	89	The	The		11	nopreview	16	96				
	90	car	car		11	nopreview	16	97				
	91	of	of		11	nopreview	16	98				
	92	@entity10	Francesco		11	nopreview	16	99				
			Dracone		11	nopreview	16	100				
	93	spun	spun		11	nopreview	16	101				
	94	out	out		11	nopreview	16	102				
	95	of	of		11	nopreview	16	103				
	96	control	control		11	nopreview	16	104				
	97	in	in		11	nopreview	16	105				
	98	the	the		11	nopreview	16	106				
	99	wet	wet		11	nopreview	16	107				
	100	conditions	conditions		11	nopreview	16	108				
	101	as	as		11	nopreview	16	109				
	102	@entity6	Phillips		11	nopreview	16	110				
	103	tried	tried		11	nopreview	16	111				
	104	to	to		11	nopreview	16	112				
	105	get	get		11	nopreview	16	113				
	106	out	out		11	nopreview	16	114				
	107	the	the		11	nopreview	16	115				
	108	way	way		11	nopreview	16	116				
	109	The	The		11	nopreview	16	117				
	110	rear	rear		11	nopreview	16	118				
	111	end	end		11	nopreview	16	119				
	112	of	of		11	nopreview	16	120				
	113	the	the		11	nopreview	16	121				
	114	car	car		11	nopreview	16	122				
	115	made	made		11	nopreview	16	123				
	116	contact	contact		11	nopreview	16	124				
	117	with	with		11	nopreview	16	125				
	118	the	the		11	nopreview	16	126				
	119	pit	pit		11	nopreview	16	127				
	120	crew	crew		11	nopreview	16	128				
	121	worker	worker		11	nopreview	16	129				
	122	sweeping	sweeping		11	nopreview	16	130				
	123	his	his		11	nopreview	16	131				
	124	legs	legs		11	nopreview	16	132				
	125	from	from		11	nopreview	16	133				
	126	underneath	underneath		11	nopreview	16	134				
	127	him	him		11	nopreview	16	135				
	128	@entity6	Phillips		11	nopreview	16	136				
	129	was	was		11	nopreview	16	137				
	130	flipped	flipped		11	nopreview	16	138				
	131	upside	upside		11	nopreview	16	139				
	132	down	down		11	nopreview	16	140				
	133	by	by		11	nopreview	16	141				
	134	the	the		11	nopreview	16	142				
	135	force	force		11	nopreview	16	143				
	136	of	of		11	nopreview	16	144				
	137	the	the		11	nopreview	16	145				
	138	car	car		11	nopreview	16	146				
	139	but	but		11	nopreview	16	147				
	140	escaped	escaped		11	nopreview	16	148				
	141	only	only		11	nopreview	16	149				
	142	with	with		11	nopreview	16	150				
	143	minor	minor		11	nopreview	16	151				
	144	injuries	injuries		11	nopreview	16	152				
	145	@entity6	Phillips		11	nopreview	16	153				
	146	was	was		11	nopreview	16	154				
	147	taken	taken		11	nopreview	16	155				
	148	to	to		11	nopreview	16	156				
	149	the	the		11	nopreview	16	157				
	150	infield	infield		11	nopreview	16	158				
74	151	care	care	care	11	nopreview	16	159	166	166	166	166
75	152	center	center	center	11	nopreview	16	160	343	343	343	343
76	153	for	for	for	11	nopreview	16	161	0	0	0	0
77	154	treatment	treatment	treatment	11	nopreview	16	162	308	308	308	308
78	155	where	where	where	11	nopreview	16	163	150	150	150	150
79	156	he	he	he	11	nopreview	16	164	153	153	153	153
80	157	has	has	has	11	nopreview	16	165	0	0	0	0
81	158	received	received	received	11	nopreview	16	166	338	338	338	160
82	159	stitches	stitches	stitches	11	nopreview	16	167	179	179	179	179
83	160	for	for	for	11	nopreview	16	168	0	0	0	0
84	161	a	a	a	11	nopreview	16	169	164	164	164	164
85	162	cut	cut	cut	11	nopreview	16	170	182	182	182	182
86	163	on	on	on	11	nopreview	16	171	0	0	0	0
87	164	his	his	his	11	nopreview	16	172	299	299	299	299
88	165	leg	leg	leg	11	nopreview	16	173	115	115	115	115
89	166	and	and	and	11	nopreview	16	174	0	0	0	0
90	167	has	has	has	11	nopreview	16	175	154	154	154	154
91	168	been	been	been	11	nopreview	16	176	208	208	208	208
92	169	released	released	released.	11	nopreview	16	177	278	278	278	278
	170	.	.		11	nopreview	16	178				
93	171	Many	Many	Many	11	nopreview	16	179	191	191	191	191
94	172	cars	cars	cars	11	nopreview	16	180	372	372	372	372
95	173	struggled	struggled	struggled	11	nopreview	16	181	339	339	339	198
96	174	with	with	with	11	nopreview	16	182	207	207	207	207
97	175	traction	traction	traction	11	nopreview	16	183	207	207	207	207
98	176	during	during	during	11	nopreview	16	184	312	312	312	312
99	177	the	the	the	11	nopreview	16	185	167	167	167	167
100	178	race	race	race	11	nopreview	16	186	181	181	181	181
101	179	after	after	after	11	nopreview	16	187	576	576	576	576
102	180	rain	rain	rain	11	nopreview	16	188	0	0	0	0
103	181	had	had	had	11	nopreview	16	189	163	163	163	163
104	182	fallen	fallen	fallen	11	nopreview	16	190	210	210	210	210
105	183	for	for	for	11	nopreview	16	191	118	118	118	118
106	184	hours	hours	hours	11	nopreview	16	192	331	331	331	162
107	185	leading	leading	leading	11	nopreview	16	193	335	335	335	335
108	186	up	up	up	11	nopreview	16	194	476	241	241	241
109	187	to	to	to	11	nopreview	16	195	224	0	0	0
110	188	the	the	the	11	nopreview	16	196	311	311	311	311
111	189	green	green	green	11	nopreview	16	197	515	377	974	377
112	190	flag	flag	flag.	11	nopreview	16	198	0	0	0	0
	191	.	.		11	nopreview	16	199				
113	192	@entity10	Dracone	Dracone	11	nopreview	16	200	340	340	340	184
114	193	did	did	did	11	nopreview	16	201	213	213	213	213
115	194	not	not	not	11	nopreview	16	202	0	0	0	0
116	195	finish	finish	finish	11	nopreview	16	203	203	203	203	203
117	196	the	the	the	11	nopreview	16	204	0	0	0	0
118	197	race	race	race	11	nopreview	16	205	364	364	364	182
119	198	and	and	and	11	nopreview	16	206	0	0	0	0
120	199	wound	wound	wound	11	nopreview	16	207	318	318	318	197
121	200	up	up	up	11	nopreview	16	208	253	253	253	253
122	201	23rd	23rd	23rd.	11	nopreview	16	209	0	0	0	0
	202	.	.		11	nopreview	16	210				
