HumanPosition	AnonymizedPosition	AnonymizedToken	OriginalToken	ExperimentToken	Participant	Condition	TextNo	JointPosition	tt	fp	rp	ff
1	0	(	(	Blues	11	nopreview	5	1	139	139	139	139
	1	@entity2	CNN		11	nopreview	5	2				
	2	)	)		11	nopreview	5	3				
	3	@entity1	Blues		11	nopreview	5	4				
2	4	legend	legend	legend	11	nopreview	5	5	338	338	338	338
3	5	@entity0	B.B.	B.B.	11	nopreview	5	6	0	0	0	0
4			King	King	11	nopreview	5	7	226	226	226	226
5	6	was	was	was	11	nopreview	5	8	0	0	0	0
6	7	hospitalized	hospitalized	hospitalized	11	nopreview	5	9	349	349	349	220
7	8	for	for	for	11	nopreview	5	10	122	122	122	122
8	9	dehydration	dehydration	dehydration,	11	nopreview	5	11	0	0	0	0
	10	,	,		11	nopreview	5	12				
9	11	though	though	though	11	nopreview	5	13	130	130	130	130
10	12	the	the	the	11	nopreview	5	14	0	0	0	0
11	13	ailment	ailment	ailment	11	nopreview	5	15	415	415	415	200
12	14	did	did	didn-t	11	nopreview	5	16	0	0	0	0
	15	n-t	n-t		11	nopreview	5	17				
13	16	keep	keep	keep	11	nopreview	5	18	423	423	423	203
14	17	him	him	him	11	nopreview	5	19	0	0	0	0
15	18	out	out	out	11	nopreview	5	20	381	195	195	195
16	19	for	for	for	11	nopreview	5	21	351	234	537	234
17	20	long	long	long.	11	nopreview	5	22	263	0	0	0
	21	.	.		11	nopreview	5	23				
18	22	@entity0	King	King-s	11	nopreview	5	24	672	124	935	124
	23	-s	-s		11	nopreview	5	25				
19	24	dehydration	dehydration	dehydration	11	nopreview	5	26	195	195	195	195
20	25	was	was	was	11	nopreview	5	27	321	321	321	133
21	26	caused	caused	caused	11	nopreview	5	28	237	237	237	237
22	27	by	by	by	11	nopreview	5	29	344	344	344	236
23	28	his	his	his	11	nopreview	5	30	0	0	0	0
24	29	Type	Type	Type	11	nopreview	5	31	208	208	208	208
25	30	II	II	II	11	nopreview	5	32	191	191	191	191
26	31	diabetes	diabetes	diabetes,	11	nopreview	5	33	257	257	257	257
	32	,	,		11	nopreview	5	34				
27	33	but	but	but	11	nopreview	5	35	0	0	0	0
28	34	he	he	he	11	nopreview	5	36	177	177	177	177
29	35	-	-	-is	11	nopreview	5	37	163	163	163	163
	36	is	is		11	nopreview	5	38				
30	37	much	much	much	11	nopreview	5	39	256	256	256	256
31	38	better	better	better,-	11	nopreview	5	40	145	145	145	145
	39	,	,		11	nopreview	5	41				
	40	-	-		11	nopreview	5	42				
32	41	his	his	his	11	nopreview	5	43	751	439	439	166
33	42	daughter	daughter	daughter,	11	nopreview	5	44	353	0	0	0
	43	,	,		11	nopreview	5	45				
34	44	@entity6	Claudette	Claudette	11	nopreview	5	46	420	420	420	420
35			King	King,	11	nopreview	5	47	772	294	294	294
	45	,	,		11	nopreview	5	48				
36	46	told	told	told	11	nopreview	5	49	361	361	361	361
37	47	the	the	the	11	nopreview	5	50	158	158	158	158
38	48	@entity9	Los	Los	11	nopreview	5	51	603	603	603	603
39			Angeles	Angeles	11	nopreview	5	52	335	335	335	91
40			Times	Times.	11	nopreview	5	53	372	372	372	274
	49	.	.		11	nopreview	5	54				
41	50	The	The	The	11	nopreview	5	55	876	876	876	394
42	51	legendary	legendary	legendary	11	nopreview	5	56	157	157	157	157
43	52	guitarist	guitarist	guitarist	11	nopreview	5	57	136	136	136	136
44	53	and	and	and	11	nopreview	5	58	300	300	300	300
45	54	vocalist	vocalist	vocalist	11	nopreview	5	59	154	154	154	154
46	55	released	released	released	11	nopreview	5	60	0	0	0	0
47	56	a	a	a	11	nopreview	5	61	314	314	314	314
48	57	statement	statement	statement	11	nopreview	5	62	231	0	0	0
49	58	thanking	thanking	thanking	11	nopreview	5	63	444	136	1818	136
50	59	those	those	those	11	nopreview	5	64	307	307	307	307
51	60	who	who	who	11	nopreview	5	65	234	234	234	234
52	61	have	have	have	11	nopreview	5	66	0	0	0	0
53	62	expressed	expressed	expressed	11	nopreview	5	67	163	163	163	163
54	63	their	their	their	11	nopreview	5	68	183	183	183	183
55	64	concerns	concerns	concerns.	11	nopreview	5	69	0	0	0	0
	65	.	.		11	nopreview	5	70				
56	66	-	-	-I-m	11	nopreview	5	71	492	492	492	219
	67	I	I		11	nopreview	5	72				
	68	-m	-m		11	nopreview	5	73				
57	69	feeling	feeling	feeling	11	nopreview	5	74	182	182	182	182
58	70	much	much	much	11	nopreview	5	75	354	354	354	354
59	71	better	better	better	11	nopreview	5	76	183	183	183	183
60	72	and	and	and	11	nopreview	5	77	242	242	242	242
61	73	am	am	am	11	nopreview	5	78	388	388	388	134
62	74	leaving	leaving	leaving	11	nopreview	5	79	252	252	252	252
63	75	the	the	the	11	nopreview	5	80	255	255	255	255
64	76	hospital	hospital	hospital	11	nopreview	5	81	0	0	0	0
65	77	today	today	today,-	11	nopreview	5	82	190	190	190	190
	78	,	,		11	nopreview	5	83				
	79	-	-		11	nopreview	5	84				
66	80	@entity0	King	King	11	nopreview	5	85	0	0	0	0
67	81	said	said	said	11	nopreview	5	86	318	318	318	318
68	82	in	in	in	11	nopreview	5	87	138	138	138	138
69	83	a	a	a	11	nopreview	5	88	248	248	248	248
70	84	message	message	message	11	nopreview	5	89	0	0	0	0
71	85	Tuesday	Tuesday	Tuesday.	11	nopreview	5	90	157	157	157	157
	86	.	.		11	nopreview	5	91				
72	87	@entity17	Angela	Angela	11	nopreview	5	92	598	598	598	598
73			Moore	Moore,	11	nopreview	5	93	642	642	642	332
	88	,	,		11	nopreview	5	94				
74	89	a	a	a	11	nopreview	5	95	0	0	0	0
75	90	publicist	publicist	publicist	11	nopreview	5	96	302	302	302	136
76	91	for	for	for	11	nopreview	5	97	288	288	288	288
77	92	@entity6	Claudette	Claudette	11	nopreview	5	98	220	220	220	220
78			King	King,	11	nopreview	5	99	751	751	751	168
	93	,	,		11	nopreview	5	100				
79	94	said	said	said	11	nopreview	5	101	0	0	0	0
80	95	later	later	later	11	nopreview	5	102	432	432	432	179
81	96	in	in	in	11	nopreview	5	103	0	0	0	0
82	97	the	the	the	11	nopreview	5	104	249	249	249	249
83	98	day	day	day	11	nopreview	5	105	244	244	244	244
84	99	that	that	that	11	nopreview	5	106	0	0	0	0
85	100	he	he	he	11	nopreview	5	107	360	360	360	193
86	101	was	was	was	11	nopreview	5	108	181	181	181	181
87	102	back	back	back	11	nopreview	5	109	202	202	202	202
88	103	home	home	home	11	nopreview	5	110	211	211	211	211
89	104	resting	resting	resting	11	nopreview	5	111	0	0	0	0
90	105	and	and	and	11	nopreview	5	112	0	0	0	0
91	106	enjoying	enjoying	enjoying	11	nopreview	5	113	446	0	0	0
92	107	time	time	time	11	nopreview	5	114	255	103	542	103
93	108	with	with	with	11	nopreview	5	115	0	0	0	0
94	109	his	his	his	11	nopreview	5	116	325	325	325	325
95	110	grandchildren	grandchildren	grandchildren.	11	nopreview	5	117	329	329	329	329
	111	.	.		11	nopreview	5	118				
96	112	-	-	-He	11	nopreview	5	119	193	193	193	193
	113	He	He		11	nopreview	5	120				
97	114	was	was	was	11	nopreview	5	121	134	134	134	134
98	115	struggling	struggling	struggling	11	nopreview	5	122	0	0	0	0
99	116	before	before	before,	11	nopreview	5	123	0	0	0	0
	117	,	,		11	nopreview	5	124				
100	118	and	and	and	11	nopreview	5	125	486	486	486	187
101	119	he	he	he	11	nopreview	5	126	0	0	0	0
102	120	is	is	is	11	nopreview	5	127	179	179	179	179
103	121	a	a	a	11	nopreview	5	128	525	525	525	525
104	122	trouper	trouper	trouper,-	11	nopreview	5	129	140	140	299	140
	123	,	,		11	nopreview	5	130				
	124	-	-		11	nopreview	5	131				
105	125	@entity17	Moore	Moore	11	nopreview	5	132	295	295	295	295
106	126	said	said	said.	11	nopreview	5	133	167	0	0	0
	127	.	.		11	nopreview	5	134				
107	128	-	-	-He	11	nopreview	5	135	717	464	884	464
	129	He	He		11	nopreview	5	136				
108	130	was	was	wasn-t	11	nopreview	5	137	173	173	173	173
	131	n-t	n-t		11	nopreview	5	138				
109	132	going	going	going	11	nopreview	5	139	208	208	208	208
110	133	to	to	to	11	nopreview	5	140	138	0	0	0
111	134	let	let	let	11	nopreview	5	141	306	306	444	306
112	135	his	his	his	11	nopreview	5	142	236	236	236	236
113	136	fans	fans	fans	11	nopreview	5	143	0	0	0	0
114	137	down	down	down.-	11	nopreview	5	144	177	177	177	177
	138	.	.		11	nopreview	5	145				
115	139	-	-	No	11	nopreview	5	146	154	154	154	154
116	140	No	No	more	11	nopreview	5	147	0	0	0	0
117	141	more	more	information	11	nopreview	5	148	283	283	283	110
	142	information	information		11	nopreview	5	149				
118	143	on	on	on	11	nopreview	5	150	0	0	0	0
119	144	@entity0	King	King-s	11	nopreview	5	151	0	0	0	0
	145	-s	-s		11	nopreview	5	152				
120	146	condition	condition	condition	11	nopreview	5	153	189	189	189	189
121	147	or	or	or	11	nopreview	5	154	159	159	159	159
122	148	where	where	where	11	nopreview	5	155	153	153	153	153
123	149	he	he	he	11	nopreview	5	156	579	579	579	579
124	150	was	was	was	11	nopreview	5	157	0	0	0	0
125	151	hospitalized	hospitalized	hospitalized	11	nopreview	5	158	0	0	0	0
126	152	was	was	was	11	nopreview	5	159				
127	153	immediately	immediately	immediately	11	nopreview	5	160				
128	154	available	available	available.	11	nopreview	5	161				
	155	.	.		11	nopreview	5	162				
129	156	@entity0	B.B.	B.B.	11	nopreview	5	163				
130	157	is	is	is	11	nopreview	5	164				
131	158	short	short	short	11	nopreview	5	165				
132	159	for	for	for	11	nopreview	5	166				
133	160	@entity24	Blues	Blues	11	nopreview	5	167				
134			Boy	Boy,	11	nopreview	5	168				
	161	,	,		11	nopreview	5	169				
135	162	part	part	part	11	nopreview	5	170				
136	163	of	of	of	11	nopreview	5	171				
137	164	the	the	the	11	nopreview	5	172				
138	165	name	name	name	11	nopreview	5	173				
139	166	he	he	he	11	nopreview	5	174				
140	167	used	used	used	11	nopreview	5	175				
141	168	as	as	as	11	nopreview	5	176				
142	169	a	a	a	11	nopreview	5	177				
143	170	@entity27	Memphis	Memphis	11	nopreview	5	178				
144	171	disc	disc	disc	11	nopreview	5	179				
145	172	jockey	jockey	jockey,	11	nopreview	5	180				
	173	,	,		11	nopreview	5	181				
146	174	the	the	the	11	nopreview	5	182				
147	175	@entity0	Beale	Beale	11	nopreview	5	183				
148			Street	Street	11	nopreview	5	184				
149			Blues	Blues	11	nopreview	5	185				
150			Boy	Boy.	11	nopreview	5	186				
	176	.	.		11	nopreview	5	187				
151	177	He	He	He	11	nopreview	5	188				
152	178	was	was	was	11	nopreview	5	189				
153	179	inducted	inducted	inducted	11	nopreview	5	190				
154	180	into	into	into	11	nopreview	5	191				
155	181	the	the	the	11	nopreview	5	192				
156	182	@entity28	Rock	Rock	11	nopreview	5	193				
157			and	and	11	nopreview	5	194				
158			Roll	Roll	11	nopreview	5	195				
159			Hall	Hall	11	nopreview	5	196				
160			of	of	11	nopreview	5	197				
161			Fame	Fame	11	nopreview	5	198				
162	183	in	in	in	11	nopreview	5	199				
163	184	1987	1987	1987,	11	nopreview	5	200				
	185	,	,		11	nopreview	5	201				
164	186	and	and	and	11	nopreview	5	202				
165	187	has	has	has	11	nopreview	5	203				
166	188	30	30	30	11	nopreview	5	204				
167	189	@entity30	Grammy	Grammy	11	nopreview	5	205				
168	190	nominations	nominations	nominations.	11	nopreview	5	206				
	191	.	.		11	nopreview	5	207				
169	192	@entity0	King	King,	11	nopreview	5	208				
	193	,	,		11	nopreview	5	209				
170	194	89	89	89,	11	nopreview	5	210				
	195	,	,		11	nopreview	5	211				
171	196	has	has	has	11	nopreview	5	212				
172	197	used	used	used	11	nopreview	5	213				
173	198	various	various	various	11	nopreview	5	214				
174	199	models	models	models	11	nopreview	5	215				
175	200	of	of	of	11	nopreview	5	216				
176	201	@entity33	Gibson	Gibson	11	nopreview	5	217				
177	202	guitars	guitars	guitars	11	nopreview	5	218				
178	203	over	over	over	11	nopreview	5	219				
179	204	the	the	the	11	nopreview	5	220				
180	205	years	years	years,	11	nopreview	5	221				
	206	,	,		11	nopreview	5	222				
181	207	and	and	and	11	nopreview	5	223				
182	208	named	named	named	11	nopreview	5	224				
183	209	each	each	each	11	nopreview	5	225				
184	210	one	one	one	11	nopreview	5	226				
185	211	of	of	of	11	nopreview	5	227				
186	212	them	them	them	11	nopreview	5	228				
187	213	@entity35	Lucille	Lucille.	11	nopreview	5	229				
	214	.	.		11	nopreview	5	230				
188	215	In	In	In	11	nopreview	5	231				
189	216	the	the	the	11	nopreview	5	232				
190	217	1980s	1980s	1980s,	11	nopreview	5	233				
	218	,	,		11	nopreview	5	234				
191	219	@entity33	Gibson	Gibson	11	nopreview	5	235				
192	220	officially	officially	officially	11	nopreview	5	236				
193	221	dropped	dropped	dropped	11	nopreview	5	237				
194	222	the	the	the	11	nopreview	5	238				
195	223	model	model	model	11	nopreview	5	239				
196	224	number	number	number	11	nopreview	5	240				
197	225	on	on	on	11	nopreview	5	241				
198	226	the	the	the	11	nopreview	5	242				
199	227	guitar	guitar	guitar	11	nopreview	5	243				
200	228	he	he	he	11	nopreview	5	244				
201	229	used	used	used	11	nopreview	5	245				
202	230	last	last	last	11	nopreview	5	246				
203	231	and	and	and	11	nopreview	5	247				
204	232	most	most	most.	11	nopreview	5	248				
	233	.	.		11	nopreview	5	249				
205	234	It	It	It	11	nopreview	5	250				
206	235	became	became	became	11	nopreview	5	251				
207	236	a	a	a	11	nopreview	5	252				
208	237	custom	custom	custom-made	11	nopreview	5	253				
	238	-	-		11	nopreview	5	254				
	239	made	made		11	nopreview	5	255				
209	240	signature	signature	signature	11	nopreview	5	256				
210	241	model	model	model	11	nopreview	5	257				
211	242	named	named	named	11	nopreview	5	258				
212	243	@entity35	Lucille	Lucille,	11	nopreview	5	259				
	244	,	,		11	nopreview	5	260				
213	245	manufactured	manufactured	manufactured	11	nopreview	5	261				
214	246	exclusively	exclusively	exclusively	11	nopreview	5	262				
215	247	for	for	for	11	nopreview	5	263				
216	248	the	the	the	11	nopreview	5	264				
217	249	-	-	-King	11	nopreview	5	265				
	250	@entity40	King		11	nopreview	5	266				
218			of	of	11	nopreview	5	267				
219			the	the	11	nopreview	5	268				
220			Blues	Blues.-	11	nopreview	5	269				
	251	.	.		11	nopreview	5	270				
221	252	-	-	Some	11	nopreview	5	271				
	253	Some	Some		11	nopreview	5	272				
222	254	of	of	of	11	nopreview	5	273				
223	255	his	his	his	11	nopreview	5	274				
224	256	hits	hits	hits	11	nopreview	5	275				
225	257	include	include	include	11	nopreview	5	276				
226	258	-	-	-The	11	nopreview	5	277				
	259	The	The		11	nopreview	5	278				
227	260	Thrill	Thrill	Thrill	11	nopreview	5	279				
228	261	Is	Is	Is	11	nopreview	5	280				
229	262	Gone	Gone	Gone,-	11	nopreview	5	281				
	263	,	,		11	nopreview	5	282				
	264	-	-		11	nopreview	5	283				
230	265	which	which	which	11	nopreview	5	284				
231	266	won	won	won	11	nopreview	5	285				
232	267	him	him	him	11	nopreview	5	286				
233	268	his	his	his	11	nopreview	5	287				
234	269	first	first	first	11	nopreview	5	288				
235	270	Grammy	Grammy	Grammy	11	nopreview	5	289				
236	271	in	in	in	11	nopreview	5	290				
237	272	1970	1970	1970,	11	nopreview	5	291				
	273	,	,		11	nopreview	5	292				
238	274	-	-	-There	11	nopreview	5	293				
	275	@entity44	There		11	nopreview	5	294				
239			Must	Must	11	nopreview	5	295				
240			be	be	11	nopreview	5	296				
241			a	a	11	nopreview	5	297				
242			Better	Better	11	nopreview	5	298				
243			World	World	11	nopreview	5	299				
244			Somewhere	Somewhere-	11	nopreview	5	300				
	276	-	-		11	nopreview	5	301				
245	277	and	and	and	11	nopreview	5	302				
246	278	-	-	-When	11	nopreview	5	303				
	279	@entity45	When		11	nopreview	5	304				
247			Love	Love	11	nopreview	5	305				
248			Comes	Comes	11	nopreview	5	306				
249			to	to	11	nopreview	5	307				
250			Town	Town,-	11	nopreview	5	308				
	280	,	,		11	nopreview	5	309				
	281	-	-		11	nopreview	5	310				
251	282	a	a	a	11	nopreview	5	311				
252	283	collaboration	collaboration	collaboration	11	nopreview	5	312				
253	284	with	with	with	11	nopreview	5	313				
254	285	@entity47	U2	U2.	11	nopreview	5	314				
	286	.	.		11	nopreview	5	315				
255	287	Last	Last	Last	11	nopreview	5	316				
256	288	year	year	year,	11	nopreview	5	317				
	289	,	,		11	nopreview	5	318				
257	290	the	the	the	11	nopreview	5	319				
258	291	bluesman	bluesman	bluesman	11	nopreview	5	320				
259	292	suffered	suffered	suffered	11	nopreview	5	321				
260	293	from	from	from	11	nopreview	5	322				
261	294	dehydration	dehydration	dehydration	11	nopreview	5	323				
262	295	and	and	and	11	nopreview	5	324				
263	296	exhaustion	exhaustion	exhaustion	11	nopreview	5	325				
264	297	after	after	after	11	nopreview	5	326				
265	298	a	a	a	11	nopreview	5	327				
266	299	show	show	show	11	nopreview	5	328				
267	300	in	in	in	11	nopreview	5	329				
268	301	@entity52	Chicago	Chicago,	11	nopreview	5	330				
	302	,	,		11	nopreview	5	331				
269	303	forcing	forcing	forcing	11	nopreview	5	332				
270	304	him	him	him	11	nopreview	5	333				
271	305	to	to	to	11	nopreview	5	334				
272	306	cancel	cancel	cancel	11	nopreview	5	335				
273	307	the	the	the	11	nopreview	5	336				
274	308	remainder	remainder	remainder	11	nopreview	5	337				
275	309	of	of	of	11	nopreview	5	338				
276	310	his	his	his	11	nopreview	5	339				
277	311	tour	tour	tour.	11	nopreview	5	340				
	312	.	.		11	nopreview	5	341				
